<?xml version="1.0" encoding="UTF-8" standalone="no"?>
<!-- Generator: Adobe Illustrator 14.0.0, SVG Export Plug-In . SVG Version: 6.00 Build 43363)  -->

<svg
   xmlns:dc="http://purl.org/dc/elements/1.1/"
   xmlns:cc="http://creativecommons.org/ns#"
   xmlns:rdf="http://www.w3.org/1999/02/22-rdf-syntax-ns#"
   xmlns:svg="http://www.w3.org/2000/svg"
   xmlns="http://www.w3.org/2000/svg"
   xmlns:sodipodi="http://sodipodi.sourceforge.net/DTD/sodipodi-0.dtd"
   xmlns:inkscape="http://www.inkscape.org/namespaces/inkscape"
   id="Layer_1"
   enable-background="new 0 0 22 22"
   xml:space="preserve"
   height="22px"
   viewBox="0 0 22 22"
   width="22px"
   version="1.1"
   y="0px"
   x="0px"
   inkscape:version="0.48+devel r11772"
   sodipodi:docname="system-devices-panel-alert.svg"><defs
   id="defs12" /><sodipodi:namedview
   pagecolor="#ffffff"
   bordercolor="#666666"
   borderopacity="1"
   objecttolerance="10"
   gridtolerance="10"
   guidetolerance="10"
   inkscape:pageopacity="0"
   inkscape:pageshadow="2"
   inkscape:window-width="1366"
   inkscape:window-height="712"
   id="namedview10"
   showgrid="false"
   inkscape:zoom="4"
   inkscape:cx="43.556252"
   inkscape:cy="29.718792"
   inkscape:window-x="0"
   inkscape:window-y="0"
   inkscape:window-maximized="1"
   inkscape:current-layer="Layer_1" /><metadata
   id="metadata13"><rdf:RDF><cc:Work
       rdf:about=""><dc:format>image/svg+xml</dc:format><dc:type
         rdf:resource="http://purl.org/dc/dcmitype/StillImage" /><dc:title></dc:title></cc:Work></rdf:RDF></metadata>


<path
   style="fill:#ff0000;fill-opacity:1;stroke:none"
   d="m 17.971228,0.5468748 c 0,0 -9.4879764,8.2977355 -6.110388,10.2567202 2.040084,0.178633 1.072639,7.207751 -1.309369,10.64953 0,0 6.374266,-6.995562 3.899013,-12.1480297 C 12.212472,6.3106416 17.971228,0.5468748 17.971228,0.5468748 Z M 9.765857,3.762102 c -5.6316388,1.4341312 -5.7030287,6.76507 -5.7030287,6.76507 -0.201063,1.823077 0.5125199,3.467297 1.4984999,4.830115 0.4610981,0.13132 1.0986551,0.372197 1.964048,0.771075 C 6.0506682,10.045257 5.6507863,5.6623286 9.765857,3.762102 Z M 5.5613282,15.357287 c -3.7342459,-1.063531 4.5245918,5.732128 4.5245918,5.732128 0.550809,-0.443518 0.780956,-1.358637 0.80017,-2.516902 -0.247051,0.289307 -0.55985,0.546426 -0.9602044,0.727429 C 9.9258856,19.299942 7.3084852,17.772197 5.5613282,15.357287 Z M 10.88609,18.572513 C 13.416602,15.609163 8.514681,7.6174645 8.514681,7.6174645 8.514681,7.6174645 10.952905,14.544797 10.88609,18.572513 Z"
   id="path3009"
   inkscape:connector-curvature="0" /></svg>