<?xml version="1.0" encoding="UTF-8" standalone="no"?>
<!-- Created with Inkscape (http://www.inkscape.org/) -->

<svg
   xmlns:dc="http://purl.org/dc/elements/1.1/"
   xmlns:cc="http://creativecommons.org/ns#"
   xmlns:rdf="http://www.w3.org/1999/02/22-rdf-syntax-ns#"
   xmlns:svg="http://www.w3.org/2000/svg"
   xmlns="http://www.w3.org/2000/svg"
   xmlns:xlink="http://www.w3.org/1999/xlink"
   xmlns:sodipodi="http://sodipodi.sourceforge.net/DTD/sodipodi-0.dtd"
   xmlns:inkscape="http://www.inkscape.org/namespaces/inkscape"
   width="48"
   height="48"
   id="svg6654"
   version="1.1"
   inkscape:version="0.48+devel r11731"
   sodipodi:docname="application-x-theme.svg">
  <defs
     id="defs6656">
    <linearGradient
       id="linearGradient1085">
      <stop
         id="stop1087"
         offset="0"
         style="stop-color:#ff2a7f;stop-opacity:1" />
      <stop
         id="stop1089"
         offset="1"
         style="stop-color:#d40055;stop-opacity:1" />
    </linearGradient>
    <linearGradient
       id="linearGradient998">
      <stop
         id="stop1000"
         offset="0"
         style="stop-color:#8dd35f;stop-opacity:1" />
      <stop
         id="stop1002"
         offset="1"
         style="stop-color:#5aa02c;stop-opacity:1" />
    </linearGradient>
    <radialGradient
       r="20.267857"
       fy="26.303572"
       fx="22.767857"
       cy="26.303572"
       cx="22.767857"
       gradientTransform="matrix(1.98696,0,0,1.3025427,-22.470963,-7.9579534)"
       gradientUnits="userSpaceOnUse"
       id="radialGradient3813"
       xlink:href="#linearGradient3763-7"
       inkscape:collect="always" />
    <linearGradient
       id="linearGradient3763-7">
      <stop
         style="stop-color:#ffffff;stop-opacity:1;"
         offset="0"
         id="stop3765-7" />
      <stop
         style="stop-color:#c1c1c1;stop-opacity:1;"
         offset="1"
         id="stop3767-6" />
    </linearGradient>
    <linearGradient
       y2="18.919888"
       x2="15.601078"
       y1="31.294256"
       x1="14.889573"
       gradientTransform="matrix(-0.28915731,-0.95728159,0.95728159,-0.28915731,10.288649,1059.9179)"
       gradientUnits="userSpaceOnUse"
       id="linearGradient3815"
       xlink:href="#linearGradient3883-1"
       inkscape:collect="always" />
    <linearGradient
       id="linearGradient3883-1">
      <stop
         id="stop3885"
         offset="0"
         style="stop-color:#ff00b7;stop-opacity:0.18085106;" />
      <stop
         id="stop3887"
         offset="1"
         style="stop-color:#999999;stop-opacity:0;" />
    </linearGradient>
    <linearGradient
       y2="18.919888"
       x2="15.601078"
       y1="31.294256"
       x1="14.889573"
       gradientTransform="matrix(-0.66659036,-0.74542424,0.74542424,-0.66659036,25.29864,1063.1446)"
       gradientUnits="userSpaceOnUse"
       id="linearGradient3817-7"
       xlink:href="#linearGradient3789"
       inkscape:collect="always" />
    <linearGradient
       id="linearGradient3789">
      <stop
         id="stop3791"
         offset="0"
         style="stop-color:#ff0013;stop-opacity:0.18085106;" />
      <stop
         id="stop3793"
         offset="1"
         style="stop-color:#ffffff;stop-opacity:0" />
    </linearGradient>
    <linearGradient
       y2="1029.6663"
       x2="19.113844"
       y1="1029.6663"
       x1="8.837532"
       gradientTransform="matrix(-0.66659036,-0.74542424,0.74542424,-0.66659036,-723.37729,1732.6428)"
       gradientUnits="userSpaceOnUse"
       id="linearGradient3819"
       xlink:href="#linearGradient3802-6"
       inkscape:collect="always" />
    <linearGradient
       id="linearGradient3802-6">
      <stop
         style="stop-color:#ffc300;stop-opacity:0.18039216;"
         offset="0"
         id="stop3804" />
      <stop
         style="stop-color:#ffffff;stop-opacity:0"
         offset="1"
         id="stop3806-8" />
    </linearGradient>
    <linearGradient
       y2="1028.451"
       x2="19.059441"
       y1="1028.451"
       x1="8.8624401"
       gradientTransform="matrix(-0.66659036,-0.74542424,0.74542424,-0.66659036,-723.37729,1732.6428)"
       gradientUnits="userSpaceOnUse"
       id="linearGradient3821-42"
       xlink:href="#linearGradient3823"
       inkscape:collect="always" />
    <linearGradient
       id="linearGradient3823">
      <stop
         id="stop3825"
         offset="0"
         style="stop-color:#4d9600;stop-opacity:0.18039216;" />
      <stop
         id="stop3827"
         offset="1"
         style="stop-color:#ffffff;stop-opacity:0" />
    </linearGradient>
    <linearGradient
       y2="1027.5348"
       x2="19.17152"
       y1="1027.5348"
       x1="8.8729076"
       gradientTransform="matrix(-0.66659036,-0.74542424,0.74542424,-0.66659036,-723.37729,1732.6428)"
       gradientUnits="userSpaceOnUse"
       id="linearGradient3824-66"
       xlink:href="#linearGradient3802-6"
       inkscape:collect="always" />
    <linearGradient
       id="linearGradient6693">
      <stop
         style="stop-color:#ffc300;stop-opacity:0.18039216;"
         offset="0"
         id="stop6695" />
      <stop
         style="stop-color:#ffffff;stop-opacity:0"
         offset="1"
         id="stop6697" />
    </linearGradient>
    <linearGradient
       y2="1027.0327"
       x2="19.235598"
       y1="1027.0327"
       x1="8.8799152"
       gradientTransform="matrix(-0.66659036,-0.74542424,0.74542424,-0.66659036,-723.37729,1732.6428)"
       gradientUnits="userSpaceOnUse"
       id="linearGradient3826-6"
       xlink:href="#linearGradient3877"
       inkscape:collect="always" />
    <linearGradient
       id="linearGradient3877">
      <stop
         id="stop3879"
         offset="0"
         style="stop-color:#00dfff;stop-opacity:0.18039216;" />
      <stop
         id="stop3881"
         offset="1"
         style="stop-color:#ffffff;stop-opacity:0" />
    </linearGradient>
    <linearGradient
       y2="1026.2065"
       x2="19.3482"
       y1="1026.2065"
       x1="8.8905392"
       gradientTransform="matrix(-0.66659036,-0.74542424,0.74542424,-0.66659036,-723.09003,1732.9301)"
       gradientUnits="userSpaceOnUse"
       id="linearGradient3828-9"
       xlink:href="#linearGradient3877"
       inkscape:collect="always" />
    <linearGradient
       id="linearGradient6704">
      <stop
         id="stop6706"
         offset="0"
         style="stop-color:#00dfff;stop-opacity:0.18039216;" />
      <stop
         id="stop6708"
         offset="1"
         style="stop-color:#ffffff;stop-opacity:0" />
    </linearGradient>
    <linearGradient
       y2="1026.2065"
       x2="19.3482"
       y1="1026.2065"
       x1="8.8905392"
       gradientTransform="matrix(-0.54749825,0.83680683,-0.83680683,-0.54749825,900.00556,1569.8524)"
       gradientUnits="userSpaceOnUse"
       id="linearGradient3830"
       xlink:href="#linearGradient3981"
       inkscape:collect="always" />
    <linearGradient
       id="linearGradient3981">
      <stop
         style="stop-color:#9a9a9a;stop-opacity:0.18039216;"
         offset="0"
         id="stop3983" />
      <stop
         style="stop-color:#ffffff;stop-opacity:0"
         offset="1"
         id="stop3985" />
    </linearGradient>
    <linearGradient
       y2="18.919888"
       x2="15.601078"
       y1="31.294256"
       x1="14.889573"
       gradientTransform="matrix(0.28915731,0.95728159,-0.95728159,0.28915731,41.368212,996.47239)"
       gradientUnits="userSpaceOnUse"
       id="linearGradient3832-6"
       xlink:href="#linearGradient3883-1"
       inkscape:collect="always" />
    <linearGradient
       id="linearGradient6715">
      <stop
         id="stop6717"
         offset="0"
         style="stop-color:#ff00b7;stop-opacity:0.18085106;" />
      <stop
         id="stop6719"
         offset="1"
         style="stop-color:#999999;stop-opacity:0;" />
    </linearGradient>
    <linearGradient
       y2="18.919888"
       x2="15.601078"
       y1="31.294256"
       x1="14.889573"
       gradientTransform="matrix(0.66659036,0.74542424,-0.74542424,0.66659036,26.29193,993.04675)"
       gradientUnits="userSpaceOnUse"
       id="linearGradient3834-1"
       xlink:href="#linearGradient3789"
       inkscape:collect="always" />
    <linearGradient
       id="linearGradient6722">
      <stop
         id="stop6724"
         offset="0"
         style="stop-color:#ff0013;stop-opacity:0.18085106;" />
      <stop
         id="stop6726"
         offset="1"
         style="stop-color:#ffffff;stop-opacity:0" />
    </linearGradient>
    <linearGradient
       y2="1029.6663"
       x2="19.113844"
       y1="1029.6663"
       x1="8.837532"
       gradientTransform="matrix(0.66659036,0.74542424,-0.74542424,0.66659036,774.96786,323.54859)"
       gradientUnits="userSpaceOnUse"
       id="linearGradient3836-9"
       xlink:href="#linearGradient3802-6"
       inkscape:collect="always" />
    <linearGradient
       id="linearGradient6729">
      <stop
         style="stop-color:#ffc300;stop-opacity:0.18039216;"
         offset="0"
         id="stop6731" />
      <stop
         style="stop-color:#ffffff;stop-opacity:0"
         offset="1"
         id="stop6733" />
    </linearGradient>
    <linearGradient
       y2="1028.451"
       x2="19.059441"
       y1="1028.451"
       x1="8.8624401"
       gradientTransform="matrix(0.66659036,0.74542424,-0.74542424,0.66659036,774.96786,323.54859)"
       gradientUnits="userSpaceOnUse"
       id="linearGradient3838-1"
       xlink:href="#linearGradient3823"
       inkscape:collect="always" />
    <linearGradient
       id="linearGradient6736">
      <stop
         id="stop6738"
         offset="0"
         style="stop-color:#4d9600;stop-opacity:0.18039216;" />
      <stop
         id="stop6740"
         offset="1"
         style="stop-color:#ffffff;stop-opacity:0" />
    </linearGradient>
    <linearGradient
       y2="1027.5348"
       x2="19.17152"
       y1="1027.5348"
       x1="8.8729076"
       gradientTransform="matrix(0.66659036,0.74542424,-0.74542424,0.66659036,774.96786,323.54859)"
       gradientUnits="userSpaceOnUse"
       id="linearGradient3840-4"
       xlink:href="#linearGradient3802-6"
       inkscape:collect="always" />
    <linearGradient
       id="linearGradient6743">
      <stop
         style="stop-color:#ffc300;stop-opacity:0.18039216;"
         offset="0"
         id="stop6745" />
      <stop
         style="stop-color:#ffffff;stop-opacity:0"
         offset="1"
         id="stop6747" />
    </linearGradient>
    <linearGradient
       y2="1027.0327"
       x2="19.235598"
       y1="1027.0327"
       x1="8.8799152"
       gradientTransform="matrix(0.66659036,0.74542424,-0.74542424,0.66659036,774.96786,323.54859)"
       gradientUnits="userSpaceOnUse"
       id="linearGradient3842-7"
       xlink:href="#linearGradient3877"
       inkscape:collect="always" />
    <linearGradient
       id="linearGradient6750">
      <stop
         id="stop6752"
         offset="0"
         style="stop-color:#00dfff;stop-opacity:0.18039216;" />
      <stop
         id="stop6754"
         offset="1"
         style="stop-color:#ffffff;stop-opacity:0" />
    </linearGradient>
    <linearGradient
       y2="1026.2065"
       x2="19.3482"
       y1="1026.2065"
       x1="8.8905392"
       gradientTransform="matrix(0.66659036,0.74542424,-0.74542424,0.66659036,774.96786,323.54859)"
       gradientUnits="userSpaceOnUse"
       id="linearGradient3844-0"
       xlink:href="#linearGradient3877"
       inkscape:collect="always" />
    <linearGradient
       id="linearGradient6757">
      <stop
         id="stop6759"
         offset="0"
         style="stop-color:#00dfff;stop-opacity:0.18039216;" />
      <stop
         id="stop6761"
         offset="1"
         style="stop-color:#ffffff;stop-opacity:0" />
    </linearGradient>
    <linearGradient
       y2="1026.2065"
       x2="19.3482"
       y1="1026.2065"
       x1="8.8905392"
       gradientTransform="matrix(0.48753066,-0.87310587,0.87310587,0.48753066,-884.25024,549.87747)"
       gradientUnits="userSpaceOnUse"
       id="linearGradient3846-73"
       xlink:href="#linearGradient3993"
       inkscape:collect="always" />
    <linearGradient
       id="linearGradient3993">
      <stop
         id="stop3995"
         offset="0"
         style="stop-color:#000000;stop-opacity:0.43617022;" />
      <stop
         id="stop3997"
         offset="1"
         style="stop-color:#ffffff;stop-opacity:0" />
    </linearGradient>
    <linearGradient
       y2="1026.2065"
       x2="19.3482"
       y1="1026.2065"
       x1="8.8905392"
       gradientTransform="matrix(0.57986909,-0.81470967,0.81470967,0.57986909,-826.68967,453.47007)"
       gradientUnits="userSpaceOnUse"
       id="linearGradient3848-80"
       xlink:href="#linearGradient3993"
       inkscape:collect="always" />
    <linearGradient
       id="linearGradient6768">
      <stop
         id="stop6770"
         offset="0"
         style="stop-color:#000000;stop-opacity:0.43617022;" />
      <stop
         id="stop6772"
         offset="1"
         style="stop-color:#ffffff;stop-opacity:0" />
    </linearGradient>
    <linearGradient
       y2="1026.2065"
       x2="19.3482"
       y1="1026.2065"
       x1="8.8905392"
       gradientTransform="matrix(0.71504921,-0.69907413,0.69907413,0.71504921,-711.31797,311.40924)"
       gradientUnits="userSpaceOnUse"
       id="linearGradient3850-1"
       xlink:href="#linearGradient4009"
       inkscape:collect="always" />
    <linearGradient
       id="linearGradient4009">
      <stop
         id="stop4011"
         offset="0"
         style="stop-color:#9a9a9a;stop-opacity:0.64361703;" />
      <stop
         id="stop4013"
         offset="1"
         style="stop-color:#ffffff;stop-opacity:0" />
    </linearGradient>
    <radialGradient
       inkscape:collect="always"
       xlink:href="#linearGradient3763-7"
       id="radialGradient3121"
       gradientUnits="userSpaceOnUse"
       gradientTransform="matrix(1.98696,0,0,1.3025427,-22.470963,-7.9579534)"
       cx="22.767857"
       cy="26.303572"
       fx="22.767857"
       fy="26.303572"
       r="20.267857" />
    <linearGradient
       inkscape:collect="always"
       xlink:href="#linearGradient3883-1"
       id="linearGradient3123"
       gradientUnits="userSpaceOnUse"
       gradientTransform="matrix(-0.28915731,-0.95728159,0.95728159,-0.28915731,10.288649,1059.9179)"
       x1="14.889573"
       y1="31.294256"
       x2="15.601078"
       y2="18.919888" />
    <linearGradient
       inkscape:collect="always"
       xlink:href="#linearGradient3789"
       id="linearGradient3125"
       gradientUnits="userSpaceOnUse"
       gradientTransform="matrix(-0.66659036,-0.74542424,0.74542424,-0.66659036,25.29864,1063.1446)"
       x1="14.889573"
       y1="31.294256"
       x2="15.601078"
       y2="18.919888" />
    <linearGradient
       inkscape:collect="always"
       xlink:href="#linearGradient3802-6"
       id="linearGradient3127"
       gradientUnits="userSpaceOnUse"
       gradientTransform="matrix(-0.66659036,-0.74542424,0.74542424,-0.66659036,-723.37729,1732.6428)"
       x1="8.837532"
       y1="1029.6663"
       x2="19.113844"
       y2="1029.6663" />
    <linearGradient
       inkscape:collect="always"
       xlink:href="#linearGradient3823"
       id="linearGradient3129"
       gradientUnits="userSpaceOnUse"
       gradientTransform="matrix(-0.66659036,-0.74542424,0.74542424,-0.66659036,-723.37729,1732.6428)"
       x1="8.8624401"
       y1="1028.451"
       x2="19.059441"
       y2="1028.451" />
    <linearGradient
       inkscape:collect="always"
       xlink:href="#linearGradient3802-6"
       id="linearGradient3131"
       gradientUnits="userSpaceOnUse"
       gradientTransform="matrix(-0.66659036,-0.74542424,0.74542424,-0.66659036,-723.37729,1732.6428)"
       x1="8.8729076"
       y1="1027.5348"
       x2="19.17152"
       y2="1027.5348" />
    <linearGradient
       inkscape:collect="always"
       xlink:href="#linearGradient3877"
       id="linearGradient3133"
       gradientUnits="userSpaceOnUse"
       gradientTransform="matrix(-0.66659036,-0.74542424,0.74542424,-0.66659036,-723.37729,1732.6428)"
       x1="8.8799152"
       y1="1027.0327"
       x2="19.235598"
       y2="1027.0327" />
    <linearGradient
       inkscape:collect="always"
       xlink:href="#linearGradient3877"
       id="linearGradient3135"
       gradientUnits="userSpaceOnUse"
       gradientTransform="matrix(-0.66659036,-0.74542424,0.74542424,-0.66659036,-723.09003,1732.9301)"
       x1="8.8905392"
       y1="1026.2065"
       x2="19.3482"
       y2="1026.2065" />
    <linearGradient
       inkscape:collect="always"
       xlink:href="#linearGradient3981"
       id="linearGradient3137"
       gradientUnits="userSpaceOnUse"
       gradientTransform="matrix(-0.54749825,0.83680683,-0.83680683,-0.54749825,900.00556,1569.8524)"
       x1="8.8905392"
       y1="1026.2065"
       x2="19.3482"
       y2="1026.2065" />
    <linearGradient
       inkscape:collect="always"
       xlink:href="#linearGradient3883-1"
       id="linearGradient3139"
       gradientUnits="userSpaceOnUse"
       gradientTransform="matrix(0.28915731,0.95728159,-0.95728159,0.28915731,41.368212,996.47239)"
       x1="14.889573"
       y1="31.294256"
       x2="15.601078"
       y2="18.919888" />
    <linearGradient
       inkscape:collect="always"
       xlink:href="#linearGradient3789"
       id="linearGradient3141"
       gradientUnits="userSpaceOnUse"
       gradientTransform="matrix(0.66659036,0.74542424,-0.74542424,0.66659036,26.29193,993.04675)"
       x1="14.889573"
       y1="31.294256"
       x2="15.601078"
       y2="18.919888" />
    <linearGradient
       inkscape:collect="always"
       xlink:href="#linearGradient3802-6"
       id="linearGradient3143"
       gradientUnits="userSpaceOnUse"
       gradientTransform="matrix(0.66659036,0.74542424,-0.74542424,0.66659036,774.96786,323.54859)"
       x1="8.837532"
       y1="1029.6663"
       x2="19.113844"
       y2="1029.6663" />
    <linearGradient
       inkscape:collect="always"
       xlink:href="#linearGradient3823"
       id="linearGradient3145"
       gradientUnits="userSpaceOnUse"
       gradientTransform="matrix(0.66659036,0.74542424,-0.74542424,0.66659036,774.96786,323.54859)"
       x1="8.8624401"
       y1="1028.451"
       x2="19.059441"
       y2="1028.451" />
    <linearGradient
       inkscape:collect="always"
       xlink:href="#linearGradient3802-6"
       id="linearGradient3147"
       gradientUnits="userSpaceOnUse"
       gradientTransform="matrix(0.66659036,0.74542424,-0.74542424,0.66659036,774.96786,323.54859)"
       x1="8.8729076"
       y1="1027.5348"
       x2="19.17152"
       y2="1027.5348" />
    <linearGradient
       inkscape:collect="always"
       xlink:href="#linearGradient3877"
       id="linearGradient3149"
       gradientUnits="userSpaceOnUse"
       gradientTransform="matrix(0.66659036,0.74542424,-0.74542424,0.66659036,774.96786,323.54859)"
       x1="8.8799152"
       y1="1027.0327"
       x2="19.235598"
       y2="1027.0327" />
    <linearGradient
       inkscape:collect="always"
       xlink:href="#linearGradient3877"
       id="linearGradient3151"
       gradientUnits="userSpaceOnUse"
       gradientTransform="matrix(0.66659036,0.74542424,-0.74542424,0.66659036,774.96786,323.54859)"
       x1="8.8905392"
       y1="1026.2065"
       x2="19.3482"
       y2="1026.2065" />
    <linearGradient
       inkscape:collect="always"
       xlink:href="#linearGradient3993"
       id="linearGradient3153"
       gradientUnits="userSpaceOnUse"
       gradientTransform="matrix(0.48753066,-0.87310587,0.87310587,0.48753066,-884.25024,549.87747)"
       x1="8.8905392"
       y1="1026.2065"
       x2="19.3482"
       y2="1026.2065" />
    <linearGradient
       inkscape:collect="always"
       xlink:href="#linearGradient3993"
       id="linearGradient3155"
       gradientUnits="userSpaceOnUse"
       gradientTransform="matrix(0.57986909,-0.81470967,0.81470967,0.57986909,-826.68967,453.47007)"
       x1="8.8905392"
       y1="1026.2065"
       x2="19.3482"
       y2="1026.2065" />
    <linearGradient
       inkscape:collect="always"
       xlink:href="#linearGradient4009"
       id="linearGradient3157"
       gradientUnits="userSpaceOnUse"
       gradientTransform="matrix(0.71504921,-0.69907413,0.69907413,0.71504921,-711.31797,311.40924)"
       x1="8.8905392"
       y1="1026.2065"
       x2="19.3482"
       y2="1026.2065" />
    <radialGradient
       inkscape:collect="always"
       xlink:href="#linearGradient3763-7"
       id="radialGradient3187"
       gradientUnits="userSpaceOnUse"
       gradientTransform="matrix(1.98696,0,0,1.3025427,-22.470963,-7.9579534)"
       cx="22.767857"
       cy="26.303572"
       fx="22.767857"
       fy="26.303572"
       r="20.267857" />
    <linearGradient
       inkscape:collect="always"
       xlink:href="#linearGradient3883-1"
       id="linearGradient3189"
       gradientUnits="userSpaceOnUse"
       gradientTransform="matrix(-0.28915731,-0.95728159,0.95728159,-0.28915731,10.288649,1059.9179)"
       x1="14.889573"
       y1="31.294256"
       x2="15.601078"
       y2="18.919888" />
    <linearGradient
       inkscape:collect="always"
       xlink:href="#linearGradient3789"
       id="linearGradient3191"
       gradientUnits="userSpaceOnUse"
       gradientTransform="matrix(-0.66659036,-0.74542424,0.74542424,-0.66659036,25.29864,1063.1446)"
       x1="14.889573"
       y1="31.294256"
       x2="15.601078"
       y2="18.919888" />
    <linearGradient
       inkscape:collect="always"
       xlink:href="#linearGradient3802-6"
       id="linearGradient3193"
       gradientUnits="userSpaceOnUse"
       gradientTransform="matrix(-0.66659036,-0.74542424,0.74542424,-0.66659036,-723.37729,1732.6428)"
       x1="8.837532"
       y1="1029.6663"
       x2="19.113844"
       y2="1029.6663" />
    <linearGradient
       inkscape:collect="always"
       xlink:href="#linearGradient3823"
       id="linearGradient3195"
       gradientUnits="userSpaceOnUse"
       gradientTransform="matrix(-0.66659036,-0.74542424,0.74542424,-0.66659036,-723.37729,1732.6428)"
       x1="8.8624401"
       y1="1028.451"
       x2="19.059441"
       y2="1028.451" />
    <linearGradient
       inkscape:collect="always"
       xlink:href="#linearGradient3802-6"
       id="linearGradient3197"
       gradientUnits="userSpaceOnUse"
       gradientTransform="matrix(-0.66659036,-0.74542424,0.74542424,-0.66659036,-723.37729,1732.6428)"
       x1="8.8729076"
       y1="1027.5348"
       x2="19.17152"
       y2="1027.5348" />
    <linearGradient
       inkscape:collect="always"
       xlink:href="#linearGradient3877"
       id="linearGradient3199"
       gradientUnits="userSpaceOnUse"
       gradientTransform="matrix(-0.66659036,-0.74542424,0.74542424,-0.66659036,-723.37729,1732.6428)"
       x1="8.8799152"
       y1="1027.0327"
       x2="19.235598"
       y2="1027.0327" />
    <linearGradient
       inkscape:collect="always"
       xlink:href="#linearGradient3877"
       id="linearGradient3201"
       gradientUnits="userSpaceOnUse"
       gradientTransform="matrix(-0.66659036,-0.74542424,0.74542424,-0.66659036,-723.09003,1732.9301)"
       x1="8.8905392"
       y1="1026.2065"
       x2="19.3482"
       y2="1026.2065" />
    <linearGradient
       inkscape:collect="always"
       xlink:href="#linearGradient3981"
       id="linearGradient3203"
       gradientUnits="userSpaceOnUse"
       gradientTransform="matrix(-0.54749825,0.83680683,-0.83680683,-0.54749825,900.00556,1569.8524)"
       x1="8.8905392"
       y1="1026.2065"
       x2="19.3482"
       y2="1026.2065" />
    <linearGradient
       inkscape:collect="always"
       xlink:href="#linearGradient3883-1"
       id="linearGradient3205"
       gradientUnits="userSpaceOnUse"
       gradientTransform="matrix(0.28915731,0.95728159,-0.95728159,0.28915731,41.368212,996.47239)"
       x1="14.889573"
       y1="31.294256"
       x2="15.601078"
       y2="18.919888" />
    <linearGradient
       inkscape:collect="always"
       xlink:href="#linearGradient3789"
       id="linearGradient3207"
       gradientUnits="userSpaceOnUse"
       gradientTransform="matrix(0.66659036,0.74542424,-0.74542424,0.66659036,26.29193,993.04675)"
       x1="14.889573"
       y1="31.294256"
       x2="15.601078"
       y2="18.919888" />
    <linearGradient
       inkscape:collect="always"
       xlink:href="#linearGradient3802-6"
       id="linearGradient3209"
       gradientUnits="userSpaceOnUse"
       gradientTransform="matrix(0.66659036,0.74542424,-0.74542424,0.66659036,774.96786,323.54859)"
       x1="8.837532"
       y1="1029.6663"
       x2="19.113844"
       y2="1029.6663" />
    <linearGradient
       inkscape:collect="always"
       xlink:href="#linearGradient3823"
       id="linearGradient3211"
       gradientUnits="userSpaceOnUse"
       gradientTransform="matrix(0.66659036,0.74542424,-0.74542424,0.66659036,774.96786,323.54859)"
       x1="8.8624401"
       y1="1028.451"
       x2="19.059441"
       y2="1028.451" />
    <linearGradient
       inkscape:collect="always"
       xlink:href="#linearGradient3802-6"
       id="linearGradient3213"
       gradientUnits="userSpaceOnUse"
       gradientTransform="matrix(0.66659036,0.74542424,-0.74542424,0.66659036,774.96786,323.54859)"
       x1="8.8729076"
       y1="1027.5348"
       x2="19.17152"
       y2="1027.5348" />
    <linearGradient
       inkscape:collect="always"
       xlink:href="#linearGradient3877"
       id="linearGradient3215"
       gradientUnits="userSpaceOnUse"
       gradientTransform="matrix(0.66659036,0.74542424,-0.74542424,0.66659036,774.96786,323.54859)"
       x1="8.8799152"
       y1="1027.0327"
       x2="19.235598"
       y2="1027.0327" />
    <linearGradient
       inkscape:collect="always"
       xlink:href="#linearGradient3877"
       id="linearGradient3217"
       gradientUnits="userSpaceOnUse"
       gradientTransform="matrix(0.66659036,0.74542424,-0.74542424,0.66659036,774.96786,323.54859)"
       x1="8.8905392"
       y1="1026.2065"
       x2="19.3482"
       y2="1026.2065" />
    <linearGradient
       inkscape:collect="always"
       xlink:href="#linearGradient3993"
       id="linearGradient3219"
       gradientUnits="userSpaceOnUse"
       gradientTransform="matrix(0.48753066,-0.87310587,0.87310587,0.48753066,-884.25024,549.87747)"
       x1="8.8905392"
       y1="1026.2065"
       x2="19.3482"
       y2="1026.2065" />
    <linearGradient
       inkscape:collect="always"
       xlink:href="#linearGradient3993"
       id="linearGradient3221"
       gradientUnits="userSpaceOnUse"
       gradientTransform="matrix(0.57986909,-0.81470967,0.81470967,0.57986909,-826.68967,453.47007)"
       x1="8.8905392"
       y1="1026.2065"
       x2="19.3482"
       y2="1026.2065" />
    <linearGradient
       inkscape:collect="always"
       xlink:href="#linearGradient4009"
       id="linearGradient3223"
       gradientUnits="userSpaceOnUse"
       gradientTransform="matrix(0.71504921,-0.69907413,0.69907413,0.71504921,-711.31797,311.40924)"
       x1="8.8905392"
       y1="1026.2065"
       x2="19.3482"
       y2="1026.2065" />
    <linearGradient
       inkscape:collect="always"
       xlink:href="#linearGradient3883-1"
       id="linearGradient3251"
       gradientUnits="userSpaceOnUse"
       gradientTransform="matrix(-0.28915731,-0.95728159,0.95728159,-0.28915731,10.288649,1059.9179)"
       x1="14.889573"
       y1="31.294256"
       x2="15.601078"
       y2="18.919888" />
    <linearGradient
       inkscape:collect="always"
       xlink:href="#linearGradient3789"
       id="linearGradient3253"
       gradientUnits="userSpaceOnUse"
       gradientTransform="matrix(-0.66659036,-0.74542424,0.74542424,-0.66659036,25.29864,1063.1446)"
       x1="14.889573"
       y1="31.294256"
       x2="15.601078"
       y2="18.919888" />
    <linearGradient
       inkscape:collect="always"
       xlink:href="#linearGradient3802-6"
       id="linearGradient3255"
       gradientUnits="userSpaceOnUse"
       gradientTransform="matrix(-0.66659036,-0.74542424,0.74542424,-0.66659036,-723.37729,1732.6428)"
       x1="8.837532"
       y1="1029.6663"
       x2="19.113844"
       y2="1029.6663" />
    <linearGradient
       inkscape:collect="always"
       xlink:href="#linearGradient3823"
       id="linearGradient3257"
       gradientUnits="userSpaceOnUse"
       gradientTransform="matrix(-0.66659036,-0.74542424,0.74542424,-0.66659036,-723.37729,1732.6428)"
       x1="8.8624401"
       y1="1028.451"
       x2="19.059441"
       y2="1028.451" />
    <linearGradient
       inkscape:collect="always"
       xlink:href="#linearGradient3802-6"
       id="linearGradient3259"
       gradientUnits="userSpaceOnUse"
       gradientTransform="matrix(-0.66659036,-0.74542424,0.74542424,-0.66659036,-723.37729,1732.6428)"
       x1="8.8729076"
       y1="1027.5348"
       x2="19.17152"
       y2="1027.5348" />
    <linearGradient
       inkscape:collect="always"
       xlink:href="#linearGradient3877"
       id="linearGradient3261"
       gradientUnits="userSpaceOnUse"
       gradientTransform="matrix(-0.66659036,-0.74542424,0.74542424,-0.66659036,-723.37729,1732.6428)"
       x1="8.8799152"
       y1="1027.0327"
       x2="19.235598"
       y2="1027.0327" />
    <linearGradient
       inkscape:collect="always"
       xlink:href="#linearGradient3877"
       id="linearGradient3263"
       gradientUnits="userSpaceOnUse"
       gradientTransform="matrix(-0.66659036,-0.74542424,0.74542424,-0.66659036,-723.09003,1732.9301)"
       x1="8.8905392"
       y1="1026.2065"
       x2="19.3482"
       y2="1026.2065" />
    <linearGradient
       inkscape:collect="always"
       xlink:href="#linearGradient3981"
       id="linearGradient3265"
       gradientUnits="userSpaceOnUse"
       gradientTransform="matrix(-0.54749825,0.83680683,-0.83680683,-0.54749825,900.00556,1569.8524)"
       x1="8.8905392"
       y1="1026.2065"
       x2="19.3482"
       y2="1026.2065" />
    <linearGradient
       inkscape:collect="always"
       xlink:href="#linearGradient3883-1"
       id="linearGradient3267"
       gradientUnits="userSpaceOnUse"
       gradientTransform="matrix(0.28915731,0.95728159,-0.95728159,0.28915731,41.368212,996.47239)"
       x1="14.889573"
       y1="31.294256"
       x2="15.601078"
       y2="18.919888" />
    <linearGradient
       inkscape:collect="always"
       xlink:href="#linearGradient3789"
       id="linearGradient3269"
       gradientUnits="userSpaceOnUse"
       gradientTransform="matrix(0.66659036,0.74542424,-0.74542424,0.66659036,26.29193,993.04675)"
       x1="14.889573"
       y1="31.294256"
       x2="15.601078"
       y2="18.919888" />
    <linearGradient
       inkscape:collect="always"
       xlink:href="#linearGradient3802-6"
       id="linearGradient3271"
       gradientUnits="userSpaceOnUse"
       gradientTransform="matrix(0.66659036,0.74542424,-0.74542424,0.66659036,774.96786,323.54859)"
       x1="8.837532"
       y1="1029.6663"
       x2="19.113844"
       y2="1029.6663" />
    <linearGradient
       inkscape:collect="always"
       xlink:href="#linearGradient3823"
       id="linearGradient3273"
       gradientUnits="userSpaceOnUse"
       gradientTransform="matrix(0.66659036,0.74542424,-0.74542424,0.66659036,774.96786,323.54859)"
       x1="8.8624401"
       y1="1028.451"
       x2="19.059441"
       y2="1028.451" />
    <linearGradient
       inkscape:collect="always"
       xlink:href="#linearGradient3802-6"
       id="linearGradient3275"
       gradientUnits="userSpaceOnUse"
       gradientTransform="matrix(0.66659036,0.74542424,-0.74542424,0.66659036,774.96786,323.54859)"
       x1="8.8729076"
       y1="1027.5348"
       x2="19.17152"
       y2="1027.5348" />
    <linearGradient
       inkscape:collect="always"
       xlink:href="#linearGradient3877"
       id="linearGradient3277"
       gradientUnits="userSpaceOnUse"
       gradientTransform="matrix(0.66659036,0.74542424,-0.74542424,0.66659036,774.96786,323.54859)"
       x1="8.8799152"
       y1="1027.0327"
       x2="19.235598"
       y2="1027.0327" />
    <linearGradient
       inkscape:collect="always"
       xlink:href="#linearGradient3877"
       id="linearGradient3279"
       gradientUnits="userSpaceOnUse"
       gradientTransform="matrix(0.66659036,0.74542424,-0.74542424,0.66659036,774.96786,323.54859)"
       x1="8.8905392"
       y1="1026.2065"
       x2="19.3482"
       y2="1026.2065" />
    <linearGradient
       inkscape:collect="always"
       xlink:href="#linearGradient3993"
       id="linearGradient3281"
       gradientUnits="userSpaceOnUse"
       gradientTransform="matrix(0.48753066,-0.87310587,0.87310587,0.48753066,-884.25024,549.87747)"
       x1="8.8905392"
       y1="1026.2065"
       x2="19.3482"
       y2="1026.2065" />
    <linearGradient
       inkscape:collect="always"
       xlink:href="#linearGradient3993"
       id="linearGradient3283"
       gradientUnits="userSpaceOnUse"
       gradientTransform="matrix(0.57986909,-0.81470967,0.81470967,0.57986909,-826.68967,453.47007)"
       x1="8.8905392"
       y1="1026.2065"
       x2="19.3482"
       y2="1026.2065" />
    <linearGradient
       inkscape:collect="always"
       xlink:href="#linearGradient4009"
       id="linearGradient3285"
       gradientUnits="userSpaceOnUse"
       gradientTransform="matrix(0.71504921,-0.69907413,0.69907413,0.71504921,-711.31797,311.40924)"
       x1="8.8905392"
       y1="1026.2065"
       x2="19.3482"
       y2="1026.2065" />
    <radialGradient
       inkscape:collect="always"
       xlink:href="#linearGradient3763-7"
       id="radialGradient3307"
       gradientUnits="userSpaceOnUse"
       gradientTransform="matrix(1.98696,0,0,1.3025427,-22.470963,-7.9579534)"
       cx="22.767857"
       cy="26.303572"
       fx="22.767857"
       fy="26.303572"
       r="20.267857" />
    <linearGradient
       y2="468.35892"
       x2="314.34872"
       y1="425.61682"
       x1="314.34872"
       gradientTransform="translate(-53.785477,-0.003684)"
       gradientUnits="userSpaceOnUse"
       id="linearGradient1187"
       xlink:href="#linearGradient1069"
       inkscape:collect="always" />
    <linearGradient
       id="linearGradient1069">
      <stop
         style="stop-color:#ffffff;stop-opacity:1"
         offset="0"
         id="stop1071" />
      <stop
         style="stop-color:#e6e6e6;stop-opacity:1"
         offset="1"
         id="stop1073" />
    </linearGradient>
    <linearGradient
       y2="468.35892"
       x2="314.34872"
       y1="425.61682"
       x1="314.34872"
       gradientTransform="translate(-123.48961,387.43992)"
       gradientUnits="userSpaceOnUse"
       id="linearGradient1679"
       xlink:href="#linearGradient1085"
       inkscape:collect="always" />
    <linearGradient
       gradientTransform="translate(0.005943,-0.003684)"
       inkscape:collect="always"
       xlink:href="#linearGradient6707"
       id="linearGradient1110"
       x1="262.01361"
       y1="471.95245"
       x2="262.01361"
       y2="442.7843"
       gradientUnits="userSpaceOnUse" />
    <linearGradient
       id="linearGradient6707">
      <stop
         id="stop6709"
         offset="0"
         style="stop-color:#000000;stop-opacity:1;" />
      <stop
         id="stop6711"
         offset="1"
         style="stop-color:#ffffff;stop-opacity:1;" />
    </linearGradient>
    <linearGradient
       y2="442.7843"
       x2="262.01361"
       y1="471.95245"
       x1="262.01361"
       gradientTransform="translate(-69.686184,387.43266)"
       gradientUnits="userSpaceOnUse"
       id="linearGradient1696"
       xlink:href="#linearGradient6707"
       inkscape:collect="always" />
  </defs>
  <sodipodi:namedview
     id="base"
     pagecolor="#ffffff"
     bordercolor="#666666"
     borderopacity="1.0"
     inkscape:pageopacity="0.0"
     inkscape:pageshadow="2"
     inkscape:zoom="7.919596"
     inkscape:cx="16.02068"
     inkscape:cy="16.721022"
     inkscape:document-units="px"
     inkscape:current-layer="layer1"
     showgrid="false"
     fit-margin-top="0"
     fit-margin-left="0"
     fit-margin-right="0"
     fit-margin-bottom="0"
     inkscape:window-width="1366"
     inkscape:window-height="746"
     inkscape:window-x="0"
     inkscape:window-y="0"
     inkscape:window-maximized="1" />
  <metadata
     id="metadata6659">
    <rdf:RDF>
      <cc:Work
         rdf:about="">
        <dc:format>image/svg+xml</dc:format>
        <dc:type
           rdf:resource="http://purl.org/dc/dcmitype/StillImage" />
        <dc:title></dc:title>
      </cc:Work>
    </rdf:RDF>
  </metadata>
  <g
     inkscape:label="Capa 1"
     inkscape:groupmode="layer"
     id="layer1"
     transform="translate(-167.42857,-811.2193)">
    <path
       style="opacity:0.5;fill:#000000;fill-opacity:1;stroke:none"
       d="m 171.22712,813.13731 40.4029,0 c 0.89692,0 1.619,0.79795 1.619,1.78913 l 0,40.58571 c 0,0.9912 -0.72207,1.78914 -1.619,1.78914 l -40.4029,0 c -0.89692,0 -1.61899,-0.79795 -1.61899,-1.78914 l 0,-40.58571 C 169.60813,813.93526 170.33019,813.13731 171.22712,813.13731 Z"
       id="rect3922"
       inkscape:connector-curvature="0" />
    <path
       inkscape:connector-curvature="0"
       id="path869"
       d="m 171.63133,813.69776 39.59446,0 c 0.87417,0 1.57791,0.77771 1.57791,1.74374 l 0,39.5556 c 0,0.96604 -0.70375,1.74374 -1.57791,1.74374 l -39.59445,0 c -0.87416,0 -1.5779,-0.7777 -1.5779,-1.74374 l 0,-39.5556 C 170.05343,814.47547 170.75718,813.69776 171.63133,813.69776 Z"
       style="fill:url(#linearGradient1679);fill-opacity:1.0;stroke:none" />
    <rect
       style="opacity:0.35648151;fill:none;stroke:none"
       id="rect4543"
       width="48"
       height="48"
       x="167.42857"
       y="811.2193" />
    <path
       inkscape:connector-curvature="0"
       style="fill:url(#linearGradient1696);fill-opacity:1;stroke:none"
       d="m 170.05357,848.24084 0,6.75 c 0,0.96604 0.68835,1.75 1.5625,1.75 l 39.625,0 c 0.87417,0 1.5625,-0.78396 1.5625,-1.75 l 0,-6.75 L 170.05357,848.24084 Z"
       id="path874" />
    <path
       style="fill:#ffffff;fill-opacity:1;fill-rule:nonzero;stroke:none"
       d="m 182.48793,819.01474 0,0.0234 -9.34061,5.38791 4.35266,7.57604 4.98795,-2.87044 0,14.21088 17.85779,0 0,-14.21088 4.98788,2.87044 4.37622,-7.57604 -9.3641,-5.38791 0,-0.0234 -0.0234,0 -3.5292,0 c -0.69282,2.31115 -2.82179,3.97619 -5.3644,3.97619 -2.5426,0 -4.6951,-1.66504 -5.38789,-3.97619 l -3.5057,0 L 182.48793,819.01474 Z"
       id="rect981"
       inkscape:connector-curvature="0" />
    <g
       style="font-size:7.5px;font-style:normal;font-variant:normal;font-weight:bold;font-stretch:normal;line-height:125%;letter-spacing:0px;word-spacing:0px;fill:#ffffff;fill-opacity:1;stroke:none;font-family:Impact;-inkscape-font-specification:Impact Bold"
       id="text998">
      <path
         d="m 185.27257,849.52637 0,1.18652 -0.91553,0 0,4.74243 -1.54175,0 0,-4.74243 -0.91186,0 0,-1.18652 L 185.27257,849.52637 Z"
         style="fill:#ffffff"
         id="path1003" />
      <path
         d="m 189.16905,849.52637 0,5.92895 -1.54175,0 0,-2.49023 -0.46142,0 0,2.49023 -1.54175,0 0,-5.92895 1.54175,0 0,2.12036 0.46142,0 0,-2.12036 L 189.16905,849.52637 Z"
         style="fill:#ffffff"
         id="path1005" />
      <path
         d="m 189.78429,849.52637 2.5708,0 0,1.18652 -1.02906,0 0,1.12427 0.96314,0 0,1.12793 -0.96314,0 0,1.30371 1.1316,0 0,1.18652 -2.67334,0 L 189.78429,849.52637 Z"
         style="fill:#ffffff"
         id="path1007" />
      <path
         d="m 197.66148,849.52637 0,5.92895 -1.34765,0 0,-4.00268 -0.53833,4.00268 -0.95581,0 -0.56763,-3.91113 0,3.91113 -1.34766,0 0,-5.92895 1.99585,0 q 0.0879,0.53467 0.18677,1.25976 l 0.2124,1.50879 0.35157,-2.76855 L 197.66148,849.52637 Z"
         style="fill:#ffffff"
         id="path1009" />
      <path
         d="m 198.28038,849.52637 2.5708,0 0,1.18652 -1.02905,0 0,1.12427 0.96313,0 0,1.12793 -0.96313,0 0,1.30371 1.13159,0 0,1.18652 -2.67334,0 L 198.28038,849.52637 Z"
         style="fill:#ffffff"
         id="path1011" />
    </g>
  </g>
</svg>
