<?xml version="1.0" encoding="UTF-8" standalone="no"?>
<!-- Created with Inkscape (http://www.inkscape.org/) -->

<svg
   xmlns:dc="http://purl.org/dc/elements/1.1/"
   xmlns:cc="http://creativecommons.org/ns#"
   xmlns:rdf="http://www.w3.org/1999/02/22-rdf-syntax-ns#"
   xmlns:svg="http://www.w3.org/2000/svg"
   xmlns="http://www.w3.org/2000/svg"
   xmlns:xlink="http://www.w3.org/1999/xlink"
   xmlns:sodipodi="http://sodipodi.sourceforge.net/DTD/sodipodi-0.dtd"
   xmlns:inkscape="http://www.inkscape.org/namespaces/inkscape"
   width="48"
   height="48"
   id="svg6391"
   version="1.1"
   inkscape:version="0.48+devel r11731"
   sodipodi:docname="application-vnd.scribus.svg">
  <defs
     id="defs6393">
    <linearGradient
       id="linearGradient861">
      <stop
         id="stop863"
         offset="0"
         style="stop-color:#afc6e9;stop-opacity:1" />
      <stop
         id="stop865"
         offset="1"
         style="stop-color:#3771c8;stop-opacity:1" />
    </linearGradient>
    <linearGradient
       id="linearGradient4300">
      <stop
         id="stop4302"
         offset="0"
         style="stop-color:#f5dfe5;stop-opacity:1" />
      <stop
         id="stop4304"
         offset="1"
         style="stop-color:#f3abab;stop-opacity:1;" />
    </linearGradient>
    <linearGradient
       id="linearGradient4444">
      <stop
         style="stop-color:#ffecaa;stop-opacity:1;"
         offset="0"
         id="stop4446" />
      <stop
         style="stop-color:#ffffff;stop-opacity:1;"
         offset="1"
         id="stop4448" />
    </linearGradient>
    <linearGradient
       y2="468.35892"
       x2="314.34872"
       y1="425.61682"
       x1="314.34872"
       gradientTransform="translate(-53.785477,-0.003684)"
       gradientUnits="userSpaceOnUse"
       id="linearGradient1660"
       xlink:href="#linearGradient1069"
       inkscape:collect="always" />
    <linearGradient
       id="linearGradient1069">
      <stop
         style="stop-color:#ffffff;stop-opacity:1"
         offset="0"
         id="stop1071" />
      <stop
         style="stop-color:#e6e6e6;stop-opacity:1"
         offset="1"
         id="stop1073" />
    </linearGradient>
    <linearGradient
       y2="468.35892"
       x2="314.34872"
       y1="425.61682"
       x1="314.34872"
       gradientTransform="translate(-290.91819,-423.77938)"
       gradientUnits="userSpaceOnUse"
       id="linearGradient836-7"
       xlink:href="#linearGradient1069-3"
       inkscape:collect="always" />
    <linearGradient
       id="linearGradient1069-3">
      <stop
         style="stop-color:#ffffff;stop-opacity:1"
         offset="0"
         id="stop1071-6" />
      <stop
         style="stop-color:#e6e6e6;stop-opacity:1"
         offset="1"
         id="stop1073-1" />
    </linearGradient>
    <linearGradient
       inkscape:collect="always"
       xlink:href="#linearGradient918"
       id="linearGradient912"
       x1="462.37933"
       y1="837.0611"
       x2="463.75925"
       y2="835.67212"
       gradientUnits="userSpaceOnUse"
       gradientTransform="translate(57.14285,-297.14288)" />
    <linearGradient
       id="linearGradient918">
      <stop
         id="stop920"
         offset="0"
         style="stop-color:#f6f6f6;stop-opacity:1" />
      <stop
         id="stop922"
         offset="1"
         style="stop-color:#e2e2e2;stop-opacity:1" />
    </linearGradient>
    <linearGradient
       y2="468.35892"
       x2="314.34872"
       y1="425.61682"
       x1="314.34872"
       gradientTransform="translate(190.7961,107.43992)"
       gradientUnits="userSpaceOnUse"
       id="linearGradient887"
       xlink:href="#linearGradient861"
       inkscape:collect="always" />
    <linearGradient
       gradientTransform="translate(244.59953,108.00487)"
       inkscape:collect="always"
       xlink:href="#linearGradient6707"
       id="linearGradient1110"
       x1="262.01361"
       y1="471.95245"
       x2="262.01361"
       y2="442.7843"
       gradientUnits="userSpaceOnUse" />
    <linearGradient
       id="linearGradient6707">
      <stop
         id="stop6709"
         offset="0"
         style="stop-color:#000000;stop-opacity:1;" />
      <stop
         id="stop6711"
         offset="1"
         style="stop-color:#ffffff;stop-opacity:1;" />
    </linearGradient>
    <linearGradient
       y2="442.7843"
       x2="262.01361"
       y1="471.95245"
       x1="262.01361"
       gradientTransform="translate(244.59953,107.44237)"
       gradientUnits="userSpaceOnUse"
       id="linearGradient854"
       xlink:href="#linearGradient6707"
       inkscape:collect="always" />
  </defs>
  <sodipodi:namedview
     id="base"
     pagecolor="#ffffff"
     bordercolor="#666666"
     borderopacity="1.0"
     inkscape:pageopacity="0.0"
     inkscape:pageshadow="2"
     inkscape:zoom="5.6"
     inkscape:cx="8.6269979"
     inkscape:cy="37.394182"
     inkscape:document-units="px"
     inkscape:current-layer="layer1"
     showgrid="false"
     fit-margin-top="0"
     fit-margin-left="0"
     fit-margin-right="0"
     fit-margin-bottom="0"
     inkscape:window-width="1366"
     inkscape:window-height="746"
     inkscape:window-x="0"
     inkscape:window-y="0"
     inkscape:window-maximized="1" />
  <metadata
     id="metadata6396">
    <rdf:RDF>
      <cc:Work
         rdf:about="">
        <dc:format>image/svg+xml</dc:format>
        <dc:type
           rdf:resource="http://purl.org/dc/dcmitype/StillImage" />
        <dc:title></dc:title>
      </cc:Work>
    </rdf:RDF>
  </metadata>
  <g
     inkscape:label="Capa 1"
     inkscape:groupmode="layer"
     id="layer1"
     transform="translate(-481.71429,-531.2193)">
    <path
       style="opacity:0.5;fill:#000000;fill-opacity:1;stroke:none"
       d="m 485.52679,533.12555 c -0.89692,0 -1.625,0.82132 -1.625,1.8125 l 0,40.5625 c 0,0.99119 0.72808,1.8125 1.625,1.8125 l 40.375,0 c 0.89693,0 1.625,-0.8213 1.625,-1.8125 l 0,-32 -10.40625,-10.375 L 485.52679,533.12555 Z"
       id="rect3922-8"
       inkscape:connector-curvature="0" />
    <path
       style="fill:url(#linearGradient887);fill-opacity:1;stroke:none"
       d="m 485.90179,533.68805 c -0.87415,0 -1.5625,0.78397 -1.5625,1.75 l 0,39.5625 c 0,0.96604 0.68834,1.75 1.5625,1.75 l 39.625,0 c 0.87416,0 1.5625,-0.78396 1.5625,-1.75 l 0,-31.125 -10.21875,-10.1875 L 485.90179,533.68805 Z"
       id="path869-9"
       inkscape:connector-curvature="0" />
    <path
       inkscape:connector-curvature="0"
       style="opacity:0.5;fill:#000000;fill-opacity:1;stroke:none"
       d="m 527.19978,544.0176 -10.53539,-10.50317 0,8.69895 c 0,0.99596 0.70967,1.80422 1.61092,1.80422 L 527.19978,544.0176 Z"
       id="path914" />
    <path
       id="path902"
       d="m 527.08929,543.87555 -10.21875,-10.1875 0,8.4375 c 0,0.96603 0.68834,1.75 1.5625,1.75 L 527.08929,543.87555 Z"
       style="fill:url(#linearGradient912);fill-opacity:1;stroke:none"
       inkscape:connector-curvature="0" />
    <rect
       style="opacity:0.35648151;fill:none;stroke:none"
       id="rect4543"
       width="48"
       height="48"
       x="481.71429"
       y="531.2193" />
    <path
       inkscape:connector-curvature="0"
       style="fill:url(#linearGradient854);fill-opacity:1;stroke:none"
       d="m 484.33929,568.25055 0,6.75 c 0,0.96604 0.68835,1.75 1.5625,1.75 l 39.625,0 c 0.87417,0 1.5625,-0.78396 1.5625,-1.75 l 0,-6.75 L 484.33929,568.25055 Z"
       id="path874" />
    <g
       id="g854"
       transform="translate(-1.3996151,0.53571428)"
       style="fill:#ffffff">
      <rect
         transform="matrix(0.70710678,0.70710678,-0.70710678,0.70710678,0,0)"
         style="fill:#ffffff;fill-opacity:1;stroke:none"
         id="rect4290"
         width="6.2736378"
         height="3.9955513"
         x="745.73389"
         y="18.63825" />
      <rect
         transform="matrix(0.70710678,0.70710678,-0.70710678,0.70710678,0,0)"
         y="22.439289"
         x="745.73389"
         height="3.2462072"
         width="6.2736444"
         id="rect4284"
         style="fill:#ffffff;fill-opacity:1;stroke:none" />
      <path
         inkscape:connector-curvature="0"
         id="rect4274"
         d="m 509.25872,545.36513 -11.18025,11.18026 -0.053,0.053 0.053,0 -1.48364,4.13299 1.74857,1.74856 4.10649,-1.51011 0,0.053 0.053,-0.053 11.18025,-11.18025 L 509.25872,545.36513 Z"
         style="fill:#ffffff;fill-opacity:1;stroke:none" />
      <path
         inkscape:transform-center-x="-0.3482877"
         inkscape:transform-center-y="-0.33869566"
         transform="matrix(0.21317553,0.21317553,-0.25284054,0.25284054,502.96019,553.16312)"
         d="M 10.834766,27.870519 6.8942909,34.695622 2.9538157,27.870519 Z"
         inkscape:randomized="0"
         inkscape:rounded="0"
         inkscape:flatsided="true"
         sodipodi:arg2="0.52359878"
         sodipodi:arg1="-0.52359878"
         sodipodi:r2="2.2750342"
         sodipodi:r1="4.5500689"
         sodipodi:cy="30.145554"
         sodipodi:cx="6.8942909"
         sodipodi:sides="3"
         id="path4253"
         style="fill:#ffffff;fill-opacity:1;stroke:none"
         sodipodi:type="star" />
      <rect
         transform="matrix(0.70710678,0.70710678,-0.70710678,0.70710678,0,0)"
         y="18.63825"
         x="744.04785"
         height="11.917238"
         width="1.2958204"
         id="rect851"
         style="fill:#ffffff;fill-opacity:1;stroke:none" />
    </g>
    <g
       transform="translate(485.4698,532.46503)"
       style="font-size:7.5px;font-style:normal;font-variant:normal;font-weight:bold;font-stretch:normal;line-height:125%;letter-spacing:0px;word-spacing:0px;fill:#ffffff;fill-opacity:1;stroke:none;font-family:Impact;-inkscape-font-specification:Impact Bold"
       id="text867">
      <path
         d="m 10.62779,38.865479 -1.4318848,0 0,-0.439454 q 0,-0.307617 -0.054932,-0.391845 -0.054932,-0.08423 -0.1831055,-0.08423 -0.1391602,0 -0.2124023,0.113526 -0.06958,0.113525 -0.06958,0.344238 0,0.296631 0.080566,0.446777 0.076904,0.150147 0.435791,0.362549 1.0290526,0.611572 1.2963866,1.003418 0.267334,0.391846 0.267334,1.263428 0,0.633545 -0.150147,0.933838 -0.146484,0.300293 -0.571289,0.505371 -0.4248041,0.201416 -0.988769,0.201416 -0.6188965,0 -1.0583496,-0.234375 Q 7.5516181,42.655762 7.4161201,42.293213 7.280622,41.930664 7.280622,41.26416 l 0,-0.388183 1.4318848,0 0,0.721435 q 0,0.333252 0.058594,0.428467 0.062256,0.09521 0.2160645,0.09521 0.1538086,0 0.2270508,-0.12085 0.076904,-0.120849 0.076904,-0.358887 0,-0.523681 -0.1428223,-0.684814 Q 9.0018134,40.79541 8.4268622,40.418213 7.8519111,40.037354 7.6651435,39.865234 7.4783759,39.693115 7.3538642,39.38916 7.2330146,39.085205 7.2330146,38.612793 q 0,-0.681152 0.1721191,-0.996094 0.1757813,-0.314941 0.5639649,-0.490722 0.3881836,-0.179444 0.9375,-0.179444 0.6005859,0 1.0217285,0.194092 0.4248049,0.194092 0.5603029,0.490723 0.13916,0.292968 0.13916,0.999756 L 10.62779,38.865479 Z"
         id="path872"
         inkscape:connector-curvature="0" />
      <path
         d="m 14.842878,39.656494 -1.541748,0 0,-1.032715 q 0,-0.450439 -0.05127,-0.560302 -0.04761,-0.113526 -0.216064,-0.113526 -0.19043,0 -0.241699,0.135498 -0.05127,0.135498 -0.05127,0.585938 l 0,2.753906 q 0,0.432129 0.05127,0.563965 0.05127,0.131836 0.230713,0.131836 0.172119,0 0.223388,-0.131836 0.05493,-0.131836 0.05493,-0.618897 l 0,-0.743408 1.541748,0 0,0.230713 q 0,0.919189 -0.131836,1.303711 -0.128174,0.384521 -0.574951,0.673828 -0.443115,0.289307 -1.094971,0.289307 -0.67749,0 -1.116943,-0.245362 -0.439453,-0.245361 -0.582276,-0.67749 -0.142822,-0.435791 -0.142822,-1.307373 l 0,-1.732178 q 0,-0.640869 0.04395,-0.959472 0.04395,-0.322266 0.26001,-0.618897 0.219727,-0.296631 0.604248,-0.465088 0.388184,-0.172119 0.889893,-0.172119 0.681152,0 1.124267,0.263672 0.443116,0.263672 0.582276,0.65918 0.13916,0.391845 0.13916,1.223144 L 14.842878,39.656494 Z"
         id="path875"
         inkscape:connector-curvature="0" />
      <path
         d="m 15.403181,37.071045 1.091308,0 q 1.091309,0 1.47583,0.08423 0.388184,0.08423 0.629883,0.432129 0.245361,0.344239 0.245361,1.102295 0,0.692139 -0.172119,0.930176 -0.172119,0.238037 -0.67749,0.285645 0.457764,0.113525 0.615234,0.303955 0.157471,0.190429 0.194092,0.351562 0.04028,0.157471 0.04028,0.875244 l 0,1.563721 -1.431884,0 0,-1.970215 q 0,-0.476074 -0.07691,-0.589599 -0.07324,-0.113526 -0.391845,-0.113526 l 0,2.67334 -1.541748,0 L 15.403181,37.071045 z m 1.541748,1.014404 0,1.31836 q 0.260009,0 0.362548,-0.06958 0.106202,-0.07324 0.106202,-0.465088 l 0,-0.325928 q 0,-0.281983 -0.102539,-0.369873 Q 17.212263,38.085449 16.944929,38.085449 Z"
         id="path877"
         inkscape:connector-curvature="0" />
      <path
         d="m 20.987897,37.071045 0,5.928955 -1.541748,0 0,-5.928955 L 20.987897,37.071045 Z"
         id="path879"
         inkscape:connector-curvature="0" />
      <path
         d="m 21.614118,37.071045 1.538086,0 q 0.72876,0 1.102295,0.113525 0.377197,0.113526 0.60791,0.461426 0.230713,0.344238 0.230713,1.113281 0,0.52002 -0.164795,0.725098 -0.161133,0.205078 -0.640869,0.314941 0.534668,0.12085 0.725098,0.402832 0.190429,0.278321 0.190429,0.856934 l 0,0.549316 q 0,0.600586 -0.13916,0.889893 -0.135498,0.289307 -0.435791,0.395508 Q 24.327741,43 23.397565,43 L 21.614118,43 21.614118,37.071045 z m 1.541748,1.014404 0,1.31836 q 0.09888,-0.0037 0.153809,-0.0037 0.227051,0 0.289306,-0.109863 0.06226,-0.113525 0.06226,-0.640869 0,-0.27832 -0.05127,-0.388184 Q 23.558698,38.147705 23.47447,38.118408 23.393903,38.089111 23.155866,38.085449 z m 0,2.241211 0,1.658936 q 0.325928,-0.01099 0.413819,-0.102539 0.09155,-0.09155 0.09155,-0.45044 l 0,-0.552978 q 0,-0.38086 -0.08057,-0.461426 Q 23.500104,40.337646 23.155866,40.32666 Z"
         id="path881"
         inkscape:connector-curvature="0" />
      <path
         d="m 29.264265,37.071045 0,3.962402 q 0,0.673828 -0.04395,0.948487 -0.04395,0.270996 -0.260009,0.560302 -0.216065,0.285645 -0.57129,0.435791 -0.351562,0.146485 -0.831298,0.146485 -0.531006,0 -0.9375,-0.175782 -0.406495,-0.175781 -0.607911,-0.457763 -0.201416,-0.281983 -0.238037,-0.593262 -0.03662,-0.314941 -0.03662,-1.318359 l 0,-3.508301 1.541748,0 0,4.445801 q 0,0.388183 0.04028,0.498047 0.04395,0.106201 0.172119,0.106201 0.146484,0 0.186767,-0.117188 0.04395,-0.120849 0.04395,-0.563965 l 0,-4.368896 L 29.264265,37.071045 Z"
         id="path883"
         inkscape:connector-curvature="0" />
      <path
         d="m 33.12779,38.865479 -1.431885,0 0,-0.439454 q 0,-0.307617 -0.05493,-0.391845 -0.05493,-0.08423 -0.183106,-0.08423 -0.13916,0 -0.212402,0.113526 -0.06958,0.113525 -0.06958,0.344238 0,0.296631 0.08057,0.446777 0.0769,0.150147 0.435791,0.362549 1.029053,0.611572 1.296387,1.003418 0.267334,0.391846 0.267334,1.263428 0,0.633545 -0.150147,0.933838 -0.146484,0.300293 -0.571289,0.505371 -0.424804,0.201416 -0.988769,0.201416 -0.618897,0 -1.05835,-0.234375 -0.435791,-0.234375 -0.571289,-0.596924 -0.135498,-0.362549 -0.135498,-1.029053 l 0,-0.388183 1.431885,0 0,0.721435 q 0,0.333252 0.05859,0.428467 0.06225,0.09521 0.216064,0.09521 0.153809,0 0.227051,-0.12085 0.0769,-0.120849 0.0769,-0.358887 0,-0.523681 -0.142822,-0.684814 -0.146485,-0.161133 -0.721436,-0.53833 -0.574951,-0.380859 -0.761719,-0.552979 -0.186767,-0.172119 -0.311279,-0.476074 -0.120849,-0.303955 -0.120849,-0.776367 0,-0.681152 0.172119,-0.996094 0.175781,-0.314941 0.563965,-0.490722 0.388183,-0.179444 0.9375,-0.179444 0.600586,0 1.021728,0.194092 0.424805,0.194092 0.560303,0.490723 0.13916,0.292968 0.13916,0.999756 L 33.12779,38.865479 Z"
         id="path885"
         inkscape:connector-curvature="0" />
    </g>
  </g>
</svg>
