<?xml version="1.0" encoding="UTF-8" standalone="no"?>
<!-- Created with Inkscape (http://www.inkscape.org/) -->

<svg
   xmlns:dc="http://purl.org/dc/elements/1.1/"
   xmlns:cc="http://creativecommons.org/ns#"
   xmlns:rdf="http://www.w3.org/1999/02/22-rdf-syntax-ns#"
   xmlns:svg="http://www.w3.org/2000/svg"
   xmlns="http://www.w3.org/2000/svg"
   xmlns:xlink="http://www.w3.org/1999/xlink"
   xmlns:sodipodi="http://sodipodi.sourceforge.net/DTD/sodipodi-0.dtd"
   xmlns:inkscape="http://www.inkscape.org/namespaces/inkscape"
   width="48"
   height="48"
   id="svg6399"
   version="1.1"
   inkscape:version="0.48+devel r11725"
   sodipodi:docname="javascript.svg">
  <defs
     id="defs6401">
    <linearGradient
       y2="468.35892"
       x2="314.34872"
       y1="425.61682"
       x1="314.34872"
       gradientTransform="translate(-53.785477,-0.003684)"
       gradientUnits="userSpaceOnUse"
       id="linearGradient1187"
       xlink:href="#linearGradient1069"
       inkscape:collect="always" />
    <linearGradient
       id="linearGradient1069">
      <stop
         style="stop-color:#ffffff;stop-opacity:1"
         offset="0"
         id="stop1071" />
      <stop
         style="stop-color:#e6e6e6;stop-opacity:1"
         offset="1"
         id="stop1073" />
    </linearGradient>
    <linearGradient
       y2="468.35892"
       x2="314.34872"
       y1="425.61682"
       x1="314.34872"
       gradientTransform="translate(165.08181,181.72569)"
       gradientUnits="userSpaceOnUse"
       id="linearGradient1660"
       xlink:href="#linearGradient1069"
       inkscape:collect="always" />
    <linearGradient
       gradientTransform="translate(218.88524,181.71843)"
       inkscape:collect="always"
       xlink:href="#linearGradient6707"
       id="linearGradient1110"
       x1="262.01361"
       y1="471.95245"
       x2="262.01361"
       y2="442.7843"
       gradientUnits="userSpaceOnUse" />
    <linearGradient
       id="linearGradient6707">
      <stop
         id="stop6709"
         offset="0"
         style="stop-color:#000000;stop-opacity:1;" />
      <stop
         id="stop6711"
         offset="1"
         style="stop-color:#ffffff;stop-opacity:1;" />
    </linearGradient>
    <linearGradient
       y2="468.35892"
       x2="314.34872"
       y1="425.61682"
       x1="314.34872"
       gradientTransform="translate(-53.785477,-0.003684)"
       gradientUnits="userSpaceOnUse"
       id="linearGradient1758"
       xlink:href="#linearGradient1069-4"
       inkscape:collect="always" />
    <linearGradient
       id="linearGradient1069-4">
      <stop
         style="stop-color:#ffffff;stop-opacity:1"
         offset="0"
         id="stop1071-6" />
      <stop
         style="stop-color:#e6e6e6;stop-opacity:1"
         offset="1"
         id="stop1073-5" />
    </linearGradient>
    <linearGradient
       x1="64"
       y1="60"
       x2="62"
       y2="7"
       id="linearGradient3769"
       xlink:href="#linearGradient3763"
       gradientUnits="userSpaceOnUse"
       gradientTransform="matrix(1.231823,0,0,1.231823,-27.816151,7.1708322)" />
    <linearGradient
       id="linearGradient3763">
      <stop
         id="stop3765"
         style="stop-color:#ff7700;stop-opacity:1"
         offset="0" />
      <stop
         id="stop3767"
         style="stop-color:#ffb15d;stop-opacity:1"
         offset="1" />
    </linearGradient>
  </defs>
  <sodipodi:namedview
     id="base"
     pagecolor="#ffffff"
     bordercolor="#666666"
     borderopacity="1.0"
     inkscape:pageopacity="0.0"
     inkscape:pageshadow="2"
     inkscape:zoom="5.6"
     inkscape:cx="-1.7086214"
     inkscape:cy="49.043862"
     inkscape:document-units="px"
     inkscape:current-layer="text832"
     showgrid="false"
     fit-margin-top="0"
     fit-margin-left="0"
     fit-margin-right="0"
     fit-margin-bottom="0"
     inkscape:window-width="1366"
     inkscape:window-height="746"
     inkscape:window-x="0"
     inkscape:window-y="0"
     inkscape:window-maximized="1"
     showguides="false" />
  <metadata
     id="metadata6404">
    <rdf:RDF>
      <cc:Work
         rdf:about="">
        <dc:format>image/svg+xml</dc:format>
        <dc:type
           rdf:resource="http://purl.org/dc/dcmitype/StillImage" />
        <dc:title></dc:title>
      </cc:Work>
    </rdf:RDF>
  </metadata>
  <g
     inkscape:label="Capa 1"
     inkscape:groupmode="layer"
     id="layer1"
     transform="translate(-456,-605.50507)">
    <path
       style="opacity:0.5;fill:#000000;fill-opacity:1;stroke:none"
       d="m 459.79854,607.42308 40.4029,0 c 0.89693,0 1.619,0.79795 1.619,1.78913 l 0,40.58571 c 0,0.9912 -0.72207,1.78914 -1.619,1.78914 l -40.4029,0 c -0.89692,0 -1.61899,-0.79795 -1.61899,-1.78914 l 0,-40.58571 C 458.17955,608.22103 458.90162,607.42308 459.79854,607.42308 Z"
       id="rect3922"
       inkscape:connector-curvature="0" />
    <path
       inkscape:connector-curvature="0"
       id="path869"
       d="m 460.20276,607.98353 39.59446,0 c 0.87416,0 1.57791,0.77771 1.57791,1.74374 l 0,39.5556 c 0,0.96604 -0.70375,1.74374 -1.57791,1.74374 l -39.59446,0 c -0.87416,0 -1.5779,-0.7777 -1.5779,-1.74374 l 0,-39.5556 C 458.62486,608.76124 459.32861,607.98353 460.20276,607.98353 Z"
       style="fill:url(#linearGradient1660);fill-opacity:1;stroke:none" />
    <path
       inkscape:connector-curvature="0"
       style="fill:url(#linearGradient1110);fill-opacity:1;stroke:none"
       d="m 458.625,642.52661 0,6.75 c 0,0.96604 0.68835,1.75 1.5625,1.75 l 39.625,0 c 0.87416,0 1.5625,-0.78396 1.5625,-1.75 l 0,-6.75 L 458.625,642.52661 Z"
       id="path874" />
    <g
       transform="translate(505.62072,607.81252)"
       style="font-size:7.5px;font-style:normal;font-variant:normal;font-weight:bold;font-stretch:normal;line-height:125%;letter-spacing:0px;word-spacing:0px;fill:#ffffff;fill-opacity:1;stroke:none;font-family:Impact;-inkscape-font-specification:Impact Bold"
       id="text832">
      <path
         d="m -26.556396,35.999615 0,3.962402 q 0,0.889893 -0.01831,1.14624 -0.01831,0.252686 -0.168457,0.457764 -0.146484,0.205078 -0.402832,0.285644 -0.252686,0.07691 -0.765381,0.07691 l -0.772705,0 0,-1.036377 q 0.13916,0.01099 0.201416,0.01099 0.164795,0 0.26001,-0.08057 0.09521,-0.08057 0.109863,-0.197754 0.01465,-0.117188 0.01465,-0.454102 l 0,-4.171142 L -26.556396,35.999615 Z"
         id="path837"
         inkscape:connector-curvature="0" />
      <path
         d="m -22.685547,37.794048 -1.431885,0 0,-0.439453 q 0,-0.307617 -0.05493,-0.391846 -0.05493,-0.08423 -0.183106,-0.08423 -0.13916,0 -0.212402,0.113525 -0.06958,0.113526 -0.06958,0.344239 0,0.29663 0.08057,0.446777 0.07691,0.150146 0.435791,0.362549 1.029053,0.611572 1.296387,1.003418 0.267334,0.391845 0.267334,1.263428 0,0.633544 -0.150147,0.933837 -0.146484,0.300293 -0.571289,0.505371 -0.424804,0.201417 -0.988769,0.201417 -0.618897,0 -1.05835,-0.234375 -0.435791,-0.234375 -0.571289,-0.596924 -0.135498,-0.362549 -0.135498,-1.029053 l 0,-0.388184 1.431885,0 0,0.721436 q 0,0.333252 0.05859,0.428467 0.06226,0.09522 0.216064,0.09522 0.153809,0 0.227051,-0.12085 0.0769,-0.12085 0.0769,-0.358887 0,-0.523681 -0.142822,-0.684814 -0.146484,-0.161133 -0.721436,-0.53833 -0.574951,-0.38086 -0.761718,-0.552979 -0.186768,-0.172119 -0.31128,-0.476074 -0.120849,-0.303955 -0.120849,-0.776367 0,-0.681153 0.172119,-0.996094 0.175781,-0.314941 0.563965,-0.490723 0.388183,-0.179443 0.9375,-0.179443 0.600586,0 1.021728,0.194092 0.424805,0.194092 0.560303,0.490722 0.13916,0.292969 0.13916,0.999756 L -22.685547,37.794048 Z"
         id="path839"
         inkscape:connector-curvature="0" />
      <path
         style="fill:#ff7f2a;fill-opacity:1;fill-rule:evenodd;display:inline"
         id="path3672"
         inkscape:connector-curvature="0"
         d="m -23.089823,4.7774276 c 1.058459,4.1699211 -3.736549,5.4378634 -5.466045,8.0347884 -1.177752,1.76939 0.578094,3.664812 2.971974,5.824476 -0.933545,-2.110271 -4.100695,-3.959546 0,-7.198455 C -20.470388,7.4021329 -23.089823,4.7774276 -23.089823,4.7774276 z m 3.151189,5.1673549 c 5.7e-5,0 -8.639646,2.1562095 -4.510235,6.9146985 1.21904,1.403252 -0.313624,2.658349 -0.313624,2.658349 0,0 3.093075,-1.583867 1.67267,-3.584292 C -24.41692,14.068886 -25.446881,13.139215 -19.938634,9.9447825 z m 1.403848,8.4977595 c -0.264821,0.01358 -0.53773,0.0646 -0.821399,0.164281 -0.265341,0.09392 -0.403233,0.313625 -0.403233,0.313625 0,0 0.16363,-0.07129 0.537643,-0.149345 1.529471,-0.3187 3.723494,2.048298 -1.015548,4.510234 -0.02196,0.05866 -0.08966,0.134412 -0.0896,0.134412 C -14.592113,21.908192 -15.97484,18.311225 -18.534786,18.442542 z m -10.245101,0.238953 c -0.604199,0.01581 -2.030099,0.14565 -3.673899,0.940877 -2.59279,1.25368 6.419164,1.823629 11.081436,0.597381 0.4847,-0.330767 1.14996,-0.612315 1.14996,-0.612315 0,0 -1.90829,0.333378 -3.80831,0.49284 -2.32555,0.195109 -4.8112,0.242235 -6.063426,0.07468 -2.964796,-0.396364 1.627863,-1.493456 1.627863,-1.493456 C -28.466263,18.681495 -28.578489,18.676226 -28.779887,18.681495 z m -0.761663,2.867434 c -4.277029,1.419513 2.385709,3.032865 8.36335,1.284371 -0.63511,-0.223883 -1.04542,-0.62725 -1.04542,-0.62725 -2.922664,0.562474 -4.612098,0.534381 -6.750417,0.313625 C -30.627211,22.348816 -29.54155,21.548929 -29.54155,21.548929 z m 0.597383,2.762891 c -3.883574,1.085113 2.373104,3.32824 7.317929,1.2097 -0.809879,-0.314732 -1.388912,-0.672054 -1.388912,-0.672054 -2.205089,0.416812 -3.240431,0.452537 -5.24203,0.224018 C -29.909121,24.884018 -28.944167,24.31182 -28.944167,24.31182 z m -2.509004,1.836951 c -1.668887,-0.06421 -5.444954,1.595785 -2.210314,2.120706 10.081127,1.634064 18.370534,-0.731862 15.75595,-1.911622 0,0 0.70911,0.590164 -0.79153,1.045418 -2.853494,0.864302 -11.875173,1.120289 -14.381973,0.02988 -0.900505,-0.39223 0.782662,-0.9306 1.314243,-1.04542 0.554259,-0.119904 0.881137,-0.0896 0.881137,-0.0896 C -31.010933,26.209901 -31.214759,26.157944 -31.453171,26.148771 z m 15.143635,1.493456 c 0,0 -0.322394,0.81624 -3.763508,1.463586 -3.882119,0.730876 -8.66019,0.648045 -11.499606,0.179215 0,0 0.58037,0.479683 3.569359,0.672054 C -23.455388,30.247845 -16.474867,29.794402 -16.309536,27.642227 Z" />
    </g>
  </g>
</svg>
