<?xml version="1.0" encoding="UTF-8" standalone="no"?>
<!-- Created with Inkscape (http://www.inkscape.org/) -->

<svg
   xmlns:dc="http://purl.org/dc/elements/1.1/"
   xmlns:cc="http://creativecommons.org/ns#"
   xmlns:rdf="http://www.w3.org/1999/02/22-rdf-syntax-ns#"
   xmlns:svg="http://www.w3.org/2000/svg"
   xmlns="http://www.w3.org/2000/svg"
   xmlns:xlink="http://www.w3.org/1999/xlink"
   xmlns:sodipodi="http://sodipodi.sourceforge.net/DTD/sodipodi-0.dtd"
   xmlns:inkscape="http://www.inkscape.org/namespaces/inkscape"
   width="48"
   height="48"
   id="svg6654"
   version="1.1"
   inkscape:version="0.48+devel r11725"
   sodipodi:docname="text-x-ruby.svg">
  <defs
     id="defs6656">
    <linearGradient
       id="linearGradient971">
      <stop
         id="stop973"
         offset="0"
         style="stop-color:#ff0000;stop-opacity:1" />
      <stop
         id="stop975"
         offset="1"
         style="stop-color:#aa0000;stop-opacity:1" />
    </linearGradient>
    <linearGradient
       id="linearGradient998">
      <stop
         id="stop1000"
         offset="0"
         style="stop-color:#8dd35f;stop-opacity:1" />
      <stop
         id="stop1002"
         offset="1"
         style="stop-color:#5aa02c;stop-opacity:1" />
    </linearGradient>
    <radialGradient
       r="20.267857"
       fy="26.303572"
       fx="22.767857"
       cy="26.303572"
       cx="22.767857"
       gradientTransform="matrix(1.98696,0,0,1.3025427,-22.470963,-7.9579534)"
       gradientUnits="userSpaceOnUse"
       id="radialGradient3813"
       xlink:href="#linearGradient3763-7"
       inkscape:collect="always" />
    <linearGradient
       id="linearGradient3763-7">
      <stop
         style="stop-color:#ffffff;stop-opacity:1;"
         offset="0"
         id="stop3765-7" />
      <stop
         style="stop-color:#c1c1c1;stop-opacity:1;"
         offset="1"
         id="stop3767-6" />
    </linearGradient>
    <linearGradient
       y2="18.919888"
       x2="15.601078"
       y1="31.294256"
       x1="14.889573"
       gradientTransform="matrix(-0.28915731,-0.95728159,0.95728159,-0.28915731,10.288649,1059.9179)"
       gradientUnits="userSpaceOnUse"
       id="linearGradient3815"
       xlink:href="#linearGradient3883-1"
       inkscape:collect="always" />
    <linearGradient
       id="linearGradient3883-1">
      <stop
         id="stop3885"
         offset="0"
         style="stop-color:#ff00b7;stop-opacity:0.18085106;" />
      <stop
         id="stop3887"
         offset="1"
         style="stop-color:#999999;stop-opacity:0;" />
    </linearGradient>
    <linearGradient
       y2="18.919888"
       x2="15.601078"
       y1="31.294256"
       x1="14.889573"
       gradientTransform="matrix(-0.66659036,-0.74542424,0.74542424,-0.66659036,25.29864,1063.1446)"
       gradientUnits="userSpaceOnUse"
       id="linearGradient3817-7"
       xlink:href="#linearGradient3789"
       inkscape:collect="always" />
    <linearGradient
       id="linearGradient3789">
      <stop
         id="stop3791"
         offset="0"
         style="stop-color:#ff0013;stop-opacity:0.18085106;" />
      <stop
         id="stop3793"
         offset="1"
         style="stop-color:#ffffff;stop-opacity:0" />
    </linearGradient>
    <linearGradient
       y2="1029.6663"
       x2="19.113844"
       y1="1029.6663"
       x1="8.837532"
       gradientTransform="matrix(-0.66659036,-0.74542424,0.74542424,-0.66659036,-723.37729,1732.6428)"
       gradientUnits="userSpaceOnUse"
       id="linearGradient3819"
       xlink:href="#linearGradient3802-6"
       inkscape:collect="always" />
    <linearGradient
       id="linearGradient3802-6">
      <stop
         style="stop-color:#ffc300;stop-opacity:0.18039216;"
         offset="0"
         id="stop3804" />
      <stop
         style="stop-color:#ffffff;stop-opacity:0"
         offset="1"
         id="stop3806-8" />
    </linearGradient>
    <linearGradient
       y2="1028.451"
       x2="19.059441"
       y1="1028.451"
       x1="8.8624401"
       gradientTransform="matrix(-0.66659036,-0.74542424,0.74542424,-0.66659036,-723.37729,1732.6428)"
       gradientUnits="userSpaceOnUse"
       id="linearGradient3821-42"
       xlink:href="#linearGradient3823"
       inkscape:collect="always" />
    <linearGradient
       id="linearGradient3823">
      <stop
         id="stop3825"
         offset="0"
         style="stop-color:#4d9600;stop-opacity:0.18039216;" />
      <stop
         id="stop3827"
         offset="1"
         style="stop-color:#ffffff;stop-opacity:0" />
    </linearGradient>
    <linearGradient
       y2="1027.5348"
       x2="19.17152"
       y1="1027.5348"
       x1="8.8729076"
       gradientTransform="matrix(-0.66659036,-0.74542424,0.74542424,-0.66659036,-723.37729,1732.6428)"
       gradientUnits="userSpaceOnUse"
       id="linearGradient3824-66"
       xlink:href="#linearGradient3802-6"
       inkscape:collect="always" />
    <linearGradient
       id="linearGradient6693">
      <stop
         style="stop-color:#ffc300;stop-opacity:0.18039216;"
         offset="0"
         id="stop6695" />
      <stop
         style="stop-color:#ffffff;stop-opacity:0"
         offset="1"
         id="stop6697" />
    </linearGradient>
    <linearGradient
       y2="1027.0327"
       x2="19.235598"
       y1="1027.0327"
       x1="8.8799152"
       gradientTransform="matrix(-0.66659036,-0.74542424,0.74542424,-0.66659036,-723.37729,1732.6428)"
       gradientUnits="userSpaceOnUse"
       id="linearGradient3826-6"
       xlink:href="#linearGradient3877"
       inkscape:collect="always" />
    <linearGradient
       id="linearGradient3877">
      <stop
         id="stop3879"
         offset="0"
         style="stop-color:#00dfff;stop-opacity:0.18039216;" />
      <stop
         id="stop3881"
         offset="1"
         style="stop-color:#ffffff;stop-opacity:0" />
    </linearGradient>
    <linearGradient
       y2="1026.2065"
       x2="19.3482"
       y1="1026.2065"
       x1="8.8905392"
       gradientTransform="matrix(-0.66659036,-0.74542424,0.74542424,-0.66659036,-723.09003,1732.9301)"
       gradientUnits="userSpaceOnUse"
       id="linearGradient3828-9"
       xlink:href="#linearGradient3877"
       inkscape:collect="always" />
    <linearGradient
       id="linearGradient6704">
      <stop
         id="stop6706"
         offset="0"
         style="stop-color:#00dfff;stop-opacity:0.18039216;" />
      <stop
         id="stop6708"
         offset="1"
         style="stop-color:#ffffff;stop-opacity:0" />
    </linearGradient>
    <linearGradient
       y2="1026.2065"
       x2="19.3482"
       y1="1026.2065"
       x1="8.8905392"
       gradientTransform="matrix(-0.54749825,0.83680683,-0.83680683,-0.54749825,900.00556,1569.8524)"
       gradientUnits="userSpaceOnUse"
       id="linearGradient3830"
       xlink:href="#linearGradient3981"
       inkscape:collect="always" />
    <linearGradient
       id="linearGradient3981">
      <stop
         style="stop-color:#9a9a9a;stop-opacity:0.18039216;"
         offset="0"
         id="stop3983" />
      <stop
         style="stop-color:#ffffff;stop-opacity:0"
         offset="1"
         id="stop3985" />
    </linearGradient>
    <linearGradient
       y2="18.919888"
       x2="15.601078"
       y1="31.294256"
       x1="14.889573"
       gradientTransform="matrix(0.28915731,0.95728159,-0.95728159,0.28915731,41.368212,996.47239)"
       gradientUnits="userSpaceOnUse"
       id="linearGradient3832-6"
       xlink:href="#linearGradient3883-1"
       inkscape:collect="always" />
    <linearGradient
       id="linearGradient6715">
      <stop
         id="stop6717"
         offset="0"
         style="stop-color:#ff00b7;stop-opacity:0.18085106;" />
      <stop
         id="stop6719"
         offset="1"
         style="stop-color:#999999;stop-opacity:0;" />
    </linearGradient>
    <linearGradient
       y2="18.919888"
       x2="15.601078"
       y1="31.294256"
       x1="14.889573"
       gradientTransform="matrix(0.66659036,0.74542424,-0.74542424,0.66659036,26.29193,993.04675)"
       gradientUnits="userSpaceOnUse"
       id="linearGradient3834-1"
       xlink:href="#linearGradient3789"
       inkscape:collect="always" />
    <linearGradient
       id="linearGradient6722">
      <stop
         id="stop6724"
         offset="0"
         style="stop-color:#ff0013;stop-opacity:0.18085106;" />
      <stop
         id="stop6726"
         offset="1"
         style="stop-color:#ffffff;stop-opacity:0" />
    </linearGradient>
    <linearGradient
       y2="1029.6663"
       x2="19.113844"
       y1="1029.6663"
       x1="8.837532"
       gradientTransform="matrix(0.66659036,0.74542424,-0.74542424,0.66659036,774.96786,323.54859)"
       gradientUnits="userSpaceOnUse"
       id="linearGradient3836-9"
       xlink:href="#linearGradient3802-6"
       inkscape:collect="always" />
    <linearGradient
       id="linearGradient6729">
      <stop
         style="stop-color:#ffc300;stop-opacity:0.18039216;"
         offset="0"
         id="stop6731" />
      <stop
         style="stop-color:#ffffff;stop-opacity:0"
         offset="1"
         id="stop6733" />
    </linearGradient>
    <linearGradient
       y2="1028.451"
       x2="19.059441"
       y1="1028.451"
       x1="8.8624401"
       gradientTransform="matrix(0.66659036,0.74542424,-0.74542424,0.66659036,774.96786,323.54859)"
       gradientUnits="userSpaceOnUse"
       id="linearGradient3838-1"
       xlink:href="#linearGradient3823"
       inkscape:collect="always" />
    <linearGradient
       id="linearGradient6736">
      <stop
         id="stop6738"
         offset="0"
         style="stop-color:#4d9600;stop-opacity:0.18039216;" />
      <stop
         id="stop6740"
         offset="1"
         style="stop-color:#ffffff;stop-opacity:0" />
    </linearGradient>
    <linearGradient
       y2="1027.5348"
       x2="19.17152"
       y1="1027.5348"
       x1="8.8729076"
       gradientTransform="matrix(0.66659036,0.74542424,-0.74542424,0.66659036,774.96786,323.54859)"
       gradientUnits="userSpaceOnUse"
       id="linearGradient3840-4"
       xlink:href="#linearGradient3802-6"
       inkscape:collect="always" />
    <linearGradient
       id="linearGradient6743">
      <stop
         style="stop-color:#ffc300;stop-opacity:0.18039216;"
         offset="0"
         id="stop6745" />
      <stop
         style="stop-color:#ffffff;stop-opacity:0"
         offset="1"
         id="stop6747" />
    </linearGradient>
    <linearGradient
       y2="1027.0327"
       x2="19.235598"
       y1="1027.0327"
       x1="8.8799152"
       gradientTransform="matrix(0.66659036,0.74542424,-0.74542424,0.66659036,774.96786,323.54859)"
       gradientUnits="userSpaceOnUse"
       id="linearGradient3842-7"
       xlink:href="#linearGradient3877"
       inkscape:collect="always" />
    <linearGradient
       id="linearGradient6750">
      <stop
         id="stop6752"
         offset="0"
         style="stop-color:#00dfff;stop-opacity:0.18039216;" />
      <stop
         id="stop6754"
         offset="1"
         style="stop-color:#ffffff;stop-opacity:0" />
    </linearGradient>
    <linearGradient
       y2="1026.2065"
       x2="19.3482"
       y1="1026.2065"
       x1="8.8905392"
       gradientTransform="matrix(0.66659036,0.74542424,-0.74542424,0.66659036,774.96786,323.54859)"
       gradientUnits="userSpaceOnUse"
       id="linearGradient3844-0"
       xlink:href="#linearGradient3877"
       inkscape:collect="always" />
    <linearGradient
       id="linearGradient6757">
      <stop
         id="stop6759"
         offset="0"
         style="stop-color:#00dfff;stop-opacity:0.18039216;" />
      <stop
         id="stop6761"
         offset="1"
         style="stop-color:#ffffff;stop-opacity:0" />
    </linearGradient>
    <linearGradient
       y2="1026.2065"
       x2="19.3482"
       y1="1026.2065"
       x1="8.8905392"
       gradientTransform="matrix(0.48753066,-0.87310587,0.87310587,0.48753066,-884.25024,549.87747)"
       gradientUnits="userSpaceOnUse"
       id="linearGradient3846-73"
       xlink:href="#linearGradient3993"
       inkscape:collect="always" />
    <linearGradient
       id="linearGradient3993">
      <stop
         id="stop3995"
         offset="0"
         style="stop-color:#000000;stop-opacity:0.43617022;" />
      <stop
         id="stop3997"
         offset="1"
         style="stop-color:#ffffff;stop-opacity:0" />
    </linearGradient>
    <linearGradient
       y2="1026.2065"
       x2="19.3482"
       y1="1026.2065"
       x1="8.8905392"
       gradientTransform="matrix(0.57986909,-0.81470967,0.81470967,0.57986909,-826.68967,453.47007)"
       gradientUnits="userSpaceOnUse"
       id="linearGradient3848-80"
       xlink:href="#linearGradient3993"
       inkscape:collect="always" />
    <linearGradient
       id="linearGradient6768">
      <stop
         id="stop6770"
         offset="0"
         style="stop-color:#000000;stop-opacity:0.43617022;" />
      <stop
         id="stop6772"
         offset="1"
         style="stop-color:#ffffff;stop-opacity:0" />
    </linearGradient>
    <linearGradient
       y2="1026.2065"
       x2="19.3482"
       y1="1026.2065"
       x1="8.8905392"
       gradientTransform="matrix(0.71504921,-0.69907413,0.69907413,0.71504921,-711.31797,311.40924)"
       gradientUnits="userSpaceOnUse"
       id="linearGradient3850-1"
       xlink:href="#linearGradient4009"
       inkscape:collect="always" />
    <linearGradient
       id="linearGradient4009">
      <stop
         id="stop4011"
         offset="0"
         style="stop-color:#9a9a9a;stop-opacity:0.64361703;" />
      <stop
         id="stop4013"
         offset="1"
         style="stop-color:#ffffff;stop-opacity:0" />
    </linearGradient>
    <radialGradient
       inkscape:collect="always"
       xlink:href="#linearGradient3763-7"
       id="radialGradient3121"
       gradientUnits="userSpaceOnUse"
       gradientTransform="matrix(1.98696,0,0,1.3025427,-22.470963,-7.9579534)"
       cx="22.767857"
       cy="26.303572"
       fx="22.767857"
       fy="26.303572"
       r="20.267857" />
    <linearGradient
       inkscape:collect="always"
       xlink:href="#linearGradient3883-1"
       id="linearGradient3123"
       gradientUnits="userSpaceOnUse"
       gradientTransform="matrix(-0.28915731,-0.95728159,0.95728159,-0.28915731,10.288649,1059.9179)"
       x1="14.889573"
       y1="31.294256"
       x2="15.601078"
       y2="18.919888" />
    <linearGradient
       inkscape:collect="always"
       xlink:href="#linearGradient3789"
       id="linearGradient3125"
       gradientUnits="userSpaceOnUse"
       gradientTransform="matrix(-0.66659036,-0.74542424,0.74542424,-0.66659036,25.29864,1063.1446)"
       x1="14.889573"
       y1="31.294256"
       x2="15.601078"
       y2="18.919888" />
    <linearGradient
       inkscape:collect="always"
       xlink:href="#linearGradient3802-6"
       id="linearGradient3127"
       gradientUnits="userSpaceOnUse"
       gradientTransform="matrix(-0.66659036,-0.74542424,0.74542424,-0.66659036,-723.37729,1732.6428)"
       x1="8.837532"
       y1="1029.6663"
       x2="19.113844"
       y2="1029.6663" />
    <linearGradient
       inkscape:collect="always"
       xlink:href="#linearGradient3823"
       id="linearGradient3129"
       gradientUnits="userSpaceOnUse"
       gradientTransform="matrix(-0.66659036,-0.74542424,0.74542424,-0.66659036,-723.37729,1732.6428)"
       x1="8.8624401"
       y1="1028.451"
       x2="19.059441"
       y2="1028.451" />
    <linearGradient
       inkscape:collect="always"
       xlink:href="#linearGradient3802-6"
       id="linearGradient3131"
       gradientUnits="userSpaceOnUse"
       gradientTransform="matrix(-0.66659036,-0.74542424,0.74542424,-0.66659036,-723.37729,1732.6428)"
       x1="8.8729076"
       y1="1027.5348"
       x2="19.17152"
       y2="1027.5348" />
    <linearGradient
       inkscape:collect="always"
       xlink:href="#linearGradient3877"
       id="linearGradient3133"
       gradientUnits="userSpaceOnUse"
       gradientTransform="matrix(-0.66659036,-0.74542424,0.74542424,-0.66659036,-723.37729,1732.6428)"
       x1="8.8799152"
       y1="1027.0327"
       x2="19.235598"
       y2="1027.0327" />
    <linearGradient
       inkscape:collect="always"
       xlink:href="#linearGradient3877"
       id="linearGradient3135"
       gradientUnits="userSpaceOnUse"
       gradientTransform="matrix(-0.66659036,-0.74542424,0.74542424,-0.66659036,-723.09003,1732.9301)"
       x1="8.8905392"
       y1="1026.2065"
       x2="19.3482"
       y2="1026.2065" />
    <linearGradient
       inkscape:collect="always"
       xlink:href="#linearGradient3981"
       id="linearGradient3137"
       gradientUnits="userSpaceOnUse"
       gradientTransform="matrix(-0.54749825,0.83680683,-0.83680683,-0.54749825,900.00556,1569.8524)"
       x1="8.8905392"
       y1="1026.2065"
       x2="19.3482"
       y2="1026.2065" />
    <linearGradient
       inkscape:collect="always"
       xlink:href="#linearGradient3883-1"
       id="linearGradient3139"
       gradientUnits="userSpaceOnUse"
       gradientTransform="matrix(0.28915731,0.95728159,-0.95728159,0.28915731,41.368212,996.47239)"
       x1="14.889573"
       y1="31.294256"
       x2="15.601078"
       y2="18.919888" />
    <linearGradient
       inkscape:collect="always"
       xlink:href="#linearGradient3789"
       id="linearGradient3141"
       gradientUnits="userSpaceOnUse"
       gradientTransform="matrix(0.66659036,0.74542424,-0.74542424,0.66659036,26.29193,993.04675)"
       x1="14.889573"
       y1="31.294256"
       x2="15.601078"
       y2="18.919888" />
    <linearGradient
       inkscape:collect="always"
       xlink:href="#linearGradient3802-6"
       id="linearGradient3143"
       gradientUnits="userSpaceOnUse"
       gradientTransform="matrix(0.66659036,0.74542424,-0.74542424,0.66659036,774.96786,323.54859)"
       x1="8.837532"
       y1="1029.6663"
       x2="19.113844"
       y2="1029.6663" />
    <linearGradient
       inkscape:collect="always"
       xlink:href="#linearGradient3823"
       id="linearGradient3145"
       gradientUnits="userSpaceOnUse"
       gradientTransform="matrix(0.66659036,0.74542424,-0.74542424,0.66659036,774.96786,323.54859)"
       x1="8.8624401"
       y1="1028.451"
       x2="19.059441"
       y2="1028.451" />
    <linearGradient
       inkscape:collect="always"
       xlink:href="#linearGradient3802-6"
       id="linearGradient3147"
       gradientUnits="userSpaceOnUse"
       gradientTransform="matrix(0.66659036,0.74542424,-0.74542424,0.66659036,774.96786,323.54859)"
       x1="8.8729076"
       y1="1027.5348"
       x2="19.17152"
       y2="1027.5348" />
    <linearGradient
       inkscape:collect="always"
       xlink:href="#linearGradient3877"
       id="linearGradient3149"
       gradientUnits="userSpaceOnUse"
       gradientTransform="matrix(0.66659036,0.74542424,-0.74542424,0.66659036,774.96786,323.54859)"
       x1="8.8799152"
       y1="1027.0327"
       x2="19.235598"
       y2="1027.0327" />
    <linearGradient
       inkscape:collect="always"
       xlink:href="#linearGradient3877"
       id="linearGradient3151"
       gradientUnits="userSpaceOnUse"
       gradientTransform="matrix(0.66659036,0.74542424,-0.74542424,0.66659036,774.96786,323.54859)"
       x1="8.8905392"
       y1="1026.2065"
       x2="19.3482"
       y2="1026.2065" />
    <linearGradient
       inkscape:collect="always"
       xlink:href="#linearGradient3993"
       id="linearGradient3153"
       gradientUnits="userSpaceOnUse"
       gradientTransform="matrix(0.48753066,-0.87310587,0.87310587,0.48753066,-884.25024,549.87747)"
       x1="8.8905392"
       y1="1026.2065"
       x2="19.3482"
       y2="1026.2065" />
    <linearGradient
       inkscape:collect="always"
       xlink:href="#linearGradient3993"
       id="linearGradient3155"
       gradientUnits="userSpaceOnUse"
       gradientTransform="matrix(0.57986909,-0.81470967,0.81470967,0.57986909,-826.68967,453.47007)"
       x1="8.8905392"
       y1="1026.2065"
       x2="19.3482"
       y2="1026.2065" />
    <linearGradient
       inkscape:collect="always"
       xlink:href="#linearGradient4009"
       id="linearGradient3157"
       gradientUnits="userSpaceOnUse"
       gradientTransform="matrix(0.71504921,-0.69907413,0.69907413,0.71504921,-711.31797,311.40924)"
       x1="8.8905392"
       y1="1026.2065"
       x2="19.3482"
       y2="1026.2065" />
    <radialGradient
       inkscape:collect="always"
       xlink:href="#linearGradient3763-7"
       id="radialGradient3187"
       gradientUnits="userSpaceOnUse"
       gradientTransform="matrix(1.98696,0,0,1.3025427,-22.470963,-7.9579534)"
       cx="22.767857"
       cy="26.303572"
       fx="22.767857"
       fy="26.303572"
       r="20.267857" />
    <linearGradient
       inkscape:collect="always"
       xlink:href="#linearGradient3883-1"
       id="linearGradient3189"
       gradientUnits="userSpaceOnUse"
       gradientTransform="matrix(-0.28915731,-0.95728159,0.95728159,-0.28915731,10.288649,1059.9179)"
       x1="14.889573"
       y1="31.294256"
       x2="15.601078"
       y2="18.919888" />
    <linearGradient
       inkscape:collect="always"
       xlink:href="#linearGradient3789"
       id="linearGradient3191"
       gradientUnits="userSpaceOnUse"
       gradientTransform="matrix(-0.66659036,-0.74542424,0.74542424,-0.66659036,25.29864,1063.1446)"
       x1="14.889573"
       y1="31.294256"
       x2="15.601078"
       y2="18.919888" />
    <linearGradient
       inkscape:collect="always"
       xlink:href="#linearGradient3802-6"
       id="linearGradient3193"
       gradientUnits="userSpaceOnUse"
       gradientTransform="matrix(-0.66659036,-0.74542424,0.74542424,-0.66659036,-723.37729,1732.6428)"
       x1="8.837532"
       y1="1029.6663"
       x2="19.113844"
       y2="1029.6663" />
    <linearGradient
       inkscape:collect="always"
       xlink:href="#linearGradient3823"
       id="linearGradient3195"
       gradientUnits="userSpaceOnUse"
       gradientTransform="matrix(-0.66659036,-0.74542424,0.74542424,-0.66659036,-723.37729,1732.6428)"
       x1="8.8624401"
       y1="1028.451"
       x2="19.059441"
       y2="1028.451" />
    <linearGradient
       inkscape:collect="always"
       xlink:href="#linearGradient3802-6"
       id="linearGradient3197"
       gradientUnits="userSpaceOnUse"
       gradientTransform="matrix(-0.66659036,-0.74542424,0.74542424,-0.66659036,-723.37729,1732.6428)"
       x1="8.8729076"
       y1="1027.5348"
       x2="19.17152"
       y2="1027.5348" />
    <linearGradient
       inkscape:collect="always"
       xlink:href="#linearGradient3877"
       id="linearGradient3199"
       gradientUnits="userSpaceOnUse"
       gradientTransform="matrix(-0.66659036,-0.74542424,0.74542424,-0.66659036,-723.37729,1732.6428)"
       x1="8.8799152"
       y1="1027.0327"
       x2="19.235598"
       y2="1027.0327" />
    <linearGradient
       inkscape:collect="always"
       xlink:href="#linearGradient3877"
       id="linearGradient3201"
       gradientUnits="userSpaceOnUse"
       gradientTransform="matrix(-0.66659036,-0.74542424,0.74542424,-0.66659036,-723.09003,1732.9301)"
       x1="8.8905392"
       y1="1026.2065"
       x2="19.3482"
       y2="1026.2065" />
    <linearGradient
       inkscape:collect="always"
       xlink:href="#linearGradient3981"
       id="linearGradient3203"
       gradientUnits="userSpaceOnUse"
       gradientTransform="matrix(-0.54749825,0.83680683,-0.83680683,-0.54749825,900.00556,1569.8524)"
       x1="8.8905392"
       y1="1026.2065"
       x2="19.3482"
       y2="1026.2065" />
    <linearGradient
       inkscape:collect="always"
       xlink:href="#linearGradient3883-1"
       id="linearGradient3205"
       gradientUnits="userSpaceOnUse"
       gradientTransform="matrix(0.28915731,0.95728159,-0.95728159,0.28915731,41.368212,996.47239)"
       x1="14.889573"
       y1="31.294256"
       x2="15.601078"
       y2="18.919888" />
    <linearGradient
       inkscape:collect="always"
       xlink:href="#linearGradient3789"
       id="linearGradient3207"
       gradientUnits="userSpaceOnUse"
       gradientTransform="matrix(0.66659036,0.74542424,-0.74542424,0.66659036,26.29193,993.04675)"
       x1="14.889573"
       y1="31.294256"
       x2="15.601078"
       y2="18.919888" />
    <linearGradient
       inkscape:collect="always"
       xlink:href="#linearGradient3802-6"
       id="linearGradient3209"
       gradientUnits="userSpaceOnUse"
       gradientTransform="matrix(0.66659036,0.74542424,-0.74542424,0.66659036,774.96786,323.54859)"
       x1="8.837532"
       y1="1029.6663"
       x2="19.113844"
       y2="1029.6663" />
    <linearGradient
       inkscape:collect="always"
       xlink:href="#linearGradient3823"
       id="linearGradient3211"
       gradientUnits="userSpaceOnUse"
       gradientTransform="matrix(0.66659036,0.74542424,-0.74542424,0.66659036,774.96786,323.54859)"
       x1="8.8624401"
       y1="1028.451"
       x2="19.059441"
       y2="1028.451" />
    <linearGradient
       inkscape:collect="always"
       xlink:href="#linearGradient3802-6"
       id="linearGradient3213"
       gradientUnits="userSpaceOnUse"
       gradientTransform="matrix(0.66659036,0.74542424,-0.74542424,0.66659036,774.96786,323.54859)"
       x1="8.8729076"
       y1="1027.5348"
       x2="19.17152"
       y2="1027.5348" />
    <linearGradient
       inkscape:collect="always"
       xlink:href="#linearGradient3877"
       id="linearGradient3215"
       gradientUnits="userSpaceOnUse"
       gradientTransform="matrix(0.66659036,0.74542424,-0.74542424,0.66659036,774.96786,323.54859)"
       x1="8.8799152"
       y1="1027.0327"
       x2="19.235598"
       y2="1027.0327" />
    <linearGradient
       inkscape:collect="always"
       xlink:href="#linearGradient3877"
       id="linearGradient3217"
       gradientUnits="userSpaceOnUse"
       gradientTransform="matrix(0.66659036,0.74542424,-0.74542424,0.66659036,774.96786,323.54859)"
       x1="8.8905392"
       y1="1026.2065"
       x2="19.3482"
       y2="1026.2065" />
    <linearGradient
       inkscape:collect="always"
       xlink:href="#linearGradient3993"
       id="linearGradient3219"
       gradientUnits="userSpaceOnUse"
       gradientTransform="matrix(0.48753066,-0.87310587,0.87310587,0.48753066,-884.25024,549.87747)"
       x1="8.8905392"
       y1="1026.2065"
       x2="19.3482"
       y2="1026.2065" />
    <linearGradient
       inkscape:collect="always"
       xlink:href="#linearGradient3993"
       id="linearGradient3221"
       gradientUnits="userSpaceOnUse"
       gradientTransform="matrix(0.57986909,-0.81470967,0.81470967,0.57986909,-826.68967,453.47007)"
       x1="8.8905392"
       y1="1026.2065"
       x2="19.3482"
       y2="1026.2065" />
    <linearGradient
       inkscape:collect="always"
       xlink:href="#linearGradient4009"
       id="linearGradient3223"
       gradientUnits="userSpaceOnUse"
       gradientTransform="matrix(0.71504921,-0.69907413,0.69907413,0.71504921,-711.31797,311.40924)"
       x1="8.8905392"
       y1="1026.2065"
       x2="19.3482"
       y2="1026.2065" />
    <linearGradient
       inkscape:collect="always"
       xlink:href="#linearGradient3883-1"
       id="linearGradient3251"
       gradientUnits="userSpaceOnUse"
       gradientTransform="matrix(-0.28915731,-0.95728159,0.95728159,-0.28915731,10.288649,1059.9179)"
       x1="14.889573"
       y1="31.294256"
       x2="15.601078"
       y2="18.919888" />
    <linearGradient
       inkscape:collect="always"
       xlink:href="#linearGradient3789"
       id="linearGradient3253"
       gradientUnits="userSpaceOnUse"
       gradientTransform="matrix(-0.66659036,-0.74542424,0.74542424,-0.66659036,25.29864,1063.1446)"
       x1="14.889573"
       y1="31.294256"
       x2="15.601078"
       y2="18.919888" />
    <linearGradient
       inkscape:collect="always"
       xlink:href="#linearGradient3802-6"
       id="linearGradient3255"
       gradientUnits="userSpaceOnUse"
       gradientTransform="matrix(-0.66659036,-0.74542424,0.74542424,-0.66659036,-723.37729,1732.6428)"
       x1="8.837532"
       y1="1029.6663"
       x2="19.113844"
       y2="1029.6663" />
    <linearGradient
       inkscape:collect="always"
       xlink:href="#linearGradient3823"
       id="linearGradient3257"
       gradientUnits="userSpaceOnUse"
       gradientTransform="matrix(-0.66659036,-0.74542424,0.74542424,-0.66659036,-723.37729,1732.6428)"
       x1="8.8624401"
       y1="1028.451"
       x2="19.059441"
       y2="1028.451" />
    <linearGradient
       inkscape:collect="always"
       xlink:href="#linearGradient3802-6"
       id="linearGradient3259"
       gradientUnits="userSpaceOnUse"
       gradientTransform="matrix(-0.66659036,-0.74542424,0.74542424,-0.66659036,-723.37729,1732.6428)"
       x1="8.8729076"
       y1="1027.5348"
       x2="19.17152"
       y2="1027.5348" />
    <linearGradient
       inkscape:collect="always"
       xlink:href="#linearGradient3877"
       id="linearGradient3261"
       gradientUnits="userSpaceOnUse"
       gradientTransform="matrix(-0.66659036,-0.74542424,0.74542424,-0.66659036,-723.37729,1732.6428)"
       x1="8.8799152"
       y1="1027.0327"
       x2="19.235598"
       y2="1027.0327" />
    <linearGradient
       inkscape:collect="always"
       xlink:href="#linearGradient3877"
       id="linearGradient3263"
       gradientUnits="userSpaceOnUse"
       gradientTransform="matrix(-0.66659036,-0.74542424,0.74542424,-0.66659036,-723.09003,1732.9301)"
       x1="8.8905392"
       y1="1026.2065"
       x2="19.3482"
       y2="1026.2065" />
    <linearGradient
       inkscape:collect="always"
       xlink:href="#linearGradient3981"
       id="linearGradient3265"
       gradientUnits="userSpaceOnUse"
       gradientTransform="matrix(-0.54749825,0.83680683,-0.83680683,-0.54749825,900.00556,1569.8524)"
       x1="8.8905392"
       y1="1026.2065"
       x2="19.3482"
       y2="1026.2065" />
    <linearGradient
       inkscape:collect="always"
       xlink:href="#linearGradient3883-1"
       id="linearGradient3267"
       gradientUnits="userSpaceOnUse"
       gradientTransform="matrix(0.28915731,0.95728159,-0.95728159,0.28915731,41.368212,996.47239)"
       x1="14.889573"
       y1="31.294256"
       x2="15.601078"
       y2="18.919888" />
    <linearGradient
       inkscape:collect="always"
       xlink:href="#linearGradient3789"
       id="linearGradient3269"
       gradientUnits="userSpaceOnUse"
       gradientTransform="matrix(0.66659036,0.74542424,-0.74542424,0.66659036,26.29193,993.04675)"
       x1="14.889573"
       y1="31.294256"
       x2="15.601078"
       y2="18.919888" />
    <linearGradient
       inkscape:collect="always"
       xlink:href="#linearGradient3802-6"
       id="linearGradient3271"
       gradientUnits="userSpaceOnUse"
       gradientTransform="matrix(0.66659036,0.74542424,-0.74542424,0.66659036,774.96786,323.54859)"
       x1="8.837532"
       y1="1029.6663"
       x2="19.113844"
       y2="1029.6663" />
    <linearGradient
       inkscape:collect="always"
       xlink:href="#linearGradient3823"
       id="linearGradient3273"
       gradientUnits="userSpaceOnUse"
       gradientTransform="matrix(0.66659036,0.74542424,-0.74542424,0.66659036,774.96786,323.54859)"
       x1="8.8624401"
       y1="1028.451"
       x2="19.059441"
       y2="1028.451" />
    <linearGradient
       inkscape:collect="always"
       xlink:href="#linearGradient3802-6"
       id="linearGradient3275"
       gradientUnits="userSpaceOnUse"
       gradientTransform="matrix(0.66659036,0.74542424,-0.74542424,0.66659036,774.96786,323.54859)"
       x1="8.8729076"
       y1="1027.5348"
       x2="19.17152"
       y2="1027.5348" />
    <linearGradient
       inkscape:collect="always"
       xlink:href="#linearGradient3877"
       id="linearGradient3277"
       gradientUnits="userSpaceOnUse"
       gradientTransform="matrix(0.66659036,0.74542424,-0.74542424,0.66659036,774.96786,323.54859)"
       x1="8.8799152"
       y1="1027.0327"
       x2="19.235598"
       y2="1027.0327" />
    <linearGradient
       inkscape:collect="always"
       xlink:href="#linearGradient3877"
       id="linearGradient3279"
       gradientUnits="userSpaceOnUse"
       gradientTransform="matrix(0.66659036,0.74542424,-0.74542424,0.66659036,774.96786,323.54859)"
       x1="8.8905392"
       y1="1026.2065"
       x2="19.3482"
       y2="1026.2065" />
    <linearGradient
       inkscape:collect="always"
       xlink:href="#linearGradient3993"
       id="linearGradient3281"
       gradientUnits="userSpaceOnUse"
       gradientTransform="matrix(0.48753066,-0.87310587,0.87310587,0.48753066,-884.25024,549.87747)"
       x1="8.8905392"
       y1="1026.2065"
       x2="19.3482"
       y2="1026.2065" />
    <linearGradient
       inkscape:collect="always"
       xlink:href="#linearGradient3993"
       id="linearGradient3283"
       gradientUnits="userSpaceOnUse"
       gradientTransform="matrix(0.57986909,-0.81470967,0.81470967,0.57986909,-826.68967,453.47007)"
       x1="8.8905392"
       y1="1026.2065"
       x2="19.3482"
       y2="1026.2065" />
    <linearGradient
       inkscape:collect="always"
       xlink:href="#linearGradient4009"
       id="linearGradient3285"
       gradientUnits="userSpaceOnUse"
       gradientTransform="matrix(0.71504921,-0.69907413,0.69907413,0.71504921,-711.31797,311.40924)"
       x1="8.8905392"
       y1="1026.2065"
       x2="19.3482"
       y2="1026.2065" />
    <radialGradient
       inkscape:collect="always"
       xlink:href="#linearGradient3763-7"
       id="radialGradient3307"
       gradientUnits="userSpaceOnUse"
       gradientTransform="matrix(1.98696,0,0,1.3025427,-22.470963,-7.9579534)"
       cx="22.767857"
       cy="26.303572"
       fx="22.767857"
       fy="26.303572"
       r="20.267857" />
    <linearGradient
       y2="468.35892"
       x2="314.34872"
       y1="425.61682"
       x1="314.34872"
       gradientTransform="translate(-53.785477,-0.003684)"
       gradientUnits="userSpaceOnUse"
       id="linearGradient1187"
       xlink:href="#linearGradient1069"
       inkscape:collect="always" />
    <linearGradient
       id="linearGradient1069">
      <stop
         style="stop-color:#ffffff;stop-opacity:1"
         offset="0"
         id="stop1071" />
      <stop
         style="stop-color:#e6e6e6;stop-opacity:1"
         offset="1"
         id="stop1073" />
    </linearGradient>
    <linearGradient
       y2="468.35892"
       x2="314.34872"
       y1="425.61682"
       x1="314.34872"
       gradientTransform="translate(-123.48961,387.43992)"
       gradientUnits="userSpaceOnUse"
       id="linearGradient1679"
       xlink:href="#linearGradient971"
       inkscape:collect="always" />
    <linearGradient
       gradientTransform="translate(0.005943,-0.003684)"
       inkscape:collect="always"
       xlink:href="#linearGradient6707"
       id="linearGradient1110"
       x1="262.01361"
       y1="471.95245"
       x2="262.01361"
       y2="442.7843"
       gradientUnits="userSpaceOnUse" />
    <linearGradient
       id="linearGradient6707">
      <stop
         id="stop6709"
         offset="0"
         style="stop-color:#000000;stop-opacity:1;" />
      <stop
         id="stop6711"
         offset="1"
         style="stop-color:#ffffff;stop-opacity:1;" />
    </linearGradient>
    <linearGradient
       y2="442.7843"
       x2="262.01361"
       y1="471.95245"
       x1="262.01361"
       gradientTransform="translate(-69.686184,387.43266)"
       gradientUnits="userSpaceOnUse"
       id="linearGradient1696"
       xlink:href="#linearGradient6707"
       inkscape:collect="always" />
    <linearGradient
       x1="174.0737"
       y1="215.5488"
       x2="132.27631"
       y2="141.7533"
       id="linearGradient5627"
       xlink:href="#XMLID_17_"
       gradientUnits="userSpaceOnUse"
       gradientTransform="matrix(0.1091782,0,0,0.1091782,12.9697,7.82774)" />
    <linearGradient
       x1="174.0737"
       y1="215.5488"
       x2="132.27631"
       y2="141.7533"
       id="XMLID_17_"
       gradientUnits="userSpaceOnUse">
      <stop
         id="stop6"
         style="stop-color:#fb7655;stop-opacity:1"
         offset="0" />
      <stop
         id="stop8"
         style="stop-color:#fb7655;stop-opacity:1"
         offset="0" />
      <stop
         id="stop10"
         style="stop-color:#e42b1e;stop-opacity:1"
         offset="0.41" />
      <stop
         id="stop12"
         style="stop-color:#990000;stop-opacity:1"
         offset="0.99000001" />
      <stop
         id="stop14"
         style="stop-color:#990000;stop-opacity:1"
         offset="1" />
    </linearGradient>
    <linearGradient
       x1="194.895"
       y1="153.5576"
       x2="141.0276"
       y2="117.4093"
       id="linearGradient5629"
       xlink:href="#XMLID_18_"
       gradientUnits="userSpaceOnUse" />
    <linearGradient
       x1="194.895"
       y1="153.5576"
       x2="141.0276"
       y2="117.4093"
       id="XMLID_18_"
       gradientUnits="userSpaceOnUse">
      <stop
         id="stop19"
         style="stop-color:#871101;stop-opacity:1"
         offset="0" />
      <stop
         id="stop21"
         style="stop-color:#871101;stop-opacity:1"
         offset="0" />
      <stop
         id="stop23"
         style="stop-color:#911209;stop-opacity:1"
         offset="0.99000001" />
      <stop
         id="stop25"
         style="stop-color:#911209;stop-opacity:1"
         offset="1" />
    </linearGradient>
    <linearGradient
       x1="151.79539"
       y1="217.7852"
       x2="97.929703"
       y2="181.638"
       id="linearGradient5631"
       xlink:href="#XMLID_19_"
       gradientUnits="userSpaceOnUse" />
    <linearGradient
       x1="151.79539"
       y1="217.7852"
       x2="97.929703"
       y2="181.638"
       id="XMLID_19_"
       gradientUnits="userSpaceOnUse">
      <stop
         id="stop30"
         style="stop-color:#871101;stop-opacity:1"
         offset="0" />
      <stop
         id="stop32"
         style="stop-color:#871101;stop-opacity:1"
         offset="0" />
      <stop
         id="stop34"
         style="stop-color:#911209;stop-opacity:1"
         offset="0.99000001" />
      <stop
         id="stop36"
         style="stop-color:#911209;stop-opacity:1"
         offset="1" />
    </linearGradient>
    <linearGradient
       x1="38.696301"
       y1="127.3906"
       x2="47.046902"
       y2="181.66141"
       id="linearGradient5633"
       xlink:href="#XMLID_20_"
       gradientUnits="userSpaceOnUse" />
    <linearGradient
       x1="38.696301"
       y1="127.3906"
       x2="47.046902"
       y2="181.66141"
       id="XMLID_20_"
       gradientUnits="userSpaceOnUse">
      <stop
         id="stop41"
         style="stop-color:#ffffff;stop-opacity:1"
         offset="0" />
      <stop
         id="stop43"
         style="stop-color:#ffffff;stop-opacity:1"
         offset="0" />
      <stop
         id="stop45"
         style="stop-color:#e57252;stop-opacity:1"
         offset="0.23" />
      <stop
         id="stop47"
         style="stop-color:#de3b20;stop-opacity:1"
         offset="0.46000001" />
      <stop
         id="stop49"
         style="stop-color:#a60003;stop-opacity:1"
         offset="0.99000001" />
      <stop
         id="stop51"
         style="stop-color:#a60003;stop-opacity:1"
         offset="1" />
    </linearGradient>
    <linearGradient
       x1="96.132797"
       y1="76.715302"
       x2="99.209602"
       y2="132.1021"
       id="linearGradient5635"
       xlink:href="#XMLID_21_"
       gradientUnits="userSpaceOnUse" />
    <linearGradient
       x1="96.132797"
       y1="76.715302"
       x2="99.209602"
       y2="132.1021"
       id="XMLID_21_"
       gradientUnits="userSpaceOnUse">
      <stop
         id="stop56"
         style="stop-color:#ffffff;stop-opacity:1"
         offset="0" />
      <stop
         id="stop58"
         style="stop-color:#ffffff;stop-opacity:1"
         offset="0" />
      <stop
         id="stop60"
         style="stop-color:#e4714e;stop-opacity:1"
         offset="0.23" />
      <stop
         id="stop62"
         style="stop-color:#be1a0d;stop-opacity:1"
         offset="0.56" />
      <stop
         id="stop64"
         style="stop-color:#a80d00;stop-opacity:1"
         offset="0.99000001" />
      <stop
         id="stop66"
         style="stop-color:#a80d00;stop-opacity:1"
         offset="1" />
    </linearGradient>
    <linearGradient
       x1="147.103"
       y1="25.521"
       x2="156.3141"
       y2="65.216202"
       id="linearGradient5637"
       xlink:href="#XMLID_22_"
       gradientUnits="userSpaceOnUse"
       gradientTransform="matrix(0.1091782,0,0,0.1091782,12.9697,7.82774)" />
    <linearGradient
       x1="147.103"
       y1="25.521"
       x2="156.3141"
       y2="65.216202"
       id="XMLID_22_"
       gradientUnits="userSpaceOnUse">
      <stop
         id="stop71"
         style="stop-color:#ffffff;stop-opacity:1"
         offset="0" />
      <stop
         id="stop73"
         style="stop-color:#ffffff;stop-opacity:1"
         offset="0" />
      <stop
         id="stop75"
         style="stop-color:#e46342;stop-opacity:1"
         offset="0.18000001" />
      <stop
         id="stop77"
         style="stop-color:#c82410;stop-opacity:1"
         offset="0.40000001" />
      <stop
         id="stop79"
         style="stop-color:#a80d00;stop-opacity:1"
         offset="0.99000001" />
      <stop
         id="stop81"
         style="stop-color:#a80d00;stop-opacity:1"
         offset="1" />
    </linearGradient>
    <linearGradient
       x1="118.9761"
       y1="11.5415"
       x2="158.66859"
       y2="-8.3048"
       id="linearGradient5639"
       xlink:href="#XMLID_23_"
       gradientUnits="userSpaceOnUse" />
    <linearGradient
       x1="118.9761"
       y1="11.5415"
       x2="158.66859"
       y2="-8.3048"
       id="XMLID_23_"
       gradientUnits="userSpaceOnUse">
      <stop
         id="stop86"
         style="stop-color:#ffffff;stop-opacity:1"
         offset="0" />
      <stop
         id="stop88"
         style="stop-color:#ffffff;stop-opacity:1"
         offset="0" />
      <stop
         id="stop90"
         style="stop-color:#c81f11;stop-opacity:1"
         offset="0.54000002" />
      <stop
         id="stop92"
         style="stop-color:#bf0905;stop-opacity:1"
         offset="0.99000001" />
      <stop
         id="stop94"
         style="stop-color:#bf0905;stop-opacity:1"
         offset="1" />
    </linearGradient>
    <linearGradient
       x1="3.9033"
       y1="113.5547"
       x2="7.1701999"
       y2="146.2628"
       id="linearGradient5641"
       xlink:href="#XMLID_24_"
       gradientUnits="userSpaceOnUse" />
    <linearGradient
       x1="3.9033"
       y1="113.5547"
       x2="7.1701999"
       y2="146.2628"
       id="XMLID_24_"
       gradientUnits="userSpaceOnUse">
      <stop
         id="stop99"
         style="stop-color:#ffffff;stop-opacity:1"
         offset="0" />
      <stop
         id="stop101"
         style="stop-color:#ffffff;stop-opacity:1"
         offset="0" />
      <stop
         id="stop103"
         style="stop-color:#de4024;stop-opacity:1"
         offset="0.31" />
      <stop
         id="stop105"
         style="stop-color:#bf190b;stop-opacity:1"
         offset="0.99000001" />
      <stop
         id="stop107"
         style="stop-color:#bf190b;stop-opacity:1"
         offset="1" />
    </linearGradient>
    <linearGradient
       x1="-18.5557"
       y1="155.10451"
       x2="135.0152"
       y2="-2.8092999"
       id="linearGradient5643"
       xlink:href="#XMLID_25_"
       gradientUnits="userSpaceOnUse"
       gradientTransform="matrix(0.24293957,0,0,0.24293957,111.5747,788.6899)" />
    <linearGradient
       x1="-18.5557"
       y1="155.10451"
       x2="135.0152"
       y2="-2.8092999"
       id="XMLID_25_"
       gradientUnits="userSpaceOnUse"
       gradientTransform="translate(144,-77.58)">
      <stop
         id="stop114"
         style="stop-color:#bd0012;stop-opacity:1"
         offset="0" />
      <stop
         id="stop116"
         style="stop-color:#bd0012;stop-opacity:1"
         offset="0" />
      <stop
         id="stop118"
         style="stop-color:#ffffff;stop-opacity:1"
         offset="0.07" />
      <stop
         id="stop120"
         style="stop-color:#ffffff;stop-opacity:1"
         offset="0.17" />
      <stop
         id="stop122"
         style="stop-color:#c82f1c;stop-opacity:1"
         offset="0.27000001" />
      <stop
         id="stop124"
         style="stop-color:#820c01;stop-opacity:1"
         offset="0.33000001" />
      <stop
         id="stop126"
         style="stop-color:#a31601;stop-opacity:1"
         offset="0.46000001" />
      <stop
         id="stop128"
         style="stop-color:#b31301;stop-opacity:1"
         offset="0.72000003" />
      <stop
         id="stop130"
         style="stop-color:#e82609;stop-opacity:1"
         offset="0.99000001" />
      <stop
         id="stop132"
         style="stop-color:#e82609;stop-opacity:1"
         offset="1" />
    </linearGradient>
    <linearGradient
       x1="99.074699"
       y1="171.0332"
       x2="52.817699"
       y2="159.61659"
       id="linearGradient5645"
       xlink:href="#XMLID_26_"
       gradientUnits="userSpaceOnUse"
       gradientTransform="matrix(0.24293957,0,0,0.24293957,111.5747,788.6899)" />
    <linearGradient
       x1="99.074699"
       y1="171.0332"
       x2="52.817699"
       y2="159.61659"
       id="XMLID_26_"
       gradientUnits="userSpaceOnUse"
       gradientTransform="translate(144,-77.58)">
      <stop
         id="stop137"
         style="stop-color:#8c0c01;stop-opacity:1"
         offset="0" />
      <stop
         id="stop139"
         style="stop-color:#8c0c01;stop-opacity:1"
         offset="0" />
      <stop
         id="stop141"
         style="stop-color:#990c00;stop-opacity:1"
         offset="0.54000002" />
      <stop
         id="stop143"
         style="stop-color:#a80d0e;stop-opacity:1"
         offset="0.99000001" />
      <stop
         id="stop145"
         style="stop-color:#a80d0e;stop-opacity:1"
         offset="1" />
    </linearGradient>
    <linearGradient
       x1="178.52589"
       y1="115.5146"
       x2="137.43269"
       y2="78.683998"
       id="linearGradient5647"
       xlink:href="#XMLID_27_"
       gradientUnits="userSpaceOnUse"
       gradientTransform="matrix(0.1091782,0,0,0.1091782,12.9697,7.82774)" />
    <linearGradient
       x1="178.52589"
       y1="115.5146"
       x2="137.43269"
       y2="78.683998"
       id="XMLID_27_"
       gradientUnits="userSpaceOnUse"
       gradientTransform="translate(144,-77.58)">
      <stop
         id="stop150"
         style="stop-color:#7e110b;stop-opacity:1"
         offset="0" />
      <stop
         id="stop152"
         style="stop-color:#7e110b;stop-opacity:1"
         offset="0" />
      <stop
         id="stop154"
         style="stop-color:#9e0c00;stop-opacity:1"
         offset="0.99000001" />
      <stop
         id="stop156"
         style="stop-color:#9e0c00;stop-opacity:1"
         offset="1" />
    </linearGradient>
    <linearGradient
       x1="193.6235"
       y1="47.937"
       x2="173.15421"
       y2="26.053801"
       id="linearGradient5649"
       xlink:href="#XMLID_28_"
       gradientUnits="userSpaceOnUse"
       gradientTransform="matrix(0.24293957,0,0,0.24293957,111.5747,788.6899)" />
    <linearGradient
       x1="193.6235"
       y1="47.937"
       x2="173.15421"
       y2="26.053801"
       id="XMLID_28_"
       gradientUnits="userSpaceOnUse"
       gradientTransform="translate(144,-77.58)">
      <stop
         id="stop161"
         style="stop-color:#79130d;stop-opacity:1"
         offset="0" />
      <stop
         id="stop163"
         style="stop-color:#79130d;stop-opacity:1"
         offset="0" />
      <stop
         id="stop165"
         style="stop-color:#9e120b;stop-opacity:1"
         offset="0.99000001" />
      <stop
         id="stop167"
         style="stop-color:#9e120b;stop-opacity:1"
         offset="1" />
    </linearGradient>
    <radialGradient
       cx="143.8315"
       cy="79.388199"
       r="50.357601"
       id="radialGradient5651"
       xlink:href="#XMLID_29_"
       gradientUnits="userSpaceOnUse"
       gradientTransform="matrix(0.24293957,0,0,0.24293957,111.5747,788.6899)" />
    <radialGradient
       cx="143.8315"
       cy="79.388199"
       r="50.357601"
       id="XMLID_29_"
       gradientUnits="userSpaceOnUse"
       gradientTransform="translate(144,-77.58)">
      <stop
         id="stop174"
         style="stop-color:#a80d00;stop-opacity:1"
         offset="0" />
      <stop
         id="stop176"
         style="stop-color:#a80d00;stop-opacity:1"
         offset="0" />
      <stop
         id="stop178"
         style="stop-color:#7e0e08;stop-opacity:1"
         offset="0.99000001" />
      <stop
         id="stop180"
         style="stop-color:#7e0e08;stop-opacity:1"
         offset="1" />
    </radialGradient>
    <radialGradient
       cx="74.0923"
       cy="145.75101"
       r="66.943703"
       id="radialGradient5653"
       xlink:href="#XMLID_30_"
       gradientUnits="userSpaceOnUse"
       gradientTransform="matrix(0.1091782,0,0,0.1091782,180.39827,819.04704)" />
    <radialGradient
       cx="74.0923"
       cy="145.75101"
       r="66.943703"
       id="XMLID_30_"
       gradientUnits="userSpaceOnUse"
       gradientTransform="translate(144,-77.58)">
      <stop
         id="stop185"
         style="stop-color:#a30c00;stop-opacity:1"
         offset="0" />
      <stop
         id="stop187"
         style="stop-color:#a30c00;stop-opacity:1"
         offset="0" />
      <stop
         id="stop189"
         style="stop-color:#800e08;stop-opacity:1"
         offset="0.99000001" />
      <stop
         id="stop191"
         style="stop-color:#800e08;stop-opacity:1"
         offset="1" />
    </radialGradient>
    <linearGradient
       x1="26.669901"
       y1="197.33591"
       x2="9.9886999"
       y2="140.742"
       id="linearGradient5655"
       xlink:href="#XMLID_31_"
       gradientUnits="userSpaceOnUse"
       gradientTransform="matrix(0.24293957,0,0,0.24293957,111.5747,788.6899)" />
    <linearGradient
       x1="26.669901"
       y1="197.33591"
       x2="9.9886999"
       y2="140.742"
       id="XMLID_31_"
       gradientUnits="userSpaceOnUse"
       gradientTransform="translate(144,-77.58)">
      <stop
         id="stop196"
         style="stop-color:#8b2114;stop-opacity:1"
         offset="0" />
      <stop
         id="stop198"
         style="stop-color:#8b2114;stop-opacity:1"
         offset="0" />
      <stop
         id="stop200"
         style="stop-color:#9e100a;stop-opacity:1"
         offset="0.43000001" />
      <stop
         id="stop202"
         style="stop-color:#b3100c;stop-opacity:1"
         offset="0.99000001" />
      <stop
         id="stop204"
         style="stop-color:#b3100c;stop-opacity:1"
         offset="1" />
    </linearGradient>
    <linearGradient
       x1="154.6411"
       y1="9.7979002"
       x2="192.039"
       y2="26.305901"
       id="linearGradient5657"
       xlink:href="#XMLID_32_"
       gradientUnits="userSpaceOnUse"
       gradientTransform="matrix(0.1091782,0,0,0.1091782,180.39827,819.04704)" />
    <linearGradient
       x1="154.6411"
       y1="9.7979002"
       x2="192.039"
       y2="26.305901"
       id="XMLID_32_"
       gradientUnits="userSpaceOnUse"
       gradientTransform="translate(144,-77.58)">
      <stop
         id="stop209"
         style="stop-color:#b31000;stop-opacity:1"
         offset="0" />
      <stop
         id="stop211"
         style="stop-color:#b31000;stop-opacity:1"
         offset="0" />
      <stop
         id="stop213"
         style="stop-color:#910f08;stop-opacity:1"
         offset="0.44" />
      <stop
         id="stop215"
         style="stop-color:#791c12;stop-opacity:1"
         offset="0.99000001" />
      <stop
         id="stop217"
         style="stop-color:#791c12;stop-opacity:1"
         offset="1" />
    </linearGradient>
  </defs>
  <sodipodi:namedview
     id="base"
     pagecolor="#ffffff"
     bordercolor="#666666"
     borderopacity="1.0"
     inkscape:pageopacity="0.0"
     inkscape:pageshadow="2"
     inkscape:zoom="7.9195959"
     inkscape:cx="-1.2666331"
     inkscape:cy="30.288657"
     inkscape:document-units="px"
     inkscape:current-layer="layer1"
     showgrid="false"
     fit-margin-top="0"
     fit-margin-left="0"
     fit-margin-right="0"
     fit-margin-bottom="0"
     inkscape:window-width="1366"
     inkscape:window-height="746"
     inkscape:window-x="0"
     inkscape:window-y="0"
     inkscape:window-maximized="1" />
  <metadata
     id="metadata6659">
    <rdf:RDF>
      <cc:Work
         rdf:about="">
        <dc:format>image/svg+xml</dc:format>
        <dc:type
           rdf:resource="http://purl.org/dc/dcmitype/StillImage" />
        <dc:title />
      </cc:Work>
    </rdf:RDF>
  </metadata>
  <g
     inkscape:label="Capa 1"
     inkscape:groupmode="layer"
     id="layer1"
     transform="translate(-167.42857,-811.2193)">
    <path
       style="opacity:0.5;fill:#000000;fill-opacity:1;stroke:none"
       d="m 171.22712,813.13731 40.4029,0 c 0.89692,0 1.619,0.79795 1.619,1.78913 l 0,40.58571 c 0,0.9912 -0.72207,1.78914 -1.619,1.78914 l -40.4029,0 c -0.89692,0 -1.61899,-0.79795 -1.61899,-1.78914 l 0,-40.58571 C 169.60813,813.93526 170.33019,813.13731 171.22712,813.13731 Z"
       id="rect3922"
       inkscape:connector-curvature="0" />
    <path
       inkscape:connector-curvature="0"
       id="path869"
       d="m 171.63133,813.69776 39.59446,0 c 0.87417,0 1.57791,0.77771 1.57791,1.74374 l 0,39.5556 c 0,0.96604 -0.70375,1.74374 -1.57791,1.74374 l -39.59445,0 c -0.87416,0 -1.5779,-0.7777 -1.5779,-1.74374 l 0,-39.5556 C 170.05343,814.47547 170.75718,813.69776 171.63133,813.69776 Z"
       style="fill:url(#linearGradient1679);fill-opacity:1.0;stroke:none" />
    <rect
       style="opacity:0.35648151;fill:none;stroke:none"
       id="rect4543"
       width="48"
       height="48"
       x="167.42857"
       y="811.2193" />
    <path
       inkscape:connector-curvature="0"
       style="fill:url(#linearGradient1696);fill-opacity:1;stroke:none"
       d="m 170.05357,848.24084 0,6.75 c 0,0.96604 0.68835,1.75 1.5625,1.75 l 39.625,0 c 0.87417,0 1.5625,-0.78396 1.5625,-1.75 l 0,-6.75 L 170.05357,848.24084 Z"
       id="path874" />
    <g
       id="g1122"
       transform="translate(0,72.142857)"
       style="fill:#000000">
      <path
         sodipodi:nodetypes="cccc"
         inkscape:connector-curvature="0"
         id="polygon27"
         d="M 187.089,187.54 175.00599,102.74623 140.42585,146.58055 Z"
         style="fill:#000000;fill-opacity:0.52571429;fill-rule:evenodd"
         transform="matrix(0.1091782,0,0,0.1091782,180.39827,819.04704)" />
      <path
         id="polygon38"
         transform="translate(167.42857,811.2193)"
         d="M 20.3125,21.25 17.4375,29.375 33.40625,28.3125 23.34375,27.5 23.25,27.53125 20.3125,21.25 Z"
         style="fill:#000000;fill-opacity:0.52571429;fill-rule:evenodd"
         inkscape:connector-curvature="0" />
      <polygon
         style="fill:#000000;fill-opacity:0.52571429;fill-rule:evenodd"
         id="polygon68"
         transform="matrix(0.09683971,0,0,0.09701355,182.12813,820.82527)"
         points="58.33,120.01 140.2,146.18 119,63.14 " />
      <path
         sodipodi:nodetypes="cccc"
         inkscape:connector-curvature="0"
         id="polygon96"
         d="M 166.5,0.77 136.81789,16.518647 112.50197,-0.78110866 Z"
         style="fill:#000000;fill-opacity:0.52571429;fill-rule:evenodd"
         transform="matrix(0.1091782,0,0,0.1091782,180.39827,819.04704)" />
      <path
         style="fill:#000000;fill-opacity:0.52571429;fill-rule:evenodd"
         id="path111"
         inkscape:connector-curvature="0"
         d="m 180.61007,830.03583 1.25556,3.56139 5.45563,-1.224 6.22862,-5.78863 1.75777,-5.58326 -2.76778,-1.95429 -4.70558,1.76104 c -1.48253,1.37893 -4.35938,4.10729 -4.46309,4.1586 C 183.26856,825.01909 181.47149,828.41562 180.61007,830.03583 Z" />
      <path
         transform="translate(167.42857,811.2193)"
         id="path169"
         d="m 27.8125,9.75 6.25,5.0625 c -0.01723,0.04601 -0.01091,0.11411 -0.03125,0.15625 -0.06689,0.13859 -0.151834,0.271917 -0.21875,0.40625 L 26.15625,15.34375 31.25,18.5 l 0.03125,0.03125 0.8125,0.5 c 0.732686,-1.042317 1.291302,-2.272381 1.71875,-3.40625 l 0.28125,-0.53125 -0.78125,11.78125 0.0625,1.34375 1.15625,-15.3125 0.03125,-0.125 c 0.01902,-0.178245 0.0252,-0.353248 0.03125,-0.53125 0.01814,-0.533392 -0.0264,-1.064432 -0.15625,-1.5625 L 27.8125,9.75 Z"
         style="fill:#000000;fill-opacity:0.52571429;fill-rule:evenodd"
         inkscape:connector-curvature="0" />
      <path
         style="fill:#000000;fill-opacity:0.52571429;fill-rule:evenodd"
         id="path206"
         inkscape:connector-curvature="0"
         d="m 181.8558,833.58849 -0.47274,5.62922 c 0.89198,1.21843 2.11915,1.32433 3.40636,1.22935 C 183.85813,838.12921 181.99773,833.49459 181.8558,833.58849 Z" />
      <path
         sodipodi:nodetypes="cccc"
         inkscape:connector-curvature="0"
         id="polygon109"
         d="M 0,158.09 14.840843,132.63748 -0.38498185,102.80008 Z"
         style="fill:#000000;fill-opacity:0.52571429;fill-rule:evenodd"
         transform="matrix(0.10909286,-0.00431598,0.00431598,0.10909286,179.64902,819.21488)" />
    </g>
    <g
       transform="translate(169.31761,812.9489)"
       style="font-size:7.5px;font-style:normal;font-variant:normal;font-weight:bold;font-stretch:normal;line-height:125%;letter-spacing:0px;word-spacing:0px;fill:#ffffff;fill-opacity:1;stroke:none;font-family:Impact;-inkscape-font-specification:Impact Bold"
       id="text1330">
      <path
         d="m 14.323484,36.515205 1.091309,0 q 1.091309,0 1.47583,0.08423 0.388184,0.08423 0.629883,0.432129 0.245361,0.344238 0.245361,1.102295 0,0.692138 -0.172119,0.930176 -0.172119,0.238037 -0.67749,0.285644 0.457764,0.113525 0.615234,0.303955 0.157471,0.19043 0.194092,0.351563 0.04028,0.15747 0.04028,0.875244 l 0,1.56372 -1.431885,0 0,-1.970214 q 0,-0.476075 -0.0769,-0.5896 -0.07324,-0.113525 -0.391846,-0.113525 l 0,2.673339 -1.541748,0 L 14.323484,36.515205 z m 1.541748,1.014405 0,1.318359 q 0.26001,0 0.362549,-0.06958 0.106201,-0.07324 0.106201,-0.465088 l 0,-0.325928 q 0,-0.281982 -0.102539,-0.369873 Q 16.132566,37.52961 15.865232,37.52961 Z"
         id="path1335"
         inkscape:connector-curvature="0" />
      <path
         d="m 21.871092,36.515205 0,3.962403 q 0,0.673828 -0.04395,0.948486 -0.04395,0.270996 -0.26001,0.560303 -0.216065,0.285644 -0.571289,0.435791 -0.351563,0.146484 -0.831299,0.146484 -0.531006,0 -0.9375,-0.175781 -0.406494,-0.175781 -0.60791,-0.457764 -0.201416,-0.281982 -0.238037,-0.593261 -0.03662,-0.314942 -0.03662,-1.31836 l 0,-3.508301 1.541748,0 0,4.445801 q 0,0.388184 0.04028,0.498047 0.04395,0.106201 0.172119,0.106201 0.146484,0 0.186767,-0.117187 0.04395,-0.12085 0.04395,-0.563965 l 0,-4.368897 L 21.871092,36.515205 Z"
         id="path1337"
         inkscape:connector-curvature="0" />
      <path
         d="m 22.468016,36.515205 1.538086,0 q 0.728759,0 1.102295,0.113526 0.377197,0.113525 0.60791,0.461426 0.230713,0.344238 0.230713,1.113281 0,0.520019 -0.164795,0.725097 -0.161133,0.205079 -0.640869,0.314942 0.534667,0.120849 0.725097,0.402832 0.19043,0.27832 0.19043,0.856933 l 0,0.549317 q 0,0.600586 -0.13916,0.889892 -0.135498,0.289307 -0.435791,0.395508 -0.300293,0.106201 -1.230469,0.106201 l -1.783447,0 L 22.468016,36.515205 z m 1.541748,1.014405 0,1.318359 q 0.09888,-0.0037 0.153808,-0.0037 0.227051,0 0.289307,-0.109863 0.06226,-0.113526 0.06226,-0.640869 0,-0.278321 -0.05127,-0.388184 -0.05127,-0.113525 -0.135498,-0.142822 Q 24.247801,37.533272 24.009764,37.52961 z m 0,2.241211 0,1.658935 q 0.325927,-0.01099 0.413818,-0.102539 0.09155,-0.09155 0.09155,-0.450439 l 0,-0.552979 q 0,-0.380859 -0.08057,-0.461426 Q 24.354002,39.781807 24.009764,39.770821 Z"
         id="path1339"
         inkscape:connector-curvature="0" />
      <path
         d="m 29.898436,36.515205 -1.124268,3.782959 0,2.145996 -1.428223,0 0,-2.145996 -1.083984,-3.782959 1.417236,0 q 0.333252,1.732178 0.373535,2.332764 0.128174,-0.948486 0.428467,-2.332764 L 29.898436,36.515205 Z"
         id="path1341"
         inkscape:connector-curvature="0" />
    </g>
    <g
       id="g1133"
       transform="matrix(0.19529712,0,0,0.19529712,176.92852,658.61805)"
       style="fill:#ffffff;fill-opacity:0.50285716">
      <path
         id="path1098"
         transform="translate(167.42857,811.2193)"
         d="M -61.90625,39.46875 -80.3125,39.6875 -71.34375,45.59375 -61.90625,39.46875 z m 7.71875,0.375 L -64.78125,45.875 -45.125,46.96875 -54.1875,39.84375 z m -32.78125,7.6875 c -2.617643,0.148838 -5.753931,1.041427 -9.25,2.78125 -11.18742,5.567434 -21.71894,17.537967 -23.53125,26.71875 -1.81231,9.180783 5.78133,12.098684 16.96875,6.53125 C -91.593828,77.995066 -81.062313,66.055783 -79.25,56.875 -78.004035,50.563212 -81.209935,47.203806 -86.96875,47.53125 z m 16.5,1.59375 -6.0625,15.65625 L -50.25,64.40625 -70.46875,49.125 Z M -64,49.53125 l 19.25,15.125 0.28125,-13.4375 L -64,49.53125 z m 18.03125,18.40625 -26.25,0.40625 19.0625,12.875 L -45.96875,67.9375 z m -31.9375,1.40625 c -17.817765,17.377547 -21.369186,23.774063 -42.8125,25.375 -3.91428,-0.859937 -4.24849,-8.364551 -6.0625,-13.125 l -0.25,30.3125 c 0.35281,2.00674 2.92133,7.97777 11.5,9.59375 21.739944,0.75514 44.135158,-1.1618 66.53125,-3.03125 2.523456,-13.9741 2.372252,-28.402659 3.03125,-42.6875 -9.653875,14.984578 -20.481656,25.48166 -31.8125,34.09375 L -75,107.09375 -55.0625,83.46875 -77.90625,69.34375 Z"
         style="fill:#ffffff;fill-opacity:0.50285716;stroke:none"
         inkscape:connector-curvature="0" />
      <path
         transform="translate(167.42857,811.2193)"
         inkscape:connector-curvature="0"
         id="path1112"
         d="M -84.600276,27.291873 -73.362329,28.428294 -76.013979,6.7100145 Z"
         style="fill:#ffffff;fill-opacity:0.50285716;stroke:none" />
      <path
         style="fill:#ffffff;fill-opacity:0.50285716;stroke:none"
         d="M 122.53277,842.06225 130.83313,849.723 141.76293,830.76899 Z"
         id="path1114"
         inkscape:connector-curvature="0" />
      <path
         sodipodi:nodetypes="cccc"
         style="fill:#ffffff;fill-opacity:0.50285716;stroke:none"
         d="M 46.535233,861.43599 54.874956,854.0572 36.535268,842.22371 Z"
         id="path1116"
         inkscape:connector-curvature="0" />
      <path
         sodipodi:nodetypes="cccc"
         inkscape:connector-curvature="0"
         id="path1118"
         d="M 28.938769,900.64748 28.739985,889.35397 6.7292655,897.07747 Z"
         style="fill:#ffffff;fill-opacity:0.50285716;stroke:none" />
      <path
         style="fill:#ffffff;fill-opacity:0.50285716;stroke:none"
         d="M 36.561923,937.49047 28.553167,929.52539 16.923776,948.05838 Z"
         id="path1120"
         inkscape:connector-curvature="0" />
    </g>
  </g>
</svg>
