<?xml version="1.0" encoding="UTF-8" standalone="no"?>
<!-- Created with Inkscape (http://www.inkscape.org/) -->

<svg
   xmlns:dc="http://purl.org/dc/elements/1.1/"
   xmlns:cc="http://creativecommons.org/ns#"
   xmlns:rdf="http://www.w3.org/1999/02/22-rdf-syntax-ns#"
   xmlns:svg="http://www.w3.org/2000/svg"
   xmlns="http://www.w3.org/2000/svg"
   xmlns:xlink="http://www.w3.org/1999/xlink"
   xmlns:sodipodi="http://sodipodi.sourceforge.net/DTD/sodipodi-0.dtd"
   xmlns:inkscape="http://www.inkscape.org/namespaces/inkscape"
   width="48"
   height="48"
   id="svg8900"
   version="1.1"
   inkscape:version="0.48+devel r11725"
   sodipodi:docname="document-print.svg">
  <defs
     id="defs8902">
    <linearGradient
       id="linearGradient3824">
      <stop
         style="stop-color:#000000;stop-opacity:1;"
         offset="0"
         id="stop3826" />
      <stop
         style="stop-color:#ffffff;stop-opacity:1;"
         offset="1"
         id="stop3828" />
    </linearGradient>
    <linearGradient
       id="linearGradient8773">
      <stop
         style="stop-color:#000000;stop-opacity:1;"
         offset="0"
         id="stop8775" />
      <stop
         style="stop-color:#ffffff;stop-opacity:1;"
         offset="1"
         id="stop8777" />
    </linearGradient>
    <linearGradient
       id="linearGradient3944">
      <stop
         style="stop-color:#5b5b5b;stop-opacity:1;"
         offset="0"
         id="stop3946" />
      <stop
         id="stop3948"
         offset="0.50158662"
         style="stop-color:#c1c1c1;stop-opacity:1;" />
      <stop
         style="stop-color:#000000;stop-opacity:1;"
         offset="1"
         id="stop3950" />
    </linearGradient>
    <linearGradient
       id="linearGradient3916">
      <stop
         id="stop3918"
         offset="0"
         style="stop-color:#5b5b5b;stop-opacity:1;" />
      <stop
         style="stop-color:#c1c1c1;stop-opacity:1;"
         offset="0.2"
         id="stop3920" />
      <stop
         id="stop3922"
         offset="1"
         style="stop-color:#000000;stop-opacity:1;" />
    </linearGradient>
    <linearGradient
       id="linearGradient3908">
      <stop
         id="stop3910"
         offset="0"
         style="stop-color:#5b5b5b;stop-opacity:1;" />
      <stop
         style="stop-color:#c1c1c1;stop-opacity:1;"
         offset="0.2"
         id="stop3912" />
      <stop
         id="stop3914"
         offset="1"
         style="stop-color:#000000;stop-opacity:1;" />
    </linearGradient>
    <filter
       color-interpolation-filters="sRGB"
       inkscape:collect="always"
       id="filter3812">
      <feGaussianBlur
         inkscape:collect="always"
         stdDeviation="0.080023022"
         id="feGaussianBlur3814" />
    </filter>
    <linearGradient
       id="linearGradient8797">
      <stop
         style="stop-color:#000000;stop-opacity:1;"
         offset="0"
         id="stop8799" />
      <stop
         style="stop-color:#ffffff;stop-opacity:1;"
         offset="1"
         id="stop8801" />
    </linearGradient>
    <linearGradient
       id="linearGradient8804">
      <stop
         style="stop-color:#000000;stop-opacity:1;"
         offset="0"
         id="stop8806" />
      <stop
         style="stop-color:#ffffff;stop-opacity:1;"
         offset="1"
         id="stop8808" />
    </linearGradient>
    <linearGradient
       id="linearGradient8811">
      <stop
         style="stop-color:#000000;stop-opacity:1;"
         offset="0"
         id="stop8813" />
      <stop
         style="stop-color:#ffffff;stop-opacity:1;"
         offset="1"
         id="stop8815" />
    </linearGradient>
    <filter
       color-interpolation-filters="sRGB"
       inkscape:collect="always"
       id="filter4023">
      <feGaussianBlur
         inkscape:collect="always"
         stdDeviation="0.0671875"
         id="feGaussianBlur4025" />
    </filter>
    <linearGradient
       inkscape:collect="always"
       id="linearGradient4027">
      <stop
         style="stop-color:#ffffff;stop-opacity:1;"
         offset="0"
         id="stop4029" />
      <stop
         style="stop-color:#ffffff;stop-opacity:0;"
         offset="1"
         id="stop4031" />
    </linearGradient>
    <linearGradient
       inkscape:collect="always"
       id="linearGradient4065">
      <stop
         style="stop-color:#000000;stop-opacity:1;"
         offset="0"
         id="stop4067" />
      <stop
         style="stop-color:#000000;stop-opacity:0;"
         offset="1"
         id="stop4069" />
    </linearGradient>
    <linearGradient
       inkscape:collect="always"
       id="linearGradient4057">
      <stop
         style="stop-color:#000000;stop-opacity:1;"
         offset="0"
         id="stop4059" />
      <stop
         style="stop-color:#000000;stop-opacity:0;"
         offset="1"
         id="stop4061" />
    </linearGradient>
    <linearGradient
       inkscape:collect="always"
       id="linearGradient4049">
      <stop
         style="stop-color:#000000;stop-opacity:1;"
         offset="0"
         id="stop4051" />
      <stop
         style="stop-color:#000000;stop-opacity:0;"
         offset="1"
         id="stop4053" />
    </linearGradient>
    <filter
       color-interpolation-filters="sRGB"
       inkscape:collect="always"
       id="filter9572">
      <feGaussianBlur
         inkscape:collect="always"
         stdDeviation="0.019611165"
         id="feGaussianBlur9574" />
    </filter>
    <filter
       color-interpolation-filters="sRGB"
       inkscape:collect="always"
       id="filter9568">
      <feGaussianBlur
         inkscape:collect="always"
         stdDeviation="0.019611165"
         id="feGaussianBlur9570" />
    </filter>
    <filter
       color-interpolation-filters="sRGB"
       inkscape:collect="always"
       id="filter9564">
      <feGaussianBlur
         inkscape:collect="always"
         stdDeviation="0.019611165"
         id="feGaussianBlur9566" />
    </filter>
    <linearGradient
       id="linearGradient3737-3-5">
      <stop
         id="stop3739-6-0"
         style="stop-color:#000000;stop-opacity:1;"
         offset="0" />
      <stop
         id="stop3741-1-8"
         style="stop-color:#ffffff;stop-opacity:1;"
         offset="1" />
    </linearGradient>
    <linearGradient
       id="linearGradient8853">
      <stop
         id="stop8855"
         style="stop-color:#000000;stop-opacity:1;"
         offset="0" />
      <stop
         id="stop8857"
         style="stop-color:#ffffff;stop-opacity:1;"
         offset="1" />
    </linearGradient>
    <linearGradient
       inkscape:collect="always"
       xlink:href="#linearGradient3737-3-5"
       id="linearGradient9538"
       gradientUnits="userSpaceOnUse"
       gradientTransform="matrix(1,0,0,0.70161302,3.4802912,1011.9183)"
       x1="37.77441"
       y1="23.825788"
       x2="37.819725"
       y2="21.107847" />
    <linearGradient
       id="linearGradient8860">
      <stop
         id="stop8862"
         style="stop-color:#000000;stop-opacity:1;"
         offset="0" />
      <stop
         id="stop8864"
         style="stop-color:#ffffff;stop-opacity:1;"
         offset="1" />
    </linearGradient>
    <linearGradient
       inkscape:collect="always"
       xlink:href="#linearGradient3737-3-5"
       id="linearGradient3091"
       gradientUnits="userSpaceOnUse"
       gradientTransform="matrix(1,0,0,0.70161302,93.867423,621.63259)"
       x1="37.77441"
       y1="23.825788"
       x2="37.819725"
       y2="21.107847" />
    <linearGradient
       inkscape:collect="always"
       xlink:href="#linearGradient3737-3-5"
       id="linearGradient3094"
       gradientUnits="userSpaceOnUse"
       gradientTransform="matrix(1,0,0,0.70161302,91.724003,621.63259)"
       x1="37.77441"
       y1="23.825788"
       x2="37.819725"
       y2="21.107847" />
    <linearGradient
       inkscape:collect="always"
       xlink:href="#linearGradient3737-3-5"
       id="linearGradient3097"
       gradientUnits="userSpaceOnUse"
       gradientTransform="matrix(1,0,0,0.70161302,92.795713,621.63259)"
       x1="37.77441"
       y1="23.825788"
       x2="37.819725"
       y2="21.107847" />
    <radialGradient
       inkscape:collect="always"
       xlink:href="#linearGradient4049"
       id="radialGradient3108"
       gradientUnits="userSpaceOnUse"
       gradientTransform="matrix(1,0,0,86.527628,90.170633,-87272.282)"
       cx="31.625"
       cy="1015.831"
       fx="31.625"
       fy="1015.831"
       r="0.0625" />
    <radialGradient
       inkscape:collect="always"
       xlink:href="#linearGradient4057"
       id="radialGradient3111"
       gradientUnits="userSpaceOnUse"
       gradientTransform="matrix(1,0,0,96,90.170633,-96861.771)"
       cx="27.25"
       cy="1015.4872"
       fx="27.25"
       fy="1015.4872"
       r="0.0625" />
    <radialGradient
       inkscape:collect="always"
       xlink:href="#linearGradient4065"
       id="radialGradient3114"
       gradientUnits="userSpaceOnUse"
       gradientTransform="matrix(1,0,0,95.5,90.170633,-96368.793)"
       cx="21.75"
       cy="1015.6435"
       fx="21.75"
       fy="1015.6435"
       r="0.0625" />
    <radialGradient
       inkscape:collect="always"
       xlink:href="#linearGradient4065"
       id="radialGradient3117"
       gradientUnits="userSpaceOnUse"
       gradientTransform="matrix(1,0,0,90.5,90.170633,-91290.576)"
       cx="17.3125"
       cy="1015.6435"
       fx="17.3125"
       fy="1015.6435"
       r="0.0625" />
    <linearGradient
       inkscape:collect="always"
       xlink:href="#linearGradient4027"
       id="linearGradient3120"
       gradientUnits="userSpaceOnUse"
       gradientTransform="matrix(1,0,0,0.84422997,90.170633,-228.6141)"
       x1="24.586102"
       y1="1041.9475"
       x2="24.586102"
       y2="1039.7168" />
    <linearGradient
       inkscape:collect="always"
       xlink:href="#linearGradient3824"
       id="linearGradient3124"
       gradientUnits="userSpaceOnUse"
       gradientTransform="translate(90.170633,613.87579)"
       x1="24.285713"
       y1="28.143274"
       x2="24.285713"
       y2="15.131048" />
    <linearGradient
       inkscape:collect="always"
       xlink:href="#linearGradient3824"
       id="linearGradient3132"
       gradientUnits="userSpaceOnUse"
       gradientTransform="translate(90.170633,-390.48637)"
       x1="24.52697"
       y1="1047.1616"
       x2="24.52697"
       y2="1025.7197" />
    <linearGradient
       inkscape:collect="always"
       xlink:href="#linearGradient3824"
       id="linearGradient3135"
       gradientUnits="userSpaceOnUse"
       gradientTransform="translate(90.170633,-390.48637)"
       x1="25.173595"
       y1="1007.3634"
       x2="25.173595"
       y2="1035.0579" />
    <linearGradient
       inkscape:collect="always"
       xlink:href="#linearGradient3908"
       id="linearGradient3139"
       gradientUnits="userSpaceOnUse"
       gradientTransform="matrix(0.98198198,0,0,1.0434783,90.239813,612.99999)"
       x1="9.3080359"
       y1="25.907064"
       x2="9.3080359"
       y2="19.311537" />
    <linearGradient
       inkscape:collect="always"
       xlink:href="#linearGradient3916"
       id="linearGradient3142"
       gradientUnits="userSpaceOnUse"
       gradientTransform="matrix(-0.98198198,0,0,1.0434783,138.59033,612.99999)"
       x1="9.3080359"
       y1="25.906807"
       x2="9.3080359"
       y2="18.958965" />
    <linearGradient
       inkscape:collect="always"
       xlink:href="#linearGradient3944"
       id="linearGradient3145"
       gradientUnits="userSpaceOnUse"
       gradientTransform="matrix(1.0157729,0,0,1,89.979583,613.93829)"
       x1="24.730925"
       y1="32.601627"
       x2="24.730925"
       y2="21.445097" />
    <linearGradient
       inkscape:collect="always"
       xlink:href="#linearGradient3824"
       id="linearGradient3148"
       gradientUnits="userSpaceOnUse"
       gradientTransform="translate(90.170633,613.87579)"
       x1="24.6875"
       y1="33.393127"
       x2="24.6875"
       y2="39.286556" />
    <linearGradient
       inkscape:collect="always"
       xlink:href="#linearGradient3824"
       id="linearGradient3151"
       gradientUnits="userSpaceOnUse"
       gradientTransform="translate(90.170633,600.43833)"
       x1="24.6875"
       y1="33.393127"
       x2="24.6875"
       y2="39.286556" />
    <linearGradient
       id="linearGradient4464">
      <stop
         style="stop-color:#b6b6b6;stop-opacity:1;"
         offset="0"
         id="stop4466" />
      <stop
         id="stop4468"
         offset="0.36464298"
         style="stop-color:#e5e5e5;stop-opacity:1;" />
      <stop
         id="stop4470"
         offset="0.42982948"
         style="stop-color:#f0f0f0;stop-opacity:1;" />
      <stop
         style="stop-color:#9f9f9f;stop-opacity:1;"
         offset="1"
         id="stop4472" />
    </linearGradient>
    <linearGradient
       id="linearGradient4454">
      <stop
         id="stop4456"
         offset="0"
         style="stop-color:#b6b6b6;stop-opacity:1;" />
      <stop
         style="stop-color:#e0e0e0;stop-opacity:1;"
         offset="0.36464298"
         id="stop4458" />
      <stop
         style="stop-color:#ededed;stop-opacity:1;"
         offset="0.42982948"
         id="stop4460" />
      <stop
         id="stop4462"
         offset="1"
         style="stop-color:#9f9f9f;stop-opacity:1;" />
    </linearGradient>
    <linearGradient
       id="linearGradient4490">
      <stop
         style="stop-color:#b6b6b6;stop-opacity:1;"
         offset="0"
         id="stop4492" />
      <stop
         id="stop4494"
         offset="0.36464298"
         style="stop-color:#e0e0e0;stop-opacity:1;" />
      <stop
         id="stop4496"
         offset="0.68232149"
         style="stop-color:#ededed;stop-opacity:1;" />
      <stop
         style="stop-color:#9f9f9f;stop-opacity:1;"
         offset="1"
         id="stop4498" />
    </linearGradient>
    <linearGradient
       id="linearGradient4438">
      <stop
         id="stop4440"
         offset="0"
         style="stop-color:#636363;stop-opacity:1;" />
      <stop
         style="stop-color:#979797;stop-opacity:1;"
         offset="0.09999999"
         id="stop4442" />
      <stop
         id="stop4444"
         offset="1"
         style="stop-color:#323232;stop-opacity:1;" />
    </linearGradient>
    <linearGradient
       id="linearGradient4596">
      <stop
         id="stop4598"
         offset="0"
         style="stop-color:#ffffff;stop-opacity:1;" />
      <stop
         style="stop-color:#bbbbbb;stop-opacity:1;"
         offset="0.11831769"
         id="stop4600" />
      <stop
         style="stop-color:#ffffff;stop-opacity:1;"
         offset="0.48967344"
         id="stop4602" />
      <stop
         id="stop4606"
         offset="0.71154857"
         style="stop-color:#909090;stop-opacity:1;" />
      <stop
         id="stop4604"
         offset="1"
         style="stop-color:#e5e5e5;stop-opacity:1;" />
    </linearGradient>
    <linearGradient
       id="linearGradient4578">
      <stop
         style="stop-color:#c5c5c5;stop-opacity:1;"
         offset="0"
         id="stop4580" />
      <stop
         id="stop4582"
         offset="0.30773756"
         style="stop-color:#e0e0e0;stop-opacity:1;" />
      <stop
         id="stop4584"
         offset="0.4230971"
         style="stop-color:#ffffff;stop-opacity:1;" />
      <stop
         style="stop-color:#cbcbcb;stop-opacity:1;"
         offset="1"
         id="stop4586" />
    </linearGradient>
    <linearGradient
       id="linearGradient4390">
      <stop
         id="stop4392"
         offset="0"
         style="stop-color:#2d9cd8;stop-opacity:1;" />
      <stop
         style="stop-color:#88c6f7;stop-opacity:1"
         offset="0.72347784"
         id="stop4396" />
      <stop
         id="stop4394"
         offset="1"
         style="stop-color:#2d9cd8;stop-opacity:1;" />
    </linearGradient>
    <linearGradient
       id="linearGradient4500">
      <stop
         style="stop-color:#f2ff0e;stop-opacity:1;"
         offset="0"
         id="stop4502" />
      <stop
         style="stop-color:#abf34d;stop-opacity:1;"
         offset="1"
         id="stop4504" />
    </linearGradient>
    <linearGradient
       id="linearGradient8860-2">
      <stop
         id="stop8862-6"
         style="stop-color:#000000;stop-opacity:1;"
         offset="0" />
      <stop
         id="stop8864-3"
         style="stop-color:#ffffff;stop-opacity:1;"
         offset="1" />
    </linearGradient>
    <linearGradient
       id="linearGradient4712">
      <stop
         id="stop4714"
         style="stop-color:#000000;stop-opacity:1;"
         offset="0" />
      <stop
         id="stop4716"
         style="stop-color:#ffffff;stop-opacity:1;"
         offset="1" />
    </linearGradient>
    <linearGradient
       id="linearGradient4528">
      <stop
         id="stop4530"
         offset="0"
         style="stop-color:#ffffff;stop-opacity:0.64814815" />
      <stop
         id="stop4532"
         offset="1"
         style="stop-color:#e0e0e0;stop-opacity:0;" />
    </linearGradient>
    <linearGradient
       id="linearGradient3987">
      <stop
         style="stop-color:#b6b6b6;stop-opacity:1;"
         offset="0"
         id="stop3989" />
      <stop
         id="stop3995"
         offset="0.30686653"
         style="stop-color:#e0e0e0;stop-opacity:1;" />
      <stop
         id="stop3991"
         offset="0.61373305"
         style="stop-color:#ededed;stop-opacity:1;" />
      <stop
         style="stop-color:#9f9f9f;stop-opacity:1;"
         offset="1"
         id="stop3993" />
    </linearGradient>
    <linearGradient
       id="linearGradient3997">
      <stop
         style="stop-color:#737373;stop-opacity:1;"
         offset="0"
         id="stop3999" />
      <stop
         id="stop4001"
         offset="0.44699538"
         style="stop-color:#444444;stop-opacity:1;" />
      <stop
         style="stop-color:#505050;stop-opacity:1;"
         offset="1"
         id="stop4003" />
    </linearGradient>
    <linearGradient
       id="linearGradient4768">
      <stop
         style="stop-color:#737373;stop-opacity:1;"
         offset="0"
         id="stop4770" />
      <stop
         id="stop4772"
         offset="0.44699538"
         style="stop-color:#444444;stop-opacity:1;" />
      <stop
         style="stop-color:#505050;stop-opacity:1;"
         offset="1"
         id="stop4774" />
    </linearGradient>
    <linearGradient
       id="linearGradient3953">
      <stop
         style="stop-color:#1f73a7;stop-opacity:1;"
         offset="0"
         id="stop3955" />
      <stop
         style="stop-color:#87b8ea;stop-opacity:1;"
         offset="1"
         id="stop3957" />
    </linearGradient>
    <linearGradient
       id="linearGradient4005">
      <stop
         style="stop-color:#636363;stop-opacity:1;"
         offset="0"
         id="stop4007" />
      <stop
         id="stop4009"
         offset="0.44699538"
         style="stop-color:#979797;stop-opacity:1;" />
      <stop
         style="stop-color:#323232;stop-opacity:1;"
         offset="1"
         id="stop4011" />
    </linearGradient>
    <linearGradient
       inkscape:collect="always"
       xlink:href="#linearGradient8140"
       id="linearGradient8220"
       gradientUnits="userSpaceOnUse"
       gradientTransform="matrix(1,0,0,0.78399091,-8.079887,156.42073)"
       x1="356.01141"
       y1="600.81055"
       x2="356.01141"
       y2="579.06647" />
    <linearGradient
       id="linearGradient8140">
      <stop
         style="stop-color:#959595;stop-opacity:1;"
         offset="0"
         id="stop8142" />
      <stop
         id="stop8144"
         offset="0.1564638"
         style="stop-color:#e0e0e0;stop-opacity:1;" />
      <stop
         id="stop8146"
         offset="0.75194097"
         style="stop-color:#ededed;stop-opacity:1;" />
      <stop
         style="stop-color:#868686;stop-opacity:1;"
         offset="1"
         id="stop8148" />
    </linearGradient>
    <linearGradient
       inkscape:collect="always"
       xlink:href="#linearGradient4846"
       id="linearGradient8044"
       gradientUnits="userSpaceOnUse"
       gradientTransform="translate(208.43658,605.82824)"
       x1="116.64389"
       y1="31.333487"
       x2="161.78897"
       y2="31.333487" />
    <linearGradient
       id="linearGradient4846">
      <stop
         style="stop-color:#626262;stop-opacity:1;"
         offset="0"
         id="stop4848" />
      <stop
         id="stop4858"
         offset="0.01761973"
         style="stop-color:#ababab;stop-opacity:1;" />
      <stop
         id="stop4850"
         offset="0.04698669"
         style="stop-color:#ffffff;stop-opacity:1;" />
      <stop
         id="stop4852"
         offset="0.35622254"
         style="stop-color:#c7c7c7;stop-opacity:1;" />
      <stop
         style="stop-color:#ffffff;stop-opacity:1;"
         offset="0.95644945"
         id="stop4856" />
      <stop
         id="stop4860"
         offset="0.97822475"
         style="stop-color:#ababab;stop-opacity:1;" />
      <stop
         style="stop-color:#626262;stop-opacity:1;"
         offset="1"
         id="stop4854" />
    </linearGradient>
    <linearGradient
       inkscape:collect="always"
       xlink:href="#linearGradient7983"
       id="linearGradient8038"
       gradientUnits="userSpaceOnUse"
       gradientTransform="translate(145.35221,608.19549)"
       x1="179.81503"
       y1="37.171722"
       x2="225.70694"
       y2="37.171722" />
    <linearGradient
       id="linearGradient7983">
      <stop
         style="stop-color:#000000;stop-opacity:1;"
         offset="0"
         id="stop7985" />
      <stop
         id="stop7987"
         offset="0.04053095"
         style="stop-color:#848484;stop-opacity:1;" />
      <stop
         style="stop-color:#000000;stop-opacity:1;"
         offset="0.11928526"
         id="stop7989" />
      <stop
         id="stop7991"
         offset="0.87064826"
         style="stop-color:#000000;stop-opacity:1;" />
      <stop
         style="stop-color:#5a5a5a;stop-opacity:1;"
         offset="0.96640164"
         id="stop7993" />
      <stop
         style="stop-color:#000000;stop-opacity:1;"
         offset="1"
         id="stop7995" />
    </linearGradient>
    <linearGradient
       inkscape:collect="always"
       xlink:href="#linearGradient7983"
       id="linearGradient8032"
       gradientUnits="userSpaceOnUse"
       gradientTransform="translate(145.37891,591.98728)"
       x1="179.87579"
       y1="37.773869"
       x2="225.70694"
       y2="37.773869" />
    <linearGradient
       id="linearGradient8308">
      <stop
         style="stop-color:#000000;stop-opacity:1;"
         offset="0"
         id="stop8310" />
      <stop
         id="stop8312"
         offset="0.04053095"
         style="stop-color:#848484;stop-opacity:1;" />
      <stop
         style="stop-color:#000000;stop-opacity:1;"
         offset="0.11928526"
         id="stop8314" />
      <stop
         id="stop8316"
         offset="0.87064826"
         style="stop-color:#000000;stop-opacity:1;" />
      <stop
         style="stop-color:#5a5a5a;stop-opacity:1;"
         offset="0.96640164"
         id="stop8318" />
      <stop
         style="stop-color:#000000;stop-opacity:1;"
         offset="1"
         id="stop8320" />
    </linearGradient>
    <linearGradient
       inkscape:collect="always"
       xlink:href="#linearGradient8092"
       id="linearGradient8090"
       x1="333.70633"
       y1="626.37421"
       x2="333.70633"
       y2="630.12933"
       gradientUnits="userSpaceOnUse" />
    <linearGradient
       id="linearGradient8092">
      <stop
         id="stop8094"
         offset="0"
         style="stop-color:#ffffff;stop-opacity:1;" />
      <stop
         style="stop-color:#ffffff;stop-opacity:0.58510637;"
         offset="0.5"
         id="stop8098" />
      <stop
         id="stop8096"
         offset="1"
         style="stop-color:#ffffff;stop-opacity:1;" />
    </linearGradient>
    <linearGradient
       inkscape:collect="always"
       xlink:href="#linearGradient7947"
       id="linearGradient8192"
       gradientUnits="userSpaceOnUse"
       gradientTransform="translate(208.40237,605.73406)"
       x1="138.91542"
       y1="37.618633"
       x2="138.91542"
       y2="36.010155" />
    <linearGradient
       id="linearGradient7947">
      <stop
         id="stop7949"
         offset="0"
         style="stop-color:#ffffff;stop-opacity:1;" />
      <stop
         id="stop7951"
         offset="1"
         style="stop-color:#ffffff;stop-opacity:0;" />
    </linearGradient>
    <linearGradient
       inkscape:collect="always"
       xlink:href="#linearGradient7963"
       id="linearGradient8189"
       gradientUnits="userSpaceOnUse"
       gradientTransform="translate(153.08467,609.23406)"
       x1="179.46417"
       y1="37.448074"
       x2="209.81184"
       y2="36.994949" />
    <linearGradient
       id="linearGradient7963">
      <stop
         id="stop7965"
         offset="0"
         style="stop-color:#000000;stop-opacity:1;" />
      <stop
         style="stop-color:#848484;stop-opacity:1;"
         offset="0.03981626"
         id="stop7967" />
      <stop
         id="stop7971"
         offset="0.08496448"
         style="stop-color:#000000;stop-opacity:1;" />
      <stop
         style="stop-color:#000000;stop-opacity:1;"
         offset="0.94245821"
         id="stop7973" />
      <stop
         id="stop7975"
         offset="0.97122908"
         style="stop-color:#5a5a5a;stop-opacity:1;" />
      <stop
         id="stop7969"
         offset="1"
         style="stop-color:#000000;stop-opacity:1;" />
    </linearGradient>
  </defs>
  <sodipodi:namedview
     id="base"
     pagecolor="#ffffff"
     bordercolor="#666666"
     borderopacity="1.0"
     inkscape:pageopacity="0.0"
     inkscape:pageshadow="2"
     inkscape:zoom="3.959798"
     inkscape:cx="-8.684108"
     inkscape:cy="11.238325"
     inkscape:document-units="px"
     inkscape:current-layer="layer1"
     showgrid="false"
     fit-margin-top="0"
     fit-margin-left="0"
     fit-margin-right="0"
     fit-margin-bottom="0"
     inkscape:window-width="1366"
     inkscape:window-height="746"
     inkscape:window-x="0"
     inkscape:window-y="0"
     inkscape:window-maximized="1" />
  <metadata
     id="metadata8905">
    <rdf:RDF>
      <cc:Work
         rdf:about="">
        <dc:format>image/svg+xml</dc:format>
        <dc:type
           rdf:resource="http://purl.org/dc/dcmitype/StillImage" />
        <dc:title />
      </cc:Work>
    </rdf:RDF>
  </metadata>
  <g
     inkscape:label="Capa 1"
     inkscape:groupmode="layer"
     id="layer1"
     transform="translate(-153.14286,-614.07647)">
    <g
       id="g8250"
       transform="translate(-170.5544,7.3595121)">
      <g
         id="g8226">
        <g
           id="g8150"
           transform="translate(-0.40626258,0)">
          <path
             sodipodi:nodetypes="ccccc"
             inkscape:connector-curvature="0"
             id="path8118"
             d="m 334.95769,621.32944 c 8.72488,0.77214 17.60056,0.63945 26.5607,0 l 0,8.88303 -26.60489,0 z"
             style="fill:#000000;stroke:none" />
          <rect
             ry="0.50823301"
             y="620.92065"
             x="333.99844"
             height="10.518213"
             width="0.99049515"
             id="rect8114"
             style="fill:#000000;stroke:#666666;stroke-width:0.1;stroke-linecap:butt;stroke-linejoin:round;stroke-miterlimit:4;stroke-opacity:1;stroke-dasharray:none;stroke-dashoffset:0" />
          <rect
             style="fill:#000000;stroke:#666666;stroke-width:0.1;stroke-linecap:butt;stroke-linejoin:round;stroke-miterlimit:4;stroke-opacity:1;stroke-dasharray:none;stroke-dashoffset:0"
             id="rect8116"
             width="0.99049515"
             height="10.518213"
             x="361.22208"
             y="620.92065"
             ry="0.50823301" />
        </g>
        <path
           sodipodi:nodetypes="sssssssss"
           inkscape:connector-curvature="0"
           id="path8120"
           d="m 337.99129,613.8356 19.44551,0 c 0.68493,0 1.23036,0.10239 1.23635,0.57354 0.0526,4.12912 -0.02,8.84043 -0.02,12.66216 0,0.47269 -0.53141,0.82836 -1.21634,0.82836 l -19.44551,0 c -0.68495,0 -1.26923,-0.35567 -1.26923,-0.82836 0,-4.19276 -0.0522,-8.45725 0.0329,-12.58368 0.0105,-0.46975 0.5514,-0.65202 1.23634,-0.65202 z"
           style="fill:url(#linearGradient8220);fill-opacity:1;fill-rule:evenodd;stroke:none" />
      </g>
      <g
         id="g8233">
        <g
           id="g8169">
          <path
             sodipodi:nodetypes="ccccccc"
             inkscape:connector-curvature="0"
             id="path8073"
             d="m 324.82635,629.91207 2.57698,-2.61294 40.28264,0.0444 2.68619,2.43441 c 0.2242,0.18757 0.68768,0.72164 -1.01047,0.72164 l -43.84525,-0.0329 c -0.75288,0 -0.76207,-0.27801 -0.69009,-0.5545 z"
             style="fill:#000000;stroke:none" />
          <path
             style="fill:url(#linearGradient8044);fill-opacity:1;stroke:none"
             d="m 324.78951,630.15674 0,13.609 c 0.30829,0.42829 1.20727,0.54385 2.21591,0.60135 l 6.05616,-0.11049 0,-8.24197 c 0.095,-0.55957 0.45844,-0.85522 1.17187,-1.06139 l 26.78125,0 c 0.55173,0.11385 1.10564,0.0668 1.3125,1.15782 l 0,8.15625 6.39063,0.15468 c 0.66359,-0.11427 1.36176,-0.17423 1.88716,-0.50566 l 0,-13.83809 c -0.3634,0.19771 -0.67736,0.29262 -1.26413,0.39179 l -43.06053,0 c -0.44909,4.1e-4 -0.73918,-0.0213 -0.9583,-0.0715 -0.21913,-0.0501 -0.36729,-0.12866 -0.53252,-0.24181 z"
             id="path7721"
             inkscape:connector-curvature="0"
             sodipodi:nodetypes="ccccccccccccccsc" />
          <path
             style="fill:url(#linearGradient8038);fill-opacity:1;stroke:none"
             d="m 370.14452,645.97379 0,-1.81317 c -0.43568,0.21732 -0.60794,0.33415 -1.29004,0.39959 l -42.46084,-0.0781 c -0.49087,-0.0199 -0.83503,-0.13882 -1.26866,-0.34066 l 0,1.9115 c 0.17471,0.26041 0.58746,0.4603 1.20739,0.50683 l 42.0682,0 c 0.70225,-0.0194 1.30969,-0.21302 1.74395,-0.53128 z"
             id="path7977"
             inkscape:connector-curvature="0"
             sodipodi:nodetypes="cccccccccc" />
          <path
             sodipodi:nodetypes="cccccccccc"
             inkscape:connector-curvature="0"
             id="path8009"
             d="m 370.22201,630.16401 0,-1.07879 c -0.38731,0.59394 -0.8346,0.54594 -1.93588,0.54594 l -41.35798,0 c -0.78774,-0.0238 -1.33503,-0.11325 -1.74913,-0.37368 l 0,0.89197 c 0.2387,0.31291 0.69688,0.41921 1.72424,0.41921 l 41.35083,0 c 1.22859,0 1.57696,-0.12162 1.96792,-0.40457 z"
             style="fill:url(#linearGradient8032);fill-opacity:1;stroke:none" />
          <path
             style="fill:none;stroke:#919191;stroke-width:0.19179885;stroke-miterlimit:4;stroke-opacity:1;stroke-dasharray:none"
             d="m 325.29235,628.96134 2.26187,-2.07576 c 13.23232,-0.54587 26.46465,-0.6987 39.69697,-0.0691 l 2.65715,2.02026 c 0.22178,0.17439 0.68025,0.67092 -0.99955,0.67092 l -42.93381,-0.0307 c -0.74474,0 -0.75383,-0.25846 -0.68263,-0.51552 z"
             id="path8075"
             inkscape:connector-curvature="0"
             sodipodi:nodetypes="cccccccc" />
          <path
             sodipodi:nodetypes="cccccccc"
             inkscape:connector-curvature="0"
             id="path8077"
             d="m 325.29235,628.96134 2.26187,-2.07576 c 13.23232,-0.54587 26.46465,-0.6987 39.69697,-0.0691 l 2.65715,2.02026 c 0.22178,0.17439 0.68025,0.67092 -0.99955,0.67092 l -42.93381,-0.0307 c -0.74474,0 -0.75383,-0.25846 -0.68263,-0.51552 z"
             style="fill:#000000;stroke:none" />
          <path
             sodipodi:nodetypes="cccsccc"
             inkscape:connector-curvature="0"
             id="path8079"
             d="m 347.42161,626.40626 c -6.61616,0.0277 -13.22759,0.19582 -19.84375,0.46875 l -2.28125,2.09375 c -0.0712,0.25706 -0.0572,0.5 0.6875,0.5 l 17.65625,0 c 1.26588,-1.10165 3.23074,-2.33702 7.9375,-3.0625 -0.83222,-10e-4 -3.32403,-0.003 -4.15625,0 z"
             style="opacity:0.45;fill:url(#linearGradient8090);fill-opacity:1;stroke:none" />
        </g>
        <rect
           style="fill:#000000;fill-opacity:1;stroke:none"
           id="rect7857"
           width="29.324093"
           height="10.539199"
           x="333.0372"
           y="634.85461"
           ry="1.7685659" />
        <path
           style="fill:url(#linearGradient8192);fill-opacity:1;stroke:none"
           d="m 335.71487,642.04656 -1.125,2.59375 26.21875,0 -0.68152,-2.54347 z"
           id="path7935"
           inkscape:connector-curvature="0" />
        <path
           style="fill:url(#linearGradient8189);fill-opacity:1;stroke:none"
           d="m 362.89652,647.30142 0,-1.31478 c -0.41031,0.12881 -0.84558,0.19521 -1.31478,0.17678 l -27.49982,0 c -0.72067,0.0346 -1.21272,-0.11914 -1.57995,-0.37565 l 0,1.30373 c 0.13633,0.18144 0.2369,0.36575 0.87786,0.50683 l 28.27925,0 c 0.399,-0.0316 0.87999,-0.0356 1.23744,-0.29691 z"
           id="path7953"
           inkscape:connector-curvature="0"
           sodipodi:nodetypes="ccccccccc" />
        <g
           id="g8108"
           transform="translate(-3.709245,17.15717)"
           style="stroke:#44b3d1;stroke-opacity:1">
          <path
             transform="translate(153.00224,620.49053)"
             d="m 199.26562,-4.875 c 0,0.4746197 -0.38475,0.859375 -0.85937,0.859375 -0.47462,0 -0.85938,-0.3847553 -0.85938,-0.859375 0,-0.4746197 0.38476,-0.859375 0.85938,-0.859375 C 198.88087,-5.734375 199.26562,-5.3496197 199.26562,-4.875 Z"
             sodipodi:ry="0.859375"
             sodipodi:rx="0.859375"
             sodipodi:cy="-4.875"
             sodipodi:cx="198.40625"
             id="path8100"
             style="fill:none;stroke:#44b3d1;stroke-width:0.2;stroke-linecap:round;stroke-linejoin:round;stroke-miterlimit:4;stroke-opacity:1;stroke-dasharray:none;stroke-dashoffset:0"
             sodipodi:type="arc" />
          <path
             transform="matrix(0.4328606,-0.18998888,0.18998888,0.4328606,266.4754,655.42572)"
             style="fill:none;stroke:#44b3d1;stroke-width:0.41250646;stroke-linecap:butt;stroke-linejoin:round;stroke-miterlimit:4;stroke-opacity:1;stroke-dashoffset:0"
             d="m 199.26562,-4.875 c 0,0.4746197 -0.38475,0.859375 -0.85937,0.859375 -0.47462,0 -0.85938,-0.3847553 -0.85938,-0.859375 0,-0.2279204 0.0905,-0.4465058 0.25171,-0.6076699"
             id="path8102"
             inkscape:connector-curvature="0" />
          <path
             inkscape:connector-curvature="0"
             id="path8104"
             d="m 351.40849,615.67803 0,-0.54208"
             style="fill:none;stroke:#44b3d1;stroke-width:0.1;stroke-linecap:butt;stroke-linejoin:miter;stroke-miterlimit:4;stroke-opacity:1;stroke-dasharray:none"
             sodipodi:nodetypes="cc" />
        </g>
      </g>
    </g>
    <rect
       style="fill:none;stroke:none"
       id="rect15519"
       width="48"
       height="48"
       x="153.14285"
       y="614.07648"
       ry="0.23958488" />
    <g
       id="g3153"
       transform="translate(0,2.7875901e-5)">
      <rect
         style="fill:url(#linearGradient3151);fill-opacity:1;fill-rule:evenodd;stroke:none"
         id="rect4045"
         width="21.5625"
         height="2.6875"
         x="103.67063"
         y="633.62579" />
      <rect
         y="647.06329"
         x="103.67063"
         height="2.6875"
         width="21.5625"
         id="rect3997"
         style="fill:url(#linearGradient3148);fill-opacity:1;fill-rule:evenodd;stroke:none" />
      <path
         sodipodi:nodetypes="ccccccccc"
         inkscape:connector-curvature="0"
         id="path3982"
         d="m 94.233133,641.43829 c 0.0875,2.5125 0.24583,5.0293 0.66407,7.5625 2.83831,0.6894 5.699597,1.7995 8.617177,1.9375 l 0,-3.9375 21.75,0 -0.3125,4.1406 c -2.93519,0.6488 5.83724,-1.0274 8.68875,-2.1479 0.7483,-1.5056 0.94029,-5.0552 0.8425,-7.5552 z"
         style="fill:url(#linearGradient3145);fill-opacity:1;fill-rule:evenodd;stroke:none" />
      <path
         style="fill:url(#linearGradient3142);fill-opacity:1;fill-rule:evenodd;stroke:none"
         d="m 133.50191,634.75699 c -2.73187,-0.4086 -5.474,-0.7659 -8.23527,-1.0275 -0.0605,2.073 -0.3793,3.108 -0.40639,4.5532 -0.0271,1.4451 0.2152,2.9309 0.22782,4.3854 3.47564,-0.254 6.41768,-0.6794 9.50013,-1.3185 -0.0655,-2.2749 0.25983,-5.1654 -1.08629,-6.5926 z"
         id="path3848"
         inkscape:connector-curvature="0"
         sodipodi:nodetypes="ccsccc" />
      <path
         sodipodi:nodetypes="ccsccc"
         inkscape:connector-curvature="0"
         id="rect3835"
         d="m 95.460813,634.93379 c 2.51612,-0.6347 5.325797,-0.9496 8.102677,-1.2032 0.10737,2.948 0.3793,3.1069 0.4064,4.5521 0.0271,1.4451 -0.2152,2.9505 -0.22783,4.405 -3.47563,-0.254 -6.516877,-0.7321 -9.599327,-1.3712 0.1814,-2.3089 0.21147,-5.0102 1.31808,-6.3827 z"
         style="fill:url(#linearGradient3139);fill-opacity:1;fill-rule:evenodd;stroke:none" />
      <path
         sodipodi:nodetypes="sssssssss"
         inkscape:connector-curvature="0"
         id="rect3798"
         d="m 16.320753,1010.2515 16.161489,0 c 0.472447,0 0.859724,0.3804 0.852792,0.8528 -0.06084,4.1455 -0.686452,8.878 0,13.0235 0.07741,0.4675 -0.380345,0.2659 -0.852792,0.2659 l -16.161489,0 c -0.472446,0 -0.930432,0.2016 -0.852792,-0.2659 0.641794,-3.8643 0.0026,-8.8768 0,-13.0235 -3e-4,-0.4724 0.380346,-0.8528 0.852792,-0.8528 z"
         style="opacity:0.11009174;fill:#000000;fill-rule:evenodd;stroke:none;filter:url(#filter3812)"
         transform="matrix(1,0,0,0.37182819,90.170633,255.29706)" />
      <path
         sodipodi:nodetypes="cccc"
         inkscape:connector-curvature="0"
         id="path2985"
         d="m 104.64458,633.80309 -0.33239,-14.2998 c 7.74914,-1.6941 12.57807,-1.7413 20.32722,0 l -0.32629,14.2998"
         style="fill:url(#linearGradient3135);fill-opacity:1;stroke:#000000;stroke-width:0.13500001;stroke-linecap:butt;stroke-linejoin:round;stroke-miterlimit:4;stroke-opacity:1;stroke-dasharray:none" />
      <path
         sodipodi:nodetypes="ccccc"
         inkscape:connector-curvature="0"
         id="path3757"
         d="m 103.7857,649.10689 c 0.021,2.2435 0.20188,4.4671 0.88533,6.6278 l 19.33158,0 c 0.79968,-2.2299 0.88678,-4.3906 0.85258,-6.5396 z"
         style="fill:url(#linearGradient3132);fill-opacity:1;stroke:#000000;stroke-width:0.38499999;stroke-linecap:butt;stroke-linejoin:round;stroke-miterlimit:4;stroke-opacity:1;stroke-dasharray:none" />
      <path
         sodipodi:nodetypes="csc"
         inkscape:connector-curvature="0"
         id="path3767"
         d="m 134.52222,641.44329 c -1.6091,0.3052 -3.55574,0.5903 -5.17605,0.8171 -11.43156,1.5995 -23.1399,1.2616 -35.094127,-0.7976"
         style="fill:none;stroke:#000000;stroke-width:0.2;stroke-linecap:butt;stroke-linejoin:miter;stroke-miterlimit:4;stroke-opacity:1;stroke-dasharray:none" />
      <path
         style="fill:none;stroke:#000000;stroke-width:0.80944341;stroke-linecap:butt;stroke-linejoin:round;stroke-miterlimit:4;stroke-opacity:1;stroke-dasharray:none"
         d="m 103.52803,651.13699 0,-3.9466 21.72296,0 0,4.0233"
         id="path3775"
         inkscape:connector-curvature="0"
         sodipodi:nodetypes="cccc" />
      <path
         sodipodi:nodetypes="ccccsscc"
         inkscape:connector-curvature="0"
         id="path3765"
         d="m 103.84712,651.09439 c -3.12394,-0.5029 -5.867707,-1.2482 -8.951567,-2.0384 l 0,4e-4 0,0 c -0.0914,0.3237 -2.08798,-13.7893 1.13218,-14.3328 10.895427,-1.839 22.635957,-2.2861 37.362077,0 2.10775,0.3272 0.87581,14.8702 0.20586,14.2114 -3.22201,1.0557 -5.71734,1.769 -8.75211,2.2532"
         style="fill:none;stroke:#000000;stroke-width:0.163;stroke-linecap:butt;stroke-linejoin:round;stroke-miterlimit:4;stroke-opacity:1;stroke-dasharray:none" />
      <path
         sodipodi:nodetypes="sssssssss"
         inkscape:connector-curvature="0"
         id="rect3796"
         d="m 106.9825,631.12219 15.17926,0 c 0.53466,0 0.96042,0.038 0.9651,0.2127 0.0411,1.5313 -0.0156,3.2785 -0.0156,4.6958 0,0.1753 -0.41481,0.3072 -0.94948,0.3072 l -15.17925,0 c -0.53467,0 -0.99077,-0.1319 -0.99077,-0.3072 0,-1.5549 -0.0408,-3.1364 0.0257,-4.6667 0.008,-0.1742 0.43043,-0.2418 0.9651,-0.2418 z"
         style="fill:#f9f9f9;fill-rule:evenodd;stroke:none" />
      <path
         sodipodi:nodetypes="cccc"
         inkscape:connector-curvature="0"
         id="path3769"
         d="m 103.58272,633.74029 0,2.2982 21.66827,0.035 0,-2.3455"
         style="fill:none;stroke:#000000;stroke-width:0.30000001;stroke-linecap:butt;stroke-linejoin:round;stroke-miterlimit:4;stroke-opacity:1;stroke-dasharray:none" />
      <path
         sodipodi:nodetypes="ccccc"
         inkscape:connector-curvature="0"
         id="rect3822"
         d="m 103.74206,635.93829 21.33929,0 0,6.8304 c -7.17596,0.6914 -14.2823,0.6171 -21.33929,0 z"
         style="fill:url(#linearGradient3124);fill-opacity:1;fill-rule:evenodd;stroke:none" />
      <rect
         transform="matrix(1,0,0,0.84422997,90.170633,-228.6141)"
         style="opacity:0.2818184;fill:#000000;fill-rule:evenodd;stroke:none;filter:url(#filter4023)"
         id="rect4017"
         width="16"
         height="10.875"
         x="16.1875"
         y="1039.1747"
         ry="0.25" />
      <rect
         ry="0.20634013"
         y="648.68829"
         x="106.35813"
         height="8.9757957"
         width="16"
         id="rect4015"
         style="fill:url(#linearGradient3120);fill-opacity:1;fill-rule:evenodd;stroke:none" />
      <path
         inkscape:connector-curvature="0"
         id="path4035"
         d="m 107.48313,619.56329 0,11.1875"
         style="fill:none;stroke:url(#radialGradient3117);stroke-width:0.1;stroke-linecap:butt;stroke-linejoin:miter;stroke-miterlimit:4;stroke-opacity:1;stroke-dasharray:none" />
      <path
         inkscape:connector-curvature="0"
         id="path4037"
         d="m 111.92063,619.25079 0,11.8125"
         style="fill:none;stroke:url(#radialGradient3114);stroke-width:0.1;stroke-linecap:butt;stroke-linejoin:miter;stroke-miterlimit:4;stroke-opacity:1;stroke-dasharray:none" />
      <path
         inkscape:connector-curvature="0"
         id="path4039"
         d="m 117.42063,619.06329 0,11.875"
         style="fill:none;stroke:url(#radialGradient3111);stroke-width:0.1;stroke-linecap:butt;stroke-linejoin:miter;stroke-miterlimit:4;stroke-opacity:1;stroke-dasharray:none" />
      <path
         inkscape:connector-curvature="0"
         id="path4041"
         d="m 121.79563,619.81329 0,10.6951"
         style="fill:none;stroke:url(#radialGradient3108);stroke-width:0.09832544;stroke-linecap:butt;stroke-linejoin:miter;stroke-miterlimit:4;stroke-opacity:1;stroke-dasharray:none" />
      <path
         inkscape:connector-curvature="0"
         id="path15457"
         d="m 121.57688,656.28209 -9.34375,0"
         style="opacity:0.3073171;fill:none;stroke:#000000;stroke-width:0.1;stroke-linecap:butt;stroke-linejoin:miter;stroke-miterlimit:3.70000005;stroke-opacity:1;stroke-dasharray:none" />
      <path
         inkscape:connector-curvature="0"
         id="path15459"
         d="m 121.57688,654.65709 -13.25,0"
         style="opacity:0.3073171;fill:none;stroke:#000000;stroke-width:0.1;stroke-linecap:butt;stroke-linejoin:miter;stroke-miterlimit:3.70000005;stroke-opacity:1;stroke-dasharray:none" />
      <path
         inkscape:connector-curvature="0"
         id="path15461"
         d="m 121.57688,652.84459 -13.34375,0"
         style="opacity:0.3073171;fill:none;stroke:#000000;stroke-width:0.1;stroke-linecap:butt;stroke-linejoin:miter;stroke-miterlimit:3.70000005;stroke-opacity:1;stroke-dasharray:none" />
      <path
         inkscape:connector-curvature="0"
         id="path15463"
         d="m 121.57688,651.37579 -12.59375,0"
         style="opacity:0.3073171;fill:none;stroke:#000000;stroke-width:0.1;stroke-linecap:butt;stroke-linejoin:miter;stroke-miterlimit:3.70000005;stroke-opacity:1;stroke-dasharray:none" />
      <rect
         transform="matrix(1.030591,0,0,1,90.536323,-389.79405)"
         style="opacity:0.17889907;fill:#000000;fill-opacity:1;fill-rule:evenodd;stroke:none;filter:url(#filter9572)"
         id="rect9540"
         width="0.8175922"
         height="0.96122348"
         x="37.344078"
         y="1027.0831"
         ry="0.16034266" />
      <rect
         transform="matrix(1.030591,0,0,1,90.536323,-389.79405)"
         ry="0.16034266"
         y="1027.0831"
         x="38.415787"
         height="0.96122348"
         width="0.8175922"
         id="rect9542"
         style="opacity:0.17889907;fill:#000000;fill-opacity:1;fill-rule:evenodd;stroke:none;filter:url(#filter9568)" />
      <rect
         transform="matrix(1.030591,0,0,1,90.536323,-389.79405)"
         style="opacity:0.17889907;fill:#000000;fill-opacity:1;fill-rule:evenodd;stroke:none;filter:url(#filter9564)"
         id="rect9544"
         width="0.8175922"
         height="0.96122348"
         x="39.487495"
         y="1027.0831"
         ry="0.16034266" />
      <rect
         style="fill:url(#linearGradient3097);fill-opacity:1;fill-rule:evenodd;stroke:none"
         id="rect9532"
         width="0.8175922"
         height="0.96122348"
         x="130.1398"
         y="637.21722"
         ry="0.16034266" />
      <rect
         ry="0.16034266"
         y="637.21722"
         x="129.06808"
         height="0.96122348"
         width="0.8175922"
         id="rect9522"
         style="fill:url(#linearGradient3094);fill-opacity:1;fill-rule:evenodd;stroke:none" />
      <rect
         ry="0.16034266"
         y="637.21722"
         x="131.2115"
         height="0.96122348"
         width="0.8175922"
         id="rect9536"
         style="fill:url(#linearGradient3091);fill-opacity:1;fill-rule:evenodd;stroke:none" />
    </g>
    <path
       sodipodi:nodetypes="cccccccc"
       inkscape:connector-curvature="0"
       id="path5583-3"
       d="m 170.58331,625.39153 3.73213,0 0,-8.02383 5.34475,0 0,8.02383 4.04222,0 -6.65695,9.87586 z"
       style="fill:#5fbcd3;fill-opacity:1;stroke:#ffffff;stroke-width:0.6;stroke-miterlimit:4;stroke-dasharray:none" />
  </g>
</svg>
