<?xml version="1.0" encoding="UTF-8" standalone="no"?>
<!-- Created with Inkscape (http://www.inkscape.org/) -->

<svg
   xmlns:dc="http://purl.org/dc/elements/1.1/"
   xmlns:cc="http://creativecommons.org/ns#"
   xmlns:rdf="http://www.w3.org/1999/02/22-rdf-syntax-ns#"
   xmlns:svg="http://www.w3.org/2000/svg"
   xmlns="http://www.w3.org/2000/svg"
   xmlns:xlink="http://www.w3.org/1999/xlink"
   xmlns:sodipodi="http://sodipodi.sourceforge.net/DTD/sodipodi-0.dtd"
   xmlns:inkscape="http://www.inkscape.org/namespaces/inkscape"
   width="48"
   height="48"
   id="svg2"
   version="1.1"
   inkscape:version="0.48.2 r9819"
   sodipodi:docname="edit-find.svg">
  <defs
     id="defs4">
    <linearGradient
       id="linearGradient4020">
      <stop
         id="stop4022"
         offset="0"
         style="stop-color:#333333;stop-opacity:1;" />
      <stop
         style="stop-color:#333333;stop-opacity:1;"
         offset="0.6659556"
         id="stop4024" />
      <stop
         style="stop-color:#c8c8c8;stop-opacity:1;"
         offset="0.94655997"
         id="stop4026" />
      <stop
         id="stop4028"
         offset="1"
         style="stop-color:#646464;stop-opacity:1;" />
    </linearGradient>
    <linearGradient
       id="linearGradient3995">
      <stop
         style="stop-color:#333333;stop-opacity:1;"
         offset="0"
         id="stop3997" />
      <stop
         id="stop3999"
         offset="0.18056653"
         style="stop-color:#646464;stop-opacity:1;" />
      <stop
         id="stop4001"
         offset="0.33613682"
         style="stop-color:#a0a0a0;stop-opacity:1;" />
      <stop
         id="stop4003"
         offset="0.66973937"
         style="stop-color:#dcdcdc;stop-opacity:1;" />
      <stop
         style="stop-color:#646464;stop-opacity:1;"
         offset="1"
         id="stop4005" />
    </linearGradient>
    <radialGradient
       gradientTransform="translate(41.932939,999.9737)"
       r="14.5"
       fy="16.84375"
       fx="-17.9375"
       cy="16.84375"
       cx="-17.9375"
       gradientUnits="userSpaceOnUse"
       id="radialGradient3779"
       xlink:href="#linearGradient3781"
       inkscape:collect="always" />
    <linearGradient
       y2="21.763468"
       x2="-14.10183"
       y1="-6.2416911"
       x1="-18.055481"
       gradientTransform="matrix(0.72379074,0.33750916,-0.33750916,0.72379074,42.108304,1010.899)"
       gradientUnits="userSpaceOnUse"
       id="linearGradient3775"
       xlink:href="#linearGradient3632"
       inkscape:collect="always" />
    <linearGradient
       y2="21.763468"
       x2="-14.10183"
       y1="-6.2416911"
       x1="-18.055481"
       gradientTransform="matrix(0.72379074,0.33750916,-0.33750916,0.72379074,0.17536536,1015.2875)"
       gradientUnits="userSpaceOnUse"
       id="linearGradient3772"
       xlink:href="#linearGradient3632"
       inkscape:collect="always" />
    <linearGradient
       y2="9.8220205"
       x2="-22.746845"
       y1="23.23811"
       x1="-17.425131"
       gradientUnits="userSpaceOnUse"
       id="linearGradient3770"
       xlink:href="#linearGradient3621"
       inkscape:collect="always" />
    <radialGradient
       r="14.5"
       fy="16.84375"
       fx="-17.9375"
       cy="16.84375"
       cx="-17.9375"
       gradientUnits="userSpaceOnUse"
       id="radialGradient3768"
       xlink:href="#linearGradient3681"
       inkscape:collect="always" />
    <linearGradient
       y2="1035.832"
       x2="28.587054"
       y1="1035.832"
       x1="22.694197"
       gradientTransform="matrix(0.95474209,0,0,0.93769314,-0.48474606,61.395429)"
       gradientUnits="userSpaceOnUse"
       id="linearGradient3766"
       xlink:href="#linearGradient3642"
       inkscape:collect="always" />
    <linearGradient
       y2="1050.5346"
       x2="29.140625"
       y1="1050.5346"
       x1="22.140625"
       gradientTransform="matrix(0.93769314,0,0,0.93769314,-0.04759942,61.395429)"
       gradientUnits="userSpaceOnUse"
       id="linearGradient3759"
       xlink:href="#linearGradient3659"
       inkscape:collect="always" />
    <linearGradient
       y2="1060.3436"
       x2="25.640625"
       y1="1063.1384"
       x1="25.640625"
       gradientTransform="matrix(0.93769314,0,0,0.93769314,-0.04759942,61.395429)"
       gradientUnits="userSpaceOnUse"
       id="linearGradient3756"
       xlink:href="#linearGradient3707"
       inkscape:collect="always" />
    <linearGradient
       y2="1060.3436"
       x2="25.640625"
       y1="1063.1384"
       x1="25.640625"
       gradientTransform="matrix(0.93769314,0,0,0.93769314,-0.04759942,61.395429)"
       gradientUnits="userSpaceOnUse"
       id="linearGradient3752"
       xlink:href="#linearGradient3707"
       inkscape:collect="always" />
    <linearGradient
       y2="1050.5346"
       x2="29.140625"
       y1="1050.5346"
       x1="22.140625"
       gradientTransform="matrix(0.93769314,0,0,0.93769314,-0.04759942,61.395429)"
       gradientUnits="userSpaceOnUse"
       id="linearGradient3750"
       xlink:href="#linearGradient3659"
       inkscape:collect="always" />
    <linearGradient
       y2="21.763468"
       x2="-14.10183"
       y1="-6.2416911"
       x1="-18.055481"
       gradientTransform="matrix(0.72379074,0.33750916,-0.33750916,0.72379074,0.17536536,1015.2875)"
       gradientUnits="userSpaceOnUse"
       id="linearGradient3748"
       xlink:href="#linearGradient3632"
       inkscape:collect="always" />
    <linearGradient
       y2="9.8220205"
       x2="-22.746845"
       y1="23.23811"
       x1="-17.425131"
       gradientUnits="userSpaceOnUse"
       id="linearGradient3746"
       xlink:href="#linearGradient3621"
       inkscape:collect="always" />
    <radialGradient
       r="14.5"
       fy="16.84375"
       fx="-17.9375"
       cy="16.84375"
       cx="-17.9375"
       gradientUnits="userSpaceOnUse"
       id="radialGradient3744"
       xlink:href="#linearGradient3681"
       inkscape:collect="always" />
    <linearGradient
       y2="1035.832"
       x2="28.587054"
       y1="1035.832"
       x1="22.694197"
       gradientTransform="matrix(0.95474209,0,0,0.93769314,-0.48474606,61.395429)"
       gradientUnits="userSpaceOnUse"
       id="linearGradient3742"
       xlink:href="#linearGradient3642"
       inkscape:collect="always" />
    <linearGradient
       y2="21.763468"
       x2="-14.10183"
       y1="-6.2416911"
       x1="-18.055481"
       gradientTransform="matrix(0.72379074,0.33750916,-0.33750916,0.72379074,0.17536536,1015.2875)"
       gradientUnits="userSpaceOnUse"
       id="linearGradient3718"
       xlink:href="#linearGradient3632"
       inkscape:collect="always" />
    <linearGradient
       y2="9.8220205"
       x2="-22.746845"
       y1="23.23811"
       x1="-17.425131"
       gradientUnits="userSpaceOnUse"
       id="linearGradient3716"
       xlink:href="#linearGradient3621"
       inkscape:collect="always" />
    <radialGradient
       r="14.5"
       fy="16.84375"
       fx="-17.9375"
       cy="16.84375"
       cx="-17.9375"
       gradientUnits="userSpaceOnUse"
       id="radialGradient3714"
       xlink:href="#linearGradient3681"
       inkscape:collect="always" />
    <linearGradient
       gradientTransform="matrix(0.72379074,0.33750916,-0.33750916,0.72379074,0.17536536,1015.2875)"
       y2="21.763468"
       x2="-14.10183"
       y1="-6.2416911"
       x1="-18.055481"
       gradientUnits="userSpaceOnUse"
       id="linearGradient3702"
       xlink:href="#linearGradient3632"
       inkscape:collect="always" />
    <linearGradient
       gradientUnits="userSpaceOnUse"
       y2="9.8220205"
       x2="-22.746845"
       y1="23.23811"
       x1="-17.425131"
       id="linearGradient3697"
       xlink:href="#linearGradient3621"
       inkscape:collect="always" />
    <radialGradient
       gradientUnits="userSpaceOnUse"
       r="14.5"
       fy="16.84375"
       fx="-17.9375"
       cy="16.84375"
       cx="-17.9375"
       id="radialGradient3679"
       xlink:href="#linearGradient3681"
       inkscape:collect="always" />
    <linearGradient
       y2="1035.832"
       x2="28.587054"
       y1="1035.832"
       x1="22.694197"
       gradientTransform="matrix(0.95474209,0,0,0.93769314,-0.48474606,61.395429)"
       gradientUnits="userSpaceOnUse"
       id="linearGradient3663"
       xlink:href="#linearGradient3642"
       inkscape:collect="always" />
    <radialGradient
       r="13.265625"
       fy="16.3125"
       fx="25.640625"
       cy="16.3125"
       cx="25.640625"
       gradientTransform="matrix(1.0806687,0,0,1.0793958,-3.7135822,999.20982)"
       gradientUnits="userSpaceOnUse"
       id="radialGradient3660"
       xlink:href="#linearGradient3609"
       inkscape:collect="always" />
    <linearGradient
       y2="27.826067"
       x2="25.380083"
       y1="-0.69271553"
       x1="25.380083"
       gradientTransform="matrix(0.86748493,0.40451486,-0.40451486,0.86748493,9.5933315,990.2176)"
       gradientUnits="userSpaceOnUse"
       id="linearGradient3656"
       xlink:href="#linearGradient3632"
       inkscape:collect="always" />
    <linearGradient
       y2="1050.5346"
       x2="29.140625"
       y1="1050.5346"
       x1="22.140625"
       gradientTransform="matrix(0.93769314,0,0,0.93769314,-0.04759942,61.395429)"
       gradientUnits="userSpaceOnUse"
       id="linearGradient3653"
       xlink:href="#linearGradient3659"
       inkscape:collect="always" />
    <linearGradient
       y2="1060.3436"
       x2="25.640625"
       y1="1063.1384"
       x1="25.640625"
       gradientTransform="matrix(0.93769314,0,0,0.93769314,-0.04759942,61.395429)"
       gradientUnits="userSpaceOnUse"
       id="linearGradient3650"
       xlink:href="#linearGradient3707"
       inkscape:collect="always" />
    <linearGradient
       y2="1060.3436"
       x2="25.640625"
       y1="1063.1384"
       x1="25.640625"
       gradientTransform="translate(-1.6460832,-3.4019119)"
       gradientUnits="userSpaceOnUse"
       id="linearGradient2925"
       xlink:href="#linearGradient3707"
       inkscape:collect="always" />
    <linearGradient
       y2="1050.5346"
       x2="29.140625"
       y1="1050.5346"
       x1="22.140625"
       gradientTransform="translate(-1.6460832,-3.4019119)"
       gradientUnits="userSpaceOnUse"
       id="linearGradient2923"
       xlink:href="#linearGradient3659"
       inkscape:collect="always" />
    <linearGradient
       y2="27.826067"
       x2="25.380083"
       y1="-0.69271553"
       x1="25.380083"
       gradientTransform="matrix(0.92512667,0.43139364,-0.43139364,0.92512667,8.6354583,987.13767)"
       gradientUnits="userSpaceOnUse"
       id="linearGradient2921"
       xlink:href="#linearGradient3632"
       inkscape:collect="always" />
    <linearGradient
       y2="8.5673914"
       x2="19.392487"
       y1="28.811174"
       x1="31.652805"
       gradientUnits="userSpaceOnUse"
       id="linearGradient2919"
       xlink:href="#linearGradient3621"
       inkscape:collect="always" />
    <radialGradient
       r="13.265625"
       fy="16.3125"
       fx="25.640625"
       cy="16.3125"
       cx="25.640625"
       gradientTransform="matrix(1.1524759,0,0,1.1511184,-5.5556594,996.7274)"
       gradientUnits="userSpaceOnUse"
       id="radialGradient2917"
       xlink:href="#linearGradient3609"
       inkscape:collect="always" />
    <linearGradient
       y2="1035.832"
       x2="28.587054"
       y1="1035.832"
       x1="22.694197"
       gradientTransform="matrix(1.0181818,0,0,1,-2.1122769,-3.4019119)"
       gradientUnits="userSpaceOnUse"
       id="linearGradient2915"
       xlink:href="#linearGradient3642"
       inkscape:collect="always" />
    <linearGradient
       y2="8.5673914"
       x2="19.392487"
       y1="28.811174"
       x1="31.652805"
       gradientUnits="userSpaceOnUse"
       id="linearGradient2905"
       xlink:href="#linearGradient3621"
       inkscape:collect="always" />
    <linearGradient
       y2="1035.832"
       x2="28.587054"
       y1="1035.832"
       x1="22.694197"
       gradientTransform="matrix(1.0181818,0,0,1,-2.1122769,-3.4019119)"
       gradientUnits="userSpaceOnUse"
       id="linearGradient2903"
       xlink:href="#linearGradient3642"
       inkscape:collect="always" />
    <radialGradient
       r="13.265625"
       fy="16.3125"
       fx="25.640625"
       cy="16.3125"
       cx="25.640625"
       gradientTransform="matrix(1.1524759,0,0,1.1511184,-5.5556594,996.7274)"
       gradientUnits="userSpaceOnUse"
       id="radialGradient2900"
       xlink:href="#linearGradient3609"
       inkscape:collect="always" />
    <linearGradient
       y2="27.826067"
       x2="25.380083"
       y1="-0.69271553"
       x1="25.380083"
       gradientTransform="matrix(0.92512667,0.43139364,-0.43139364,0.92512667,8.6354583,987.13767)"
       gradientUnits="userSpaceOnUse"
       id="linearGradient2896"
       xlink:href="#linearGradient3632"
       inkscape:collect="always" />
    <linearGradient
       gradientTransform="translate(-1.6460832,-3.4019119)"
       y2="1050.5346"
       x2="29.140625"
       y1="1050.5346"
       x1="22.140625"
       gradientUnits="userSpaceOnUse"
       id="linearGradient2893"
       xlink:href="#linearGradient3659"
       inkscape:collect="always" />
    <linearGradient
       gradientTransform="translate(-1.6460832,-3.4019119)"
       y2="1060.3436"
       x2="25.640625"
       y1="1063.1384"
       x1="25.640625"
       gradientUnits="userSpaceOnUse"
       id="linearGradient2890"
       xlink:href="#linearGradient3707"
       inkscape:collect="always" />
    <linearGradient
       y2="1060.3436"
       x2="25.640625"
       y1="1063.1384"
       x1="25.640625"
       gradientUnits="userSpaceOnUse"
       id="linearGradient2887"
       xlink:href="#linearGradient3707"
       inkscape:collect="always" />
    <linearGradient
       y2="1050.5346"
       x2="29.140625"
       y1="1050.5346"
       x1="22.140625"
       gradientUnits="userSpaceOnUse"
       id="linearGradient2885"
       xlink:href="#linearGradient3659"
       inkscape:collect="always" />
    <linearGradient
       y2="27.826067"
       x2="25.380083"
       y1="-0.69271553"
       x1="25.380083"
       gradientTransform="matrix(0.80272976,0.37431903,-0.37431903,0.80272976,12.313592,996.06043)"
       gradientUnits="userSpaceOnUse"
       id="linearGradient2883"
       xlink:href="#linearGradient3632"
       inkscape:collect="always" />
    <linearGradient
       y2="8.5673914"
       x2="19.392487"
       y1="28.811174"
       x1="31.652805"
       gradientUnits="userSpaceOnUse"
       id="linearGradient2881"
       xlink:href="#linearGradient3621"
       inkscape:collect="always" />
    <radialGradient
       r="13.265625"
       fy="16.3125"
       fx="25.640625"
       cy="16.3125"
       cx="25.640625"
       gradientTransform="matrix(1,0,0,0.99882214,0,0.01921378)"
       gradientUnits="userSpaceOnUse"
       id="radialGradient2879"
       xlink:href="#linearGradient3609"
       inkscape:collect="always" />
    <linearGradient
       y2="1035.832"
       x2="28.587054"
       y1="1035.832"
       x1="22.694197"
       gradientTransform="matrix(1.0181818,0,0,1,-0.46619373,0)"
       gradientUnits="userSpaceOnUse"
       id="linearGradient2877"
       xlink:href="#linearGradient3642"
       inkscape:collect="always" />
    <linearGradient
       y2="1060.3436"
       x2="25.640625"
       y1="1063.1384"
       x1="25.640625"
       gradientUnits="userSpaceOnUse"
       id="linearGradient3755"
       xlink:href="#linearGradient3707"
       inkscape:collect="always" />
    <linearGradient
       y2="1050.5346"
       x2="29.140625"
       y1="1050.5346"
       x1="22.140625"
       gradientUnits="userSpaceOnUse"
       id="linearGradient3753"
       xlink:href="#linearGradient3659"
       inkscape:collect="always" />
    <linearGradient
       y2="27.826067"
       x2="25.380083"
       y1="-0.69271553"
       x1="25.380083"
       gradientTransform="matrix(0.80272976,0.37431903,-0.37431903,0.80272976,12.313592,996.06043)"
       gradientUnits="userSpaceOnUse"
       id="linearGradient3751"
       xlink:href="#linearGradient3632"
       inkscape:collect="always" />
    <linearGradient
       y2="8.5673914"
       x2="19.392487"
       y1="28.811174"
       x1="31.652805"
       gradientUnits="userSpaceOnUse"
       id="linearGradient3749"
       xlink:href="#linearGradient3621"
       inkscape:collect="always" />
    <radialGradient
       r="13.265625"
       fy="16.3125"
       fx="25.640625"
       cy="16.3125"
       cx="25.640625"
       gradientTransform="matrix(1,0,0,0.99882214,0,0.01921378)"
       gradientUnits="userSpaceOnUse"
       id="radialGradient3747"
       xlink:href="#linearGradient3609"
       inkscape:collect="always" />
    <linearGradient
       y2="1035.832"
       x2="28.587054"
       y1="1035.832"
       x1="22.694197"
       gradientTransform="matrix(1.0181818,0,0,1,-0.46619373,0)"
       gradientUnits="userSpaceOnUse"
       id="linearGradient3745"
       xlink:href="#linearGradient3642"
       inkscape:collect="always" />
    <linearGradient
       gradientTransform="matrix(0.80272976,0.37431903,-0.37431903,0.80272976,12.313592,996.06043)"
       y2="27.826067"
       x2="25.380083"
       y1="-0.69271553"
       x1="25.380083"
       gradientUnits="userSpaceOnUse"
       id="linearGradient3735"
       xlink:href="#linearGradient3632"
       inkscape:collect="always" />
    <linearGradient
       gradientUnits="userSpaceOnUse"
       y2="1060.3436"
       x2="25.640625"
       y1="1063.1384"
       x1="25.640625"
       id="linearGradient3713"
       xlink:href="#linearGradient3707"
       inkscape:collect="always" />
    <linearGradient
       gradientUnits="userSpaceOnUse"
       y2="1050.5346"
       x2="29.140625"
       y1="1050.5346"
       x1="22.140625"
       id="linearGradient3665"
       xlink:href="#linearGradient3659"
       inkscape:collect="always" />
    <linearGradient
       gradientTransform="matrix(1.0181818,0,0,1,-0.46619373,0)"
       gradientUnits="userSpaceOnUse"
       y2="1035.832"
       x2="28.587054"
       y1="1035.832"
       x1="22.694197"
       id="linearGradient3648"
       xlink:href="#linearGradient3642"
       inkscape:collect="always" />
    <linearGradient
       gradientUnits="userSpaceOnUse"
       y2="27.826067"
       x2="25.380083"
       y1="-0.69271553"
       x1="25.380083"
       id="linearGradient3638"
       xlink:href="#linearGradient3632"
       inkscape:collect="always" />
    <linearGradient
       gradientUnits="userSpaceOnUse"
       y2="8.5673914"
       x2="19.392487"
       y1="28.811174"
       x1="31.652805"
       id="linearGradient3627"
       xlink:href="#linearGradient3621"
       inkscape:collect="always" />
    <radialGradient
       gradientUnits="userSpaceOnUse"
       gradientTransform="matrix(1,0,0,0.99882214,0,0.01921378)"
       r="13.265625"
       fy="16.3125"
       fx="25.640625"
       cy="16.3125"
       cx="25.640625"
       id="radialGradient3615"
       xlink:href="#linearGradient3609"
       inkscape:collect="always" />
    <inkscape:perspective
       sodipodi:type="inkscape:persp3d"
       inkscape:vp_x="0 : 0.5 : 1"
       inkscape:vp_y="0 : 1000 : 0"
       inkscape:vp_z="1 : 0.5 : 1"
       inkscape:persp3d-origin="0.5 : 0.33333333 : 1"
       id="perspective2824" />
    <inkscape:perspective
       id="perspective10"
       inkscape:persp3d-origin="372.04724 : 350.78739 : 1"
       inkscape:vp_z="744.09448 : 526.18109 : 1"
       inkscape:vp_y="0 : 1000 : 0"
       inkscape:vp_x="0 : 526.18109 : 1"
       sodipodi:type="inkscape:persp3d" />
    <linearGradient
       id="linearGradient3609">
      <stop
         id="stop3611"
         offset="0"
         style="stop-color:#333333;stop-opacity:1;" />
      <stop
         style="stop-color:#333333;stop-opacity:1;"
         offset="0.87822205"
         id="stop3619" />
      <stop
         style="stop-color:#c8c8c8;stop-opacity:1;"
         offset="0.93785173"
         id="stop3617" />
      <stop
         id="stop3613"
         offset="1"
         style="stop-color:#646464;stop-opacity:1;" />
    </linearGradient>
    <linearGradient
       id="linearGradient3621">
      <stop
         id="stop3623"
         offset="0"
         style="stop-color:#62f9f9;stop-opacity:0.58823532;" />
      <stop
         id="stop3625"
         offset="1"
         style="stop-color:#00adff;stop-opacity:0.58823532;" />
    </linearGradient>
    <linearGradient
       id="linearGradient3632">
      <stop
         id="stop3634"
         offset="0"
         style="stop-color:#ffffff;stop-opacity:1;" />
      <stop
         id="stop3636"
         offset="1"
         style="stop-color:#ffffff;stop-opacity:0;" />
    </linearGradient>
    <linearGradient
       id="linearGradient3642">
      <stop
         id="stop3644"
         offset="0"
         style="stop-color:#333333;stop-opacity:1;" />
      <stop
         style="stop-color:#646464;stop-opacity:1;"
         offset="0.08214504"
         id="stop3654" />
      <stop
         style="stop-color:#a0a0a0;stop-opacity:1;"
         offset="0.33613682"
         id="stop3652" />
      <stop
         style="stop-color:#dcdcdc;stop-opacity:1;"
         offset="0.66973937"
         id="stop3650" />
      <stop
         id="stop3646"
         offset="1"
         style="stop-color:#646464;stop-opacity:1;" />
    </linearGradient>
    <linearGradient
       id="linearGradient3659">
      <stop
         id="stop3661"
         offset="0"
         style="stop-color:#000000;stop-opacity:1;" />
      <stop
         style="stop-color:#1e1e1e;stop-opacity:1;"
         offset="0.2602883"
         id="stop3671" />
      <stop
         style="stop-color:#323232;stop-opacity:1;"
         offset="0.5205766"
         id="stop3669" />
      <stop
         style="stop-color:#8c8c8c;stop-opacity:1;"
         offset="0.7254805"
         id="stop3667" />
      <stop
         id="stop3663"
         offset="1"
         style="stop-color:#141414;stop-opacity:1;" />
    </linearGradient>
    <linearGradient
       id="linearGradient3707"
       inkscape:collect="always">
      <stop
         id="stop3709"
         offset="0"
         style="stop-color:#000000;stop-opacity:1;" />
      <stop
         id="stop3711"
         offset="1"
         style="stop-color:#000000;stop-opacity:0;" />
    </linearGradient>
    <linearGradient
       id="linearGradient3681">
      <stop
         style="stop-color:#333333;stop-opacity:1;"
         offset="0"
         id="stop3683" />
      <stop
         id="stop3685"
         offset="0.81073338"
         style="stop-color:#333333;stop-opacity:1;" />
      <stop
         id="stop3687"
         offset="0.94655997"
         style="stop-color:#c8c8c8;stop-opacity:1;" />
      <stop
         style="stop-color:#646464;stop-opacity:1;"
         offset="1"
         id="stop3689" />
    </linearGradient>
    <linearGradient
       id="linearGradient3781">
      <stop
         id="stop3783"
         offset="0"
         style="stop-color:#333333;stop-opacity:1;" />
      <stop
         style="stop-color:#333333;stop-opacity:1;"
         offset="0.77686638"
         id="stop3785" />
      <stop
         style="stop-color:#c8c8c8;stop-opacity:1;"
         offset="0.9188506"
         id="stop3787" />
      <stop
         id="stop3789"
         offset="1"
         style="stop-color:#646464;stop-opacity:1;" />
    </linearGradient>
    <linearGradient
       inkscape:collect="always"
       xlink:href="#linearGradient3642"
       id="linearGradient3983"
       x1="35.263714"
       y1="33.569965"
       x2="24.579269"
       y2="10.198764"
       gradientUnits="userSpaceOnUse" />
    <linearGradient
       inkscape:collect="always"
       xlink:href="#linearGradient3995"
       id="linearGradient3993"
       x1="-848.62976"
       y1="588.08368"
       x2="-848.77667"
       y2="581.36169"
       gradientUnits="userSpaceOnUse"
       gradientTransform="matrix(0.63900343,0,0,0.64946218,-315.35465,221.00562)" />
    <linearGradient
       inkscape:collect="always"
       xlink:href="#linearGradient4020"
       id="linearGradient4018"
       x1="23.964285"
       y1="40.526058"
       x2="16.387018"
       y2="35.436771"
       gradientUnits="userSpaceOnUse" />
    <linearGradient
       inkscape:collect="always"
       xlink:href="#linearGradient4020"
       id="linearGradient4032"
       gradientUnits="userSpaceOnUse"
       x1="23.964285"
       y1="40.526058"
       x2="16.387018"
       y2="35.436771"
       gradientTransform="translate(-7.8125,-7.45536)" />
    <radialGradient
       inkscape:collect="always"
       xlink:href="#linearGradient4020"
       id="radialGradient4074"
       cx="13.224844"
       cy="1049.8702"
       fx="13.224844"
       fy="1049.8702"
       r="2.1707892"
       gradientTransform="matrix(-1.2164713,-2.7934545,2.3387077,-1.0184418,-2424.8094,2158.4407)"
       gradientUnits="userSpaceOnUse" />
    <linearGradient
       inkscape:collect="always"
       xlink:href="#linearGradient3621"
       id="linearGradient4094"
       x1="16.607141"
       y1="17.910715"
       x2="43.571426"
       y2="17.910715"
       gradientUnits="userSpaceOnUse" />
    <linearGradient
       inkscape:collect="always"
       xlink:href="#linearGradient3621"
       id="linearGradient4136"
       gradientUnits="userSpaceOnUse"
       x1="16.607141"
       y1="17.910715"
       x2="43.571426"
       y2="17.910715" />
    <linearGradient
       inkscape:collect="always"
       xlink:href="#linearGradient3995"
       id="linearGradient4138"
       gradientUnits="userSpaceOnUse"
       gradientTransform="matrix(0.63900343,0,0,0.64946218,-315.35465,221.00562)"
       x1="-848.62976"
       y1="588.08368"
       x2="-848.77667"
       y2="581.36169" />
    <linearGradient
       inkscape:collect="always"
       xlink:href="#linearGradient3642"
       id="linearGradient4140"
       gradientUnits="userSpaceOnUse"
       x1="35.263714"
       y1="33.569965"
       x2="24.579269"
       y2="10.198764" />
    <radialGradient
       inkscape:collect="always"
       xlink:href="#linearGradient4020"
       id="radialGradient4142"
       gradientUnits="userSpaceOnUse"
       gradientTransform="matrix(-1.2164713,-2.7934545,2.3387077,-1.0184418,-2424.8094,2158.4407)"
       cx="13.224844"
       cy="1049.8702"
       fx="13.224844"
       fy="1049.8702"
       r="2.1707892" />
    <linearGradient
       inkscape:collect="always"
       xlink:href="#linearGradient4020"
       id="linearGradient4144"
       gradientUnits="userSpaceOnUse"
       x1="23.964285"
       y1="40.526058"
       x2="16.387018"
       y2="35.436771" />
    <linearGradient
       inkscape:collect="always"
       xlink:href="#linearGradient4300"
       id="linearGradient6523"
       gradientUnits="userSpaceOnUse"
       gradientTransform="matrix(0.72180936,0,0,0.72180936,737.73031,-35.045409)"
       x1="27.348625"
       y1="1011.7791"
       x2="27.348625"
       y2="1014.2515" />
    <linearGradient
       id="linearGradient4300">
      <stop
         id="stop4302"
         offset="0"
         style="stop-color:#f5dfe5;stop-opacity:1" />
      <stop
         id="stop4304"
         offset="1"
         style="stop-color:#f3abab;stop-opacity:1;" />
    </linearGradient>
    <radialGradient
       inkscape:collect="always"
       xlink:href="#linearGradient4462"
       id="radialGradient6525"
       gradientUnits="userSpaceOnUse"
       gradientTransform="matrix(0.97452491,4.9682081e-8,-5.2664569e-8,1.0330271,12.592785,1011.4531)"
       cx="23.301378"
       cy="21.428253"
       fx="23.301378"
       fy="21.428253"
       r="10.352485" />
    <linearGradient
       inkscape:collect="always"
       id="linearGradient4462">
      <stop
         style="stop-color:#ffffff;stop-opacity:1;"
         offset="0"
         id="stop4464" />
      <stop
         style="stop-color:#ffffff;stop-opacity:0;"
         offset="1"
         id="stop4466" />
    </linearGradient>
    <linearGradient
       inkscape:collect="always"
       xlink:href="#linearGradient4444"
       id="linearGradient6527"
       gradientUnits="userSpaceOnUse"
       gradientTransform="matrix(0.72180935,0,0,0.72180935,18.481405,293.16393)"
       x1="14.180883"
       y1="1035.715"
       x2="12.56142"
       y2="1032.0587" />
    <linearGradient
       id="linearGradient4444">
      <stop
         style="stop-color:#ffecaa;stop-opacity:1;"
         offset="0"
         id="stop4446" />
      <stop
         style="stop-color:#ffffff;stop-opacity:1;"
         offset="1"
         id="stop4448" />
    </linearGradient>
    <linearGradient
       inkscape:collect="always"
       xlink:href="#linearGradient3621"
       id="linearGradient3187"
       gradientUnits="userSpaceOnUse"
       x1="16.607141"
       y1="17.910715"
       x2="43.571426"
       y2="17.910715" />
    <linearGradient
       inkscape:collect="always"
       xlink:href="#linearGradient3995"
       id="linearGradient3189"
       gradientUnits="userSpaceOnUse"
       gradientTransform="matrix(0.63900343,0,0,0.64946218,-315.35465,221.00562)"
       x1="-848.62976"
       y1="588.08368"
       x2="-848.77667"
       y2="581.36169" />
    <linearGradient
       inkscape:collect="always"
       xlink:href="#linearGradient3642"
       id="linearGradient3191"
       gradientUnits="userSpaceOnUse"
       x1="35.263714"
       y1="33.569965"
       x2="24.579269"
       y2="10.198764" />
    <radialGradient
       inkscape:collect="always"
       xlink:href="#linearGradient4020"
       id="radialGradient3193"
       gradientUnits="userSpaceOnUse"
       gradientTransform="matrix(-1.2164713,-2.7934545,2.3387077,-1.0184418,-2424.8094,2158.4407)"
       cx="13.224844"
       cy="1049.8702"
       fx="13.224844"
       fy="1049.8702"
       r="2.1707892" />
    <linearGradient
       inkscape:collect="always"
       xlink:href="#linearGradient4020"
       id="linearGradient3195"
       gradientUnits="userSpaceOnUse"
       x1="23.964285"
       y1="40.526058"
       x2="16.387018"
       y2="35.436771" />
    <linearGradient
       inkscape:collect="always"
       xlink:href="#linearGradient4300"
       id="linearGradient3197"
       gradientUnits="userSpaceOnUse"
       gradientTransform="matrix(0.72180936,0,0,0.72180936,737.73031,-35.045409)"
       x1="27.348625"
       y1="1011.7791"
       x2="27.348625"
       y2="1014.2515" />
    <radialGradient
       inkscape:collect="always"
       xlink:href="#linearGradient4462"
       id="radialGradient3199"
       gradientUnits="userSpaceOnUse"
       gradientTransform="matrix(0.97452491,4.9682081e-8,-5.2664569e-8,1.0330271,12.592785,1011.4531)"
       cx="23.301378"
       cy="21.428253"
       fx="23.301378"
       fy="21.428253"
       r="10.352485" />
    <linearGradient
       inkscape:collect="always"
       xlink:href="#linearGradient4444"
       id="linearGradient3201"
       gradientUnits="userSpaceOnUse"
       gradientTransform="matrix(0.72180935,0,0,0.72180935,18.481405,293.16393)"
       x1="14.180883"
       y1="1035.715"
       x2="12.56142"
       y2="1032.0587" />
  </defs>
  <sodipodi:namedview
     id="base"
     pagecolor="#ffffff"
     bordercolor="#666666"
     borderopacity="1.0"
     inkscape:pageopacity="0.0"
     inkscape:pageshadow="2"
     inkscape:zoom="11.313709"
     inkscape:cx="12.599684"
     inkscape:cy="25.382596"
     inkscape:document-units="px"
     inkscape:current-layer="layer1"
     showgrid="false"
     inkscape:window-width="1278"
     inkscape:window-height="735"
     inkscape:window-x="0"
     inkscape:window-y="0"
     inkscape:window-maximized="1" />
  <metadata
     id="metadata7">
    <rdf:RDF>
      <cc:Work
         rdf:about="">
        <dc:format>image/svg+xml</dc:format>
        <dc:type
           rdf:resource="http://purl.org/dc/dcmitype/StillImage" />
        <dc:title></dc:title>
      </cc:Work>
    </rdf:RDF>
  </metadata>
  <g
     inkscape:label="Capa 1"
     inkscape:groupmode="layer"
     id="layer1"
     transform="translate(0,-1004.3622)">
    <rect
       style="fill:none;stroke:none"
       id="rect4146"
       width="48"
       height="48"
       x="0"
       y="1004.3622" />
    <g
       id="g3164"
       transform="translate(-3.1413492,-0.00334634)">
      <g
         transform="translate(-2.8727513,1.1575534)"
         id="g4129">
        <path
           transform="matrix(0.73481228,-0.42424407,0.42424407,0.73481228,5.76146,1016.3574)"
           d="m 43.571427,17.910715 c 0,7.445982 -6.03616,13.482143 -13.482142,13.482143 -7.445982,0 -13.482143,-6.036161 -13.482143,-13.482143 0,-7.445982 6.036161,-13.4821423 13.482143,-13.4821423 7.445982,0 13.482142,6.0361603 13.482142,13.4821423 z"
           sodipodi:ry="13.482142"
           sodipodi:rx="13.482142"
           sodipodi:cy="17.910715"
           sodipodi:cx="30.089285"
           id="path4086"
           style="opacity:0.60091744;fill:url(#linearGradient3187);fill-opacity:1;stroke:none"
           sodipodi:type="arc" />
        <path
           style="fill:url(#linearGradient3189);fill-opacity:1;stroke:none"
           d="m -862.4292,599.38251 7.95207,0 0,3.3648 -8.26035,-0.24268 z"
           id="rect3985"
           inkscape:connector-curvature="0"
           sodipodi:nodetypes="ccccc"
           transform="matrix(0.56159222,-0.82741415,0.84753043,0.53074681,0,0)" />
        <path
           sodipodi:type="arc"
           style="fill:none;stroke:url(#linearGradient3191);stroke-width:2.20000005;stroke-miterlimit:4;stroke-dasharray:none"
           id="path3975"
           sodipodi:cx="30.089285"
           sodipodi:cy="17.910715"
           sodipodi:rx="13.482142"
           sodipodi:ry="13.482142"
           d="m 43.571427,17.910715 c 0,7.445982 -6.03616,13.482143 -13.482142,13.482143 -7.445982,0 -13.482143,-6.036161 -13.482143,-13.482143 0,-7.445982 6.036161,-13.4821423 13.482143,-13.4821423 7.445982,0 13.482142,6.0361603 13.482142,13.4821423 z"
           transform="matrix(0.73481228,-0.42424407,0.42424407,0.73481228,5.76146,1016.3574)" />
        <path
           style="fill:url(#radialGradient3193);fill-opacity:1;stroke:none"
           d="m 13.113983,1045.7884 -0.867083,1.2662 c -0.384576,1.9322 1.008809,3.4333 3.457039,2.8588 l 0.821205,-1.2187 c -2.417931,0.3641 -3.763904,-2.0876 -3.411161,-2.9063 z"
           id="path4030"
           inkscape:connector-curvature="0"
           sodipodi:nodetypes="ccccc" />
        <path
           style="fill:url(#linearGradient3195);fill-opacity:1;stroke:none"
           d="m 23.454479,26.534258 3.503967,2.620084 -10.61916,15.452801 c -2.225511,0.0042 -3.121141,-1.144218 -3.571429,-2.678572 z"
           id="path4010"
           inkscape:connector-curvature="0"
           sodipodi:nodetypes="ccccc"
           transform="translate(0,1004.3622)" />
      </g>
      <g
         transform="translate(-1.7981075,5.8387768)"
         id="g10044">
        <rect
           y="694.21527"
           x="754.19305"
           height="3.1899769"
           width="6.1649737"
           id="rect4290"
           style="fill:url(#linearGradient3197);fill-opacity:1;stroke:none"
           transform="matrix(0.70710678,0.70710678,-0.70710678,0.70710678,0,0)" />
        <rect
           style="fill:#999999;fill-opacity:1;stroke:none"
           id="rect4284"
           width="6.1649737"
           height="3.1899769"
           x="754.19305"
           y="697.50854"
           transform="matrix(0.70710678,0.70710678,-0.70710678,0.70710678,0,0)" />
        <path
           style="fill:none;stroke:#4d4d4d;stroke-width:0.72180933px;stroke-linecap:butt;stroke-linejoin:miter;stroke-opacity:1"
           d="m 39.410625,1027.3439 4.19482,4.1948"
           id="path4286"
           inkscape:connector-curvature="0" />
        <path
           inkscape:connector-curvature="0"
           id="path4288"
           d="m 38.645031,1028.1095 4.194819,4.1949"
           style="fill:none;stroke:#4d4d4d;stroke-width:0.72180933px;stroke-linecap:butt;stroke-linejoin:miter;stroke-opacity:1" />
        <rect
           style="fill:#666666;fill-opacity:1;stroke:none"
           id="rect4274"
           width="6.1649737"
           height="14.972926"
           x="754.19305"
           y="700.73895"
           transform="matrix(0.70710678,0.70710678,-0.70710678,0.70710678,0,0)" />
        <path
           style="opacity:0.35648151;fill:url(#radialGradient3199);fill-opacity:1;stroke:none"
           d="m 27.828037,1039.3709 1.658788,1.6588 13.286253,-13.2862 -1.594988,-1.595 z"
           id="path4460"
           inkscape:connector-curvature="0" />
        <rect
           style="fill:#e6e6e6;fill-opacity:0.53645833;stroke:none"
           id="rect4308"
           width="0.74667394"
           height="14.972926"
           x="755.79578"
           y="700.73901"
           transform="matrix(0.70710678,0.70710678,-0.70710678,0.70710678,0,0)" />
        <rect
           y="700.73901"
           x="759.11511"
           height="14.972926"
           width="0.74667394"
           id="rect4310"
           style="fill:#cccccc;fill-opacity:0.53645833;stroke:none"
           transform="matrix(0.70710678,0.70710678,-0.70710678,0.70710678,0,0)" />
        <rect
           style="fill:#e6e6e6;fill-opacity:0.53645833;stroke:none"
           id="rect4312"
           width="0.74667394"
           height="14.972926"
           x="756.90222"
           y="700.73901"
           transform="matrix(0.70710678,0.70710678,-0.70710678,0.70710678,0,0)" />
        <rect
           y="700.73901"
           x="758.00867"
           height="14.972926"
           width="0.74667394"
           id="rect4314"
           style="fill:#e6e6e6;fill-opacity:0.53645833;stroke:none"
           transform="matrix(0.70710678,0.70710678,-0.70710678,0.70710678,0,0)" />
        <rect
           y="700.73901"
           x="754.68927"
           height="14.972926"
           width="0.74667394"
           id="rect4306"
           style="fill:#e6e6e6;fill-opacity:0.53645833;stroke:none"
           transform="matrix(0.70710678,0.70710678,-0.70710678,0.70710678,0,0)"
           ry="0" />
        <path
           style="fill:url(#linearGradient3201);fill-opacity:1;stroke:none"
           inkscape:transform-center-y="1.2328826"
           d="m 31.559219,1043.7494 -5.954723,1.5955 1.595563,-5.9548 2.120177,-0.036 0.0594,2.2158 2.120177,-0.036 z"
           id="path4255"
           inkscape:connector-curvature="0"
           sodipodi:nodetypes="ccccccc" />
        <path
           sodipodi:type="star"
           style="fill:#000000;fill-opacity:1;stroke:none"
           id="path4253"
           sodipodi:sides="3"
           sodipodi:cx="6.8942909"
           sodipodi:cy="30.145554"
           sodipodi:r1="4.5500689"
           sodipodi:r2="2.2750342"
           sodipodi:arg1="-0.52359878"
           sodipodi:arg2="0.52359878"
           inkscape:flatsided="true"
           inkscape:rounded="0"
           inkscape:randomized="0"
           d="M 10.834766,27.870519 6.8942909,34.695622 2.9538157,27.870519 z"
           transform="matrix(0.22121423,0.22121423,-0.22121423,0.22121423,31.743441,1036.1557)"
           inkscape:transform-center-y="0.49305512" />
        <path
           style="opacity:0.70833333;fill:#ffffff;fill-opacity:1;stroke:none"
           d="m 26.438226,1043.1738 -0.845871,2.1824 0.06767,-0.022 1.466175,-1.4661 -0.687974,-0.6937 z"
           id="path4381"
           inkscape:connector-curvature="0"
           sodipodi:nodetypes="cccccc" />
      </g>
    </g>
  </g>
</svg>
