<?xml version="1.0" encoding="UTF-8" standalone="no"?>
<!-- Created with Inkscape (http://www.inkscape.org/) -->

<svg
   xmlns:dc="http://purl.org/dc/elements/1.1/"
   xmlns:cc="http://creativecommons.org/ns#"
   xmlns:rdf="http://www.w3.org/1999/02/22-rdf-syntax-ns#"
   xmlns:svg="http://www.w3.org/2000/svg"
   xmlns="http://www.w3.org/2000/svg"
   xmlns:xlink="http://www.w3.org/1999/xlink"
   xmlns:sodipodi="http://sodipodi.sourceforge.net/DTD/sodipodi-0.dtd"
   xmlns:inkscape="http://www.inkscape.org/namespaces/inkscape"
   width="48"
   height="48"
   id="svg3048"
   version="1.1"
   inkscape:version="0.48+devel r11521"
   sodipodi:docname="mail.svg">
  <defs
     id="defs3050">
    <linearGradient
       inkscape:collect="always"
       xlink:href="#linearGradient4300"
       id="linearGradient6523"
       gradientUnits="userSpaceOnUse"
       gradientTransform="matrix(0.72180936,0,0,0.72180936,737.73031,-35.045409)"
       x1="27.348625"
       y1="1011.7791"
       x2="27.348625"
       y2="1014.2515" />
    <linearGradient
       id="linearGradient4300">
      <stop
         id="stop4302"
         offset="0"
         style="stop-color:#f5dfe5;stop-opacity:1" />
      <stop
         id="stop4304"
         offset="1"
         style="stop-color:#f3abab;stop-opacity:1;" />
    </linearGradient>
    <radialGradient
       inkscape:collect="always"
       xlink:href="#linearGradient4462"
       id="radialGradient6525"
       gradientUnits="userSpaceOnUse"
       gradientTransform="matrix(0.97452491,4.9682081e-8,-5.2664569e-8,1.0330271,12.592785,1011.4531)"
       cx="23.301378"
       cy="21.428253"
       fx="23.301378"
       fy="21.428253"
       r="10.352485" />
    <linearGradient
       inkscape:collect="always"
       id="linearGradient4462">
      <stop
         style="stop-color:#ffffff;stop-opacity:1;"
         offset="0"
         id="stop4464" />
      <stop
         style="stop-color:#ffffff;stop-opacity:0;"
         offset="1"
         id="stop4466" />
    </linearGradient>
    <linearGradient
       inkscape:collect="always"
       xlink:href="#linearGradient4444"
       id="linearGradient6527"
       gradientUnits="userSpaceOnUse"
       gradientTransform="matrix(0.72180935,0,0,0.72180935,18.481405,293.16393)"
       x1="14.180883"
       y1="1035.715"
       x2="12.56142"
       y2="1032.0587" />
    <linearGradient
       id="linearGradient4444">
      <stop
         style="stop-color:#ffecaa;stop-opacity:1;"
         offset="0"
         id="stop4446" />
      <stop
         style="stop-color:#ffffff;stop-opacity:1;"
         offset="1"
         id="stop4448" />
    </linearGradient>
    <linearGradient
       inkscape:collect="always"
       xlink:href="#linearGradient4444"
       id="linearGradient3144"
       gradientUnits="userSpaceOnUse"
       gradientTransform="matrix(0.72180935,0,0,0.72180935,-97.699765,282.18691)"
       x1="14.180883"
       y1="1035.715"
       x2="12.56142"
       y2="1032.0587" />
    <radialGradient
       inkscape:collect="always"
       xlink:href="#linearGradient4462"
       id="radialGradient3152"
       gradientUnits="userSpaceOnUse"
       gradientTransform="matrix(0.97452491,4.9682081e-8,-5.2664569e-8,1.0330271,-103.58838,1000.4761)"
       cx="23.301378"
       cy="21.428253"
       fx="23.301378"
       fy="21.428253"
       r="10.352485" />
    <linearGradient
       inkscape:collect="always"
       xlink:href="#linearGradient4300"
       id="linearGradient3159"
       gradientUnits="userSpaceOnUse"
       gradientTransform="matrix(0.72180936,0,0,0.72180936,647.81589,39.345157)"
       x1="27.348625"
       y1="1011.7791"
       x2="27.348625"
       y2="1014.2515" />
    <linearGradient
       inkscape:collect="always"
       xlink:href="#linearGradient4300"
       id="linearGradient3177"
       gradientUnits="userSpaceOnUse"
       gradientTransform="matrix(0.72180936,0,0,0.72180936,647.81589,39.345157)"
       x1="27.348625"
       y1="1011.7791"
       x2="27.348625"
       y2="1014.2515" />
    <radialGradient
       inkscape:collect="always"
       xlink:href="#linearGradient4462"
       id="radialGradient3179"
       gradientUnits="userSpaceOnUse"
       gradientTransform="matrix(0.97452491,4.9682081e-8,-5.2664569e-8,1.0330271,-103.58838,1000.4761)"
       cx="23.301378"
       cy="21.428253"
       fx="23.301378"
       fy="21.428253"
       r="10.352485" />
    <linearGradient
       inkscape:collect="always"
       xlink:href="#linearGradient4444"
       id="linearGradient3181"
       gradientUnits="userSpaceOnUse"
       gradientTransform="matrix(0.72180935,0,0,0.72180935,-97.699765,282.18691)"
       x1="14.180883"
       y1="1035.715"
       x2="12.56142"
       y2="1032.0587" />
    <linearGradient
       inkscape:collect="always"
       xlink:href="#linearGradient4300"
       id="linearGradient3209"
       gradientUnits="userSpaceOnUse"
       gradientTransform="matrix(0.72180936,0,0,0.72180936,647.81589,39.345157)"
       x1="27.348625"
       y1="1011.7791"
       x2="27.348625"
       y2="1014.2515" />
    <radialGradient
       inkscape:collect="always"
       xlink:href="#linearGradient4462"
       id="radialGradient3211"
       gradientUnits="userSpaceOnUse"
       gradientTransform="matrix(0.97452491,4.9682081e-8,-5.2664569e-8,1.0330271,-103.58838,1000.4761)"
       cx="23.301378"
       cy="21.428253"
       fx="23.301378"
       fy="21.428253"
       r="10.352485" />
    <linearGradient
       inkscape:collect="always"
       xlink:href="#linearGradient4444"
       id="linearGradient3213"
       gradientUnits="userSpaceOnUse"
       gradientTransform="matrix(0.72180935,0,0,0.72180935,-97.699765,282.18691)"
       x1="14.180883"
       y1="1035.715"
       x2="12.56142"
       y2="1032.0587" />
  </defs>
  <sodipodi:namedview
     id="base"
     pagecolor="#ffffff"
     bordercolor="#666666"
     borderopacity="1.0"
     inkscape:pageopacity="0.0"
     inkscape:pageshadow="2"
     inkscape:zoom="15.839192"
     inkscape:cx="26.48512"
     inkscape:cy="33.718254"
     inkscape:document-units="px"
     inkscape:current-layer="layer1"
     showgrid="false"
     inkscape:window-width="1920"
     inkscape:window-height="1035"
     inkscape:window-x="0"
     inkscape:window-y="26"
     inkscape:window-maximized="1">
    <inkscape:grid
       type="xygrid"
       id="grid34" />
  </sodipodi:namedview>
  <metadata
     id="metadata3053">
    <rdf:RDF>
      <cc:Work
         rdf:about="">
        <dc:format>image/svg+xml</dc:format>
        <dc:type
           rdf:resource="http://purl.org/dc/dcmitype/StillImage" />
        <dc:title />
      </cc:Work>
    </rdf:RDF>
  </metadata>
  <g
     inkscape:label="Capa 1"
     inkscape:groupmode="layer"
     id="layer1"
     transform="translate(0,-1004.3622)">
    <rect
       style="fill:none;stroke:none"
       id="rect3187"
       width="48"
       height="48"
       x="0"
       y="1004.3622" />
    <path
       style="fill:#4d4d4d;fill-opacity:1;stroke:none"
       d="m 6.65625,1017.3466 0,22.0312 34.6875,0 0,-22.0312 L 23.5,1035.1903 6.65625,1017.3466 z"
       id="rect26795"
       inkscape:connector-curvature="0" />
    <path
       style="fill:#4d4d4d;stroke:none"
       d="m 8.394036,1017.3466 15.160079,16.0518 16.051849,-16.0518 z"
       id="path36"
       inkscape:connector-curvature="0" />
  </g>
</svg>
