<?xml version="1.0" encoding="UTF-8" standalone="no"?>
<!-- Created with Inkscape (http://www.inkscape.org/) -->

<svg
   xmlns:dc="http://purl.org/dc/elements/1.1/"
   xmlns:cc="http://creativecommons.org/ns#"
   xmlns:rdf="http://www.w3.org/1999/02/22-rdf-syntax-ns#"
   xmlns:svg="http://www.w3.org/2000/svg"
   xmlns="http://www.w3.org/2000/svg"
   xmlns:xlink="http://www.w3.org/1999/xlink"
   xmlns:sodipodi="http://sodipodi.sourceforge.net/DTD/sodipodi-0.dtd"
   xmlns:inkscape="http://www.inkscape.org/namespaces/inkscape"
   width="48"
   height="48"
   id="svg4355"
   version="1.1"
   inkscape:version="0.48+devel r11725"
   sodipodi:docname="edit-select-all.svg">
  <defs
     id="defs4357">
    <linearGradient
       inkscape:collect="always"
       xlink:href="#linearGradient1069-5"
       id="linearGradient887"
       gradientUnits="userSpaceOnUse"
       gradientTransform="translate(253.65324,293.00789)"
       x1="314.34872"
       y1="425.61682"
       x2="314.34872"
       y2="468.35892" />
    <linearGradient
       id="linearGradient1069-5">
      <stop
         id="stop1071-6"
         offset="0"
         style="stop-color:#ffffff;stop-opacity:1" />
      <stop
         id="stop1073-0"
         offset="1"
         style="stop-color:#e6e6e6;stop-opacity:1" />
    </linearGradient>
    <linearGradient
       gradientUnits="userSpaceOnUse"
       y2="835.67212"
       x2="463.75925"
       y1="837.0611"
       x1="462.37933"
       id="linearGradient912"
       xlink:href="#linearGradient918-1"
       inkscape:collect="always" />
    <linearGradient
       id="linearGradient918-1">
      <stop
         style="stop-color:#f6f6f6;stop-opacity:1"
         offset="0"
         id="stop920-5" />
      <stop
         style="stop-color:#e2e2e2;stop-opacity:1"
         offset="1"
         id="stop922-7" />
    </linearGradient>
  </defs>
  <sodipodi:namedview
     id="base"
     pagecolor="#ffffff"
     bordercolor="#666666"
     borderopacity="1.0"
     inkscape:pageopacity="0.0"
     inkscape:pageshadow="2"
     inkscape:zoom="0.35"
     inkscape:cx="-194.57141"
     inkscape:cy="232.57141"
     inkscape:document-units="px"
     inkscape:current-layer="layer1"
     showgrid="false"
     width="0px"
     height="0px"
     fit-margin-top="0"
     fit-margin-left="0"
     fit-margin-right="0"
     fit-margin-bottom="0"
     inkscape:window-width="1366"
     inkscape:window-height="746"
     inkscape:window-x="0"
     inkscape:window-y="0"
     inkscape:window-maximized="1" />
  <metadata
     id="metadata4360">
    <rdf:RDF>
      <cc:Work
         rdf:about="">
        <dc:format>image/svg+xml</dc:format>
        <dc:type
           rdf:resource="http://purl.org/dc/dcmitype/StillImage" />
        <dc:title></dc:title>
      </cc:Work>
    </rdf:RDF>
  </metadata>
  <g
     inkscape:label="Capa 1"
     inkscape:groupmode="layer"
     id="layer1"
     transform="translate(-544.57141,-716.93359)">
    <path
       style="opacity:0.5;fill:#000000;fill-opacity:1;stroke:none"
       d="m 548.38393,718.83993 c -0.89692,0 -1.625,0.8213 -1.625,1.8125 l 0,40.5625 c 0,0.9911 0.72808,1.8125 1.625,1.8125 l 40.375,0 c 0.89693,0 1.625,-0.8213 1.625,-1.8125 l 0,-32 -10.40625,-10.375 L 548.38393,718.83993 Z"
       id="rect3922-2"
       inkscape:connector-curvature="0" />
    <path
       style="fill:url(#linearGradient887);fill-opacity:1;stroke:none"
       d="m 548.75893,719.25603 c -0.87415,0 -1.5625,0.784 -1.5625,1.75 l 0,39.5625 c 0,0.966 0.68834,1.75 1.5625,1.75 l 39.625,0 c 0.87416,0 1.5625,-0.784 1.5625,-1.75 l 0,-31.125 -10.21875,-10.1875 L 548.75893,719.25603 Z"
       id="path869-2"
       inkscape:connector-curvature="0" />
    <g
       id="g839"
       transform="translate(217.03834,415.17242)">
      <g
         id="text872"
         style="font-size:7.5px;font-style:normal;font-variant:normal;font-weight:bold;font-stretch:normal;line-height:125%;letter-spacing:0px;word-spacing:0px;fill:#ffffff;fill-opacity:1;stroke:none;font-family:Impact;-inkscape-font-specification:Impact Bold" />
    </g>
    <g
       id="g951"
       transform="translate(217.00992,415.47762)">
      <rect
         y="311.98218"
         x="342.37354"
         height="8.1405792"
         width="8.1405792"
         id="rect9904-3"
         style="fill:#4d4d4d;stroke:none" />
      <rect
         style="fill:#4d4d4d;stroke:none"
         id="rect934"
         width="18.767199"
         height="0.73148519"
         x="342.14951"
         y="322.651" />
      <rect
         y="326.46051"
         x="342.14951"
         height="0.73148519"
         width="18.767199"
         id="rect936"
         style="fill:#4d4d4d;stroke:none" />
      <rect
         style="fill:#4d4d4d;stroke:none"
         id="rect938"
         width="18.767199"
         height="0.73148519"
         x="342.14951"
         y="330.27002" />
      <rect
         y="334.07953"
         x="342.14951"
         height="0.73148519"
         width="18.767199"
         id="rect940"
         style="fill:#4d4d4d;stroke:none" />
      <rect
         style="fill:#4d4d4d;stroke:none"
         id="rect942"
         width="7.810369"
         height="0.84608436"
         x="353.16364"
         y="319.55798" />
      <rect
         y="315.62946"
         x="353.16364"
         height="0.84608436"
         width="7.810369"
         id="rect944"
         style="fill:#4d4d4d;stroke:none" />
      <rect
         style="fill:#4d4d4d;stroke:none"
         id="rect946"
         width="7.810369"
         height="0.84608436"
         x="353.16364"
         y="311.70087" />
    </g>
    <rect
       style="opacity:0.35648151;fill:none;stroke:none"
       id="rect4543"
       width="48"
       height="48"
       x="544.57141"
       y="716.93359" />
    <path
       style="fill:#00ccff;fill-opacity:0.21052635;stroke:#1dafe2;stroke-width:0.67837197;stroke-miterlimit:4;stroke-opacity:0.89528791;stroke-dasharray:none"
       d="m 550.23445,722.12113 c -0.41429,0 -0.74299,0.3287 -0.74299,0.743 l 0,36.139 c 0,0.4143 0.3287,0.743 0.74299,0.743 l 36.67396,0 c 0.41429,0 0.74299,-0.3287 0.74299,-0.743 l 0,-30.0168 -6.89495,-6.8652 L 550.23445,722.12113 Z"
       id="rect6410"
       inkscape:connector-curvature="0" />
    <g
       transform="translate(119.99999,-111.42855)"
       id="g851">
      <path
         id="path914"
         d="m 470.05693,841.16048 -10.53539,-10.50317 0,8.69895 c 0,0.99596 0.70967,1.80422 1.61092,1.80422 L 470.05693,841.16048 Z"
         style="opacity:0.5;fill:#000000;fill-opacity:1;stroke:none"
         inkscape:connector-curvature="0" />
      <path
         inkscape:connector-curvature="0"
         style="fill:url(#linearGradient912);fill-opacity:1;stroke:none"
         d="m 469.94644,841.01843 -10.21875,-10.1875 0,8.4375 c 0,0.96603 0.68834,1.75 1.5625,1.75 L 469.94644,841.01843 Z"
         id="path902" />
    </g>
  </g>
</svg>
