<?xml version="1.0" encoding="UTF-8" standalone="no"?>
<!-- Created with Inkscape (http://www.inkscape.org/) -->

<svg
   xmlns:dc="http://purl.org/dc/elements/1.1/"
   xmlns:cc="http://creativecommons.org/ns#"
   xmlns:rdf="http://www.w3.org/1999/02/22-rdf-syntax-ns#"
   xmlns:svg="http://www.w3.org/2000/svg"
   xmlns="http://www.w3.org/2000/svg"
   xmlns:xlink="http://www.w3.org/1999/xlink"
   xmlns:sodipodi="http://sodipodi.sourceforge.net/DTD/sodipodi-0.dtd"
   xmlns:inkscape="http://www.inkscape.org/namespaces/inkscape"
   width="48"
   height="48"
   id="svg4933"
   version="1.1"
   inkscape:version="0.48+devel r11725"
   sodipodi:docname="document-properties.svg">
  <defs
     id="defs4935">
    <linearGradient
       y2="1018.1508"
       x2="19.015695"
       y1="1018.1508"
       x1="14.443695"
       gradientTransform="matrix(0.62736208,-0.62736208,0.70710678,0.70710678,-769.99575,-667.92332)"
       gradientUnits="userSpaceOnUse"
       id="linearGradient4151"
       xlink:href="#linearGradient3614"
       inkscape:collect="always" />
    <linearGradient
       gradientTransform="translate(792.85675,-410.33871)"
       y2="1010.7657"
       x2="63.57143"
       y1="1006.5033"
       x1="63.57143"
       gradientUnits="userSpaceOnUse"
       id="linearGradient4149"
       xlink:href="#linearGradient3812"
       inkscape:collect="always" />
    <linearGradient
       gradientTransform="translate(792.85675,-410.33871)"
       y2="1010.1188"
       x2="63.571426"
       y1="1007.1501"
       x1="63.571426"
       gradientUnits="userSpaceOnUse"
       id="linearGradient4146"
       xlink:href="#linearGradient3755"
       inkscape:collect="always" />
    <linearGradient
       y2="1010.4536"
       x2="61.618301"
       y1="1006.8152"
       x1="61.618301"
       gradientTransform="translate(918.76401,-651.92578)"
       gradientUnits="userSpaceOnUse"
       id="linearGradient4143"
       xlink:href="#linearGradient3777"
       inkscape:collect="always" />
    <linearGradient
       y2="1010.4536"
       x2="61.618301"
       y1="1006.8152"
       x1="61.618301"
       gradientTransform="translate(920.69586,-652.44341)"
       gradientUnits="userSpaceOnUse"
       id="linearGradient4140"
       xlink:href="#linearGradient3777"
       inkscape:collect="always" />
    <linearGradient
       y2="1010.4536"
       x2="61.618301"
       y1="1006.8152"
       x1="61.618301"
       gradientTransform="translate(919.74722,-652.18923)"
       gradientUnits="userSpaceOnUse"
       id="linearGradient4137"
       xlink:href="#linearGradient3777"
       inkscape:collect="always" />
    <linearGradient
       y2="1010.4536"
       x2="61.618301"
       y1="1006.8152"
       x1="61.618301"
       gradientTransform="translate(921.67907,-652.70686)"
       gradientUnits="userSpaceOnUse"
       id="linearGradient4134"
       xlink:href="#linearGradient3777"
       inkscape:collect="always" />
    <linearGradient
       y2="1010.4536"
       x2="61.618301"
       y1="1006.8152"
       x1="61.618301"
       gradientTransform="matrix(0.32109148,0.94704819,-0.94704819,0.32109148,914.66574,664.161)"
       gradientUnits="userSpaceOnUse"
       id="linearGradient4131"
       xlink:href="#linearGradient3777"
       inkscape:collect="always" />
    <linearGradient
       y2="1010.4536"
       x2="61.618301"
       y1="1006.8152"
       x1="61.618301"
       gradientTransform="translate(263.0465,-51.412905)"
       gradientUnits="userSpaceOnUse"
       id="linearGradient4128"
       xlink:href="#linearGradient3777"
       inkscape:collect="always" />
    <linearGradient
       y2="1010.4536"
       x2="61.618301"
       y1="1006.8152"
       x1="61.618301"
       gradientTransform="translate(262.04173,-51.143678)"
       gradientUnits="userSpaceOnUse"
       id="linearGradient4126"
       xlink:href="#linearGradient3777"
       inkscape:collect="always" />
    <linearGradient
       y2="1010.4536"
       x2="61.618301"
       y1="1006.8152"
       x1="61.618301"
       gradientTransform="translate(260.10988,-50.62604)"
       gradientUnits="userSpaceOnUse"
       id="linearGradient4124"
       xlink:href="#linearGradient3777"
       inkscape:collect="always" />
    <linearGradient
       y2="1010.4536"
       x2="61.618301"
       y1="1006.8152"
       x1="61.618301"
       gradientTransform="translate(261.05852,-50.880228)"
       gradientUnits="userSpaceOnUse"
       id="linearGradient4122"
       xlink:href="#linearGradient3777"
       inkscape:collect="always" />
    <linearGradient
       y2="1010.4536"
       x2="61.618301"
       y1="1006.8152"
       x1="61.618301"
       gradientTransform="translate(259.12667,-50.36259)"
       gradientUnits="userSpaceOnUse"
       id="linearGradient4120"
       xlink:href="#linearGradient3777"
       inkscape:collect="always" />
    <linearGradient
       y2="1010.1188"
       x2="63.571426"
       y1="1007.1501"
       x1="63.571426"
       gradientUnits="userSpaceOnUse"
       id="linearGradient4118"
       xlink:href="#linearGradient3755"
       inkscape:collect="always" />
    <linearGradient
       y2="1010.7657"
       x2="63.57143"
       y1="1006.5033"
       x1="63.57143"
       gradientUnits="userSpaceOnUse"
       id="linearGradient4116"
       xlink:href="#linearGradient3812"
       inkscape:collect="always" />
    <linearGradient
       y2="1030.7966"
       x2="41.465527"
       y1="1030.7966"
       x1="36.695298"
       gradientTransform="matrix(0.70710678,0.70710678,-0.70710678,0.70710678,666.55044,301.45104)"
       gradientUnits="userSpaceOnUse"
       id="linearGradient4112"
       xlink:href="#linearGradient3676"
       inkscape:collect="always" />
    <linearGradient
       y2="1030.7966"
       x2="41.465527"
       y1="1030.7966"
       x1="36.695298"
       gradientTransform="translate(25.078477,-3.6760333)"
       gradientUnits="userSpaceOnUse"
       id="linearGradient4109"
       xlink:href="#linearGradient3676"
       inkscape:collect="always" />
    <linearGradient
       y2="1018.1508"
       x2="19.015695"
       y1="1018.1508"
       x1="14.443695"
       gradientTransform="matrix(0.62736208,-0.62736208,0.70710678,0.70710678,-769.99575,336.43888)"
       gradientUnits="userSpaceOnUse"
       id="linearGradient4107"
       xlink:href="#linearGradient3614"
       inkscape:collect="always" />
    <linearGradient
       y2="1045.5385"
       x2="20.479694"
       y1="1045.5385"
       x1="12.979694"
       gradientTransform="matrix(0.70710678,-0.70710678,0.70710678,0.70710678,-771.32985,337.77298)"
       gradientUnits="userSpaceOnUse"
       id="linearGradient4104"
       xlink:href="#linearGradient3668"
       inkscape:collect="always" />
    <linearGradient
       y2="1045.5385"
       x2="20.479694"
       y1="1045.5385"
       x1="12.979694"
       gradientTransform="matrix(0.70710678,-0.70710678,0.70710678,0.70710678,-771.32985,337.77298)"
       gradientUnits="userSpaceOnUse"
       id="linearGradient4101"
       xlink:href="#linearGradient3730"
       inkscape:collect="always" />
    <linearGradient
       y2="1049.6167"
       x2="15.803571"
       y1="1049.6167"
       x1="13.973214"
       gradientTransform="translate(-784.25413,-306.571)"
       gradientUnits="userSpaceOnUse"
       id="linearGradient4098"
       xlink:href="#linearGradient3682"
       inkscape:collect="always" />
    <linearGradient
       y2="1049.6167"
       x2="15.803571"
       y1="1049.6167"
       x1="13.973214"
       gradientTransform="translate(-780.4327,-306.571)"
       gradientUnits="userSpaceOnUse"
       id="linearGradient4095"
       xlink:href="#linearGradient3704"
       inkscape:collect="always" />
    <linearGradient
       y2="1007.9633"
       x2="16.729694"
       y1="1000.1935"
       x1="16.729694"
       gradientTransform="matrix(0.55901126,-0.55901126,0.66175373,0.66175373,-723.45756,380.69009)"
       gradientUnits="userSpaceOnUse"
       id="linearGradient4092"
       xlink:href="#linearGradient3634"
       inkscape:collect="always" />
    <radialGradient
       r="3.75"
       fy="1033.7007"
       fx="16.729694"
       cy="1033.7007"
       cx="16.729694"
       gradientTransform="matrix(-0.59679792,0.59679834,-0.248035,-0.24803483,239.94555,1305.4203)"
       gradientUnits="userSpaceOnUse"
       id="radialGradient4089"
       xlink:href="#linearGradient3788"
       inkscape:collect="always" />
    <linearGradient
       y2="1035.3344"
       x2="20.479694"
       y1="1035.3344"
       x1="12.979694"
       gradientTransform="matrix(0.70710678,-0.70710678,0.70710678,0.70710678,-771.32985,337.77298)"
       gradientUnits="userSpaceOnUse"
       id="linearGradient4086"
       xlink:href="#linearGradient3730"
       inkscape:collect="always" />
    <linearGradient
       y2="1023.2551"
       x2="67.859726"
       y1="1023.2551"
       x1="58.962406"
       gradientTransform="matrix(0.70710678,0.70710678,-0.70710678,0.70710678,646.21793,-718.04497)"
       gradientUnits="userSpaceOnUse"
       id="linearGradient4082"
       xlink:href="#linearGradient3705"
       inkscape:collect="always" />
    <linearGradient
       y2="1008.0967"
       x2="72.793266"
       y1="1002.3824"
       x1="54.230263"
       gradientTransform="matrix(0.70710678,0.70710678,-0.70710678,0.70710678,646.22326,286.34522)"
       gradientUnits="userSpaceOnUse"
       id="linearGradient4079"
       xlink:href="#linearGradient3721"
       inkscape:collect="always" />
    <linearGradient
       y2="1009.4286"
       x2="65.12587"
       y1="1013.2798"
       x1="72.78125"
       gradientTransform="matrix(0.70710678,0.70710678,-0.70710678,0.70710678,646.21793,286.31723)"
       gradientUnits="userSpaceOnUse"
       id="linearGradient4076"
       xlink:href="#linearGradient3845"
       inkscape:collect="always" />
    <linearGradient
       gradientTransform="matrix(0.70710678,0.70710678,-0.70710678,0.70710678,682.07834,306.0152)"
       y2="1015.2991"
       x2="30.276894"
       y1="1012.0792"
       x1="25.186865"
       gradientUnits="userSpaceOnUse"
       id="linearGradient4061"
       xlink:href="#linearGradient3772"
       inkscape:collect="always" />
    <linearGradient
       y2="1001.667"
       x2="68.824013"
       y1="999.01636"
       x1="75.127792"
       gradientTransform="matrix(0.70710678,0.70710678,-0.70710678,0.70710678,646.22326,286.34522)"
       gradientUnits="userSpaceOnUse"
       id="linearGradient4058"
       xlink:href="#linearGradient3772"
       inkscape:collect="always" />
    <linearGradient
       y2="1017.081"
       x2="32.4375"
       y1="1011.9861"
       x1="28.617702"
       gradientTransform="matrix(0.70710678,0.70710678,-0.70710678,0.70710678,681.88894,306.0152)"
       gradientUnits="userSpaceOnUse"
       id="linearGradient4055"
       xlink:href="#linearGradient3822"
       inkscape:collect="always" />
    <linearGradient
       gradientTransform="matrix(0.70710678,0.70710678,-0.70710678,0.70710678,682.07834,306.0152)"
       y2="1017.081"
       x2="32.4375"
       y1="1011.9861"
       x1="28.617702"
       gradientUnits="userSpaceOnUse"
       id="linearGradient4051"
       xlink:href="#linearGradient3804"
       inkscape:collect="always" />
    <linearGradient
       y2="1035.3344"
       x2="20.479694"
       y1="1035.3344"
       x1="12.979694"
       gradientTransform="matrix(0.70710678,-0.70710678,0.70710678,0.70710678,-784.34289,293.69518)"
       gradientUnits="userSpaceOnUse"
       id="linearGradient4047"
       xlink:href="#linearGradient3730"
       inkscape:collect="always" />
    <radialGradient
       r="3.75"
       fy="1033.7007"
       fx="16.729694"
       cy="1033.7007"
       cx="16.729694"
       gradientTransform="matrix(-0.59679792,0.59679834,-0.248035,-0.24803483,226.93251,1261.3425)"
       gradientUnits="userSpaceOnUse"
       id="radialGradient4045"
       xlink:href="#linearGradient3788"
       inkscape:collect="always" />
    <linearGradient
       y2="1007.9633"
       x2="16.729694"
       y1="1000.1935"
       x1="16.729694"
       gradientTransform="matrix(0.55901126,-0.55901126,0.66175373,0.66175373,-736.4706,336.61229)"
       gradientUnits="userSpaceOnUse"
       id="linearGradient4043"
       xlink:href="#linearGradient3634"
       inkscape:collect="always" />
    <linearGradient
       y2="1049.6167"
       x2="15.803571"
       y1="1049.6167"
       x1="13.973214"
       gradientTransform="translate(-758.4666,-346.94032)"
       gradientUnits="userSpaceOnUse"
       id="linearGradient4041"
       xlink:href="#linearGradient3704"
       inkscape:collect="always" />
    <linearGradient
       y2="1049.6167"
       x2="15.803571"
       y1="1049.6167"
       x1="13.973214"
       gradientTransform="translate(-762.28803,-346.94032)"
       gradientUnits="userSpaceOnUse"
       id="linearGradient4039"
       xlink:href="#linearGradient3682"
       inkscape:collect="always" />
    <linearGradient
       y2="1045.5385"
       x2="20.479694"
       y1="1045.5385"
       x1="12.979694"
       gradientTransform="matrix(0.70710678,-0.70710678,0.70710678,0.70710678,-784.34289,293.69518)"
       gradientUnits="userSpaceOnUse"
       id="linearGradient4037"
       xlink:href="#linearGradient3730"
       inkscape:collect="always" />
    <linearGradient
       y2="1045.5385"
       x2="20.479694"
       y1="1045.5385"
       x1="12.979694"
       gradientTransform="matrix(0.70710678,-0.70710678,0.70710678,0.70710678,-784.34289,293.69518)"
       gradientUnits="userSpaceOnUse"
       id="linearGradient4035"
       xlink:href="#linearGradient3668"
       inkscape:collect="always" />
    <linearGradient
       y2="1018.1508"
       x2="19.015695"
       y1="1018.1508"
       x1="14.443695"
       gradientTransform="matrix(0.62736208,-0.62736208,0.70710678,0.70710678,-783.00879,292.36108)"
       gradientUnits="userSpaceOnUse"
       id="linearGradient4033"
       xlink:href="#linearGradient3614"
       inkscape:collect="always" />
    <linearGradient
       y2="48.978466"
       x2="38.4375"
       y1="42.46796"
       x1="38.4375"
       gradientUnits="userSpaceOnUse"
       id="linearGradient4031"
       xlink:href="#linearGradient3738"
       inkscape:collect="always" />
    <linearGradient
       y2="1017.081"
       x2="32.4375"
       y1="1011.9861"
       x1="28.617702"
       gradientUnits="userSpaceOnUse"
       id="linearGradient4029"
       xlink:href="#linearGradient3804"
       inkscape:collect="always" />
    <linearGradient
       y2="1017.081"
       x2="32.4375"
       y1="1011.9861"
       x1="28.617702"
       gradientTransform="translate(-0.13392858,0.13392858)"
       gradientUnits="userSpaceOnUse"
       id="linearGradient4027"
       xlink:href="#linearGradient3822"
       inkscape:collect="always" />
    <linearGradient
       y2="1001.667"
       x2="68.824013"
       y1="999.01636"
       x1="75.127792"
       gradientTransform="translate(-39.262149,11.444594)"
       gradientUnits="userSpaceOnUse"
       id="linearGradient4025"
       xlink:href="#linearGradient3772"
       inkscape:collect="always" />
    <linearGradient
       y2="1015.2991"
       x2="30.276894"
       y1="1012.0792"
       x1="25.186865"
       gradientUnits="userSpaceOnUse"
       id="linearGradient4023"
       xlink:href="#linearGradient3772"
       inkscape:collect="always" />
    <linearGradient
       y2="1030.7966"
       x2="41.465527"
       y1="1030.7966"
       x1="36.695298"
       gradientTransform="translate(25.078477,-3.6760333)"
       gradientUnits="userSpaceOnUse"
       id="linearGradient4021"
       xlink:href="#linearGradient3676"
       inkscape:collect="always" />
    <linearGradient
       y2="1010.4536"
       x2="61.618301"
       y1="1006.8152"
       x1="61.618301"
       gradientTransform="translate(263.0465,-51.412905)"
       gradientUnits="userSpaceOnUse"
       id="linearGradient4019"
       xlink:href="#linearGradient3777"
       inkscape:collect="always" />
    <linearGradient
       y2="1010.4536"
       x2="61.618301"
       y1="1006.8152"
       x1="61.618301"
       gradientTransform="translate(262.04173,-51.143678)"
       gradientUnits="userSpaceOnUse"
       id="linearGradient4017"
       xlink:href="#linearGradient3777"
       inkscape:collect="always" />
    <linearGradient
       y2="1010.4536"
       x2="61.618301"
       y1="1006.8152"
       x1="61.618301"
       gradientTransform="translate(260.10988,-50.62604)"
       gradientUnits="userSpaceOnUse"
       id="linearGradient4015"
       xlink:href="#linearGradient3777"
       inkscape:collect="always" />
    <linearGradient
       y2="1010.4536"
       x2="61.618301"
       y1="1006.8152"
       x1="61.618301"
       gradientTransform="translate(261.05852,-50.880228)"
       gradientUnits="userSpaceOnUse"
       id="linearGradient4013"
       xlink:href="#linearGradient3777"
       inkscape:collect="always" />
    <linearGradient
       y2="1010.4536"
       x2="61.618301"
       y1="1006.8152"
       x1="61.618301"
       gradientTransform="translate(259.12667,-50.36259)"
       gradientUnits="userSpaceOnUse"
       id="linearGradient4011"
       xlink:href="#linearGradient3777"
       inkscape:collect="always" />
    <linearGradient
       y2="1010.1188"
       x2="63.571426"
       y1="1007.1501"
       x1="63.571426"
       gradientUnits="userSpaceOnUse"
       id="linearGradient4009"
       xlink:href="#linearGradient3755"
       inkscape:collect="always" />
    <linearGradient
       y2="1010.7657"
       x2="63.57143"
       y1="1006.5033"
       x1="63.57143"
       gradientUnits="userSpaceOnUse"
       id="linearGradient4007"
       xlink:href="#linearGradient3812"
       inkscape:collect="always" />
    <linearGradient
       y2="1009.4286"
       x2="65.12587"
       y1="1013.2798"
       x1="72.78125"
       gradientTransform="translate(-39.285714,11.428571)"
       gradientUnits="userSpaceOnUse"
       id="linearGradient4005"
       xlink:href="#linearGradient3845"
       inkscape:collect="always" />
    <linearGradient
       y2="1008.0967"
       x2="72.793266"
       y1="1002.3824"
       x1="54.230263"
       gradientTransform="translate(-39.262149,11.444594)"
       gradientUnits="userSpaceOnUse"
       id="linearGradient4003"
       xlink:href="#linearGradient3721"
       inkscape:collect="always" />
    <linearGradient
       y2="1023.2551"
       x2="67.859726"
       y1="1023.2551"
       x1="58.962406"
       gradientTransform="translate(-39.285714,11.428571)"
       gradientUnits="userSpaceOnUse"
       id="linearGradient4001"
       xlink:href="#linearGradient3705"
       inkscape:collect="always" />
    <linearGradient
       y2="1035.3344"
       x2="20.479694"
       y1="1035.3344"
       x1="12.979694"
       gradientTransform="matrix(0.70710678,-0.70710678,0.70710678,0.70710678,-784.34289,293.69518)"
       gradientUnits="userSpaceOnUse"
       id="linearGradient3937"
       xlink:href="#linearGradient3730"
       inkscape:collect="always" />
    <radialGradient
       r="3.75"
       fy="1033.7007"
       fx="16.729694"
       cy="1033.7007"
       cx="16.729694"
       gradientTransform="matrix(-0.59679792,0.59679834,-0.248035,-0.24803483,226.93251,1261.3425)"
       gradientUnits="userSpaceOnUse"
       id="radialGradient3935"
       xlink:href="#linearGradient3788"
       inkscape:collect="always" />
    <linearGradient
       y2="1007.9633"
       x2="16.729694"
       y1="1000.1935"
       x1="16.729694"
       gradientTransform="matrix(0.55901126,-0.55901126,0.66175373,0.66175373,-736.4706,336.61229)"
       gradientUnits="userSpaceOnUse"
       id="linearGradient3933"
       xlink:href="#linearGradient3634"
       inkscape:collect="always" />
    <linearGradient
       y2="1049.6167"
       x2="15.803571"
       y1="1049.6167"
       x1="13.973214"
       gradientTransform="translate(-758.4666,-346.94032)"
       gradientUnits="userSpaceOnUse"
       id="linearGradient3931"
       xlink:href="#linearGradient3704"
       inkscape:collect="always" />
    <linearGradient
       y2="1049.6167"
       x2="15.803571"
       y1="1049.6167"
       x1="13.973214"
       gradientTransform="translate(-762.28803,-346.94032)"
       gradientUnits="userSpaceOnUse"
       id="linearGradient3929"
       xlink:href="#linearGradient3682"
       inkscape:collect="always" />
    <linearGradient
       y2="1045.5385"
       x2="20.479694"
       y1="1045.5385"
       x1="12.979694"
       gradientTransform="matrix(0.70710678,-0.70710678,0.70710678,0.70710678,-784.34289,293.69518)"
       gradientUnits="userSpaceOnUse"
       id="linearGradient3926"
       xlink:href="#linearGradient3730"
       inkscape:collect="always" />
    <linearGradient
       y2="1045.5385"
       x2="20.479694"
       y1="1045.5385"
       x1="12.979694"
       gradientTransform="matrix(0.70710678,-0.70710678,0.70710678,0.70710678,-784.34289,293.69518)"
       gradientUnits="userSpaceOnUse"
       id="linearGradient3924"
       xlink:href="#linearGradient3668"
       inkscape:collect="always" />
    <linearGradient
       y2="1018.1508"
       x2="19.015695"
       y1="1018.1508"
       x1="14.443695"
       gradientTransform="matrix(0.62736208,-0.62736208,0.70710678,0.70710678,-783.00879,292.36108)"
       gradientUnits="userSpaceOnUse"
       id="linearGradient3922"
       xlink:href="#linearGradient3614"
       inkscape:collect="always" />
    <linearGradient
       y2="48.978466"
       x2="38.4375"
       y1="42.46796"
       x1="38.4375"
       gradientUnits="userSpaceOnUse"
       id="linearGradient3885"
       xlink:href="#linearGradient3738"
       inkscape:collect="always" />
    <linearGradient
       y2="1017.081"
       x2="32.4375"
       y1="1011.9861"
       x1="28.617702"
       gradientUnits="userSpaceOnUse"
       id="linearGradient3883"
       xlink:href="#linearGradient3804"
       inkscape:collect="always" />
    <linearGradient
       y2="1017.081"
       x2="32.4375"
       y1="1011.9861"
       x1="28.617702"
       gradientTransform="translate(-0.13392858,0.13392858)"
       gradientUnits="userSpaceOnUse"
       id="linearGradient3881"
       xlink:href="#linearGradient3822"
       inkscape:collect="always" />
    <linearGradient
       y2="1001.667"
       x2="68.824013"
       y1="999.01636"
       x1="75.127792"
       gradientTransform="translate(-39.262149,11.444594)"
       gradientUnits="userSpaceOnUse"
       id="linearGradient3879"
       xlink:href="#linearGradient3772"
       inkscape:collect="always" />
    <linearGradient
       y2="1015.2991"
       x2="30.276894"
       y1="1012.0792"
       x1="25.186865"
       gradientUnits="userSpaceOnUse"
       id="linearGradient3877"
       xlink:href="#linearGradient3772"
       inkscape:collect="always" />
    <linearGradient
       y2="1030.7966"
       x2="41.465527"
       y1="1030.7966"
       x1="36.695298"
       gradientTransform="translate(25.078477,-3.6760333)"
       gradientUnits="userSpaceOnUse"
       id="linearGradient3875"
       xlink:href="#linearGradient3676"
       inkscape:collect="always" />
    <linearGradient
       y2="1010.4536"
       x2="61.618301"
       y1="1006.8152"
       x1="61.618301"
       gradientTransform="translate(263.0465,-51.412905)"
       gradientUnits="userSpaceOnUse"
       id="linearGradient3873"
       xlink:href="#linearGradient3777"
       inkscape:collect="always" />
    <linearGradient
       y2="1010.4536"
       x2="61.618301"
       y1="1006.8152"
       x1="61.618301"
       gradientTransform="translate(262.04173,-51.143678)"
       gradientUnits="userSpaceOnUse"
       id="linearGradient3871"
       xlink:href="#linearGradient3777"
       inkscape:collect="always" />
    <linearGradient
       y2="1010.4536"
       x2="61.618301"
       y1="1006.8152"
       x1="61.618301"
       gradientTransform="translate(260.10988,-50.62604)"
       gradientUnits="userSpaceOnUse"
       id="linearGradient3869"
       xlink:href="#linearGradient3777"
       inkscape:collect="always" />
    <linearGradient
       y2="1010.4536"
       x2="61.618301"
       y1="1006.8152"
       x1="61.618301"
       gradientTransform="translate(261.05852,-50.880228)"
       gradientUnits="userSpaceOnUse"
       id="linearGradient3864"
       xlink:href="#linearGradient3777"
       inkscape:collect="always" />
    <linearGradient
       y2="1010.4536"
       x2="61.618301"
       y1="1006.8152"
       x1="61.618301"
       gradientTransform="translate(259.12667,-50.36259)"
       gradientUnits="userSpaceOnUse"
       id="linearGradient3862"
       xlink:href="#linearGradient3777"
       inkscape:collect="always" />
    <linearGradient
       y2="1010.1188"
       x2="63.571426"
       y1="1007.1501"
       x1="63.571426"
       gradientUnits="userSpaceOnUse"
       id="linearGradient3860"
       xlink:href="#linearGradient3755"
       inkscape:collect="always" />
    <linearGradient
       y2="1010.7657"
       x2="63.57143"
       y1="1006.5033"
       x1="63.57143"
       gradientUnits="userSpaceOnUse"
       id="linearGradient3858"
       xlink:href="#linearGradient3812"
       inkscape:collect="always" />
    <linearGradient
       y2="1009.4286"
       x2="65.12587"
       y1="1013.2798"
       x1="72.78125"
       gradientTransform="translate(-39.285714,11.428571)"
       gradientUnits="userSpaceOnUse"
       id="linearGradient3855"
       xlink:href="#linearGradient3845"
       inkscape:collect="always" />
    <linearGradient
       y2="1008.0967"
       x2="72.793266"
       y1="1002.3824"
       x1="54.230263"
       gradientTransform="translate(-39.262149,11.444594)"
       gradientUnits="userSpaceOnUse"
       id="linearGradient3853"
       xlink:href="#linearGradient3721"
       inkscape:collect="always" />
    <linearGradient
       y2="1023.2551"
       x2="67.859726"
       y1="1023.2551"
       x1="58.962406"
       gradientTransform="translate(-39.285714,11.428571)"
       gradientUnits="userSpaceOnUse"
       id="linearGradient3851"
       xlink:href="#linearGradient3705"
       inkscape:collect="always" />
    <linearGradient
       id="linearGradient3619">
      <stop
         style="stop-color:#787878;stop-opacity:1;"
         offset="0"
         id="stop3621" />
      <stop
         style="stop-color:#f0f0f0;stop-opacity:1;"
         offset="1"
         id="stop3623" />
    </linearGradient>
    <linearGradient
       id="linearGradient3615">
      <stop
         style="stop-color:#bebebe;stop-opacity:1;"
         offset="0"
         id="stop3617" />
      <stop
         style="stop-color:#a0a0a0;stop-opacity:1;"
         offset="1"
         id="stop3619" />
    </linearGradient>
    <linearGradient
       id="linearGradient3607">
      <stop
         style="stop-color:#dcdcdc;stop-opacity:1;"
         offset="0"
         id="stop3609" />
      <stop
         style="stop-color:#aaaaaa;stop-opacity:1;"
         offset="1"
         id="stop3611" />
    </linearGradient>
    <linearGradient
       id="linearGradient4056">
      <stop
         id="stop4058"
         offset="0"
         style="stop-color:#505050;stop-opacity:1;" />
      <stop
         id="stop4060"
         offset="1"
         style="stop-color:#505050;stop-opacity:0;" />
    </linearGradient>
    <linearGradient
       id="linearGradient4044">
      <stop
         style="stop-color:#ffffff;stop-opacity:1;"
         offset="0"
         id="stop4046" />
      <stop
         style="stop-color:#ffffff;stop-opacity:0;"
         offset="1"
         id="stop4048" />
    </linearGradient>
    <linearGradient
       id="linearGradient4034">
      <stop
         style="stop-color:#828282;stop-opacity:1;"
         offset="0"
         id="stop4036" />
      <stop
         style="stop-color:#dcdcdc;stop-opacity:1;"
         offset="1"
         id="stop4038" />
    </linearGradient>
    <linearGradient
       id="linearGradient4026">
      <stop
         style="stop-color:#969696;stop-opacity:1;"
         offset="0"
         id="stop4028" />
      <stop
         style="stop-color:#9dd144;stop-opacity:0;"
         offset="1"
         id="stop4030" />
    </linearGradient>
    <inkscape:perspective
       sodipodi:type="inkscape:persp3d"
       inkscape:vp_x="0 : 526.18109 : 1"
       inkscape:vp_y="0 : 1000 : 0"
       inkscape:vp_z="744.09448 : 526.18109 : 1"
       inkscape:persp3d-origin="372.04724 : 350.78739 : 1"
       id="perspective10-2" />
    <inkscape:perspective
       id="perspective3118"
       inkscape:persp3d-origin="0.5 : 0.33333333 : 1"
       inkscape:vp_z="1 : 0.5 : 1"
       inkscape:vp_y="0 : 1000 : 0"
       inkscape:vp_x="0 : 0.5 : 1"
       sodipodi:type="inkscape:persp3d" />
    <linearGradient
       inkscape:collect="always"
       xlink:href="#linearGradient4034"
       id="linearGradient4040"
       x1="24"
       y1="10.35"
       x2="24"
       y2="37.635307"
       gradientUnits="userSpaceOnUse"
       gradientTransform="matrix(1.0084114,0,0,1.0084114,-0.18624787,1004.1364)" />
    <linearGradient
       inkscape:collect="always"
       xlink:href="#linearGradient4044"
       id="linearGradient4050"
       x1="24.001602"
       y1="-6.5223217"
       x2="24.001602"
       y2="18.75"
       gradientUnits="userSpaceOnUse"
       gradientTransform="translate(-35.357143,986.14791)" />
    <linearGradient
       inkscape:collect="always"
       xlink:href="#linearGradient4056"
       id="linearGradient4054"
       gradientUnits="userSpaceOnUse"
       x1="24.001602"
       y1="-13.340853"
       x2="24.001602"
       y2="18.75"
       gradientTransform="matrix(-1,0,0,-1,-8.0401786,1051.9426)" />
    <linearGradient
       gradientTransform="translate(-4e-7,-3.814e-5)"
       y2="1045.5385"
       x2="20.479694"
       y1="1045.5385"
       x1="12.979694"
       gradientUnits="userSpaceOnUse"
       id="linearGradient3764"
       xlink:href="#linearGradient3766"
       inkscape:collect="always" />
    <linearGradient
       y2="1045.5385"
       x2="20.479694"
       y1="1045.5385"
       x1="12.979694"
       gradientUnits="userSpaceOnUse"
       id="linearGradient3760"
       xlink:href="#linearGradient3748"
       inkscape:collect="always" />
    <inkscape:perspective
       sodipodi:type="inkscape:persp3d"
       inkscape:vp_x="0 : 0.5 : 1"
       inkscape:vp_y="0 : 1000 : 0"
       inkscape:vp_z="1 : 0.5 : 1"
       inkscape:persp3d-origin="0.5 : 0.33333333 : 1"
       id="perspective2824" />
    <inkscape:perspective
       id="perspective10"
       inkscape:persp3d-origin="372.04724 : 350.78739 : 1"
       inkscape:vp_z="744.09448 : 526.18109 : 1"
       inkscape:vp_y="0 : 1000 : 0"
       inkscape:vp_x="0 : 526.18109 : 1"
       sodipodi:type="inkscape:persp3d" />
    <linearGradient
       id="linearGradient3614">
      <stop
         id="stop3616"
         offset="0"
         style="stop-color:#646464;stop-opacity:1;" />
      <stop
         style="stop-color:#b4b4b4;stop-opacity:1;"
         offset="0.20557238"
         id="stop3647" />
      <stop
         style="stop-color:#dcdcdc;stop-opacity:1;"
         offset="0.37812805"
         id="stop3645" />
      <stop
         style="stop-color:#f0f0f0;stop-opacity:1;"
         offset="0.59117258"
         id="stop3624" />
      <stop
         style="stop-color:#b4b4b4;stop-opacity:1;"
         offset="0.7663672"
         id="stop3622" />
      <stop
         id="stop3618"
         offset="1"
         style="stop-color:#646464;stop-opacity:1;" />
    </linearGradient>
    <linearGradient
       id="linearGradient3634">
      <stop
         id="stop3636"
         offset="0"
         style="stop-color:#646464;stop-opacity:1;" />
      <stop
         style="stop-color:#ffffff;stop-opacity:1;"
         offset="0.15487957"
         id="stop3649" />
      <stop
         style="stop-color:#c8c8c8;stop-opacity:1;"
         offset="0.52534908"
         id="stop3642" />
      <stop
         id="stop3638"
         offset="1"
         style="stop-color:#969696;stop-opacity:1;" />
    </linearGradient>
    <linearGradient
       id="linearGradient3668">
      <stop
         id="stop3670"
         offset="0"
         style="stop-color:#8c5900;stop-opacity:1;" />
      <stop
         style="stop-color:#ebc000;stop-opacity:1"
         offset="0.1931276"
         id="stop3680" />
      <stop
         style="stop-color:#fefa00;stop-opacity:1;"
         offset="0.51009506"
         id="stop3678" />
      <stop
         style="stop-color:#ebc003;stop-opacity:1;"
         offset="0.81011766"
         id="stop3676" />
      <stop
         id="stop3672"
         offset="1"
         style="stop-color:#ca8400;stop-opacity:1;" />
    </linearGradient>
    <linearGradient
       id="linearGradient3682">
      <stop
         id="stop3684"
         offset="0"
         style="stop-color:#fadf00;stop-opacity:1" />
      <stop
         id="stop3686"
         offset="1"
         style="stop-color:#976500;stop-opacity:1;" />
    </linearGradient>
    <linearGradient
       id="linearGradient3704">
      <stop
         style="stop-color:#fff000;stop-opacity:1;"
         offset="0"
         id="stop3706" />
      <stop
         style="stop-color:#976500;stop-opacity:1;"
         offset="1"
         id="stop3708" />
    </linearGradient>
    <linearGradient
       id="linearGradient3730">
      <stop
         id="stop3732"
         offset="0"
         style="stop-color:#ffffff;stop-opacity:0;" />
      <stop
         style="stop-color:#ffffff;stop-opacity:0;"
         offset="0.3594332"
         id="stop3740" />
      <stop
         style="stop-color:#ffffff;stop-opacity:0.74509805;"
         offset="0.63468701"
         id="stop3738" />
      <stop
         id="stop3734"
         offset="1"
         style="stop-color:#ffffff;stop-opacity:0;" />
    </linearGradient>
    <linearGradient
       id="linearGradient3748">
      <stop
         style="stop-color:#8c5900;stop-opacity:0;"
         offset="0"
         id="stop3750" />
      <stop
         id="stop3752"
         offset="0.1931276"
         style="stop-color:#ebc000;stop-opacity:0;" />
      <stop
         id="stop3754"
         offset="0.51009506"
         style="stop-color:#fefa00;stop-opacity:0;" />
      <stop
         id="stop3756"
         offset="0.59583193"
         style="stop-color:#ebc003;stop-opacity:0.78431374;" />
      <stop
         style="stop-color:#ca8400;stop-opacity:0.78431374;"
         offset="1"
         id="stop3758" />
    </linearGradient>
    <linearGradient
       id="linearGradient3766">
      <stop
         id="stop3768"
         offset="0"
         style="stop-color:#ffffff;stop-opacity:0;" />
      <stop
         style="stop-color:#ffffff;stop-opacity:0;"
         offset="0.49821591"
         id="stop3770" />
      <stop
         style="stop-color:#ffffff;stop-opacity:0.78431374;"
         offset="0.52774066"
         id="stop3772" />
      <stop
         style="stop-color:#ffffff;stop-opacity:0.58823532;"
         offset="0.71785575"
         id="stop3774" />
      <stop
         id="stop3776"
         offset="1"
         style="stop-color:#ffffff;stop-opacity:0;" />
    </linearGradient>
    <linearGradient
       id="linearGradient3788">
      <stop
         id="stop3790"
         offset="0"
         style="stop-color:#cb4e00;stop-opacity:1;" />
      <stop
         id="stop3792"
         offset="1"
         style="stop-color:#cb4e00;stop-opacity:0;" />
    </linearGradient>
    <linearGradient
       id="linearGradient3676">
      <stop
         id="stop3679"
         offset="0"
         style="stop-color:#ffffff;stop-opacity:0.58823532;" />
      <stop
         id="stop3681"
         offset="1"
         style="stop-color:#000000;stop-opacity:0;" />
    </linearGradient>
    <linearGradient
       id="linearGradient3889">
      <stop
         id="stop3891"
         offset="0"
         style="stop-color:#c8c8c8;stop-opacity:1;" />
      <stop
         id="stop3893"
         offset="1"
         style="stop-color:#f0f0f0;stop-opacity:1;" />
    </linearGradient>
    <linearGradient
       id="linearGradient3897">
      <stop
         id="stop3899"
         offset="0"
         style="stop-color:#a0a0a0;stop-opacity:1;" />
      <stop
         id="stop3901"
         offset="1"
         style="stop-color:#c8c8c8;stop-opacity:1;" />
    </linearGradient>
    <linearGradient
       id="linearGradient3905">
      <stop
         id="stop3907"
         offset="0"
         style="stop-color:#bebebe;stop-opacity:1;" />
      <stop
         id="stop3909"
         offset="1"
         style="stop-color:#969696;stop-opacity:1;" />
    </linearGradient>
    <linearGradient
       id="linearGradient3705">
      <stop
         id="stop3707"
         offset="0"
         style="stop-color:#646464;stop-opacity:1;" />
      <stop
         style="stop-color:#c8c8c8;stop-opacity:1;"
         offset="0.23085631"
         id="stop3717" />
      <stop
         style="stop-color:#f0f0f0;stop-opacity:1;"
         offset="0.50891"
         id="stop3715" />
      <stop
         style="stop-color:#c8c8c8;stop-opacity:1;"
         offset="0.80074656"
         id="stop3713" />
      <stop
         id="stop3709"
         offset="1"
         style="stop-color:#646464;stop-opacity:1;" />
    </linearGradient>
    <linearGradient
       id="linearGradient3721">
      <stop
         style="stop-color:#c8c8c8;stop-opacity:1;"
         offset="0"
         id="stop3733" />
      <stop
         style="stop-color:#f0f0f0;stop-opacity:1;"
         offset="0.32948276"
         id="stop3731" />
      <stop
         style="stop-color:#969696;stop-opacity:1;"
         offset="1"
         id="stop3729" />
    </linearGradient>
    <linearGradient
       id="linearGradient3738">
      <stop
         id="stop3741"
         offset="0"
         style="stop-color:#646464;stop-opacity:1;" />
      <stop
         id="stop3743"
         offset="1"
         style="stop-color:#646464;stop-opacity:0" />
    </linearGradient>
    <linearGradient
       id="linearGradient3755">
      <stop
         id="stop3757"
         offset="0"
         style="stop-color:#b4b4b4;stop-opacity:1;" />
      <stop
         style="stop-color:#f0f0f0;stop-opacity:1;"
         offset="0.5"
         id="stop3763" />
      <stop
         id="stop3759"
         offset="1"
         style="stop-color:#b4b4b4;stop-opacity:1;" />
    </linearGradient>
    <linearGradient
       id="linearGradient3777">
      <stop
         style="stop-color:#b4b4b4;stop-opacity:1;"
         offset="0"
         id="stop3779" />
      <stop
         id="stop3787"
         offset="0.125"
         style="stop-color:#f0f0f0;stop-opacity:1;" />
      <stop
         id="stop3785"
         offset="0.46778932"
         style="stop-color:#b4b4b4;stop-opacity:1;" />
      <stop
         id="stop3781"
         offset="0.77607095"
         style="stop-color:#f0f0f0;stop-opacity:1;" />
      <stop
         style="stop-color:#b4b4b4;stop-opacity:1;"
         offset="1"
         id="stop3783" />
    </linearGradient>
    <linearGradient
       id="linearGradient3812">
      <stop
         id="stop3814"
         offset="0"
         style="stop-color:#f0f0f0;stop-opacity:1;" />
      <stop
         id="stop3816"
         offset="1"
         style="stop-color:#646464;stop-opacity:1;" />
    </linearGradient>
    <linearGradient
       id="linearGradient3845">
      <stop
         id="stop3851"
         offset="0"
         style="stop-color:#646464;stop-opacity:1;" />
      <stop
         id="stop3853"
         offset="1"
         style="stop-color:#646464;stop-opacity:0;" />
    </linearGradient>
    <linearGradient
       id="linearGradient3759">
      <stop
         id="stop3761"
         offset="0"
         style="stop-color:#3333c8;stop-opacity:1;" />
      <stop
         id="stop3764"
         offset="0.32948276"
         style="stop-color:#f0f0f0;stop-opacity:1;" />
      <stop
         id="stop3766"
         offset="1"
         style="stop-color:#969696;stop-opacity:1;" />
    </linearGradient>
    <linearGradient
       id="linearGradient3772"
       inkscape:collect="always">
      <stop
         id="stop3775"
         offset="0"
         style="stop-color:#333333;stop-opacity:1;" />
      <stop
         id="stop3777"
         offset="1"
         style="stop-color:#333333;stop-opacity:0;" />
    </linearGradient>
    <linearGradient
       id="linearGradient3804"
       inkscape:collect="always">
      <stop
         id="stop3806"
         offset="0"
         style="stop-color:#000000;stop-opacity:1;" />
      <stop
         id="stop3808"
         offset="1"
         style="stop-color:#000000;stop-opacity:0;" />
    </linearGradient>
    <linearGradient
       id="linearGradient3822">
      <stop
         style="stop-color:#ffffff;stop-opacity:1;"
         offset="0"
         id="stop3824" />
      <stop
         style="stop-color:#ffffff;stop-opacity:0;"
         offset="1"
         id="stop3826" />
    </linearGradient>
    <radialGradient
       gradientTransform="matrix(1.1573129,0,0,0.99590774,-7.551021,0.1971319)"
       gradientUnits="userSpaceOnUse"
       xlink:href="#linearGradient3737-2"
       id="radialGradient3619-5"
       fy="90.171875"
       fx="48"
       r="42"
       cy="90.171875"
       cx="48" />
    <linearGradient
       id="linearGradient3737-2">
      <stop
         offset="0"
         style="stop-color:#ffffff;stop-opacity:1"
         id="stop3739-0" />
      <stop
         offset="1"
         style="stop-color:#ffffff;stop-opacity:0"
         id="stop3741-1" />
    </linearGradient>
    <linearGradient
       gradientUnits="userSpaceOnUse"
       xlink:href="#linearGradient3737-2"
       id="linearGradient3188-2"
       y2="63.893143"
       x2="36.357143"
       y1="6"
       x1="36.357143" />
    <linearGradient
       gradientTransform="matrix(1.0238095,0,0,-1.0119048,-1.1428571,98.071429)"
       gradientUnits="userSpaceOnUse"
       xlink:href="#ButtonShadow-0"
       id="linearGradient3289"
       y2="90.238609"
       x2="32.251034"
       y1="6.1317081"
       x1="32.251034" />
    <linearGradient
       gradientTransform="matrix(1,0,0,-1,0,97)"
       gradientUnits="userSpaceOnUse"
       xlink:href="#ButtonShadow-0"
       id="linearGradient3721-5"
       y2="90.238609"
       x2="32.251034"
       y1="6.1317081"
       x1="32.251034" />
    <linearGradient
       gradientTransform="matrix(1.0238095,0,0,-1.0119048,-1.1428571,98.071429)"
       gradientUnits="userSpaceOnUse"
       xlink:href="#ButtonShadow-0"
       id="linearGradient3725-6"
       y2="90.238609"
       x2="32.251034"
       y1="6.1317081"
       x1="32.251034" />
    <linearGradient
       gradientTransform="matrix(1.0238095,0,0,-1.0119048,-1.1428571,98.071429)"
       gradientUnits="userSpaceOnUse"
       xlink:href="#ButtonShadow-0"
       id="linearGradient3772-5"
       y2="90.238609"
       x2="32.251034"
       y1="6.1317081"
       x1="32.251034" />
    <linearGradient
       gradientTransform="matrix(1.0238095,0,0,-1.0119048,-1.1428571,98.071429)"
       gradientUnits="userSpaceOnUse"
       xlink:href="#ButtonShadow-0"
       id="linearGradient3780"
       y2="90.238609"
       x2="32.251034"
       y1="6.1317081"
       x1="32.251034" />
    <linearGradient
       gradientTransform="matrix(1.0058652,0,0,0.994169,100,0)"
       gradientUnits="userSpaceOnUse"
       id="ButtonShadow-0"
       y2="7.0165396"
       x2="45.447727"
       y1="92.539597"
       x1="45.447727">
      <stop
         offset="0"
         style="stop-color:#000000;stop-opacity:1"
         id="stop3750-8" />
      <stop
         offset="1"
         style="stop-color:#000000;stop-opacity:0.58823532"
         id="stop3752-5" />
    </linearGradient>
    <linearGradient
       id="linearGradient4081">
      <stop
         offset="0"
         style="stop-color:#aaaaaa;stop-opacity:1"
         id="stop4083" />
      <stop
         offset="1"
         style="stop-color:#f0f0f0;stop-opacity:1"
         id="stop4085" />
    </linearGradient>
    <linearGradient
       gradientTransform="matrix(0.47268421,0.12665535,0.12665535,-0.47268421,44.47921,74.733655)"
       gradientUnits="userSpaceOnUse"
       xlink:href="#linearGradient4081"
       id="linearGradient3669"
       y2="45.017357"
       x2="20.758585"
       y1="1"
       x1="20.758585" />
    <linearGradient
       gradientTransform="matrix(0.93022994,0,0,-0.93022994,23.674475,61.395341)"
       gradientUnits="userSpaceOnUse"
       xlink:href="#linearGradient4081"
       id="linearGradient3665"
       y2="45.017357"
       x2="20.758585"
       y1="1"
       x1="20.758585" />
    <filter
       id="filter3657"
       color-interpolation-filters="sRGB">
      <feGaussianBlur
         stdDeviation="1.14"
         id="feGaussianBlur3659" />
    </filter>
    <clipPath
       id="clipPath3649">
      <rect
         style="fill:#ffffff;fill-opacity:1;fill-rule:nonzero;stroke:none"
         id="rect3651"
         y="10"
         x="10"
         ry="4"
         rx="4"
         height="76"
         width="76" />
    </clipPath>
    <linearGradient
       gradientUnits="userSpaceOnUse"
       xlink:href="#linearGradient3637"
       id="linearGradient3643"
       y2="90.015434"
       x2="44.512066"
       y1="6"
       x1="44.512066" />
    <clipPath
       id="clipPath3625">
      <path
         style="fill:#ffffff;fill-opacity:1;stroke:none"
         id="path3627-4"
         inkscape:connector-curvature="0"
         d="M 0,0 0,96 96,96 96,0 0,0 z m 12,6 72,0 c 3.324,0 6,2.676 6,6 l 0,72 c 0,3.324 -2.676,6 -6,6 L 12,90 C 8.676,90 6,87.324 6,84 L 6,12 C 6,8.676 8.676,6 12,6 z" />
    </clipPath>
    <linearGradient
       gradientTransform="translate(0,100)"
       gradientUnits="userSpaceOnUse"
       xlink:href="#linearGradient3700"
       id="linearGradient2843"
       y2="5.9877172"
       x2="48"
       y1="90"
       x1="48" />
    <radialGradient
       gradientTransform="matrix(1.1573129,0,0,0.99590774,-7.5510206,0.19713193)"
       gradientUnits="userSpaceOnUse"
       xlink:href="#linearGradient3737"
       id="radialGradient3619"
       fy="90.171875"
       fx="48"
       r="42"
       cy="90.171875"
       cx="48" />
    <linearGradient
       gradientUnits="userSpaceOnUse"
       xlink:href="#linearGradient3737"
       id="linearGradient3188"
       y2="63.893143"
       x2="36.357143"
       y1="6"
       x1="36.357143" />
    <filter
       id="filter3174"
       color-interpolation-filters="sRGB">
      <feGaussianBlur
         stdDeviation="1.71"
         id="feGaussianBlur3176" />
    </filter>
    <linearGradient
       id="linearGradient3700">
      <stop
         offset="0"
         style="stop-color:#2276c5;stop-opacity:1"
         id="stop3702" />
      <stop
         offset="1"
         style="stop-color:#68baf4;stop-opacity:1"
         id="stop3704" />
    </linearGradient>
    <linearGradient
       id="linearGradient3737">
      <stop
         offset="0"
         style="stop-color:#ffffff;stop-opacity:1"
         id="stop3739" />
      <stop
         offset="1"
         style="stop-color:#ffffff;stop-opacity:0"
         id="stop3741-5" />
    </linearGradient>
    <linearGradient
       gradientTransform="scale(1.0058652,0.994169)"
       gradientUnits="userSpaceOnUse"
       id="ButtonShadow"
       y2="7.0165396"
       x2="45.447727"
       y1="92.539597"
       x1="45.447727">
      <stop
         offset="0"
         style="stop-color:#000000;stop-opacity:1"
         id="stop3750-5" />
      <stop
         offset="1"
         style="stop-color:#000000;stop-opacity:0.58823532"
         id="stop3752-2" />
    </linearGradient>
    <linearGradient
       id="linearGradient3637">
      <stop
         offset="0"
         style="stop-color:#f0f0f0;stop-opacity:1"
         id="stop3639" />
      <stop
         offset="1"
         style="stop-color:#dcdcdc;stop-opacity:1"
         id="stop3641" />
    </linearGradient>
    <linearGradient
       gradientTransform="matrix(0.3244803,0,0,0.3244803,3.2332655,2.5577454)"
       gradientUnits="userSpaceOnUse"
       xlink:href="#linearGradient5128"
       id="linearGradient2512"
       y2="20.895"
       x2="84.63858"
       y1="105.105"
       x1="86.132919" />
    <linearGradient
       id="linearGradient5128">
      <stop
         offset="0"
         style="stop-color:#e5e5e5;stop-opacity:1"
         id="stop5130" />
      <stop
         offset="1"
         style="stop-color:#ababab;stop-opacity:1"
         id="stop5132" />
    </linearGradient>
    <linearGradient
       gradientUnits="userSpaceOnUse"
       xlink:href="#linearGradient3309"
       id="linearGradient2515"
       y2="45.017357"
       x2="20.758585"
       y1="1"
       x1="20.758585" />
    <linearGradient
       gradientUnits="userSpaceOnUse"
       id="linearGradient3309"
       y2="122.8994"
       x2="63.9995"
       y1="3.1001"
       x1="63.9995">
      <stop
         offset="0"
         style="stop-color:#f6f6f6;stop-opacity:1"
         id="stop3311" />
      <stop
         offset="1"
         style="stop-color:#d2d2d2;stop-opacity:1"
         id="stop3313" />
    </linearGradient>
    <linearGradient
       gradientUnits="userSpaceOnUse"
       xlink:href="#linearGradient3397"
       id="linearGradient2517"
       y2="45"
       x2="37.201294"
       y1="1"
       x1="37.201294" />
    <linearGradient
       id="linearGradient3397">
      <stop
         offset="0"
         style="stop-color:#aaaaaa;stop-opacity:1"
         id="stop3399" />
      <stop
         offset="1"
         style="stop-color:#8c8c8c;stop-opacity:1"
         id="stop3401" />
    </linearGradient>
    <radialGradient
       gradientTransform="matrix(2.1647059,0,0,0.7529402,-111.56471,36.517647)"
       gradientUnits="userSpaceOnUse"
       xlink:href="#linearGradient8838"
       id="radialGradient2436"
       fy="4.625"
       fx="62.625"
       r="10.625"
       cy="4.625"
       cx="62.625" />
    <linearGradient
       id="linearGradient8838">
      <stop
         offset="0"
         style="stop-color:#000000;stop-opacity:1"
         id="stop8840" />
      <stop
         offset="1"
         style="stop-color:#000000;stop-opacity:0"
         id="stop8842" />
    </linearGradient>
    <linearGradient
       inkscape:collect="always"
       xlink:href="#linearGradient4081"
       id="linearGradient6468"
       gradientUnits="userSpaceOnUse"
       x1="21.036427"
       y1="24.930641"
       x2="33.587574"
       y2="24.930641" />
    <linearGradient
       inkscape:collect="always"
       xlink:href="#linearGradient3619"
       id="linearGradient6470"
       gradientUnits="userSpaceOnUse"
       x1="21.036427"
       y1="24.930641"
       x2="33.587574"
       y2="24.930641" />
    <linearGradient
       inkscape:collect="always"
       xlink:href="#linearGradient4081"
       id="linearGradient4430"
       gradientUnits="userSpaceOnUse"
       x1="21.036427"
       y1="24.930641"
       x2="33.587574"
       y2="24.930641" />
    <linearGradient
       inkscape:collect="always"
       xlink:href="#linearGradient3619"
       id="linearGradient4432"
       gradientUnits="userSpaceOnUse"
       x1="21.036427"
       y1="24.930641"
       x2="33.587574"
       y2="24.930641" />
  </defs>
  <sodipodi:namedview
     id="base"
     pagecolor="#ffffff"
     bordercolor="#666666"
     borderopacity="1.0"
     inkscape:pageopacity="0.0"
     inkscape:pageshadow="2"
     inkscape:zoom="4"
     inkscape:cx="21.349949"
     inkscape:cy="54.786866"
     inkscape:document-units="px"
     inkscape:current-layer="layer1"
     showgrid="false"
     inkscape:window-width="1366"
     inkscape:window-height="746"
     inkscape:window-x="0"
     inkscape:window-y="0"
     inkscape:window-maximized="1" />
  <metadata
     id="metadata4938">
    <rdf:RDF>
      <cc:Work
         rdf:about="">
        <dc:format>image/svg+xml</dc:format>
        <dc:type
           rdf:resource="http://purl.org/dc/dcmitype/StillImage" />
        <dc:title />
      </cc:Work>
    </rdf:RDF>
  </metadata>
  <g
     inkscape:label="Capa 1"
     inkscape:groupmode="layer"
     id="layer1"
     transform="translate(0,-1004.3622)">
    <path
       style="fill:#4d4d4d;stroke:#ffffff;stroke-width:0.6;stroke-miterlimit:4;stroke-dasharray:none"
       d="M 21.59375 1.4375 C 21.319952 1.4375 21.09375 1.9092 21.09375 2.4375 L 21.09375 4 C 17.791165 4.5488 14.756632 6.02305 12.25 8.15625 L 10.78125 6.6875 C 10.407535 6.3146 9.9435985 6.1812 9.75 6.375 L 6.375 9.75 C 6.1813936 9.9429 6.3137805 10.40815 6.6875 10.78125 L 8.46875 12.5625 C 6.8764083 15.0376 5.7774894 17.8984 5.34375 21 L 3.625 21 C 3.0965068 21 2.625 21.2152 2.625 21.5 L 2.625 26.5 C 2.625 26.7848 3.0964974 27 3.625 27 L 5.28125 27 C 5.7174593 30.1024 6.8082886 33.0275 8.40625 35.5 L 6.6875 37.21875 C 6.313784 37.59185 6.1813936 38.0571 6.375 38.25 L 9.75 41.625 C 9.9435975 41.8188 10.407535 41.6882 10.78125 41.3125 L 12.25 39.84375 C 14.756231 41.96965 17.794727 43.42005 21.09375 43.96875 L 21.09375 45.5625 C 21.09375 46.0908 21.319952 46.5625 21.59375 46.5625 L 26.40625 46.5625 C 26.680047 46.5625 26.90625 46.0908 26.90625 45.5625 L 26.90625 43.96875 C 30.205273 43.42005 33.243769 41.96965 35.75 39.84375 L 37.21875 41.3125 C 37.59252 41.6855 38.056403 41.8187 38.25 41.625 L 41.625 38.25 C 41.818607 38.0571 41.686265 37.59195 41.3125 37.21875 L 39.59375 35.5 C 41.191712 33.0275 42.282543 30.1024 42.71875 27 L 44.375 27 C 44.903591 27 45.375 26.7848 45.375 26.5 L 45.375 21.5 C 45.375 21.2152 44.903591 21 44.375 21 L 42.71875 21 C 42.282543 17.8977 41.191712 14.9725 39.59375 12.5 L 41.3125 10.78125 C 41.686266 10.40805 41.818607 9.9429 41.625 9.75 L 38.25 6.375 C 38.056402 6.1813 37.59252 6.3118 37.21875 6.6875 L 35.75 8.15625 C 33.243769 6.03025 30.205273 4.57995 26.90625 4.03125 L 26.90625 2.4375 C 26.90625 1.9092 26.680047 1.4375 26.40625 1.4375 L 21.59375 1.4375 z M 24 9.34375 C 32.096731 9.34375 38.65625 15.9029 38.65625 24 C 38.65625 32.0971 32.096731 38.65625 24 38.65625 C 15.903269 38.65625 9.34375 32.0971 9.34375 24 C 9.34375 15.9029 15.903269 9.34375 24 9.34375 z "
       transform="translate(0,1004.3622)"
       id="path4518-0" />
    <path
       style="fill:#4d4d4d;fill-opacity:1;fill-rule:nonzero;stroke:none"
       d="M 24 8.6875 C 15.54314 8.6875 8.6875 15.54314 8.6875 24 C 8.6875 32.45686 15.54314 39.3125 24 39.3125 C 32.45686 39.3125 39.3125 32.45686 39.3125 24 C 39.3125 15.54314 32.45686 8.6875 24 8.6875 z M 24 19.6875 C 26.381728 19.6875 28.3125 21.618272 28.3125 24 C 28.3125 26.381728 26.381728 28.3125 24 28.3125 C 21.618272 28.3125 19.6875 26.381728 19.6875 24 C 19.6875 21.618272 21.618272 19.6875 24 19.6875 z "
       transform="translate(0,1004.3622)"
       id="path1078" />
    <path
       style="fill:#808080;fill-opacity:1;fill-rule:nonzero;stroke:none"
       d="M 24 13.6875 C 18.304564 13.6875 13.6875 18.304564 13.6875 24 C 13.6875 29.695436 18.304564 34.3125 24 34.3125 C 29.695436 34.3125 34.3125 29.695436 34.3125 24 C 34.3125 18.304564 29.695436 13.6875 24 13.6875 z M 24 19.6875 C 26.381728 19.6875 28.3125 21.618272 28.3125 24 C 28.3125 26.381728 26.381728 28.3125 24 28.3125 C 21.618272 28.3125 19.6875 26.381728 19.6875 24 C 19.6875 21.618272 21.618272 19.6875 24 19.6875 z "
       transform="translate(0,1004.3622)"
       id="path1080" />
  </g>
</svg>
