<?xml version="1.0" encoding="UTF-8" standalone="no"?>
<!-- Created with Inkscape (http://www.inkscape.org/) -->

<svg
   xmlns:dc="http://purl.org/dc/elements/1.1/"
   xmlns:cc="http://creativecommons.org/ns#"
   xmlns:rdf="http://www.w3.org/1999/02/22-rdf-syntax-ns#"
   xmlns:svg="http://www.w3.org/2000/svg"
   xmlns="http://www.w3.org/2000/svg"
   xmlns:sodipodi="http://sodipodi.sourceforge.net/DTD/sodipodi-0.dtd"
   xmlns:inkscape="http://www.inkscape.org/namespaces/inkscape"
   width="48"
   height="48"
   id="svg6627"
   version="1.1"
   inkscape:version="0.48+devel r11725"
   sodipodi:docname="tab-new.svg">
  <defs
     id="defs6629" />
  <sodipodi:namedview
     id="base"
     pagecolor="#ffffff"
     bordercolor="#666666"
     borderopacity="1.0"
     inkscape:pageopacity="0.0"
     inkscape:pageshadow="2"
     inkscape:zoom="7.919596"
     inkscape:cx="27.486197"
     inkscape:cy="27.953047"
     inkscape:document-units="px"
     inkscape:current-layer="layer1"
     showgrid="false"
     fit-margin-top="0"
     fit-margin-left="0"
     fit-margin-right="0"
     fit-margin-bottom="0"
     inkscape:window-width="1366"
     inkscape:window-height="746"
     inkscape:window-x="0"
     inkscape:window-y="0"
     inkscape:window-maximized="1" />
  <metadata
     id="metadata6632">
    <rdf:RDF>
      <cc:Work
         rdf:about="">
        <dc:format>image/svg+xml</dc:format>
        <dc:type
           rdf:resource="http://purl.org/dc/dcmitype/StillImage" />
        <dc:title />
      </cc:Work>
    </rdf:RDF>
  </metadata>
  <g
     inkscape:label="Capa 1"
     inkscape:groupmode="layer"
     id="layer1"
     transform="translate(-244.57143,-502.64789)">
    <rect
       style="fill:none;stroke:none"
       id="rect2989"
       width="48"
       height="48"
       x="244.57143"
       y="502.64789" />
    <path
       style="fill:#4d4d4d;stroke:none"
       d="m 258.16518,516.05312 0,8.28125 -7.71875,0 0,19.71875 36.25,0 0,-18.6875 0,-1.03125 0,-8.28125 L 258.16518,516.05312 Z"
       id="rect2991"
       inkscape:connector-curvature="0" />
    <path
       style="fill:#5fbcd3;fill-opacity:1;stroke:#ffffff;stroke-width:0.60000002;stroke-miterlimit:4;stroke-dasharray:none"
       d="m 274.02414,509.54267 5.59512,0 0,6.6197 6.77717,0 0,5.5951 -6.80982,0 0,6.5801 -5.5557,0 0,-6.4994 -6.82334,0 0,-5.6441 6.81657,0 C 274.02414,513.85627 274.02414,511.88057 274.02414,509.54267 Z"
       id="path3796"
       inkscape:connector-curvature="0"
       sodipodi:nodetypes="ccccccccccccc" />
  </g>
</svg>
