<?xml version="1.0" encoding="UTF-8" standalone="no"?>
<!-- Created with Inkscape (http://www.inkscape.org/) -->

<svg
   xmlns:dc="http://purl.org/dc/elements/1.1/"
   xmlns:cc="http://creativecommons.org/ns#"
   xmlns:rdf="http://www.w3.org/1999/02/22-rdf-syntax-ns#"
   xmlns:svg="http://www.w3.org/2000/svg"
   xmlns="http://www.w3.org/2000/svg"
   xmlns:xlink="http://www.w3.org/1999/xlink"
   xmlns:sodipodi="http://sodipodi.sourceforge.net/DTD/sodipodi-0.dtd"
   xmlns:inkscape="http://www.inkscape.org/namespaces/inkscape"
   width="48"
   height="48"
   id="svg10096"
   version="1.1"
   inkscape:version="0.48+devel r11556"
   sodipodi:docname="add-files-to-archive.svg">
  <defs
     id="defs10098">
    <linearGradient
       id="linearGradient3806">
      <stop
         id="stop3808-07"
         offset="0"
         style="stop-color:#00d0ff;stop-opacity:1;" />
      <stop
         id="stop3810"
         offset="1"
         style="stop-color:#00f0ff;stop-opacity:1;" />
    </linearGradient>
    <linearGradient
       inkscape:collect="always"
       xlink:href="#linearGradient3754"
       id="linearGradient3928"
       gradientUnits="userSpaceOnUse"
       gradientTransform="translate(-0.0416311,0.21835584)"
       x1="23.673292"
       y1="1046.1796"
       x2="23.673292"
       y2="1004.5619" />
    <linearGradient
       id="linearGradient3919">
      <stop
         id="stop3921"
         offset="0"
         style="stop-color:#b1731b;stop-opacity:1;" />
      <stop
         id="stop3923"
         offset="1"
         style="stop-color:#e6ac59;stop-opacity:1;" />
    </linearGradient>
    <linearGradient
       gradientTransform="translate(-0.0416311,0.21835584)"
       y2="1004.5619"
       x2="23.673292"
       y1="1046.1796"
       x1="23.673292"
       gradientUnits="userSpaceOnUse"
       id="linearGradient3767"
       xlink:href="#linearGradient3754"
       inkscape:collect="always" />
    <linearGradient
       id="linearGradient3754">
      <stop
         id="stop3756"
         offset="0"
         style="stop-color:#b1731b;stop-opacity:1;" />
      <stop
         id="stop3758"
         offset="1"
         style="stop-color:#e6ac59;stop-opacity:1;" />
    </linearGradient>
    <linearGradient
       gradientTransform="translate(-0.0416311,0.21835584)"
       y2="1004.5619"
       x2="23.673292"
       y1="1046.1796"
       x1="23.673292"
       gradientUnits="userSpaceOnUse"
       id="linearGradient3770"
       xlink:href="#linearGradient3754"
       inkscape:collect="always" />
    <linearGradient
       id="linearGradient3806-0">
      <stop
         style="stop-color:#00d0ff;stop-opacity:1;"
         offset="0"
         id="stop3808-07-3" />
      <stop
         style="stop-color:#00f0ff;stop-opacity:1;"
         offset="1"
         id="stop3810-4" />
    </linearGradient>
  </defs>
  <sodipodi:namedview
     id="base"
     pagecolor="#ffffff"
     bordercolor="#666666"
     borderopacity="1.0"
     inkscape:pageopacity="0.0"
     inkscape:pageshadow="2"
     inkscape:zoom="8"
     inkscape:cx="10.626838"
     inkscape:cy="16.667266"
     inkscape:document-units="px"
     inkscape:current-layer="layer1"
     showgrid="false"
     inkscape:window-width="1366"
     inkscape:window-height="746"
     inkscape:window-x="0"
     inkscape:window-y="0"
     inkscape:window-maximized="1"
     showguides="true"
     inkscape:guide-bbox="true" />
  <metadata
     id="metadata10101">
    <rdf:RDF>
      <cc:Work
         rdf:about="">
        <dc:format>image/svg+xml</dc:format>
        <dc:type
           rdf:resource="http://purl.org/dc/dcmitype/StillImage" />
        <dc:title />
      </cc:Work>
    </rdf:RDF>
  </metadata>
  <g
     inkscape:label="Capa 1"
     inkscape:groupmode="layer"
     id="layer1"
     transform="translate(0,-1004.3622)">
    <g
       id="g935">
      <path
         id="rect2991-9"
         transform="translate(0,1004.3622)"
         d="M 30.28125 23.96875 L 30.28125 28.9375 L 29.5625 28.9375 L 25.9375 28.9375 L 25.9375 43.3125 L 46.75 43.3125 L 46.75 23.96875 L 31.59375 23.96875 L 31.40625 23.96875 L 30.28125 23.96875 z M 39.4375 24.75 L 40.3125 26.15625 L 36 28.9375 L 35.09375 27.5625 L 39.4375 24.75 z M 35.6875 29.3125 L 38.96875 29.3125 L 38.96875 32.34375 L 35.6875 32.34375 L 35.6875 29.3125 z M 32.3125 32.3125 L 35.625 32.3125 L 35.625 35.3125 L 32.3125 35.3125 L 32.3125 32.3125 z M 35.6875 35.28125 L 38.96875 35.28125 L 38.96875 38.3125 L 35.6875 38.3125 L 35.6875 41.3125 L 32.375 41.3125 L 32.375 38.28125 L 35.6875 38.28125 L 35.6875 35.28125 z "
         style="fill:#4d4d4d;stroke:none" />
      <path
         sodipodi:nodetypes="ccccccccccccc"
         inkscape:connector-curvature="0"
         id="path970"
         d="m 21.440943,1024.4039 3.676549,0 0,4.3498 4.453264,0 0,3.6767 -4.474712,0 0,4.3237 -3.650648,0 0,-4.2708 -4.483609,0 0,-3.7087 4.479156,0 c 0,-1.5362 0,-2.8343 0,-4.3707 z"
         style="fill:#5fbcd3;fill-opacity:1;stroke:none" />
      <path
         sodipodi:nodetypes="ccccccccccccccc"
         inkscape:connector-curvature="0"
         id="rect975"
         d="m 3.3725879,1011.7862 0,24.9552 17.2098091,0 0,-3.4508 -4.333886,0 0,-5.2636 4.303077,0 0,-4.4602 4.541317,0 0,-5.8961 -0.215662,-0.1849 -6.346646,0 -0.06162,-5.5148 -0.215663,-0.1848 z"
         style="fill:#4d4d4d;fill-opacity:1;stroke:none" />
      <path
         sodipodi:nodetypes="cccc"
         inkscape:connector-curvature="0"
         id="path977"
         d="m 25.092905,1016.6712 -5.640811,0 -0.05084,-4.885 z"
         inkscape:transform-center-y="-0.63645977"
         inkscape:transform-center-x="-0.32798422"
         style="fill:#4d4d4d;fill-opacity:1;stroke:none" />
      <rect
         y="1009.0616"
         x="1.2631879"
         height="30.416967"
         width="30.416967"
         id="rect6424"
         style="fill:none;stroke:none" />
    </g>
  </g>
</svg>
