<?xml version="1.0" encoding="UTF-8" standalone="no"?>
<!-- Created with Inkscape (http://www.inkscape.org/) -->

<svg
   xmlns:dc="http://purl.org/dc/elements/1.1/"
   xmlns:cc="http://creativecommons.org/ns#"
   xmlns:rdf="http://www.w3.org/1999/02/22-rdf-syntax-ns#"
   xmlns:svg="http://www.w3.org/2000/svg"
   xmlns="http://www.w3.org/2000/svg"
   xmlns:sodipodi="http://sodipodi.sourceforge.net/DTD/sodipodi-0.dtd"
   xmlns:inkscape="http://www.inkscape.org/namespaces/inkscape"
   width="48"
   height="48"
   id="svg7759"
   version="1.1"
   inkscape:version="0.48+devel r11556"
   sodipodi:docname="stock_paste.svg">
  <defs
     id="defs7761">
    <linearGradient
       id="linearGradient3806">
      <stop
         id="stop3808-07"
         offset="0"
         style="stop-color:#00d0ff;stop-opacity:1;" />
      <stop
         id="stop3810"
         offset="1"
         style="stop-color:#00f0ff;stop-opacity:1;" />
    </linearGradient>
    <linearGradient
       id="linearGradient3806-8">
      <stop
         id="stop3808-07-5"
         offset="0"
         style="stop-color:#00d0ff;stop-opacity:1;" />
      <stop
         id="stop3810-1"
         offset="1"
         style="stop-color:#00f0ff;stop-opacity:1;" />
    </linearGradient>
  </defs>
  <sodipodi:namedview
     id="base"
     pagecolor="#ffffff"
     bordercolor="#666666"
     borderopacity="1.0"
     inkscape:pageopacity="0.0"
     inkscape:pageshadow="2"
     inkscape:zoom="8"
     inkscape:cx="30.743347"
     inkscape:cy="22.360459"
     inkscape:document-units="px"
     inkscape:current-layer="layer1"
     showgrid="false"
     width="0px"
     height="0px"
     fit-margin-top="0"
     fit-margin-left="0"
     fit-margin-right="0"
     fit-margin-bottom="0"
     inkscape:window-width="1050"
     inkscape:window-height="632"
     inkscape:window-x="139"
     inkscape:window-y="63"
     inkscape:window-maximized="0" />
  <metadata
     id="metadata7764">
    <rdf:RDF>
      <cc:Work
         rdf:about="">
        <dc:format>image/svg+xml</dc:format>
        <dc:type
           rdf:resource="http://purl.org/dc/dcmitype/StillImage" />
        <dc:title></dc:title>
      </cc:Work>
    </rdf:RDF>
  </metadata>
  <g
     inkscape:label="Capa 1"
     inkscape:groupmode="layer"
     id="layer1"
     transform="translate(-170.28572,-474.07648)">
    <g
       id="g866"
       transform="translate(-1.72273,0.52797796)">
      <path
         id="rect975"
         transform="translate(170.28572,474.07648)"
         d="m 7.875,5.46875 0,7.25 0,1.5 0,1.3125 0,7.4375 0,0.03125 0,1.28125 0,18.25 6.6875,0 3.84375,0 0,-11.90625 0,-0.96875 0,-14.1875 17.71875,0 1.25,0 0.03125,0.03125 2.71875,2.34375 0,-2.3125 0,-1.3125 0,-1.5 0,-7.25 -8.4375,0 -1.09375,0 0,4.71875 -12.90625,0 0,-4.71875 -1.375,0 -8.4375,0 z"
         style="fill:#4d4d4d;fill-opacity:1;stroke:none"
         inkscape:connector-curvature="0" />
      <rect
         style="fill:#4d4d4d;fill-opacity:1;stroke:none"
         id="rect8357"
         width="10.764467"
         height="6.6528068"
         x="188.90349"
         y="476.93243" />
      <path
         inkscape:connector-curvature="0"
         id="rect975-5"
         d="m 190.62353,491.43429 0,12.63382 0,0.93269 0,13.16377 4.81187,0 13.60891,0 4.81187,0 0,-14.11766 0,-5.34182 0,-0.95389 -0.23317,-0.21198 -6.78325,0 -0.0636,-5.89296 -0.23317,-0.21197 -15.91946,0 z m 17.14892,0 0.0423,5.23584 6.04132,0 -6.08373,-5.23584 z"
         style="fill:#4d4d4d;fill-opacity:1;stroke:none" />
    </g>
  </g>
</svg>
