<?xml version="1.0" encoding="UTF-8" standalone="no"?>
<!-- Created with Inkscape (http://www.inkscape.org/) -->

<svg
   xmlns:dc="http://purl.org/dc/elements/1.1/"
   xmlns:cc="http://creativecommons.org/ns#"
   xmlns:rdf="http://www.w3.org/1999/02/22-rdf-syntax-ns#"
   xmlns:svg="http://www.w3.org/2000/svg"
   xmlns="http://www.w3.org/2000/svg"
   xmlns:xlink="http://www.w3.org/1999/xlink"
   xmlns:sodipodi="http://sodipodi.sourceforge.net/DTD/sodipodi-0.dtd"
   xmlns:inkscape="http://www.inkscape.org/namespaces/inkscape"
   width="48"
   height="48"
   id="svg2"
   version="1.1"
   inkscape:version="0.48+devel r11701"
   sodipodi:docname="folder-copy.svg">
  <defs
     id="defs4">
    <linearGradient
       inkscape:collect="always"
       xlink:href="#linearGradient3754"
       id="linearGradient3770"
       gradientUnits="userSpaceOnUse"
       x1="23.673292"
       y1="1046.1796"
       x2="23.673292"
       y2="1004.5619"
       gradientTransform="translate(-0.0416311,0.21835584)" />
    <linearGradient
       id="linearGradient3754">
      <stop
         style="stop-color:#b1731b;stop-opacity:1;"
         offset="0"
         id="stop3756" />
      <stop
         style="stop-color:#e6ac59;stop-opacity:1;"
         offset="1"
         id="stop3758" />
    </linearGradient>
    <linearGradient
       inkscape:collect="always"
       xlink:href="#linearGradient3754"
       id="linearGradient3767"
       gradientUnits="userSpaceOnUse"
       x1="23.673292"
       y1="1046.1796"
       x2="23.673292"
       y2="1004.5619"
       gradientTransform="translate(-0.0416311,0.21835584)" />
    <linearGradient
       id="linearGradient3815">
      <stop
         style="stop-color:#b1731b;stop-opacity:1;"
         offset="0"
         id="stop3817" />
      <stop
         style="stop-color:#e6ac59;stop-opacity:1;"
         offset="1"
         id="stop3819" />
    </linearGradient>
    <linearGradient
       y2="1004.5619"
       x2="23.673292"
       y1="1046.1796"
       x1="23.673292"
       gradientTransform="translate(-0.0416311,0.21835584)"
       gradientUnits="userSpaceOnUse"
       id="linearGradient3824"
       xlink:href="#linearGradient3754"
       inkscape:collect="always" />
    <linearGradient
       id="linearGradient3754-2">
      <stop
         style="stop-color:#b1731b;stop-opacity:1;"
         offset="0"
         id="stop3756-8" />
      <stop
         style="stop-color:#e6ac59;stop-opacity:1;"
         offset="1"
         id="stop3758-3" />
    </linearGradient>
    <linearGradient
       inkscape:collect="always"
       xlink:href="#linearGradient3754-2"
       id="linearGradient3799"
       x1="26.961445"
       y1="42.171211"
       x2="26.961445"
       y2="0.56316221"
       gradientUnits="userSpaceOnUse"
       gradientTransform="translate(0,1003.6678)" />
    <linearGradient
       id="linearGradient4128">
      <stop
         style="stop-color:#b1731b;stop-opacity:1;"
         offset="0"
         id="stop4130" />
      <stop
         style="stop-color:#e6ac59;stop-opacity:1;"
         offset="1"
         id="stop4132" />
    </linearGradient>
    <linearGradient
       inkscape:collect="always"
       xlink:href="#linearGradient3754-20"
       id="linearGradient48"
       gradientUnits="userSpaceOnUse"
       gradientTransform="matrix(1,0,0,1.2787456,-0.0416311,-1290.7344)"
       x1="23.673292"
       y1="1046.1796"
       x2="23.673292"
       y2="1004.5619" />
    <linearGradient
       id="linearGradient3754-20">
      <stop
         style="stop-color:#b1731b;stop-opacity:1;"
         offset="0"
         id="stop3756-9" />
      <stop
         style="stop-color:#e6ac59;stop-opacity:1;"
         offset="1"
         id="stop3758-2" />
    </linearGradient>
    <linearGradient
       y2="2.1071587"
       x2="26.189318"
       y1="24.964302"
       x1="26.189318"
       gradientTransform="translate(-52.896521,1005.2728)"
       gradientUnits="userSpaceOnUse"
       id="linearGradient886"
       xlink:href="#linearGradient2542"
       inkscape:collect="always" />
    <linearGradient
       inkscape:collect="always"
       id="linearGradient2542">
      <stop
         style="stop-color:#ce7708;stop-opacity:1"
         offset="0"
         id="stop2544" />
      <stop
         style="stop-color:#fbd395;stop-opacity:1"
         offset="1"
         id="stop2546" />
    </linearGradient>
    <linearGradient
       y2="1014.9384"
       x2="25.385807"
       y1="1051.0098"
       x1="25.385807"
       gradientTransform="matrix(1.0000338,0,0,0.98911462,-52.897336,12.347365)"
       gradientUnits="userSpaceOnUse"
       id="linearGradient2540"
       xlink:href="#linearGradient3754-1"
       inkscape:collect="always" />
    <linearGradient
       id="linearGradient3754-1">
      <stop
         style="stop-color:#b1731b;stop-opacity:1;"
         offset="0"
         id="stop3756-4" />
      <stop
         style="stop-color:#e6ac59;stop-opacity:1;"
         offset="1"
         id="stop3758-29" />
    </linearGradient>
    <linearGradient
       y2="1014.9384"
       x2="25.385807"
       y1="1051.0098"
       x1="25.385807"
       gradientTransform="matrix(1.0000338,0,0,0.98911462,-52.897336,12.347365)"
       gradientUnits="userSpaceOnUse"
       id="linearGradient896"
       xlink:href="#linearGradient3754-1"
       inkscape:collect="always" />
  </defs>
  <sodipodi:namedview
     id="base"
     pagecolor="#ffffff"
     bordercolor="#666666"
     borderopacity="1.0"
     inkscape:pageopacity="0.0"
     inkscape:pageshadow="2"
     inkscape:zoom="5.6"
     inkscape:cx="-10.177722"
     inkscape:cy="33.721989"
     inkscape:document-units="px"
     inkscape:current-layer="layer1"
     showgrid="false"
     inkscape:window-width="1366"
     inkscape:window-height="746"
     inkscape:window-x="0"
     inkscape:window-y="0"
     inkscape:window-maximized="1" />
  <metadata
     id="metadata7">
    <rdf:RDF>
      <cc:Work
         rdf:about="">
        <dc:format>image/svg+xml</dc:format>
        <dc:type
           rdf:resource="http://purl.org/dc/dcmitype/StillImage" />
        <dc:title />
      </cc:Work>
    </rdf:RDF>
  </metadata>
  <g
     inkscape:label="Capa 1"
     inkscape:groupmode="layer"
     id="layer1"
     transform="translate(0,-1004.3622)">
    <g
       id="g892"
       transform="translate(-0.25747515,0.11396774)">
      <g
         transform="translate(37.142857,-6.7857143)"
         id="g886">
        <path
           style="fill:#999999;fill-opacity:1;stroke:#999999;stroke-width:0.1826281;stroke-linecap:butt;stroke-linejoin:round;stroke-miterlimit:4;stroke-opacity:1"
           d="m -32.78873,1020.0094 6.201709,0 8.756328,0 1.527318,-1.9024 8.321498,0 c 0.5962564,0 1.076276,0.48 1.076276,1.0763 l 0,24.9156 c 0,0.5962 -0.4800196,1.0762 -1.076276,1.0762 l -24.806834,0 c -0.596256,0 -1.076274,-0.48 -1.076274,-1.0762 l 0,-23.0132 C -33.864985,1020.4894 -33.384944,1020.0042 -32.788711,1020.0094 Z"
           id="path870"
           inkscape:connector-curvature="0"
           sodipodi:nodetypes="ccccssssssssc" />
        <rect
           ry="0.89335138"
           y="1021.6498"
           x="-32.523121"
           height="22.467621"
           width="24.184294"
           id="rect872"
           style="opacity:0.14285715;fill:#000000;fill-opacity:1;stroke:none" />
        <rect
           style="fill:#f9f9f9;fill-opacity:1;stroke:none"
           id="rect874"
           width="21.157541"
           height="23.567881"
           x="-1043.5009"
           y="-32.214916"
           ry="0.93709964"
           transform="matrix(0,-1,1,0,0,0)" />
        <rect
           ry="0.87773263"
           y="1024.1814"
           x="-33.873779"
           height="21.002569"
           width="26.97698"
           id="rect876"
           style="fill:#808080;fill-opacity:1;stroke:#999999;stroke-width:0.16497914;stroke-linecap:butt;stroke-linejoin:round;stroke-miterlimit:4;stroke-opacity:1;stroke-dasharray:none" />
      </g>
      <g
         transform="matrix(0.6087603,0,0,0.6087603,49.283376,405.07154)"
         id="g867">
        <path
           sodipodi:nodetypes="ccccssssssssc"
           inkscape:connector-curvature="0"
           id="path2530"
           d="m -49.164259,1010.1478 10.18744,0 14.383868,0 2.5089,-3.125 13.66958,0 c 0.97946,0 1.76798,0.7885 1.76798,1.768 l 0,40.9283 c 0,0.9795 -0.78852,1.768 -1.76798,1.768 l -40.749757,0 c -0.979459,0 -1.767976,-0.7885 -1.767976,-1.768 l 0,-37.8033 C -50.932204,1010.9363 -50.143649,1010.1392 -49.164228,1010.1478 Z"
           style="fill:url(#linearGradient886);fill-opacity:1;stroke:#999999;stroke-width:0.30000001;stroke-linecap:butt;stroke-linejoin:round;stroke-miterlimit:4;stroke-opacity:1" />
        <rect
           style="opacity:0.14285715;fill:#000000;fill-opacity:1;stroke:none"
           id="rect2532"
           width="39.727119"
           height="36.907173"
           x="-48.727947"
           y="1012.8424"
           ry="1.4674928" />
        <rect
           transform="matrix(0,-1,1,0,0,0)"
           ry="1.5393573"
           y="-48.221664"
           x="-1048.7367"
           height="38.71455"
           width="34.755127"
           id="rect2534"
           style="fill:#f9f9f9;fill-opacity:1;stroke:none" />
        <rect
           style="fill:url(#linearGradient896);fill-opacity:1;stroke:#999999;stroke-width:0.27100837;stroke-linecap:butt;stroke-linejoin:round;stroke-miterlimit:4;stroke-opacity:1;stroke-dasharray:none"
           id="rect2536"
           width="44.314617"
           height="34.500557"
           x="-50.946648"
           y="1017.0011"
           ry="1.4418362" />
      </g>
    </g>
  </g>
</svg>
