<?xml version="1.0" encoding="UTF-8" standalone="no"?>
<!-- Created with Inkscape (http://www.inkscape.org/) -->

<svg
   xmlns:dc="http://purl.org/dc/elements/1.1/"
   xmlns:cc="http://creativecommons.org/ns#"
   xmlns:rdf="http://www.w3.org/1999/02/22-rdf-syntax-ns#"
   xmlns:svg="http://www.w3.org/2000/svg"
   xmlns="http://www.w3.org/2000/svg"
   xmlns:xlink="http://www.w3.org/1999/xlink"
   xmlns:sodipodi="http://sodipodi.sourceforge.net/DTD/sodipodi-0.dtd"
   xmlns:inkscape="http://www.inkscape.org/namespaces/inkscape"
   width="48"
   height="48"
   id="svg2"
   version="1.1"
   inkscape:version="0.48+devel r11521"
   sodipodi:docname="display.svg">
  <defs
     id="defs4">
    <linearGradient
       id="linearGradient3795">
      <stop
         style="stop-color:#f13939;stop-opacity:1;"
         offset="0"
         id="stop3797" />
      <stop
         style="stop-color:#9d4221;stop-opacity:1;"
         offset="1"
         id="stop3799" />
    </linearGradient>
    <linearGradient
       id="linearGradient3698">
      <stop
         id="stop3700"
         offset="0"
         style="stop-color:#96d0e1;stop-opacity:1" />
      <stop
         style="stop-color:#89b7e1;stop-opacity:1"
         offset="0.67819428"
         id="stop3706" />
      <stop
         id="stop3702"
         offset="1"
         style="stop-color:#699dd3;stop-opacity:1" />
    </linearGradient>
    <linearGradient
       id="linearGradient3708">
      <stop
         id="stop3710"
         offset="0"
         style="stop-color:#658db6;stop-opacity:1" />
      <stop
         style="stop-color:#527fab;stop-opacity:1;"
         offset="0.76777935"
         id="stop3716" />
      <stop
         id="stop3712"
         offset="1"
         style="stop-color:#4071a0;stop-opacity:1" />
    </linearGradient>
    <linearGradient
       id="linearGradient3750">
      <stop
         style="stop-color:#d0e2f1;stop-opacity:1"
         offset="0"
         id="stop3752" />
      <stop
         id="stop3756"
         offset="0.85580856"
         style="stop-color:#cadef0;stop-opacity:1" />
      <stop
         style="stop-color:#95bee3;stop-opacity:1"
         offset="1"
         id="stop3754" />
    </linearGradient>
    <linearGradient
       id="linearGradient3803">
      <stop
         id="stop3805"
         offset="0"
         style="stop-color:#d7def0;stop-opacity:1;" />
      <stop
         style="stop-color:#ffffff;stop-opacity:1"
         offset="0.5"
         id="stop3811" />
      <stop
         id="stop3807"
         offset="1"
         style="stop-color:#d5def0;stop-opacity:1" />
    </linearGradient>
    <linearGradient
       inkscape:collect="always"
       xlink:href="#linearGradient3795"
       id="linearGradient3859"
       x1="26.192217"
       y1="1024.0002"
       x2="28.641211"
       y2="1024.0002"
       gradientUnits="userSpaceOnUse" />
    <linearGradient
       inkscape:collect="always"
       xlink:href="#linearGradient3795"
       id="linearGradient3867"
       gradientUnits="userSpaceOnUse"
       x1="26.192217"
       y1="1024.0002"
       x2="28.641211"
       y2="1024.0002" />
    <linearGradient
       inkscape:collect="always"
       xlink:href="#linearGradient3795"
       id="linearGradient3869"
       gradientUnits="userSpaceOnUse"
       x1="26.192217"
       y1="1024.0002"
       x2="28.641211"
       y2="1024.0002" />
    <linearGradient
       inkscape:collect="always"
       xlink:href="#linearGradient3795"
       id="linearGradient3871"
       gradientUnits="userSpaceOnUse"
       x1="26.192217"
       y1="1024.0002"
       x2="28.641211"
       y2="1024.0002" />
    <linearGradient
       inkscape:collect="always"
       xlink:href="#linearGradient3795"
       id="linearGradient3877"
       gradientUnits="userSpaceOnUse"
       x1="29.718235"
       y1="1027.8575"
       x2="22.811094"
       y2="1015.5485" />
    <linearGradient
       inkscape:collect="always"
       xlink:href="#linearGradient3795"
       id="linearGradient3879"
       gradientUnits="userSpaceOnUse"
       x1="17.196316"
       y1="1006.2238"
       x2="31.448042"
       y2="1030.9086" />
    <linearGradient
       inkscape:collect="always"
       xlink:href="#linearGradient3795"
       id="linearGradient3895"
       x1="21.973417"
       y1="34.43922"
       x2="42.475323"
       y2="24.798252"
       gradientUnits="userSpaceOnUse" />
    <linearGradient
       inkscape:collect="always"
       xlink:href="#linearGradient3708-9"
       id="linearGradient3030"
       gradientUnits="userSpaceOnUse"
       gradientTransform="matrix(0.96799712,0,0,1.0252613,0.76812011,-25.977869)"
       x1="24.113745"
       y1="1007.2183"
       x2="24.113745"
       y2="1034.4536" />
    <linearGradient
       id="linearGradient3895-8">
      <stop
         style="stop-color:#e0880b;stop-opacity:1;"
         offset="0"
         id="stop3897" />
      <stop
         style="stop-color:#f7ce50;stop-opacity:1;"
         offset="1"
         id="stop3899" />
    </linearGradient>
    <linearGradient
       y2="1007.5135"
       x2="24.113745"
       y1="1049.2139"
       x1="24.113745"
       gradientTransform="matrix(0.96799712,0,0,1.0252613,604.84439,-419.13965)"
       gradientUnits="userSpaceOnUse"
       id="linearGradient3857"
       xlink:href="#linearGradient3895-8"
       inkscape:collect="always" />
    <linearGradient
       gradientUnits="userSpaceOnUse"
       y2="24.798252"
       x2="42.475323"
       y1="34.43922"
       x1="21.973417"
       id="linearGradient3895-82"
       xlink:href="#linearGradient3795-3"
       inkscape:collect="always" />
    <linearGradient
       y2="1030.9086"
       x2="31.448042"
       y1="1006.2238"
       x1="17.196316"
       gradientUnits="userSpaceOnUse"
       id="linearGradient3879-1"
       xlink:href="#linearGradient3795-3"
       inkscape:collect="always" />
    <linearGradient
       y2="1015.5485"
       x2="22.811094"
       y1="1027.8575"
       x1="29.718235"
       gradientUnits="userSpaceOnUse"
       id="linearGradient3877-8"
       xlink:href="#linearGradient3795-3"
       inkscape:collect="always" />
    <linearGradient
       y2="1024.0002"
       x2="28.641211"
       y1="1024.0002"
       x1="26.192217"
       gradientUnits="userSpaceOnUse"
       id="linearGradient3871-5"
       xlink:href="#linearGradient3795-3"
       inkscape:collect="always" />
    <linearGradient
       y2="1024.0002"
       x2="28.641211"
       y1="1024.0002"
       x1="26.192217"
       gradientUnits="userSpaceOnUse"
       id="linearGradient3869-6"
       xlink:href="#linearGradient3795-3"
       inkscape:collect="always" />
    <linearGradient
       y2="1024.0002"
       x2="28.641211"
       y1="1024.0002"
       x1="26.192217"
       gradientUnits="userSpaceOnUse"
       id="linearGradient3867-7"
       xlink:href="#linearGradient3795-3"
       inkscape:collect="always" />
    <linearGradient
       gradientUnits="userSpaceOnUse"
       y2="1024.0002"
       x2="28.641211"
       y1="1024.0002"
       x1="26.192217"
       id="linearGradient3859-9"
       xlink:href="#linearGradient3795-3"
       inkscape:collect="always" />
    <linearGradient
       gradientTransform="translate(0,-2056.7244)"
       gradientUnits="userSpaceOnUse"
       y2="1004.8474"
       x2="23.204165"
       y1="1053.158"
       x1="23.204165"
       id="linearGradient3801-4"
       xlink:href="#linearGradient3795-3"
       inkscape:collect="always" />
    <linearGradient
       id="linearGradient3803-8">
      <stop
         style="stop-color:#d7def0;stop-opacity:1;"
         offset="0"
         id="stop3805-3" />
      <stop
         id="stop3811-8"
         offset="0.5"
         style="stop-color:#ffffff;stop-opacity:1" />
      <stop
         style="stop-color:#d5def0;stop-opacity:1"
         offset="1"
         id="stop3807-9" />
    </linearGradient>
    <linearGradient
       id="linearGradient3750-7">
      <stop
         id="stop3752-0"
         offset="0"
         style="stop-color:#d0e2f1;stop-opacity:1" />
      <stop
         style="stop-color:#cadef0;stop-opacity:1"
         offset="0.85580856"
         id="stop3756-9" />
      <stop
         id="stop3754-6"
         offset="1"
         style="stop-color:#95bee3;stop-opacity:1" />
    </linearGradient>
    <linearGradient
       id="linearGradient3708-9">
      <stop
         style="stop-color:#dddddd;stop-opacity:1"
         offset="0"
         id="stop3710-1" />
      <stop
         style="stop-color:#656565;stop-opacity:1"
         offset="1"
         id="stop3712-5" />
    </linearGradient>
    <linearGradient
       id="linearGradient3698-1">
      <stop
         style="stop-color:#96d0e1;stop-opacity:1"
         offset="0"
         id="stop3700-3" />
      <stop
         id="stop3706-5"
         offset="0.67819428"
         style="stop-color:#89b7e1;stop-opacity:1" />
      <stop
         style="stop-color:#699dd3;stop-opacity:1"
         offset="1"
         id="stop3702-0" />
    </linearGradient>
    <linearGradient
       id="linearGradient3795-3">
      <stop
         id="stop3797-6"
         offset="0"
         style="stop-color:#68b8d8;stop-opacity:1;" />
      <stop
         id="stop3799-4"
         offset="1"
         style="stop-color:#3097bd;stop-opacity:1;" />
    </linearGradient>
    <radialGradient
       inkscape:collect="always"
       xlink:href="#linearGradient3795-3"
       id="radialGradient899"
       cx="8.4990215"
       cy="38.345772"
       fx="8.4990215"
       fy="38.345772"
       r="2.3178792"
       gradientUnits="userSpaceOnUse" />
  </defs>
  <sodipodi:namedview
     id="base"
     pagecolor="#ffffff"
     bordercolor="#666666"
     borderopacity="1.0"
     inkscape:pageopacity="0.0"
     inkscape:pageshadow="2"
     inkscape:zoom="15.067233"
     inkscape:cx="28.323895"
     inkscape:cy="31.055956"
     inkscape:document-units="px"
     inkscape:current-layer="layer1"
     showgrid="false"
     inkscape:window-width="1920"
     inkscape:window-height="1035"
     inkscape:window-x="0"
     inkscape:window-y="26"
     inkscape:window-maximized="1">
    <inkscape:grid
       type="xygrid"
       id="grid3850" />
  </sodipodi:namedview>
  <metadata
     id="metadata7">
    <rdf:RDF>
      <cc:Work
         rdf:about="">
        <dc:format>image/svg+xml</dc:format>
        <dc:type
           rdf:resource="http://purl.org/dc/dcmitype/StillImage" />
        <dc:title />
      </cc:Work>
    </rdf:RDF>
  </metadata>
  <g
     inkscape:label="Capa 1"
     inkscape:groupmode="layer"
     id="layer1"
     transform="translate(0,-1004.3622)">
    <rect
       ry="5.6755357"
       y="1006.0615"
       x="1.6992435"
       height="44.601513"
       width="44.601513"
       id="rect2992"
       style="fill:url(#linearGradient3030);fill-opacity:1;stroke:#7d7d7d;stroke-width:0.39848712;stroke-miterlimit:4;stroke-opacity:1;stroke-dasharray:none" />
    <rect
       style="fill:#1a1a1a;fill-opacity:1;stroke:#7d7d7d;stroke-width:0.32280797;stroke-miterlimit:4;stroke-opacity:1;stroke-dasharray:none"
       id="rect885"
       width="38.998108"
       height="33.474613"
       x="4.500946"
       y="1007.3462"
       ry="4.2596397" />
    <g
       id="g128"
       transform="matrix(0.46924835,0,0,0.46924835,12.73804,534.44677)">
      <path
         style="fill:none;stroke:#ffffff;stroke-width:0.86400002;stroke-miterlimit:4;stroke-dasharray:none"
         d="m 23.483123,1017.5954 c -5.310789,0.2885 -9.537251,5.0081 -9.537251,10.7711 0,5.9489 4.502967,10.7711 10.054131,10.7711 5.551163,0 10.05413,-4.8222 10.05413,-10.7711 0,-5.9489 -4.502967,-10.7711 -10.05413,-10.7711 -0.173472,0 -0.345564,-0.01 -0.51688,0 z"
         id="path4518"
         inkscape:connector-curvature="0" />
      <g
         style="stroke:#ffffff"
         transform="matrix(0.58343619,0,0,0.50710745,-79.049408,506.73533)"
         id="g4578">
        <path
           inkscape:connector-curvature="0"
           id="rect4522"
           d="m 175.19921,1002.2507 2.85157,0 c 0.16224,0 0.29285,0.4977 0.29285,1.1161 l 0,3.4039 c 0,0.6182 -0.13061,1.116 -0.29285,1.116 l -2.85157,0 c -0.16224,0 -0.29285,-0.4978 -0.29285,-1.116 l 0,-3.4039 c 0,-0.6184 0.13061,-1.1161 0.29285,-1.1161 z"
           style="fill:#ffffff;fill-opacity:1;stroke:#ffffff" />
        <path
           inkscape:connector-curvature="0"
           id="rect4524"
           d="m 175.19921,1049.3769 2.85157,0 c 0.16224,0 0.29285,0.4978 0.29285,1.116 l 0,3.4039 c 0,0.6183 -0.13061,1.1161 -0.29285,1.1161 l -2.85157,0 c -0.16224,0 -0.29285,-0.4978 -0.29285,-1.1161 l 0,-3.4039 c 0,-0.6182 0.13061,-1.116 0.29285,-1.116 z"
           style="fill:#ffffff;fill-opacity:1;stroke:#ffffff" />
      </g>
      <g
         style="stroke:#ffffff"
         transform="matrix(0.56612059,0,0,0.65593785,10.413107,353.82016)"
         id="g4648">
        <path
           style="fill:#ffffff;fill-opacity:1;stroke:#ffffff"
           d="m 46.371442,1027.0891 0,2.5542 c 0,0.1454 -0.445819,0.2624 -0.999756,0.2624 l -3.049073,0 c -0.553758,0 -0.999667,-0.117 -0.999667,-0.2624 l 0,-2.5542 c 0,-0.1454 0.445909,-0.2624 0.999667,-0.2624 l 3.049073,0 c 0.553937,0 0.999756,0.117 0.999756,0.2624 z"
           id="path4596"
           inkscape:connector-curvature="0" />
        <path
           style="fill:#ffffff;fill-opacity:1;stroke:#ffffff"
           d="m 6.6770503,1027.0891 0,2.5542 c 0,0.1454 -0.4459087,0.2624 -0.9996667,0.2624 l -3.0490731,0 c -0.5538476,0 -0.9997563,-0.117 -0.9997563,-0.2624 l 0,-2.5542 c 0,-0.1454 0.4459176,-0.2624 0.9997563,-0.2624 l 3.0490731,0 c 0.553758,0 0.9996667,0.117 0.9996667,0.2624 z"
           id="path4598"
           inkscape:connector-curvature="0" />
      </g>
      <path
         inkscape:connector-curvature="0"
         id="path3056"
         d="m 24.063672,1038.2619 c -0.0218,2e-4 -0.04361,3e-4 -0.06544,3e-4 -5.07314,0 -9.185732,-4.4324 -9.185732,-9.9 0,-5.4677 4.112592,-9.9 9.185732,-9.9 0.02183,0 0.04364,0 0.06544,2e-4"
         style="fill:#ffffff;fill-opacity:1;stroke:none" />
      <g
         id="g3026"
         transform="matrix(0.41255169,-0.41255169,0.35857912,0.35857912,-417.71282,732.38324)"
         style="stroke:#ffffff">
        <path
           style="fill:#ffffff;fill-opacity:1;stroke:#ffffff"
           d="m 175.19921,1002.2507 2.85157,0 c 0.16224,0 0.29285,0.4977 0.29285,1.1161 l 0,3.4039 c 0,0.6182 -0.13061,1.116 -0.29285,1.116 l -2.85157,0 c -0.16224,0 -0.29285,-0.4978 -0.29285,-1.116 l 0,-3.4039 c 0,-0.6184 0.13061,-1.1161 0.29285,-1.1161 z"
           id="path3028"
           inkscape:connector-curvature="0" />
        <path
           style="fill:#ffffff;fill-opacity:1;stroke:#ffffff"
           d="m 175.19921,1049.3769 2.85157,0 c 0.16224,0 0.29285,0.4978 0.29285,1.116 l 0,3.4039 c 0,0.6183 -0.13061,1.1161 -0.29285,1.1161 l -2.85157,0 c -0.16224,0 -0.29285,-0.4978 -0.29285,-1.1161 l 0,-3.4039 c 0,-0.6182 0.13061,-1.116 0.29285,-1.116 z"
           id="path3030"
           inkscape:connector-curvature="0" />
      </g>
      <g
         style="stroke:#ffffff"
         transform="matrix(0.41255169,0.41255169,0.35857912,-0.35857912,-417.71282,1324.3411)"
         id="g3032">
        <path
           inkscape:connector-curvature="0"
           id="path3034"
           d="m 175.19921,1002.2507 2.85157,0 c 0.16224,0 0.29285,0.4977 0.29285,1.1161 l 0,3.4039 c 0,0.6182 -0.13061,1.116 -0.29285,1.116 l -2.85157,0 c -0.16224,0 -0.29285,-0.4978 -0.29285,-1.116 l 0,-3.4039 c 0,-0.6184 0.13061,-1.1161 0.29285,-1.1161 z"
           style="fill:#ffffff;fill-opacity:1;stroke:#ffffff" />
        <path
           inkscape:connector-curvature="0"
           id="path3036"
           d="m 175.19921,1049.3769 2.85157,0 c 0.16224,0 0.29285,0.4978 0.29285,1.116 l 0,3.4039 c 0,0.6183 -0.13061,1.1161 -0.29285,1.1161 l -2.85157,0 c -0.16224,0 -0.29285,-0.4978 -0.29285,-1.1161 l 0,-3.4039 c 0,-0.6182 0.13061,-1.116 0.29285,-1.116 z"
           style="fill:#ffffff;fill-opacity:1;stroke:#ffffff" />
      </g>
    </g>
    <rect
       style="fill:#666666;fill-opacity:1;stroke:none"
       id="rect889"
       width="31.273859"
       height="1.0819911"
       x="8.9465017"
       y="1031.0126"
       ry="0.26275852" />
    <path
       sodipodi:type="arc"
       style="fill:url(#radialGradient899);fill-opacity:1;stroke:#999999;stroke-width:0.40000001;stroke-miterlimit:4;stroke-dasharray:none"
       id="path891"
       sodipodi:cx="8.4990215"
       sodipodi:cy="39.280941"
       sodipodi:rx="2.1178792"
       sodipodi:ry="2.1178792"
       d="m 10.616901,39.280941 c 0,1.169672 -0.9482071,2.117879 -2.1178795,2.117879 -1.1696723,0 -2.1178791,-0.948207 -2.1178791,-2.117879 0,-1.169672 0.9482068,-2.117879 2.1178791,-2.117879 1.1696724,0 2.1178795,0.948207 2.1178795,2.117879 z"
       transform="translate(15.500978,1006.2875)" />
    <rect
       ry="0.26275852"
       y="1031.0126"
       x="8.9465017"
       height="1.0819911"
       width="13.851947"
       id="rect888"
       style="fill:#ffffff;fill-opacity:1;stroke:none" />
    <rect
       style="fill:#ffffff;fill-opacity:1;stroke:none"
       id="rect890"
       width="2.2565525"
       height="2.2565525"
       x="21.437248"
       y="1030.4253"
       ry="0.26275852" />
  </g>
</svg>
