<?xml version="1.0" encoding="UTF-8" standalone="no"?>
<!-- Created with Inkscape (http://www.inkscape.org/) -->

<svg
   xmlns:dc="http://purl.org/dc/elements/1.1/"
   xmlns:cc="http://creativecommons.org/ns#"
   xmlns:rdf="http://www.w3.org/1999/02/22-rdf-syntax-ns#"
   xmlns:svg="http://www.w3.org/2000/svg"
   xmlns="http://www.w3.org/2000/svg"
   xmlns:xlink="http://www.w3.org/1999/xlink"
   xmlns:sodipodi="http://sodipodi.sourceforge.net/DTD/sodipodi-0.dtd"
   xmlns:inkscape="http://www.inkscape.org/namespaces/inkscape"
   width="48"
   height="48"
   id="svg2"
   version="1.1"
   inkscape:version="0.48+devel r11772"
   sodipodi:docname="7zip.svg">
  <defs
     id="defs4">
    <linearGradient
       id="linearGradient3771">
      <stop
         id="stop3773"
         offset="0"
         style="stop-color:#dfb18e;stop-opacity:1;" />
      <stop
         id="stop3775"
         offset="1"
         style="stop-color:#c97c3b;stop-opacity:1;" />
    </linearGradient>
    <linearGradient
       id="linearGradient3755">
      <stop
         style="stop-color:#8ebedf;stop-opacity:1;"
         offset="0"
         id="stop3757" />
      <stop
         style="stop-color:#5aade5;stop-opacity:1;"
         offset="1"
         id="stop3759" />
    </linearGradient>
    <linearGradient
       inkscape:collect="always"
       xlink:href="#linearGradient3755"
       id="linearGradient3761"
       x1="1.4285715"
       y1="16.080357"
       x2="37.500004"
       y2="16.080357"
       gradientUnits="userSpaceOnUse"
       gradientTransform="matrix(0.91335293,0,0,0.91335293,3.3401952,1007.607)" />
    <linearGradient
       inkscape:collect="always"
       xlink:href="#linearGradient3771"
       id="linearGradient3769"
       gradientUnits="userSpaceOnUse"
       gradientTransform="matrix(0.91335293,0,0,0.91335293,9.9456947,1021.8781)"
       x1="1.4285715"
       y1="16.080357"
       x2="37.500004"
       y2="16.080357" />
    <linearGradient
       inkscape:collect="always"
       xlink:href="#linearGradient3755"
       id="linearGradient3785"
       gradientUnits="userSpaceOnUse"
       gradientTransform="matrix(0.91335293,0,0,0.91335293,3.3401952,1007.607)"
       x1="1.4285715"
       y1="16.080357"
       x2="37.500004"
       y2="16.080357" />
    <linearGradient
       inkscape:collect="always"
       xlink:href="#linearGradient3771"
       id="linearGradient3787"
       gradientUnits="userSpaceOnUse"
       gradientTransform="matrix(0.91335293,0,0,0.91335293,9.9456947,1021.8781)"
       x1="1.4285715"
       y1="16.080357"
       x2="37.500004"
       y2="16.080357" />
    <linearGradient
       inkscape:collect="always"
       xlink:href="#linearGradient3771"
       id="linearGradient3000"
       gradientUnits="userSpaceOnUse"
       gradientTransform="matrix(1.0138316,0,0,1.0138316,7.8691744,1019.98)"
       x1="1.4285715"
       y1="16.080357"
       x2="37.500004"
       y2="16.080357" />
    <radialGradient
       inkscape:collect="always"
       xlink:href="#linearGradient3755"
       id="radialGradient3783"
       cx="23.936596"
       cy="1028.3622"
       fx="23.936596"
       fy="1028.3622"
       r="22.13007"
       gradientTransform="matrix(1.0844973,0,0,1.0844973,-1.9591717,-86.893864)"
       gradientUnits="userSpaceOnUse" />
    <linearGradient
       y2="1049.5842"
       x2="24.113745"
       y1="1007.2183"
       x1="24.113745"
       gradientTransform="matrix(0.96799712,0,0,1.0252613,0.76812381,-2082.7024)"
       gradientUnits="userSpaceOnUse"
       id="linearGradient3151"
       xlink:href="#linearGradient3795"
       inkscape:collect="always" />
    <linearGradient
       id="linearGradient3795">
      <stop
         style="stop-color:#52a2cc;stop-opacity:1;"
         offset="0"
         id="stop3797" />
      <stop
         style="stop-color:#59b3e1;stop-opacity:1;"
         offset="1"
         id="stop3799" />
    </linearGradient>
    <linearGradient
       inkscape:collect="always"
       xlink:href="#linearGradient893"
       id="linearGradient899"
       x1="24.748735"
       y1="1051.8735"
       x2="24.748735"
       y2="1004.4973"
       gradientUnits="userSpaceOnUse" />
    <linearGradient
       inkscape:collect="always"
       id="linearGradient893">
      <stop
         style="stop-color:#e6e6e6;stop-opacity:1"
         offset="0"
         id="stop895" />
      <stop
         style="stop-color:#ffffff;stop-opacity:1"
         offset="1"
         id="stop897" />
    </linearGradient>
    <linearGradient
       inkscape:collect="always"
       xlink:href="#linearGradient901"
       id="linearGradient907"
       x1="12.374368"
       y1="47.864853"
       x2="12.374368"
       y2="0.48870096"
       gradientUnits="userSpaceOnUse" />
    <linearGradient
       inkscape:collect="always"
       id="linearGradient901">
      <stop
         style="stop-color:#000000;stop-opacity:1;"
         offset="0"
         id="stop903" />
      <stop
         style="stop-color:#333333;stop-opacity:1"
         offset="1"
         id="stop905" />
    </linearGradient>
    <linearGradient
       y2="1004.4973"
       x2="24.748735"
       y1="1051.8735"
       x1="24.748735"
       gradientUnits="userSpaceOnUse"
       id="linearGradient929"
       xlink:href="#linearGradient893"
       inkscape:collect="always"
       gradientTransform="translate(0,-1004.3622)" />
  </defs>
  <sodipodi:namedview
     id="base"
     pagecolor="#ffffff"
     bordercolor="#666666"
     borderopacity="1.0"
     inkscape:pageopacity="0.0"
     inkscape:pageshadow="2"
     inkscape:zoom="5.6568542"
     inkscape:cx="11.507635"
     inkscape:cy="28.564348"
     inkscape:document-units="px"
     inkscape:current-layer="layer1"
     showgrid="false"
     inkscape:window-width="1366"
     inkscape:window-height="712"
     inkscape:window-x="0"
     inkscape:window-y="0"
     inkscape:window-maximized="1" />
  <metadata
     id="metadata7">
    <rdf:RDF>
      <cc:Work
         rdf:about="">
        <dc:format>image/svg+xml</dc:format>
        <dc:type
           rdf:resource="http://purl.org/dc/dcmitype/StillImage" />
        <dc:title></dc:title>
      </cc:Work>
    </rdf:RDF>
  </metadata>
  <g
     inkscape:label="Capa 1"
     inkscape:groupmode="layer"
     id="layer1"
     transform="translate(0,-1004.3622)">
    <path
       style="fill:url(#linearGradient929);fill-opacity:1;stroke:none"
       d="M 7.375 1.6875 C 4.2307532 1.6875 1.6875 4.2307532 1.6875 7.375 L 1.6875 40.625 C 1.6875 43.769247 4.2307532 46.3125 7.375 46.3125 L 40.625 46.3125 C 43.769247 46.3125 46.3125 43.769247 46.3125 40.625 L 46.3125 7.375 C 46.3125 4.2307532 43.769247 1.6875 40.625 1.6875 L 7.375 1.6875 z "
       transform="translate(0,1004.3622)"
       id="rect2991" />
    <path
       style="fill:url(#linearGradient907);fill-opacity:1;stroke:none"
       d="M 7.375 1.6875 C 4.2307532 1.6875 1.6875 4.2307532 1.6875 7.375 L 1.6875 40.625 C 1.6875 43.769247 4.2307532 46.3125 7.375 46.3125 L 22 46.3125 L 22 1.6875 L 7.375 1.6875 z "
       transform="translate(0,1004.3622)"
       id="rect900" />
    <rect
       style="fill:none;stroke:none"
       id="rect3783"
       width="48"
       height="48"
       x="0"
       y="1004.3622" />
    <path
       inkscape:connector-curvature="0"
       style="fill:#000000;fill-opacity:1;stroke:none"
       d="m 38.531495,1010.7057 0,1.6563 1.59375,0 0,1.5937 1.65625,0 0,-1.625 -1.59375,0 0,-1.625 L 38.531495,1010.7057 z m 0,3.2813 0,1.6562 1.59375,0 0,1.625 -1.1875,0 0.0625,-0.5312 -2.874999,-1.25 -2.0625,2.3437 -6.09375,3.5938 c -0.270266,0.1592 -0.377906,0.5109 -0.21875,0.7812 l 1.03125,1.7188 c 0.159156,0.2703 0.479734,0.3467 0.75,0.1875 l 6.15625,-3.625 2.999999,-0.625 0.09375,-0.9375 1.34375,0 0,1.625 -1.59375,0 0,1.6562 1.59375,0 0,1.625 -1.59375,0 0,1.6563 1.59375,0 0,1.625 -1.59375,0 0,1.6562 1.59375,0 0,1.625 -1.59375,0 0,1.6563 1.59375,0 0,1.625 -1.59375,0 0,1.6562 1.59375,0 0,1.625 -1.59375,0 0,1.6563 1.59375,0 0,1.5937 1.65625,0 0,-1.6562 -1.59375,0 0,-1.5938 1.59375,0 0,-1.6562 -1.59375,0 0,-1.625 1.59375,0 0,-1.6563 -1.59375,0 0,-1.625 1.59375,0 0,-1.6562 -1.59375,0 0,-1.625 1.59375,0 0,-1.6563 -1.59375,0 0,-1.625 1.59375,0 0,-1.6562 -1.59375,0 0,-1.625 1.59375,0 0,-1.6563 -1.59375,0 0,-1.625 1.59375,0 0,-1.6562 -1.59375,0 0,-1.625 L 38.531495,1013.987 z m -7.749999,6.3125 c 0.21871,-0.029 0.443133,0.078 0.5625,0.2812 l 0.53125,0.9063 c 0.159156,0.2703 0.08277,0.622 -0.1875,0.7812 l -1.75,1.0313 c -0.270266,0.1592 -0.622094,0.051 -0.78125,-0.2188 l -0.53125,-0.9062 c -0.159156,-0.2704 -0.05152,-0.6222 0.21875,-0.7813 l 1.71875,-1 C 30.630313,1020.3534 30.708593,1020.3093 30.781496,1020.2995 z m 7.749999,19.9375 0,1.6562 1.59375,0 0,1.5938 -1.59375,0 0,1.6562 1.59375,0 0,1.625 1.65625,0 0,-1.6562 -1.59375,0 0,-1.5938 1.59375,0 0,-1.6562 -1.59375,0 0,-1.625 L 38.531495,1040.237 Z"
       id="path3798" />
  </g>
</svg>
