<?xml version="1.0" encoding="UTF-8" standalone="no"?>
<!-- Created with Inkscape (http://www.inkscape.org/) -->

<svg
   xmlns:dc="http://purl.org/dc/elements/1.1/"
   xmlns:cc="http://creativecommons.org/ns#"
   xmlns:rdf="http://www.w3.org/1999/02/22-rdf-syntax-ns#"
   xmlns:svg="http://www.w3.org/2000/svg"
   xmlns="http://www.w3.org/2000/svg"
   xmlns:xlink="http://www.w3.org/1999/xlink"
   xmlns:sodipodi="http://sodipodi.sourceforge.net/DTD/sodipodi-0.dtd"
   xmlns:inkscape="http://www.inkscape.org/namespaces/inkscape"
   width="48"
   height="48"
   id="svg2"
   version="1.1"
   inkscape:version="0.48+devel r11752"
   sodipodi:docname="akonadi.svg">
  <defs
     id="defs4">
    <linearGradient
       id="linearGradient865">
      <stop
         style="stop-color:#71c837;stop-opacity:1"
         offset="0"
         id="stop867" />
      <stop
         style="stop-color:#447821;stop-opacity:1"
         offset="1"
         id="stop869" />
    </linearGradient>
    <linearGradient
       id="linearGradient860">
      <stop
         id="stop862"
         offset="0"
         style="stop-color:#000000;stop-opacity:1" />
      <stop
         id="stop864"
         offset="1"
         style="stop-color:#333333;stop-opacity:1" />
    </linearGradient>
    <linearGradient
       id="linearGradient3795">
      <stop
         style="stop-color:#8d3e8d;stop-opacity:1;"
         offset="0"
         id="stop3797" />
      <stop
         style="stop-color:#5f225f;stop-opacity:1;"
         offset="1"
         id="stop3799" />
    </linearGradient>
    <linearGradient
       id="linearGradient3698">
      <stop
         id="stop3700"
         offset="0"
         style="stop-color:#96d0e1;stop-opacity:1" />
      <stop
         style="stop-color:#89b7e1;stop-opacity:1"
         offset="0.67819428"
         id="stop3706" />
      <stop
         id="stop3702"
         offset="1"
         style="stop-color:#699dd3;stop-opacity:1" />
    </linearGradient>
    <linearGradient
       id="linearGradient3708">
      <stop
         id="stop3710"
         offset="0"
         style="stop-color:#658db6;stop-opacity:1" />
      <stop
         style="stop-color:#527fab;stop-opacity:1;"
         offset="0.76777935"
         id="stop3716" />
      <stop
         id="stop3712"
         offset="1"
         style="stop-color:#4071a0;stop-opacity:1" />
    </linearGradient>
    <linearGradient
       id="linearGradient3750">
      <stop
         style="stop-color:#d0e2f1;stop-opacity:1"
         offset="0"
         id="stop3752" />
      <stop
         id="stop3756"
         offset="0.85580856"
         style="stop-color:#cadef0;stop-opacity:1" />
      <stop
         style="stop-color:#95bee3;stop-opacity:1"
         offset="1"
         id="stop3754" />
    </linearGradient>
    <linearGradient
       id="linearGradient3803">
      <stop
         id="stop3805"
         offset="0"
         style="stop-color:#d7def0;stop-opacity:1;" />
      <stop
         style="stop-color:#ffffff;stop-opacity:1"
         offset="0.5"
         id="stop3811" />
      <stop
         id="stop3807"
         offset="1"
         style="stop-color:#d5def0;stop-opacity:1" />
    </linearGradient>
    <linearGradient
       inkscape:collect="always"
       xlink:href="#linearGradient3795"
       id="linearGradient3801"
       x1="23.204165"
       y1="1053.158"
       x2="23.204165"
       y2="1004.8474"
       gradientUnits="userSpaceOnUse"
       gradientTransform="translate(0,-2056.7244)" />
    <linearGradient
       inkscape:collect="always"
       xlink:href="#linearGradient3795"
       id="linearGradient3859"
       x1="26.192217"
       y1="1024.0002"
       x2="28.641211"
       y2="1024.0002"
       gradientUnits="userSpaceOnUse" />
    <linearGradient
       inkscape:collect="always"
       xlink:href="#linearGradient3795"
       id="linearGradient3867"
       gradientUnits="userSpaceOnUse"
       x1="26.192217"
       y1="1024.0002"
       x2="28.641211"
       y2="1024.0002" />
    <linearGradient
       inkscape:collect="always"
       xlink:href="#linearGradient3795"
       id="linearGradient3869"
       gradientUnits="userSpaceOnUse"
       x1="26.192217"
       y1="1024.0002"
       x2="28.641211"
       y2="1024.0002" />
    <linearGradient
       inkscape:collect="always"
       xlink:href="#linearGradient3795"
       id="linearGradient3871"
       gradientUnits="userSpaceOnUse"
       x1="26.192217"
       y1="1024.0002"
       x2="28.641211"
       y2="1024.0002" />
    <linearGradient
       inkscape:collect="always"
       xlink:href="#linearGradient3795"
       id="linearGradient3877"
       gradientUnits="userSpaceOnUse"
       x1="29.718235"
       y1="1027.8575"
       x2="22.811094"
       y2="1015.5485" />
    <linearGradient
       inkscape:collect="always"
       xlink:href="#linearGradient3795"
       id="linearGradient3879"
       gradientUnits="userSpaceOnUse"
       x1="17.196316"
       y1="1006.2238"
       x2="31.448042"
       y2="1030.9086" />
    <linearGradient
       inkscape:collect="always"
       xlink:href="#linearGradient3795"
       id="linearGradient3895"
       x1="21.973417"
       y1="34.43922"
       x2="42.475323"
       y2="24.798252"
       gradientUnits="userSpaceOnUse" />
    <linearGradient
       inkscape:collect="always"
       xlink:href="#linearGradient3895-8"
       id="linearGradient3857"
       gradientUnits="userSpaceOnUse"
       gradientTransform="matrix(0.96799712,0,0,1.0252613,604.84439,-419.13965)"
       x1="24.113745"
       y1="1049.2139"
       x2="24.113745"
       y2="1007.5135" />
    <linearGradient
       id="linearGradient3895-8">
      <stop
         id="stop3897"
         offset="0"
         style="stop-color:#e0880b;stop-opacity:1;" />
      <stop
         id="stop3899"
         offset="1"
         style="stop-color:#f7ce50;stop-opacity:1;" />
    </linearGradient>
    <linearGradient
       inkscape:collect="always"
       xlink:href="#linearGradient859"
       id="linearGradient3801-6"
       x1="23.204165"
       y1="1053.158"
       x2="23.204165"
       y2="1004.8474"
       gradientUnits="userSpaceOnUse"
       gradientTransform="translate(0,-2056.7244)" />
    <linearGradient
       id="linearGradient859">
      <stop
         id="stop861"
         offset="0"
         style="stop-color:#ba65be;stop-opacity:1" />
      <stop
         id="stop863"
         offset="1"
         style="stop-color:#ac43b2;stop-opacity:1" />
    </linearGradient>
    <linearGradient
       inkscape:collect="always"
       xlink:href="#linearGradient838"
       id="linearGradient3801-0"
       x1="23.204165"
       y1="1053.158"
       x2="23.204165"
       y2="1004.8474"
       gradientUnits="userSpaceOnUse"
       gradientTransform="translate(0,-2056.7244)" />
    <linearGradient
       id="linearGradient838">
      <stop
         id="stop840"
         offset="0"
         style="stop-color:#00e0ff;stop-opacity:1" />
      <stop
         id="stop842"
         offset="1"
         style="stop-color:#0089ff;stop-opacity:1" />
    </linearGradient>
    <linearGradient
       y2="1004.8474"
       x2="23.204165"
       y1="1053.158"
       x1="23.204165"
       gradientTransform="translate(17.374999,-1052.3622)"
       gradientUnits="userSpaceOnUse"
       id="linearGradient959"
       xlink:href="#linearGradient838-7"
       inkscape:collect="always" />
    <linearGradient
       id="linearGradient838-7">
      <stop
         id="stop840-9"
         offset="0"
         style="stop-color:#00e0ff;stop-opacity:1" />
      <stop
         id="stop842-3"
         offset="1"
         style="stop-color:#0089ff;stop-opacity:1" />
    </linearGradient>
    <linearGradient
       inkscape:collect="always"
       xlink:href="#linearGradient3795-0"
       id="linearGradient3801-61"
       x1="23.204165"
       y1="1053.158"
       x2="23.204165"
       y2="1004.8474"
       gradientUnits="userSpaceOnUse" />
    <linearGradient
       id="linearGradient3795-0">
      <stop
         style="stop-color:#cd5c24;stop-opacity:1;"
         offset="0"
         id="stop3797-7" />
      <stop
         style="stop-color:#ff6700;stop-opacity:1;"
         offset="1"
         id="stop3799-3" />
    </linearGradient>
    <linearGradient
       inkscape:collect="always"
       xlink:href="#linearGradient850"
       id="linearGradient3801-4"
       x1="23.204165"
       y1="1053.158"
       x2="23.204165"
       y2="1004.8474"
       gradientUnits="userSpaceOnUse"
       gradientTransform="translate(0,-2056.7244)" />
    <linearGradient
       id="linearGradient850">
      <stop
         id="stop852"
         offset="0"
         style="stop-color:#71c837;stop-opacity:1" />
      <stop
         id="stop854"
         offset="1"
         style="stop-color:#89a02c;stop-opacity:1" />
    </linearGradient>
    <linearGradient
       inkscape:collect="always"
       xlink:href="#linearGradient850-7"
       id="linearGradient3801-1"
       x1="23.204165"
       y1="1053.158"
       x2="23.204165"
       y2="1004.8474"
       gradientUnits="userSpaceOnUse"
       gradientTransform="translate(0,-2056.7244)" />
    <linearGradient
       id="linearGradient850-7">
      <stop
         id="stop852-6"
         offset="0"
         style="stop-color:#85c837;stop-opacity:1" />
      <stop
         id="stop854-2"
         offset="1"
         style="stop-color:#77a22c;stop-opacity:1" />
    </linearGradient>
    <linearGradient
       inkscape:collect="always"
       xlink:href="#linearGradient3708-6"
       id="linearGradient3801-5"
       x1="23.204165"
       y1="1053.158"
       x2="23.204165"
       y2="1004.8474"
       gradientUnits="userSpaceOnUse"
       gradientTransform="translate(0,-2056.7244)" />
    <linearGradient
       id="linearGradient3708-6">
      <stop
         id="stop3710-8"
         offset="0"
         style="stop-color:#658db6;stop-opacity:1" />
      <stop
         style="stop-color:#527fab;stop-opacity:1;"
         offset="0.76777935"
         id="stop3716-3" />
      <stop
         id="stop3712-6"
         offset="1"
         style="stop-color:#4071a0;stop-opacity:1" />
    </linearGradient>
    <linearGradient
       inkscape:collect="always"
       xlink:href="#linearGradient973"
       id="linearGradient3801-44"
       x1="23.204165"
       y1="1053.158"
       x2="23.204165"
       y2="1004.8474"
       gradientUnits="userSpaceOnUse"
       gradientTransform="translate(0,-2056.7244)" />
    <linearGradient
       id="linearGradient973">
      <stop
         id="stop975"
         offset="0"
         style="stop-color:#2ad4ff;stop-opacity:1" />
      <stop
         id="stop977"
         offset="1"
         style="stop-color:#0066ff;stop-opacity:1" />
    </linearGradient>
    <linearGradient
       y2="1004.8474"
       x2="23.204165"
       y1="1053.158"
       x1="23.204165"
       gradientTransform="matrix(1,0,0,-1,2.3051147e-7,1052.3622)"
       gradientUnits="userSpaceOnUse"
       id="linearGradient1030"
       xlink:href="#linearGradient973"
       inkscape:collect="always" />
  </defs>
  <sodipodi:namedview
     id="base"
     pagecolor="#ffffff"
     bordercolor="#666666"
     borderopacity="1.0"
     inkscape:pageopacity="0.0"
     inkscape:pageshadow="2"
     inkscape:zoom="4.0000003"
     inkscape:cx="-3.4250843"
     inkscape:cy="33.836468"
     inkscape:document-units="px"
     inkscape:current-layer="layer1"
     showgrid="false"
     inkscape:window-width="1366"
     inkscape:window-height="711"
     inkscape:window-x="0"
     inkscape:window-y="0"
     inkscape:window-maximized="1"
     width="0px"
     height="0px"
     fit-margin-top="0"
     fit-margin-left="0"
     fit-margin-right="0"
     fit-margin-bottom="0">
    <inkscape:grid
       type="xygrid"
       id="grid3850"
       empspacing="5"
       visible="true"
       enabled="true"
       snapvisiblegridlinesonly="true" />
  </sodipodi:namedview>
  <metadata
     id="metadata7">
    <rdf:RDF>
      <cc:Work
         rdf:about="">
        <dc:format>image/svg+xml</dc:format>
        <dc:type
           rdf:resource="http://purl.org/dc/dcmitype/StillImage" />
        <dc:title></dc:title>
      </cc:Work>
    </rdf:RDF>
  </metadata>
  <g
     inkscape:label="Capa 1"
     inkscape:groupmode="layer"
     id="layer1"
     transform="translate(0,-1004.3622)">
    <path
       style="fill:url(#linearGradient1030);fill-opacity:1;stroke:none"
       d="M 7.375 1.6875 C 4.2307532 1.6875 1.6875 4.2307532 1.6875 7.375 L 1.6875 40.625 C 1.6875 43.769247 4.2307532 46.3125 7.375 46.3125 L 40.625 46.3125 C 43.769247 46.3125 46.3125 43.769247 46.3125 40.625 L 46.3125 7.375 C 46.3125 4.2307532 43.769247 1.6875 40.625 1.6875 L 7.375 1.6875 z "
       transform="translate(0,1004.3622)"
       id="rect2991" />
    <path
       style="fill:#ffffff"
       d="m 23.404515,1015.8066 c -0.371805,-0.011 -0.712087,0.052 -1.073082,0.072 -2.043081,0.1124 -3.893067,0.69 -5.222331,1.7169 -0.341719,-0.028 -0.693129,0.01 -1.001543,0.072 -0.405369,0.086 -0.683995,0.2825 -0.930004,0.5008 -0.07328,0.065 -0.154748,0.067 -0.214616,0.1431 -0.03617,0.033 -0.04052,0.106 -0.07154,0.143 -0.0273,0.042 -0.04767,0.098 -0.07154,0.1431 -0.04721,0.079 -0.11155,0.1191 -0.143077,0.2146 -0.04657,0.1271 -0.04595,0.2832 -0.07154,0.4293 -0.126453,0.7218 0.0255,1.69 0.357694,2.8615 0.05934,0.2061 0.06886,0.4318 0.143077,0.6439 0.151035,0.4706 0.294839,0.8987 0.500772,1.4307 0.02984,0.054 0.112411,0.089 0.143077,0.1431 0.331624,0.5876 0.652187,1.2261 1.073082,1.86 0.04597,0.073 0.09596,0.1415 0.143078,0.2146 0.327899,0.484 0.700936,0.9634 1.073081,1.4308 0.138696,0.1813 0.2129,0.3945 0.357694,0.5723 0.623926,0.766 0.941183,1.2145 1.001543,1.4308 -3.298537,-2.0253 -5.435198,-5.049 -6.295412,-9.3 -0.886271,1.7687 -2.08929,4.1281 -2.503858,6.2238 -0.04812,0.2433 -0.118857,0.4813 -0.143077,0.7154 0.312298,0.388 0.645202,0.7362 1.001543,1.0731 0.01351,0.011 0.05796,-0.01 0.07154,0 2.397051,2.2449 5.566908,3.3727 9.300042,4.0062 0.26834,0.043 0.118537,0.021 0.429233,0.072 0.541806,0.054 1.101708,0.043 1.645392,0.072 0.567708,0.03 1.145712,0.077 1.71693,0.072 0.188203,0.01 0.389325,-0.01 0.572311,0 1.465313,0.039 2.732678,0 3.5054,-0.2146 0.393669,-0.1094 0.687047,-0.099 0.930004,-0.1431 -0.904857,0.3371 -1.847514,0.5958 -2.790013,0.7869 -0.972723,0.1014 -2.122675,0.1628 -3.219245,0.2146 -1.957285,0.092 -3.67229,-0.01 -5.293869,-0.2146 -2.77383,-0.5339 -5.380092,-1.5308 -7.511572,-2.8615 -0.0046,0.1591 -0.02221,0.3421 0,0.5007 0.01899,0.1364 0.114212,0.289 0.143077,0.4293 l 0,0.3577 c 0.04837,0.1272 0.09302,0.2346 0.143078,0.3576 0.118807,0.3879 0.315283,0.7436 0.500771,1.1447 1.725227,3.7303 6.190882,7.7977 12.376209,7.7977 7.383956,0 14.196284,-6.7605 13.52083,-14.2362 -0.05133,-0.1755 -0.111894,-0.2472 -0.143078,-0.3577 -0.01119,-0.04 0.01558,-0.089 0,-0.1431 -0.02626,-0.1651 -0.146319,-0.2791 -0.214616,-0.4292 -0.301017,-0.6616 -0.905841,-1.1972 -1.573853,-1.5023 -0.55621,-0.3981 -1.250626,-1.2148 -1.573853,-1.9316 -0.116621,-0.2586 -0.290519,-0.4704 -0.429233,-0.7154 -0.01041,-0.018 0.01052,-0.053 0,-0.072 -0.01282,-0.026 -0.05872,-0.046 -0.07154,-0.072 -0.02443,-0.048 -0.04578,-0.095 -0.07154,-0.1431 -0.05054,-0.094 -0.08835,-0.1928 -0.143077,-0.2861 -0.137748,-0.2086 -0.276076,-0.4468 -0.429233,-0.6439 -0.140557,-0.194 -0.337407,-0.3845 -0.500771,-0.5723 -0.09838,-0.113 -0.178937,-0.2472 -0.286156,-0.3577 -0.279324,-0.2876 -0.530089,-0.5942 -0.858465,-0.8584 -0.12268,-0.099 -0.228512,-0.1912 -0.357694,-0.2862 -0.06559,-0.052 -0.147427,-0.092 -0.214616,-0.1431 -0.873547,-0.6585 -1.886042,-1.2338 -3.004629,-1.6453 -0.117965,-0.043 -0.239548,-0.032 -0.357694,-0.072 -1.264009,-0.4215 -2.510558,-0.6575 -3.720016,-0.6439 C 23.502167,1015.8048 23.449808,1015.808 23.404515,1015.8066 Z"
       id="path988"
       inkscape:connector-curvature="0" />
  </g>
</svg>
