<?xml version="1.0" encoding="UTF-8" standalone="no"?>
<!-- Created with Inkscape (http://www.inkscape.org/) -->

<svg
   xmlns:dc="http://purl.org/dc/elements/1.1/"
   xmlns:cc="http://creativecommons.org/ns#"
   xmlns:rdf="http://www.w3.org/1999/02/22-rdf-syntax-ns#"
   xmlns:svg="http://www.w3.org/2000/svg"
   xmlns="http://www.w3.org/2000/svg"
   xmlns:xlink="http://www.w3.org/1999/xlink"
   xmlns:sodipodi="http://sodipodi.sourceforge.net/DTD/sodipodi-0.dtd"
   xmlns:inkscape="http://www.inkscape.org/namespaces/inkscape"
   width="48"
   height="48.000008"
   id="svg3652"
   version="1.1"
   inkscape:version="0.48+devel r11521"
   sodipodi:docname="anjuta.svg">
  <defs
     id="defs3654">
    <linearGradient
       id="linearGradient4278">
      <stop
         offset="0"
         style="stop-color:#47294f;stop-opacity:1"
         id="stop4280" />
      <stop
         offset="1"
         style="stop-color:#ad7bba;stop-opacity:1"
         id="stop4282" />
    </linearGradient>
    <linearGradient
       inkscape:collect="always"
       xlink:href="#linearGradient3795"
       id="linearGradient3801"
       x1="23.204165"
       y1="1053.158"
       x2="23.204165"
       y2="1004.8474"
       gradientUnits="userSpaceOnUse"
       gradientTransform="translate(0,-2056.7244)" />
    <linearGradient
       id="linearGradient3795">
      <stop
         style="stop-color:#68b8d8;stop-opacity:1;"
         offset="0"
         id="stop3797" />
      <stop
         style="stop-color:#3097bd;stop-opacity:1;"
         offset="1"
         id="stop3799" />
    </linearGradient>
    <linearGradient
       y2="1004.8474"
       x2="23.204165"
       y1="1053.158"
       x1="23.204165"
       gradientTransform="translate(0,-1004.3622)"
       gradientUnits="userSpaceOnUse"
       id="linearGradient4216"
       xlink:href="#linearGradient4278"
       inkscape:collect="always" />
    <linearGradient
       x1="4.4591107"
       y1="48"
       x2="106.06667"
       y2="48"
       id="linearGradient4141"
       xlink:href="#linearGradient4025-0"
       gradientUnits="userSpaceOnUse" />
    <linearGradient
       id="linearGradient4025-0">
      <stop
         id="stop4027-6"
         style="stop-color:#47294f;stop-opacity:1"
         offset="0" />
      <stop
         id="stop4029-0"
         style="stop-color:#47294f;stop-opacity:0"
         offset="1" />
    </linearGradient>
    <linearGradient
       y2="1049.5842"
       x2="24.113745"
       y1="1007.2183"
       x1="24.113745"
       gradientTransform="matrix(0.96799712,0,0,1.0252613,0.76812014,-25.977808)"
       gradientUnits="userSpaceOnUse"
       id="linearGradient3030"
       xlink:href="#linearGradient3795-4"
       inkscape:collect="always" />
    <linearGradient
       id="linearGradient3795-4">
      <stop
         style="stop-color:#68b8d8;stop-opacity:1;"
         offset="0"
         id="stop3797-6" />
      <stop
         style="stop-color:#3097bd;stop-opacity:1;"
         offset="1"
         id="stop3799-3" />
    </linearGradient>
  </defs>
  <sodipodi:namedview
     id="base"
     pagecolor="#ffffff"
     bordercolor="#666666"
     borderopacity="1.0"
     inkscape:pageopacity="0.0"
     inkscape:pageshadow="2"
     inkscape:zoom="7.9195959"
     inkscape:cx="30.544797"
     inkscape:cy="24.299514"
     inkscape:document-units="px"
     inkscape:current-layer="layer1"
     showgrid="false"
     width="0px"
     height="0px"
     fit-margin-top="0"
     fit-margin-left="0"
     fit-margin-right="0"
     fit-margin-bottom="0"
     inkscape:window-width="1146"
     inkscape:window-height="719"
     inkscape:window-x="123"
     inkscape:window-y="206"
     inkscape:window-maximized="0" />
  <metadata
     id="metadata3657">
    <rdf:RDF>
      <cc:Work
         rdf:about="">
        <dc:format>image/svg+xml</dc:format>
        <dc:type
           rdf:resource="http://purl.org/dc/dcmitype/StillImage" />
        <cc:license
           rdf:resource="" />
        <dc:title></dc:title>
      </cc:Work>
    </rdf:RDF>
  </metadata>
  <g
     inkscape:label="Capa 1"
     inkscape:groupmode="layer"
     id="layer1"
     transform="translate(-326,-508.36218)">
    <path
       style="fill:url(#linearGradient4216);fill-opacity:1;stroke:none"
       d="M 7.375 1.6875 C 4.2307532 1.6875 1.6875 4.2307532 1.6875 7.375 L 1.6875 40.625 C 1.6875 43.769247 4.2307532 46.3125 7.375 46.3125 L 40.625 46.3125 C 43.769247 46.3125 46.3125 43.769247 46.3125 40.625 L 46.3125 7.375 C 46.3125 4.2307532 43.769247 1.6875 40.625 1.6875 L 7.375 1.6875 z "
       transform="translate(326,508.36218)"
       id="rect2991" />
    <path
       style="color:#000000;fill:#ffffff;fill-opacity:1;fill-rule:nonzero;stroke:none;stroke-width:2;marker:none;visibility:visible;display:inline;overflow:visible;enable-background:accumulate"
       d="m 350.7992,515.31789 c -1.55352,0.0367 -3.08285,0.27082 -4.5625,0.6875 0.36337,0.16622 0.72169,0.34344 1.09375,0.5 0.87817,-0.33702 2.21196,-0.6881 4.03125,-0.65625 1.85164,0.0324 4.79104,0.89122 6.5,1.4375 a 17.202281,17.202281 0 0 0 -4.90625,-1.90625 c -0.0317,-0.003 -0.0621,0.003 -0.0937,0 -0.68833,-0.0565 -1.37701,-0.0787 -2.0625,-0.0625 z m -1.1875,1.21875 c -0.71613,0.0347 -1.28696,0.0856 -1.78125,0.15625 0.25363,0.10355 0.49529,0.21233 0.75,0.3125 0.0325,-5e-5 0.0611,-1.5e-4 0.0937,0 2.34216,0.011 5.08581,0.55231 8.28125,1.71875 -2.01268,-0.51515 -4.04686,-0.8208 -6,-0.8125 2.55421,0.95904 4.89159,1.84954 6.125,2.96875 l -0.125,1.28125 c 0,0 5.44917,2.42039 9,5.59375 a 17.202281,17.202281 0 0 0 -7.78125,-10.28125 c -3.66021,-0.877 -6.53745,-1.03566 -8.5625,-0.9375 z m -5.625,0.28125 c 0.0284,0.35891 0.0707,0.67808 0.15625,0.96875 0.28079,-0.10774 0.57612,-0.22647 0.875,-0.3125 -0.34268,-0.19671 -0.69347,-0.39924 -1.03125,-0.65625 z m -1.65625,0.84375 c -5.75787,3.33836 -9.77144,10.30954 -8.71875,21.28125 0.001,0.0104 -10e-4,0.0208 0,0.0312 a 17.202281,17.202281 0 0 0 0.8125,1.625 c -0.40812,-4.99741 -0.24393,-8.54611 1.46875,-13.75 0,0 -1.41489,6.74399 0.59375,16.65625 0.002,0.0104 -0.002,0.0208 0,0.0312 a 17.202281,17.202281 0 0 0 1.15625,1.1875 c -2.18114,-9.14414 -2.30976,-21.96614 5.0625,-26.25 -0.13517,-0.24173 -0.26597,-0.51407 -0.375,-0.8125 z m 4.65625,0.75 c -0.7123,0.19174 -1.38012,0.46757 -2.03125,0.78125 0.95677,0.99331 2.36064,1.14471 3.03125,1.09375 0,0 -2.35636,0.81926 -4.15625,-0.5 -5.15027,3.30227 -7.52863,11.40756 -2.6875,27.53125 a 17.202281,17.202281 0 0 0 0.0312,0 17.202281,17.202281 0 0 0 8.1875,2.09375 17.202281,17.202281 0 0 0 17.09375,-19.0625 c -0.63431,0.98336 -1.43762,2.54307 -1.84375,4.71875 0,0 -8.25933,-5.47392 -14.78125,-1.28125 0,0 -8.96522,-4.49762 -3.375,-10.8125 0,0 1.72455,0.92966 2.65625,1.34375 -4.60675,3.36448 1.03125,7.40625 1.03125,7.40625 0,0 4.58535,-4.54136 13.28125,0.53125 0,0 0.62983,-2.0654 1.40625,-2.53125 -4.34795,-4.19267 -10.3125,-6.28125 -10.3125,-6.28125 l 0.125,-1.84375 c -3.65999,-1.81435 -5.91638,-2.513 -7.65625,-3.1875 z m 3.96875,3.15625 c 0,0 1.74396,0.5625 2.625,0.5625 0,0 0.0607,1.29461 -1.1875,1.625 -0.95447,-0.29368 -1.4375,-2.1875 -1.4375,-2.1875 z"
       id="path3964"
       inkscape:connector-curvature="0" />
  </g>
</svg>
