<?xml version="1.0" encoding="UTF-8" standalone="no"?>
<!-- Created with Inkscape (http://www.inkscape.org/) -->

<svg
   xmlns:dc="http://purl.org/dc/elements/1.1/"
   xmlns:cc="http://creativecommons.org/ns#"
   xmlns:rdf="http://www.w3.org/1999/02/22-rdf-syntax-ns#"
   xmlns:svg="http://www.w3.org/2000/svg"
   xmlns="http://www.w3.org/2000/svg"
   xmlns:xlink="http://www.w3.org/1999/xlink"
   xmlns:sodipodi="http://sodipodi.sourceforge.net/DTD/sodipodi-0.dtd"
   xmlns:inkscape="http://www.inkscape.org/namespaces/inkscape"
   width="48"
   height="48"
   id="svg2"
   version="1.1"
   inkscape:version="0.48+devel r11772"
   sodipodi:docname="preferences-desktop-wallpaper.svg">
  <defs
     id="defs4">
    <linearGradient
       inkscape:collect="always"
       id="linearGradient4495">
      <stop
         style="stop-color:#ff9500;stop-opacity:1;"
         offset="0"
         id="stop4497" />
      <stop
         style="stop-color:#ffcb82;stop-opacity:1"
         offset="1"
         id="stop4499" />
    </linearGradient>
    <linearGradient
       inkscape:collect="always"
       id="linearGradient4479">
      <stop
         style="stop-color:#ffba00;stop-opacity:1"
         offset="0"
         id="stop4481" />
      <stop
         style="stop-color:#ffe680;stop-opacity:1"
         offset="1"
         id="stop4483" />
    </linearGradient>
    <linearGradient
       inkscape:collect="always"
       id="linearGradient4444">
      <stop
         style="stop-color:#aad400;stop-opacity:1"
         offset="0"
         id="stop4446" />
      <stop
         style="stop-color:#cdde87;stop-opacity:1"
         offset="1"
         id="stop4448" />
    </linearGradient>
    <linearGradient
       id="linearGradient4374">
      <stop
         id="stop4376"
         offset="0"
         style="stop-color:#ffffff;stop-opacity:1" />
      <stop
         id="stop4378"
         offset="1"
         style="stop-color:#b3b3b3;stop-opacity:1" />
    </linearGradient>
    <linearGradient
       inkscape:collect="always"
       id="linearGradient915">
      <stop
         style="stop-color:#5a2ca0;stop-opacity:1;"
         offset="0"
         id="stop917" />
      <stop
         style="stop-color:#a884dd;stop-opacity:1"
         offset="1"
         id="stop919" />
    </linearGradient>
    <linearGradient
       id="linearGradient3795">
      <stop
         style="stop-color:#33c1f5;stop-opacity:1;"
         offset="0"
         id="stop3797" />
      <stop
         style="stop-color:#4d80a0;stop-opacity:1;"
         offset="1"
         id="stop3799" />
    </linearGradient>
    <linearGradient
       id="linearGradient3698">
      <stop
         id="stop3700"
         offset="0"
         style="stop-color:#96d0e1;stop-opacity:1" />
      <stop
         style="stop-color:#89b7e1;stop-opacity:1"
         offset="0.67819428"
         id="stop3706" />
      <stop
         id="stop3702"
         offset="1"
         style="stop-color:#699dd3;stop-opacity:1" />
    </linearGradient>
    <linearGradient
       id="linearGradient3708">
      <stop
         id="stop3710"
         offset="0"
         style="stop-color:#658db6;stop-opacity:1" />
      <stop
         style="stop-color:#527fab;stop-opacity:1;"
         offset="0.76777935"
         id="stop3716" />
      <stop
         id="stop3712"
         offset="1"
         style="stop-color:#4071a0;stop-opacity:1" />
    </linearGradient>
    <linearGradient
       id="linearGradient3750">
      <stop
         style="stop-color:#d0e2f1;stop-opacity:1"
         offset="0"
         id="stop3752" />
      <stop
         id="stop3756"
         offset="0.85580856"
         style="stop-color:#cadef0;stop-opacity:1" />
      <stop
         style="stop-color:#95bee3;stop-opacity:1"
         offset="1"
         id="stop3754" />
    </linearGradient>
    <linearGradient
       id="linearGradient3803">
      <stop
         id="stop3805"
         offset="0"
         style="stop-color:#d7def0;stop-opacity:1;" />
      <stop
         style="stop-color:#ffffff;stop-opacity:1"
         offset="0.5"
         id="stop3811" />
      <stop
         id="stop3807"
         offset="1"
         style="stop-color:#d5def0;stop-opacity:1" />
    </linearGradient>
    <linearGradient
       inkscape:collect="always"
       xlink:href="#linearGradient3795"
       id="linearGradient3801"
       x1="23.204165"
       y1="1053.158"
       x2="23.204165"
       y2="1004.8474"
       gradientUnits="userSpaceOnUse"
       gradientTransform="translate(0,-2056.7244)" />
    <linearGradient
       inkscape:collect="always"
       xlink:href="#linearGradient3795"
       id="linearGradient3859"
       x1="26.192217"
       y1="1024.0002"
       x2="28.641211"
       y2="1024.0002"
       gradientUnits="userSpaceOnUse" />
    <linearGradient
       inkscape:collect="always"
       xlink:href="#linearGradient3795"
       id="linearGradient3867"
       gradientUnits="userSpaceOnUse"
       x1="26.192217"
       y1="1024.0002"
       x2="28.641211"
       y2="1024.0002" />
    <linearGradient
       inkscape:collect="always"
       xlink:href="#linearGradient3795"
       id="linearGradient3869"
       gradientUnits="userSpaceOnUse"
       x1="26.192217"
       y1="1024.0002"
       x2="28.641211"
       y2="1024.0002" />
    <linearGradient
       inkscape:collect="always"
       xlink:href="#linearGradient3795"
       id="linearGradient3871"
       gradientUnits="userSpaceOnUse"
       x1="26.192217"
       y1="1024.0002"
       x2="28.641211"
       y2="1024.0002" />
    <linearGradient
       inkscape:collect="always"
       xlink:href="#linearGradient3795"
       id="linearGradient3877"
       gradientUnits="userSpaceOnUse"
       x1="29.718235"
       y1="1027.8575"
       x2="22.811094"
       y2="1015.5485" />
    <linearGradient
       inkscape:collect="always"
       xlink:href="#linearGradient3795"
       id="linearGradient3879"
       gradientUnits="userSpaceOnUse"
       x1="17.196316"
       y1="1006.2238"
       x2="31.448042"
       y2="1030.9086" />
    <linearGradient
       inkscape:collect="always"
       xlink:href="#linearGradient3795"
       id="linearGradient3895"
       x1="21.973417"
       y1="34.43922"
       x2="42.475323"
       y2="24.798252"
       gradientUnits="userSpaceOnUse" />
    <linearGradient
       y2="1049.5842"
       x2="24.113745"
       y1="1007.2183"
       x1="24.113745"
       gradientTransform="matrix(0.96799712,0,0,1.0252613,0.76812014,-25.977808)"
       gradientUnits="userSpaceOnUse"
       id="linearGradient3030"
       xlink:href="#linearGradient3795-7"
       inkscape:collect="always" />
    <linearGradient
       id="linearGradient3795-7">
      <stop
         style="stop-color:#68b8d8;stop-opacity:1;"
         offset="0"
         id="stop3797-0" />
      <stop
         style="stop-color:#3097bd;stop-opacity:1;"
         offset="1"
         id="stop3799-8" />
    </linearGradient>
    <linearGradient
       y2="1049.5842"
       x2="24.113745"
       y1="1030.0641"
       x1="24.113745"
       gradientTransform="matrix(0.96799712,0,0,1.0252613,0.76812033,-25.978058)"
       gradientUnits="userSpaceOnUse"
       id="linearGradient3083"
       xlink:href="#linearGradient4374"
       inkscape:collect="always" />
    <linearGradient
       inkscape:collect="always"
       xlink:href="#linearGradient915"
       id="linearGradient921"
       x1="4.9375"
       y1="13.816264"
       x2="4.9375"
       y2="-0.68373519"
       gradientUnits="userSpaceOnUse" />
    <linearGradient
       inkscape:collect="always"
       xlink:href="#linearGradient4311"
       id="linearGradient4305"
       x1="11.615039"
       y1="13.8821"
       x2="11.615039"
       y2="-0.61358899"
       gradientUnits="userSpaceOnUse" />
    <linearGradient
       id="linearGradient4311"
       inkscape:collect="always">
      <stop
         id="stop4313"
         offset="0"
         style="stop-color:#2c5ba0;stop-opacity:1" />
      <stop
         id="stop4315"
         offset="1"
         style="stop-color:#a8cfe7;stop-opacity:1" />
    </linearGradient>
    <linearGradient
       inkscape:collect="always"
       xlink:href="#linearGradient4311"
       id="linearGradient4363"
       x1="11.667261"
       y1="1018.1559"
       x2="11.667261"
       y2="1004.1906"
       gradientUnits="userSpaceOnUse"
       gradientTransform="translate(0,-1004.3622)" />
    <linearGradient
       inkscape:collect="always"
       xlink:href="#linearGradient4444"
       id="linearGradient4442"
       x1="20.919416"
       y1="13.793711"
       x2="20.919416"
       y2="-0.171647"
       gradientUnits="userSpaceOnUse" />
    <linearGradient
       inkscape:collect="always"
       xlink:href="#linearGradient4479"
       id="linearGradient4485"
       x1="25.71875"
       y1="13.793711"
       x2="25.71875"
       y2="-0.171647"
       gradientUnits="userSpaceOnUse" />
    <linearGradient
       inkscape:collect="always"
       xlink:href="#linearGradient4495"
       id="linearGradient4501"
       x1="34.55476"
       y1="13.793711"
       x2="34.55476"
       y2="-0.171647"
       gradientUnits="userSpaceOnUse" />
  </defs>
  <sodipodi:namedview
     id="base"
     pagecolor="#ffffff"
     bordercolor="#666666"
     borderopacity="1.0"
     inkscape:pageopacity="0.0"
     inkscape:pageshadow="2"
     inkscape:zoom="8"
     inkscape:cx="9.2435683"
     inkscape:cy="33.333551"
     inkscape:document-units="px"
     inkscape:current-layer="layer1"
     showgrid="false"
     inkscape:window-width="1366"
     inkscape:window-height="712"
     inkscape:window-x="0"
     inkscape:window-y="0"
     inkscape:window-maximized="1"
     showguides="true"
     inkscape:guide-bbox="true">
    <inkscape:grid
       type="xygrid"
       id="grid3850" />
    <sodipodi:guide
       orientation="0,1"
       position="11.667261,34.206289"
       id="guide4365" />
    <sodipodi:guide
       orientation="0,1"
       position="8.2201159,48.171647"
       id="guide4367" />
  </sodipodi:namedview>
  <metadata
     id="metadata7">
    <rdf:RDF>
      <cc:Work
         rdf:about="">
        <dc:format>image/svg+xml</dc:format>
        <dc:type
           rdf:resource="http://purl.org/dc/dcmitype/StillImage" />
        <dc:title />
      </cc:Work>
    </rdf:RDF>
  </metadata>
  <g
     inkscape:label="Capa 1"
     inkscape:groupmode="layer"
     id="layer1"
     transform="translate(0,-1004.3622)">
    <rect
       ry="5.6755357"
       y="1006.0615"
       x="1.6992435"
       height="44.601513"
       width="44.601513"
       id="rect2992"
       style="fill:url(#linearGradient3083);fill-opacity:1;stroke:#7d7d7d;stroke-width:0.39848712;stroke-miterlimit:4;stroke-opacity:1;stroke-dasharray:none" />
    <g
       id="g3818"
       transform="matrix(1.3939054,0,0,1.3939054,130.69223,-458.69099)"
       style="stroke:#000000">
      <rect
         ry="1.9445436"
         y="1022.8622"
         x="-37.375"
         height="14.749999"
         width="18.875"
         id="rect3792"
         style="fill:none;stroke:#000000;stroke-width:0.99670511px;stroke-linecap:butt;stroke-linejoin:miter;stroke-opacity:1" />
      <path
         transform="translate(1.2499999,1004.0497)"
         d="m -31.9375,22.656252 c 0,1.052793 -0.853457,1.90625 -1.90625,1.90625 -1.052793,0 -1.90625,-0.853457 -1.90625,-1.90625 0,-1.052793 0.853457,-1.90625 1.90625,-1.90625 C -32.790957,20.750002 -31.9375,21.603459 -31.9375,22.656252 Z"
         sodipodi:ry="1.9062499"
         sodipodi:rx="1.9062499"
         sodipodi:cy="22.656252"
         sodipodi:cx="-33.84375"
         id="path3798"
         style="fill:#ffffff;stroke:#000000"
         sodipodi:type="arc" />
      <path
         transform="translate(0,1004.3622)"
         id="path3800"
         d="m -37.25,31.625 c 0.07272,0.39495 0.16565,0.79065 0.4375,1.0625 0.351476,0.351476 0.836361,0.5625 1.375,0.5625 l 10.8125,0 c -0.575364,-3.066169 -3.203233,-5.4375 -6.53125,-5.4375 C -33.866725,27.8125 -36.164433,29.396286 -37.25,31.625 Z"
         style="fill:#ffffff;stroke:#000000"
         inkscape:connector-curvature="0" />
      <path
         transform="translate(0,1004.3622)"
         id="path3802"
         d="m -26.5,33.25 6.0625,0 c 0.538639,0 1.023524,-0.211024 1.375,-0.5625 0.351476,-0.351476 0.5625,-0.836361 0.5625,-1.375 l 0,-7.9375 c -0.714673,-0.217457 -1.455286,-0.4375 -2.25,-0.4375 -3.969546,0 -7.1875,2.938132 -7.1875,6.5625 C -27.9375,30.926388 -27.346489,32.173455 -26.5,33.25 Z"
         style="fill:#ffffff;stroke:#000000"
         inkscape:connector-curvature="0" />
    </g>
    <path
       style="fill:url(#linearGradient921);fill-opacity:1;stroke:none"
       d="M 7.375 1.6875 C 4.2307532 1.6875 1.6875 4.2307532 1.6875 7.375 L 1.6875 10.34375 C 1.7207138 10.341038 1.7548158 10.33775 1.78125 10.34375 C 1.8474345 10.35635 1.87071 10.4015 1.90625 10.4375 C 1.9718466 10.5034 2.046462 10.57325 2.09375 10.65625 C 2.1750115 10.70125 2.2862181 10.74675 2.40625 10.71875 C 2.476644 10.75905 2.576341 10.7505 2.625 10.8125 C 2.7111564 10.8163 2.753836 10.8755 2.78125 10.9375 C 2.7529552 11.059 2.690321 11.154 2.65625 11.25 C 2.671818 11.3983 2.577926 11.5147 2.65625 11.625 C 2.6953143 11.6801 2.812536 11.71525 2.875 11.78125 C 2.9209177 11.82965 2.965849 11.88325 3.03125 11.90625 C 3.032915 11.96155 3.075735 11.98025 3.09375 12.03125 C 3.11617 12.09415 3.14675 12.20625 3.15625 12.28125 C 3.16261 12.33145 3.14901 12.3875 3.15625 12.4375 C 3.160264 12.4645 3.15253 12.474 3.15625 12.5 C 3.205986 12.8562 3.176828 13.2572 3.1875 13.625 C 3.155877 13.6977 3.174069 13.76075 3.15625 13.84375 C 3.1304032 13.96275 3.06974 14.09535 3.0625 14.21875 C 3.06103 14.24175 3.06465 14.25925 3.0625 14.28125 C 3.060934 14.29925 3.03399 14.32475 3.03125 14.34375 C 3.02792 14.36675 3.0309563 14.4095 3.03125 14.4375 C 3.03155 14.4715 3.047404 14.50125 3.03125 14.53125 C 3.07237 14.58665 3.05359 14.672 3.0625 14.75 C 3.074445 14.8549 3.09258 14.93325 3.09375 15.03125 C 3.095317 15.16695 3.174362 15.33625 3.15625 15.46875 C 3.140492 15.58515 3.101894 15.71095 3.125 15.84375 C 3.118832 15.95455 3.104226 16.06525 3.09375 16.15625 C 3.09121 16.17825 3.09248 16.19975 3.09375 16.21875 C 3.093946 16.22175 3.09267 16.25 3.09375 16.25 C 3.097474 16.263 3.0914 16.26925 3.09375 16.28125 C 3.10775 16.35445 3.107359 16.39675 3.09375 16.46875 C 3.134772 16.62665 3.118324 16.80855 3.09375 16.96875 C 3.0821 17.04515 3.0938479 17.13875 3.09375 17.21875 C 3.093555 17.30395 3.107964 17.33925 3.125 17.40625 C 3.151335 17.50885 3.141056 17.664 3.125 17.75 C 3.103071 17.8672 3.08533 18.0001 3.09375 18.125 C 3.100407 18.2247 3.141484 18.34625 3.1875 18.40625 C 3.2823703 18.52745 3.5183811 18.52685 3.625 18.40625 C 3.6856036 18.26215 3.75304 18.1171 3.75 17.9375 C 3.748042 17.8234 3.751976 17.70695 3.78125 17.59375 C 3.7228009 17.46775 3.788336 17.341 3.84375 17.25 C 3.811047 17.2082 3.81426 17.10125 3.8125 17.03125 C 3.80888 16.89525 3.796541 16.7362 3.8125 16.625 C 3.783618 16.5081 3.800849 16.40125 3.8125 16.28125 C 3.848725 15.91145 3.823288 15.51405 3.84375 15.15625 C 3.84874 15.06945 3.83523 14.98925 3.84375 14.90625 C 3.85354 14.81235 3.88185 14.717 3.875 14.625 C 3.87128 14.5749 3.855205 14.51375 3.84375 14.46875 C 3.83298 14.42625 3.824934 14.38575 3.8125 14.34375 C 3.741813 14.10545 3.80819 13.8451 3.8125 13.625 C 3.81387 13.5506 3.81015 13.452 3.8125 13.375 C 3.816905 13.2239 3.86971 13.0892 3.875 12.9375 C 3.876077 12.9049 3.8429668 12.88075 3.84375 12.84375 C 3.844534 12.81475 3.87617 12.777 3.875 12.75 C 3.8703 12.6492 3.8413 12.49925 3.84375 12.40625 C 3.844631 12.37725 3.8415 12.3415 3.84375 12.3125 C 3.85344 12.1936 3.85315 12.093 3.84375 12 C 3.866072 11.9414 3.9188 11.8575 3.9375 11.8125 C 3.960606 11.7571 3.955043 11.72625 3.96875 11.65625 C 3.97766 11.61075 4.008046 11.55225 4.03125 11.53125 C 4.1328758 11.44125 4.1805054 11.613 4.28125 11.625 C 4.2990686 11.6925 4.349759 11.717 4.40625 11.75 C 4.43053 11.764 4.451127 11.8025 4.46875 11.8125 C 4.484709 11.822 4.514606 11.8025 4.53125 11.8125 C 4.555041 11.8255 4.575442 11.86 4.59375 11.875 C 4.6435837 11.9156 4.687518 11.91575 4.71875 11.96875 C 4.7899272 12.00175 4.90145 11.9865 4.90625 12.0625 C 4.9076618 12.084694 4.9167233 12.111942 4.90625 12.125 C 4.919756 12.1642 4.918506 12.216 4.9375 12.25 C 4.915569 12.27478 4.9220451 12.312757 4.90625 12.34375 C 4.9212664 12.319263 4.9580785 12.273 4.96875 12.25 C 5.0368921 12.248 5.103675 12.12875 5.15625 12.21875 C 5.168683 12.20775 5.188791 12.1875 5.21875 12.1875 C 5.224626 12.2135 5.171444 12.234 5.1875 12.25 C 5.2381172 12.26 5.269617 12.24 5.3125 12.25 C 5.336291 12.2972 5.40831 12.33325 5.40625 12.40625 C 5.423188 12.42025 5.423304 12.38225 5.4375 12.40625 C 5.5503847 12.74465 5.623415 13.13905 5.59375 13.53125 C 5.586016 13.63275 5.59659 13.7145 5.59375 13.8125 C 5.59326 13.8335 5.5934563 13.853 5.59375 13.875 C 5.595219 14.0096 5.64852 14.1473 5.65625 14.25 C 5.66594 14.3769 5.66291 14.52375 5.65625 14.65625 C 5.644991 14.88285 5.6873041 15.11955 5.6875 15.34375 C 5.687695 15.49565 5.71679 15.6071 5.71875 15.75 C 5.7194353 15.8162 5.71474 15.8915 5.71875 15.9375 C 5.72482 16.0075 5.7188479 16.1335 5.71875 16.1875 C 5.718457 16.3094 5.69288 16.403 5.6875 16.5 C 5.673793 16.7488 5.7250593 16.99555 5.625 17.21875 C 5.627545 17.38095 5.550831 17.5293 5.53125 17.6875 C 5.516071 17.811 5.52714 17.8995 5.53125 18 C 5.540747 18.2293 5.58582 18.4527 5.59375 18.6875 C 5.596393 18.7648 5.58944 18.8615 5.59375 18.9375 C 5.609023 19.2097 5.53628 19.5145 5.59375 19.75 C 5.568492 19.7926 5.59835 19.84125 5.59375 19.90625 C 5.586211 20.00975 5.55545 20.1489 5.5625 20.25 C 5.576697 20.4548 5.570706 20.65365 5.53125 20.84375 C 5.504717 20.97245 5.551614 21.1402 5.53125 21.25 C 5.589504 21.3264 5.50725 21.43925 5.5 21.53125 C 5.484335 21.73145 5.53233 21.91335 5.53125 22.09375 C 5.53076 22.18145 5.49393 22.2425 5.5 22.3125 C 5.503329 22.3512 5.52704 22.4045 5.53125 22.4375 C 5.53947 22.5008 5.52528 22.54275 5.53125 22.59375 C 5.5483835 22.73795 5.6274224 22.846 5.75 22.875 C 5.9668604 22.9264 6.130464 22.7074 6.09375 22.4375 C 6.150927 22.3105 6.136161 22.144 6.125 22 C 6.116383 21.8873 6.145285 21.76125 6.15625 21.65625 C 6.157816 21.64225 6.15282 21.644 6.15625 21.625 C 6.15919 21.61 6.139019 21.5775 6.15625 21.5625 C 6.142054 21.5565 6.12813 21.54925 6.125 21.53125 C 6.1430146 21.41365 6.234629 21.3165 6.25 21.1875 C 6.259007 21.1112 6.25979 20.9945 6.25 20.9375 C 6.215048 20.7362 6.21297 20.5117 6.21875 20.3125 C 6.220218 20.2618 6.24824 20.20625 6.25 20.15625 C 6.25235 20.09045 6.27352 20.053 6.28125 20 C 6.302982 19.8498 6.264117 19.68165 6.28125 19.53125 C 6.298677 19.37835 6.30966 19.19295 6.3125 19.03125 C 6.315242 18.88195 6.28536 18.74755 6.28125 18.59375 C 6.27821 18.48205 6.2787 18.34265 6.28125 18.21875 C 6.285557 18.00755 6.22531 17.8339 6.21875 17.625 C 6.212484 17.4277 6.19398 17.2031 6.21875 17 C 6.221785 16.974 6.24804 16.9635 6.25 16.9375 C 6.254209 16.8797 6.2496084 16.808 6.25 16.75 C 6.250979 16.6081 6.271166 16.48305 6.28125 16.34375 C 6.289572 16.22865 6.279408 16.1127 6.3125 16 C 6.281957 15.9437 6.30349 15.85125 6.3125 15.78125 C 6.271086 15.72165 6.28859 15.6325 6.28125 15.5625 C 6.277432 15.526 6.25431 15.50475 6.25 15.46875 C 6.229635 15.30065 6.25744 15.12985 6.25 14.96875 C 6.247259 14.91075 6.21875 14.83925 6.21875 14.78125 C 6.21875 14.57135 6.264863 14.3763 6.21875 14.1875 C 6.226778 14.1765 6.2491188 14.17425 6.25 14.15625 C 6.219062 14.10455 6.25137 14.02475 6.25 13.96875 C 6.244125 13.71495 6.21209 13.46675 6.21875 13.21875 C 6.236957 13.20375 6.227677 13.25 6.25 13.25 C 6.1864594 12.8414 6.2383787 12.3777 6.46875 12.125 C 6.5725297 12.0929 6.5245854 11.94175 6.6875 11.96875 C 6.7329284 11.90825 6.7853 11.82925 6.84375 11.78125 C 6.880269 11.71325 6.839558 11.60025 6.875 11.53125 C 6.889686 11.50325 6.919779 11.49075 6.9375 11.46875 C 6.949444 11.45475 6.952498 11.4545 6.96875 11.4375 C 6.983925 11.4205 7.009809 11.41725 7.03125 11.40625 C 7.0258668 11.405066 7.0346962 11.378 7.03125 11.375 C 7.032229 11.332 7.015665 11.30725 7 11.28125 C 7.050912 11.15235 6.977873 11.0833 7 10.9375 C 7.044939 10.887 7.126236 10.833 7.0625 10.75 C 7.0027775 10.736 6.920544 10.71525 6.90625 10.65625 C 6.931999 10.63165 6.96366 10.6075 6.96875 10.5625 C 6.9472108 10.5035 6.879467 10.48275 6.8125 10.46875 C 6.737015 10.41075 6.834021 10.22625 6.78125 10.15625 C 6.786537 10.12025 6.800164 10.0915 6.8125 10.0625 C 6.6875728 10.1934 6.534347 10.09 6.46875 10 C 6.4692885 9.97175 6.4469968 9.9555625 6.4375 9.9375 C 6.46615 9.9374366 6.5013939 9.924 6.53125 9.9375 C 6.536587 9.9235 6.581802 9.9475 6.59375 9.9375 C 6.6367084 9.9235 6.674583 9.84375 6.71875 9.84375 C 6.7662732 9.84475 6.83005 9.90625 6.875 9.90625 C 6.9420416 9.91125 6.955995 9.86975 7 9.84375 C 7.0804845 9.79695 7.182952 9.7555 7.25 9.6875 C 7.3401566 9.6655 7.4543837 9.6285 7.5625 9.6875 C 7.6408821 9.6675 7.749665 9.70325 7.8125 9.65625 C 7.8541008 9.66755 7.8761164 9.67245 7.90625 9.65625 C 7.9363836 9.64005 7.947584 9.62025 7.96875 9.59375 C 7.9726 9.46925 7.94538 9.3516 7.9375 9.25 C 7.990858 9.1108 7.9271138 8.961 8.03125 8.875 C 8.0832062 8.832 8.203797 8.82925 8.28125 8.78125 C 8.338018 8.74725 8.399235 8.72875 8.46875 8.71875 C 8.484188 8.66615 8.531727 8.67 8.5625 8.625 C 8.590402 8.5845 8.625941 8.4965 8.65625 8.4375 C 8.7307224 8.4859607 8.8007203 8.5201806 8.875 8.5625 L 8.875 1.6875 L 7.375 1.6875 z M 3.4375 17.5625 C 3.513768 17.5984 3.481869 17.74475 3.46875 17.84375 C 3.459841 17.91045 3.426908 17.966 3.40625 18 C 3.350934 17.9246 3.37852 17.77055 3.375 17.65625 C 3.386066 17.65625 3.39734 17.65585 3.40625 17.65625 C 3.400963 17.64025 3.422031 17.5795 3.4375 17.5625 z "
       id="rect871"
       transform="translate(0,1004.3622)" />
    <path
       style="fill:url(#linearGradient4363);fill-opacity:1;stroke:none"
       d="M 8.875 1.6875 L 8.875 8.46875 C 8.8962855 8.4779923 8.9124492 8.4944345 8.9375 8.5 C 8.8783457 8.5695 8.8718804 8.6317859 8.875 8.6875 C 8.8843589 8.8546422 9.0982623 8.970675 9.09375 9.1875 C 9.2246754 9.1755 9.2560572 9.31335 9.34375 9.34375 C 9.4939055 9.84925 10.05699 10.2026 10.625 9.9375 C 10.850389 10.2906 10.887131 10.84665 11.09375 11.21875 C 10.873285 12.15835 10.963651 13.26185 10.9375 14.28125 C 10.9235 14.83045 10.705351 15.30155 10.6875 15.78125 C 10.67427 16.13685 10.760252 16.45905 10.40625 16.59375 C 10.38272 16.73515 10.43567 16.82055 10.46875 16.90625 C 10.39706 17.52475 10.306539 18.1217 10.125 18.875 C 9.9996116 19.3964 9.2152694 20.55255 10.34375 20.59375 C 10.611599 20.38795 10.67694 20.12505 10.78125 19.78125 C 10.938176 19.26375 11.273035 18.6666 11.4375 18.0625 C 11.47829 17.9125 11.39612 17.74635 11.4375 17.65625 C 11.589811 17.32415 11.732633 17.0867 11.78125 16.75 C 11.87648 16.0905 12.01698 15.4838 12.09375 14.875 C 12.15852 14.3616 12.314478 13.782 12.3125 13.25 C 12.3107 12.6751 12.25834 12.10905 12.3125 11.53125 C 12.34297 11.20255 12.507004 10.92635 12.375 10.59375 C 12.599007 10.45105 12.907004 10.14475 12.625 9.84375 C 12.69654 9.62775 12.997209 9.54465 12.96875 9.34375 C 13.00984 9.37175 13.01144 9.42075 13.03125 9.46875 C 12.837518 8.96835 12.707488 8.4106 12.59375 7.875 C 12.723344 8.4427 12.911318 9.00205 13.125 9.53125 C 13.354807 9.76495 13.524199 10.04345 13.625 10.40625 C 13.64919 10.49325 13.732252 10.5321 13.75 10.625 L 13.78125 10.625 C 14.079738 10.723 14.165657 11.1332 14.46875 11.125 C 14.888789 11.11 15.044473 10.45295 14.875 10.03125 C 14.995744 9.88875 15.011231 9.6491 15.1875 9.5625 C 15.435965 9.8882 15.900075 10.25995 16.34375 10.03125 C 16.388465 9.9685567 16.451324 9.9105576 16.5 9.84375 L 16.5 1.6875 L 8.875 1.6875 z "
       id="rect873"
       transform="translate(0,1004.3622)" />
    <path
       style="fill:url(#linearGradient4442);fill-opacity:1;stroke:none"
       d="m 16.5,1.6875 0,7.375 0,0.96875 c -0.131198,0.339316 -0.490218,0.707111 0,0.96875 -0.105677,0.355937 0.024,0.90741 -0.05067,1.163627 -0.536519,1.840908 -0.548541,1.095605 -0.41808,1.680123 0.974032,-0.01947 0.1907,-1.193574 1.25,-1.28125 0.307978,0.484161 0.765767,1.231211 -0.4375,1.203125 l -0.5,0.265625 0.59375,0.109375 L 16.59375,14.84375 16.5,15.359375 c 0.20545,1.110376 1.206374,-0.254024 0.53125,-0.328125 0.208953,0.217345 0.04505,0.80755 0.674286,0.604608 l -0.34375,0.546875 c 5.76e-4,4.8e-5 0.0012,6.9e-5 0.0018,6.8e-5 5.94e-4,0 0.0012,-2.3e-5 0.0018,-6.3e-5 6.11e-4,-4.1e-5 0.0012,-9.9e-5 0.0019,-1.7e-4 6.25e-4,-7.1e-5 0.0013,-1.56e-4 0.0019,-2.49e-4 l 0.0019,-3.03e-4 0.002,-3.29e-4 0.002,-3.29e-4 c 6.65e-4,-1.09e-4 0.0013,-2.1e-4 0.002,-3.04e-4 6.71e-4,-9.4e-5 0.0013,-1.79e-4 0.002,-2.51e-4 6.74e-4,-7.2e-5 0.0013,-1.31e-4 0.002,-1.72e-4 6.76e-4,-4.1e-5 0.0014,-6.5e-5 0.002,-6.7e-5 6.76e-4,-2e-6 0.0014,1.9e-5 0.002,6.5e-5 6.74e-4,4.7e-5 0.0013,1.19e-4 0.002,2.23e-4 6.71e-4,1.04e-4 0.0013,2.38e-4 0.002,4.07e-4 6.65e-4,1.7e-4 0.0013,3.74e-4 0.002,6.19e-4 6.57e-4,2.44e-4 0.0013,5.27e-4 0.002,8.55e-4 0.94065,0.6109 0.329657,2.065167 0.200714,3.067267 -0.195504,0.622726 0.193032,0.689592 0.71875,0.40625 0.0058,-0.4791 -0.577521,-0.7334 -0.28125,-1.1875 -0.0128,-0.3349 0.359259,-1.172117 0.455536,-1.536017 0.117643,-0.077 0.228065,-0.1565 0.375,-0.125 0.09213,0.083 -0.07767,0.22795 0.125,0.28125 0.136117,-0.144 0.125,-0.34375 0.125,-0.34375 0.75386,0.052 0.248112,-0.141983 0.731964,-0.401483 0.112043,0.1873 -0.11002,0.238 -0.0625,0.375 0.258984,0.159378 0.469785,-0.04154 0.5,-0.21875 -0.334108,-0.6436 -0.124842,-0.50635 0.25,-0.21875 0.07184,0.3803 0.385146,0.6853 0.46875,1.0625 -0.141549,0.217 -0.369229,0.02365 -0.5,0.28125 -0.154538,0.226 0.203777,0.3319 0.03125,0.5625 -0.187836,0.6525 -1.117792,0.39705 -1.3125,0.90625 -0.110889,0.2899 0.106664,0.5755 0.4375,0.75 0.685489,0.0703 1.054931,-0.263813 1.15625,-1.125 0.0357,-0.1942 -0.258678,-0.31095 -0.125,-0.53125 0.124861,-0.1658 0.249409,-0.3195 0.4375,-0.25 0.154438,0.066 -0.233915,0.2759 0.03125,0.3125 0.188966,-0.1947 0.09601,-0.4448 0.28125,-0.5 0.21416,0.065 0.187676,0.2332 0.34375,0.1875 0.399675,-0.3156 0.646453,-0.22305 1.03125,-0.40625 0.478328,0.2704 0.808637,0.44275 1.15625,0.59375 0.02564,-0.02019 0.04156,-0.0399 0.0625,-0.0625 -0.329627,-0.536531 -0.102348,-0.870551 0,-1.25 -0.0376,-0.04582 -0.06708,-0.103825 -0.0625,-0.15625 0.01872,-0.02847 0.04244,-0.03904 0.0625,-0.0625 l 0,-0.546873 -0.1875,-0.316407 0.671875,0.480469 c 0.412546,-0.365994 -0.09728,-0.639751 -0.484375,-0.925781 0.182961,0.04397 0.232182,-0.112665 0.25,-0.316406 l -0.25,-0.191407 -0.25,-0.269531 0.6875,0.183594 c 0.07265,-0.662227 -0.08474,-0.614373 -0.28125,-0.738281 L 24.0313,5.34375 24.03125,1.6875 z m 1.25,12.6875 c 0.05165,-0.0014 0.09967,0.01225 0.15625,0.03125 -0.151974,0.063 -0.268306,0.21035 -0.46875,0.09375 0.0513,-0.0556 0.09732,-0.07705 0.15625,-0.09375 C 17.64306,14.39275 17.698348,14.376375 17.75,14.375 z m 0.28125,0.0625 c 0.09683,-0.025 0.219477,0.039 0.3125,0 0.142579,0.1309 -0.118457,0.08635 -0.125,0.21875 L 17.9375,14.5 C 17.962499,14.4641 17.998865,14.4458 18.03125,14.4375 z m 5.625,0.5 c 0.07146,0.058 -0.08934,0.1972 0,0.25 C 23.56316,15.2425 23.443297,15.211 23.3125,15.125 23.410065,15.0298 23.55146,15.0057 23.65625,14.9375 z m -0.21875,1.84375 c 0.03226,-0.014 0.06041,0.003 0.09375,0 0.1447,0.2071 0.01168,0.46975 0,0.71875 C 23.343715,17.6042 23.146324,17.61625 22.875,17.40625 23.023448,17.05725 23.213172,16.84735 23.4375,16.78125 Z"
       transform="translate(0,1004.3622)"
       id="rect875"
       inkscape:connector-curvature="0"
       sodipodi:nodetypes="ccccsccccccccccssssssssssssssscccccccccccccccccccccccccccccccccccccccccscccscccccccccccccc" />
    <path
       style="fill:url(#linearGradient4501);fill-opacity:1;stroke:none"
       d="M 31.5625 1.6875 C 31.392525 2.1076748 31.59375 2.9866631 31.59375 5.53125 L 31.59375 10.1875 C 31.61772 10.20781 31.63447 10.22766 31.65625 10.25 C 31.72804 10.322 31.823248 10.4092 31.875 10.5 C 31.96393 10.549 32.087387 10.5945 32.21875 10.5625 C 32.29578 10.6065 32.415497 10.6196 32.46875 10.6875 C 32.56304 10.6875 32.595 10.7447 32.625 10.8125 C 32.59404 10.9455 32.53729 11.05115 32.5 11.15625 C 32.51704 11.31855 32.41429 11.4417 32.5 11.5625 C 32.54275 11.6225 32.650391 11.679 32.71875 11.75 C 32.769 11.803 32.834681 11.8494 32.90625 11.875 C 32.90815 11.935 32.94904 11.9442 32.96875 12 C 32.99327 12.069 33.02085 12.19905 33.03125 12.28125 C 33.03825 12.33625 33.02335 12.3825 33.03125 12.4375 C 33.03565 12.4675 33.02705 12.50225 33.03125 12.53125 C 33.0857 12.92105 33.05082 13.3475 33.0625 13.75 C 33.0279 13.83 33.05075 13.9091 33.03125 14 C 33.00296 14.1303 32.94544 14.27125 32.9375 14.40625 C 32.9359 14.43125 32.9399 14.44475 32.9375 14.46875 C 32.9359 14.48875 32.90925 14.51025 32.90625 14.53125 C 32.90265 14.55625 32.905928 14.5941 32.90625 14.625 C 32.906578 14.662 32.92392 14.7172 32.90625 14.75 C 32.95125 14.81 32.92775 14.88335 32.9375 14.96875 C 32.95058 15.08355 32.96747 15.17405 32.96875 15.28125 C 32.97035 15.42975 33.05107 15.63615 33.03125 15.78125 C 33.014 15.90865 32.97471 16.0422 33 16.1875 C 32.9932 16.3088 32.98022 16.43165 32.96875 16.53125 C 32.96605 16.55525 32.96735 16.57275 32.96875 16.59375 C 32.968963 16.59375 32.96755 16.625 32.96875 16.625 C 32.97295 16.639 32.96625 16.64325 32.96875 16.65625 C 32.98407 16.73625 32.98364 16.7962 32.96875 16.875 C 33.01364 17.0478 32.99564 17.23075 32.96875 17.40625 C 32.956 17.48925 32.968856 17.5998 32.96875 17.6875 C 32.968535 17.7805 32.98135 17.8015 33 17.875 C 33.02883 17.9874 33.01758 18.1559 33 18.25 C 32.976 18.3783 32.95954 18.5508 32.96875 18.6875 C 32.97605 18.7975 33.01212 18.90295 33.0625 18.96875 C 33.166334 19.10125 33.445817 19.10045 33.5625 18.96875 C 33.62882 18.81095 33.690827 18.66535 33.6875 18.46875 C 33.6853 18.34385 33.68675 18.21765 33.71875 18.09375 C 33.65478 17.95585 33.72065 17.81835 33.78125 17.71875 C 33.74546 17.67275 33.75193 17.54535 33.75 17.46875 C 33.7461 17.31975 33.73253 17.15295 33.75 17.03125 C 33.7184 16.90335 33.73725 16.78755 33.75 16.65625 C 33.78965 16.25145 33.7589 15.8291 33.78125 15.4375 C 33.78675 15.3425 33.77195 15.24695 33.78125 15.15625 C 33.79198 15.05345 33.82 14.94435 33.8125 14.84375 C 33.8083 14.78875 33.79379 14.7367 33.78125 14.6875 C 33.76941 14.6405 33.7636 14.57705 33.75 14.53125 C 33.67264 14.27055 33.7453 13.9908 33.75 13.75 C 33.7515 13.669 33.7475 13.55295 33.75 13.46875 C 33.7548 13.30335 33.80671 13.1659 33.8125 13 C 33.8137 12.964 33.7804 12.94705 33.78125 12.90625 C 33.782108 12.87425 33.81378 12.81115 33.8125 12.78125 C 33.8074 12.67125 33.77857 12.50795 33.78125 12.40625 C 33.782216 12.37425 33.77885 12.3444 33.78125 12.3125 C 33.79187 12.1822 33.79154 12.07045 33.78125 11.96875 C 33.80568 11.90375 33.885782 11.83045 33.90625 11.78125 C 33.93154 11.72125 33.9225 11.67085 33.9375 11.59375 C 33.9472 11.54375 33.97461 11.49195 34 11.46875 C 34.111223 11.36875 34.170995 11.5496 34.28125 11.5625 C 34.30075 11.6355 34.34443 11.6514 34.40625 11.6875 C 34.43282 11.7025 34.44947 11.77125 34.46875 11.78125 C 34.48622 11.79325 34.51304 11.76925 34.53125 11.78125 C 34.5573 11.79525 34.60496 11.82875 34.625 11.84375 C 34.67953 11.88875 34.71582 11.8796 34.75 11.9375 C 34.8279 11.9735 34.963497 11.94835 34.96875 12.03125 C 34.97025 12.05525 34.98023 12.07875 34.96875 12.09375 C 34.98355 12.13675 34.97922 12.2132 35 12.25 C 34.976 12.277 34.98604 12.30985 34.96875 12.34375 C 34.98519 12.31775 35.01957 12.2749 35.03125 12.25 C 35.10582 12.25 35.161211 12.11985 35.21875 12.21875 C 35.23235 12.20675 35.24846 12.1875 35.28125 12.1875 C 35.28775 12.2155 35.23244 12.232 35.25 12.25 C 35.3054 12.262 35.359321 12.238 35.40625 12.25 C 35.4323 12.303 35.50225 12.32635 35.5 12.40625 C 35.51854 12.42125 35.51571 12.38025 35.53125 12.40625 C 35.654791 12.77665 35.751215 13.22705 35.71875 13.65625 C 35.71035 13.76745 35.72185 13.86145 35.71875 13.96875 C 35.718213 13.99175 35.718428 14.00725 35.71875 14.03125 C 35.72035 14.17855 35.77279 14.3251 35.78125 14.4375 C 35.79187 14.5764 35.78855 14.7297 35.78125 14.875 C 35.76893 15.1228 35.81228 15.3798 35.8125 15.625 C 35.812712 15.7913 35.84159 15.9061 35.84375 16.0625 C 35.844501 16.1345 35.83935 16.23085 35.84375 16.28125 C 35.85045 16.35825 35.843859 16.5034 35.84375 16.5625 C 35.843431 16.6959 35.81839 16.80005 35.8125 16.90625 C 35.79749 17.17855 35.85952 17.4432 35.75 17.6875 C 35.7527 17.865 35.646428 18.0143 35.625 18.1875 C 35.60839 18.3226 35.6205 18.42125 35.625 18.53125 C 35.6354 18.78215 35.71007 19.02425 35.71875 19.28125 C 35.72175 19.36525 35.71405 19.4794 35.71875 19.5625 C 35.73546 19.8604 35.65586 20.1797 35.71875 20.4375 C 35.69111 20.4845 35.72375 20.5539 35.71875 20.625 C 35.71055 20.7386 35.67977 20.8894 35.6875 21 C 35.70304 21.2242 35.6682 21.44815 35.625 21.65625 C 35.59597 21.79695 35.64728 21.97365 35.625 22.09375 C 35.68875 22.17675 35.60168 22.30555 35.59375 22.40625 C 35.57661 22.62535 35.62618 22.83375 35.625 23.03125 C 35.624464 23.12725 35.58711 23.1734 35.59375 23.25 C 35.59735 23.293 35.62039 23.37015 35.625 23.40625 C 35.634 23.47525 35.6184 23.5062 35.625 23.5625 C 35.64375 23.7203 35.740849 23.8433 35.875 23.875 C 36.112329 23.931 36.29018 23.70165 36.25 23.40625 C 36.31258 23.26725 36.29346 23.06385 36.28125 22.90625 C 36.27185 22.78295 36.3005 22.64615 36.3125 22.53125 C 36.3141 22.51625 36.3088 22.521 36.3125 22.5 C 36.3157 22.484 36.29364 22.4525 36.3125 22.4375 C 36.29696 22.4255 36.28468 22.42625 36.28125 22.40625 C 36.30097 22.27755 36.420675 22.17235 36.4375 22.03125 C 36.4475 21.94825 36.44822 21.8122 36.4375 21.75 C 36.39925 21.5297 36.36867 21.2805 36.375 21.0625 C 36.3766 21.0065 36.43557 20.96105 36.4375 20.90625 C 36.44 20.83425 36.46029 20.77615 36.46875 20.71875 C 36.49253 20.55435 36.45 20.38335 36.46875 20.21875 C 36.48783 20.05135 36.49689 19.83325 36.5 19.65625 C 36.503 19.49275 36.47325 19.3559 36.46875 19.1875 C 36.46545 19.0653 36.46605 18.91675 36.46875 18.78125 C 36.47345 18.55015 36.38218 18.3536 36.375 18.125 C 36.3681 17.9091 36.34789 17.6598 36.375 17.4375 C 36.3783 17.4085 36.43534 17.401 36.4375 17.375 C 36.4421 17.31 36.437071 17.21965 36.4375 17.15625 C 36.4386 17.00095 36.45772 16.87125 36.46875 16.71875 C 36.47785 16.59285 36.46375 16.46695 36.5 16.34375 C 36.46658 16.28275 36.49 16.2016 36.5 16.125 C 36.45468 16.059 36.47678 15.9516 36.46875 15.875 C 36.46455 15.833 36.44222 15.82105 36.4375 15.78125 C 36.41522 15.59735 36.4456 15.39505 36.4375 15.21875 C 36.4347 15.15475 36.375 15.0634 36.375 15 C 36.375 14.7703 36.42546 14.5816 36.375 14.375 C 36.3838 14.363 36.43654 14.36375 36.4375 14.34375 C 36.40364 14.28675 36.439 14.1863 36.4375 14.125 C 36.431 13.8472 36.36771 13.5839 36.375 13.3125 C 36.39493 13.2945 36.413 13.34375 36.4375 13.34375 C 36.36796 12.89655 36.40413 12.37045 36.65625 12.09375 C 36.769831 12.05875 36.72796 11.9078 36.90625 11.9375 C 36.95597 11.8705 36.99853 11.77125 37.0625 11.71875 C 37.10247 11.64375 37.0549 11.54415 37.09375 11.46875 C 37.10983 11.43775 37.16811 11.42925 37.1875 11.40625 C 37.20057 11.39125 37.20095 11.36275 37.21875 11.34375 C 37.23535 11.32575 37.2578 11.3245 37.28125 11.3125 C 37.27535 11.3125 37.28495 11.28425 37.28125 11.28125 C 37.28235 11.23425 37.26715 11.2143 37.25 11.1875 C 37.30573 11.0464 37.22578 10.972 37.25 10.8125 C 37.29918 10.7565 37.382252 10.68415 37.3125 10.59375 C 37.24714 10.57875 37.171893 10.5648 37.15625 10.5 C 37.18443 10.473 37.21318 10.45515 37.21875 10.40625 C 37.19518 10.34125 37.104538 10.29615 37.03125 10.28125 C 36.94862 10.21625 37.05775 10.04535 37 9.96875 C 37.0058 9.92975 37.01774 9.87555 37.03125 9.84375 C 36.894531 9.98685 36.72804 9.87725 36.65625 9.78125 C 36.656839 9.75025 36.6354 9.73875 36.625 9.71875 C 36.65635 9.71855 36.68607 9.70375 36.71875 9.71875 C 36.72455 9.70375 36.79942 9.73075 36.8125 9.71875 C 36.85952 9.70375 36.88916 9.625 36.9375 9.625 C 36.98951 9.626 37.044557 9.6875 37.09375 9.6875 C 37.16712 9.6875 37.201861 9.651 37.25 9.625 C 37.33807 9.572 37.457872 9.5125 37.53125 9.4375 C 37.62992 9.4135 37.756678 9.3745 37.875 9.4375 C 37.96078 9.4155 38.056234 9.45725 38.125 9.40625 C 38.17053 9.41825 38.21702 9.42225 38.25 9.40625 C 38.28297 9.39025 38.28933 9.37175 38.3125 9.34375 C 38.3167 9.20745 38.28986 9.07995 38.28125 8.96875 C 38.33965 8.81635 38.26104 8.6566 38.375 8.5625 C 38.43186 8.5155 38.571485 8.4903 38.65625 8.4375 C 38.71838 8.4005 38.767672 8.385 38.84375 8.375 C 38.86065 8.317 38.93507 8.33015 38.96875 8.28125 C 38.99928 8.23625 39.02933 8.1271 39.0625 8.0625 C 39.08173 8.075006 39.10619 8.082615 39.125 8.09375 L 39.125 1.6875 L 31.5625 1.6875 z M 33.34375 18.0625 C 33.42722 18.1035 33.38936 18.2665 33.375 18.375 C 33.3653 18.448 33.33511 18.49405 33.3125 18.53125 C 33.25196 18.44925 33.2851 18.28115 33.28125 18.15625 C 33.29335 18.15625 33.30275 18.15575 33.3125 18.15625 C 33.306714 18.13865 33.32682 18.0811 33.34375 18.0625 z "
       transform="translate(0,1004.3622)"
       id="rect879" />
    <path
       style="fill:#ff3d00;fill-opacity:1;stroke:none"
       d="M 39.125 1.6875 L 39.125 8.0625 C 39.133074 8.066932 39.14623 8.0605 39.15625 8.0625 C 39.126675 8.0975 39.133621 8.1250875 39.125 8.15625 L 39.125 8.3125 C 39.174895 8.4468445 39.316387 8.5632185 39.3125 8.75 C 39.443425 8.738 39.474807 8.87585 39.5625 8.90625 C 39.712655 9.41175 40.27574 9.7651 40.84375 9.5 C 41.069139 9.8531 41.105881 10.40915 41.3125 10.78125 C 41.092035 11.72085 41.182401 12.82435 41.15625 13.84375 C 41.14225 14.39295 40.924101 14.86405 40.90625 15.34375 C 40.89302 15.69935 40.979 16.02155 40.625 16.15625 C 40.60147 16.29765 40.65442 16.38305 40.6875 16.46875 C 40.61581 17.08725 40.525289 17.6842 40.34375 18.4375 C 40.218361 18.9589 39.434019 20.11505 40.5625 20.15625 C 40.830349 19.95045 40.89569 19.68755 41 19.34375 C 41.156926 18.82625 41.491785 18.2291 41.65625 17.625 C 41.69704 17.475 41.61487 17.30885 41.65625 17.21875 C 41.808561 16.88665 41.951383 16.6492 42 16.3125 C 42.09523 15.653 42.23573 15.0463 42.3125 14.4375 C 42.37727 13.9241 42.533228 13.3445 42.53125 12.8125 C 42.52945 12.2376 42.47709 11.67155 42.53125 11.09375 C 42.56172 10.76505 42.725754 10.48885 42.59375 10.15625 C 42.817757 10.01355 43.125754 9.70725 42.84375 9.40625 C 42.91529 9.19025 43.215959 9.10715 43.1875 8.90625 C 43.22859 8.93425 43.23019 8.98325 43.25 9.03125 C 43.056268 8.53085 42.926238 7.9731 42.8125 7.4375 C 42.942094 8.0052 43.130068 8.56455 43.34375 9.09375 C 43.573557 9.32745 43.742949 9.60595 43.84375 9.96875 C 43.86794 10.05575 43.951002 10.0946 43.96875 10.1875 L 44 10.1875 C 44.298488 10.2855 44.384407 10.6957 44.6875 10.6875 C 45.107539 10.6725 45.263223 10.01545 45.09375 9.59375 C 45.214494 9.45125 45.229981 9.2116 45.40625 9.125 C 45.608128 9.3896312 45.952531 9.6775861 46.3125 9.65625 L 46.3125 7.375 C 46.3125 4.2307532 43.769247 1.6875 40.625 1.6875 L 39.125 1.6875 z "
       transform="translate(0,1004.3622)"
       id="rect881" />
    <path
       style="fill:#373535;fill-opacity:1;fill-rule:evenodd;stroke:none"
       d="m -15.297996,781.42511 c 0.502046,-1.63165 -3.177561,-2.60304 -4.359313,-3.84666 0.628441,1.58657 3.629225,2.33875 4.359313,3.84666"
       id="path4409" />
    <path
       style="fill:#373535;fill-opacity:1;fill-rule:evenodd;stroke:none"
       d="m -17.093163,781.68232 c -0.579828,-0.4278 -0.162635,-0.85383 -0.255443,-1.28251 -1.1517,-0.19181 -0.710642,-1.05536 -2.051493,-1.53885 -1.409794,0.76987 0.167054,1.53885 -0.256326,2.30871 -0.140538,-0.14408 -0.499395,-0.084 -0.256327,0.25632 0.938685,-0.19268 1.879137,0.86444 2.819589,0.25633"
       id="path4407" />
    <path
       style="fill:#373535;fill-opacity:1;fill-rule:evenodd;stroke:none"
       d="m -58.377593,741.4232 c -0.142305,0.14053 -0.08309,0.49851 0.256326,0.25632 -0.456084,-0.51265 0.670868,-1.02619 8.84e-4,-1.53884 -1.693521,-0.29345 -0.566569,1.47874 -2.051493,1.02619 1.049169,0.59662 -0.494091,1.19589 0.256326,1.79428 0.697384,-0.89007 0.12286,-1.86764 1.537957,-1.53795"
       id="path4405" />
    <path
       style="fill:#373535;fill-opacity:1;fill-rule:evenodd;stroke:none"
       d="M -60.34375 -280.90625 C -64.913384 -280.33995 -64.465283 -266.20646 -63.75 -262.6875 C -64.812428 -253.88403 -63.965806 -245.08562 -63.5 -236.28125 C -65.76009 -219.58381 -63.786276 -201.54613 -64.28125 -184.71875 C -64.315722 -183.50518 -64.606241 -181.80233 -64.78125 -180.625 C -65.242637 -177.51373 -64.510643 -174.94667 -65.03125 -172.15625 C -65.65262 -168.82489 -67.346438 -166.17503 -67.875 -163.1875 C -68.922402 -157.27874 -65.858202 -149.8616 -69.65625 -143.96875 C -75.640141 -138.88996 -81.641109 -138.01424 -87.625 -136.25 C -102.76239 -136.88817 -119.62571 -157.83663 -134.03125 -166.28125 C -138.47541 -171.20448 -139.85893 -178.17262 -145.3125 -182.6875 C -146.21848 -183.43615 -147.73051 -183.64321 -148.625 -184.46875 C -153.2539 -188.7441 -155.46537 -195.81589 -160.9375 -199.84375 C -167.17948 -204.43994 -172.7356 -209.34701 -176.59375 -216 C -174.94619 -220.95682 -171.02693 -225.9173 -174.03125 -230.875 C -177.19378 -231.67403 -180.33658 -231.99526 -183.5 -229.59375 L -190.4375 -222.6875 C -190.35353 -220.72086 -190.21743 -218.74789 -187.625 -216.78125 C -185.29155 -209.26824 -179.41169 -203.96117 -173 -196.53125 C -171.10319 -194.33391 -169.68887 -191.54625 -167.625 -189.59375 C -165.84663 -187.91261 -163.73373 -187.08317 -162.21875 -185.25 C -159.08008 -181.45195 -157.08569 -175.48765 -151.71875 -172.6875 C -148.32994 -168.16909 -148.52588 -161.96028 -146.0625 -158.3125 C -144.71369 -156.31669 -144.13314 -154.84185 -143 -153.6875 C -140.28206 -150.91476 -136.00581 -151.27467 -133.5 -147.8125 C -131.97441 -148.49133 -131.67048 -150.22297 -129.90625 -150.375 C -123.91664 -145.40367 -116.70037 -140.35919 -110.46875 -134.75 C -107.29727 -134.73766 -104.15405 -134.59521 -101.0625 -134.28125 C -97.847491 -133.95475 -94.675343 -133.48073 -91.5625 -132.84375 C -88.449657 -132.20677 -85.400903 -131.43143 -82.40625 -130.5 C -79.6236 -129.63451 -76.917256 -128.60639 -74.25 -127.5 C -62.55369 -131.84043 -50.85417 -140.95089 -39.15625 -143.6875 C -38.187514 -144.28677 -38.48488 -144.9025 -37.875 -145.5 C -31.859289 -146.63491 -24.061805 -151.94133 -25.3125 -158.5625 C -23.32553 -159.85651 -21.21578 -161.27301 -21.1875 -163.1875 C -21.82036 -164.64061 -23.812653 -166.10851 -24.53125 -167.5625 C -23.346846 -174.83332 -22.40778 -184.84945 -19.65625 -194.46875 C -18.989802 -196.80043 -17.592261 -199.23264 -17.09375 -201.65625 C -16.604078 -204.0339 -17.362729 -206.38917 -16.59375 -208.3125 C -15.149484 -211.92581 -11.707743 -214.7089 -9.65625 -218.3125 C -8.9049491 -219.63479 -6.5130385 -225.22575 -7.09375 -226.53125 C -8.5247573 -229.75831 -12.622201 -226.23728 -14.28125 -228.0625 C -11.769253 -231.75183 -12.537571 -237.61574 -9.90625 -242.15625 C -10.968678 -244.89098 -9.4538231 -247.63938 -12.46875 -250.375 C -13.884731 -247.28494 -18.873026 -249.11974 -20.4375 -244.46875 C -22.501368 -234.40043 -24.55184 -223.64072 -26.84375 -212.4375 C -28.702557 -203.34852 -29.711034 -196.80915 -32.46875 -185.75 C -34.216188 -178.73638 -34.335047 -171.01781 -37.875 -166 C -40.402907 -162.41851 -39.90237 -159.25888 -41.71875 -156 C -43.352167 -153.07788 -44.555097 -154.44071 -47.34375 -153.4375 C -49.157478 -152.78519 -50.548349 -151.10569 -51.96875 -150.875 C -54.59742 -150.45074 -57.224825 -152.47481 -59.40625 -153.6875 C -60.362612 -159.67139 -57.381915 -165.67324 -60.4375 -171.65625 C -60.098056 -178.15279 -60.037984 -184.63023 -60.4375 -191.125 C -58.896007 -204.97192 -59.934448 -218.84058 -57.875 -232.6875 C -59.473945 -235.67061 -57.566489 -238.55484 -57.34375 -241.40625 C -56.885015 -247.27966 -57.66623 -253.61898 -57.59375 -259.09375 C -57.505362 -265.61151 -57.022259 -272.81832 -56.3125 -278.84375 C -57.958844 -280.45695 -59.289219 -281.03693 -60.34375 -280.90625 z "
       id="path8314"
       transform="translate(0,1004.3622)" />
    <path
       style="fill:url(#linearGradient4485);fill-opacity:1;stroke:none"
       d="M 24.03125 1.6875 L 24.03125 7.25 C 24.068494 7.3079199 24.092899 7.3755599 24.125 7.4375 C 24.118681 7.5182793 24.086969 7.5773871 24.0625 7.65625 C 24.201041 7.90285 24.00856 8.2507 24.09375 8.5625 C 24.12604 8.5655 24.1808 8.5335 24.1875 8.5625 C 24.197794 8.6750616 24.178483 8.8338828 24.15625 8.96875 C 24.113302 9.2292766 24.080905 9.4802208 24.34375 9.59375 C 24.386513 9.57855 24.32633 9.47875 24.375 9.46875 C 24.429457 9.57595 24.51646 9.5245 24.59375 9.625 C 24.651654 9.5818 24.64648 9.49775 24.71875 9.46875 C 24.77621 9.52685 24.83655 9.57915 24.8125 9.71875 C 24.919959 9.75425 24.88611 9.64625 24.96875 9.65625 C 24.95696 9.751625 25.045583 9.8066523 25.125 9.78125 C 25.144079 9.8181697 25.139545 9.8676953 25.15625 9.90625 C 25.115181 9.9708423 25.051483 10.00847 25.0625 10.125 C 25.08801 10.129 25.1217 10.13125 25.125 10.15625 C 25.085688 10.58885 25.133473 10.9554 25.4375 11.125 C 25.447523 11.2737 25.54916 11.32325 25.625 11.40625 C 25.825903 11.37895 25.837499 11.76 26.09375 11.75 C 26.11914 11.7178 26.11816 11.644 26.15625 11.625 C 26.276422 11.733483 26.493367 11.652152 26.59375 11.78125 C 26.589839 11.772125 26.60802 11.755 26.625 11.75 C 26.728124 11.8253 26.8347 11.92185 26.78125 12.09375 C 26.939835 12.18085 26.935054 12.44425 27.09375 12.53125 C 27.085507 12.64585 26.97705 12.66685 26.96875 12.78125 C 26.93947 12.77325 26.95157 12.74 26.90625 12.75 C 26.92117 12.8429 26.83357 12.91675 26.875 12.96875 C 26.955849 12.99175 26.8947 12.89025 26.96875 12.90625 C 27.12653 13.02325 27.07366 13.36925 27.125 13.59375 C 27.12857 13.56175 27.15665 13.5625 27.1875 13.5625 C 27.15086 13.8816 26.975 14.07945 27.03125 14.34375 C 27.122564 14.29785 27.11148 14.437 27.15625 14.5 C 27.12851 14.498 27.12883 14.49 27.09375 14.5 C 27.10734 14.636 27.09347 14.69905 27.125 14.84375 C 27.06587 14.82775 27.07435 14.8747 27.03125 14.875 C 27.05786 14.9732 27.07958 15.01775 27.03125 15.09375 C 27.15474 15.11465 27.08758 15.2385 27.125 15.3125 C 27.05574 15.3097 27.07011 15.2215 27.03125 15.1875 C 27.00633 15.2133 27.02855 15.2595 27.03125 15.3125 C 27.158825 15.3032 27.044216 15.51575 27.15625 15.46875 C 27.090858 15.49371 27.110738 15.540003 27.125 15.59375 C 27.110044 15.594063 27.086345 15.62025 27.09375 15.65625 C 27.09409 15.69025 27.15135 15.68775 27.15625 15.71875 C 27.047556 15.82705 27.18109 16.0439 27.15625 16.1875 C 27.14701 16.1515 27.2442 16.1365 27.25 16.1875 C 27.17773 16.1875 27.17148 16.26 27.09375 16.25 C 27.05756 16.331 27.18247 16.344 27.125 16.375 C 27.09727 16.373 27.09747 16.33375 27.0625 16.34375 C 27.110387 16.623933 27.048194 16.875376 27.15625 17.09375 C 27.152552 17.08135 27.187944 17.074302 27.1875 17.0625 C 27.205011 17.070125 27.2456 17.07275 27.25 17.09375 C 27.18418 17.11575 27.22238 17.12725 27.25 17.15625 C 27.23408 17.19125 27.13698 17.14975 27.15625 17.21875 C 27.190551 17.23375 27.3783 17.19625 27.40625 17.28125 C 27.299562 17.31325 27.15055 17.2515 27.09375 17.3125 C 27.113017 17.3955 27.19436 17.29775 27.21875 17.34375 C 27.210264 17.35695 27.202962 17.368757 27.1875 17.375 C 27.21916 17.40025 27.267506 17.388813 27.28125 17.375 C 27.298908 17.397824 27.339326 17.40166 27.34375 17.4375 C 27.282502 17.4415 27.1904 17.438 27.1875 17.5 C 27.12392 17.4808 27.20042 17.413 27.1875 17.375 C 27.151422 17.389567 27.104509 17.3976 27.09375 17.4375 C 27.11023 17.4715 27.16005 17.47725 27.15625 17.53125 C 27.08843 17.49205 27.12593 17.53475 27.09375 17.59375 C 27.09853 17.66215 27.25877 17.677 27.1875 17.75 C 27.13048 17.756 27.16335 17.6685 27.09375 17.6875 C 27.10266 17.7582 27.14595 17.80475 27.1875 17.84375 C 27.14762 17.92455 27.141865 18.1432 27.25 18.25 C 27.183403 18.266 27.19171 18.1715 27.125 18.1875 C 27.074 18.5936 27.02056 19.0082 27.03125 19.375 C 27.06532 19.377 27.1039 19.3905 27.09375 19.4375 C 27.01312 19.4176 27.093528 19.6695 27.09375 19.6875 C 27.09509 19.8139 27.006241 20.00225 27.15625 20.03125 C 27.06916 20.18735 27.14621 20.35545 27.09375 20.53125 C 27.119363 20.58425 27.23551 20.56 27.25 20.625 C 27.22494 20.7635 27.31326 20.8245 27.25 20.9375 C 27.436315 21.0761 27.352581 21.4795 27.71875 21.4375 C 27.68512 21.5145 27.78995 21.448 27.78125 21.5 C 27.834696 21.502 27.88064 21.524 27.90625 21.5 C 27.94934 21.501 27.94097 21.54625 28 21.53125 C 28.443789 21.14495 28.31093 20.11435 28.40625 19.59375 C 28.36584 19.59175 28.32675 19.56025 28.3125 19.53125 C 28.353698 19.52125 28.3836 19.49 28.4375 19.5 C 28.38305 19.2426 28.4475 18.8757 28.375 18.625 C 28.33463 18.614 28.324695 18.639625 28.3125 18.65625 C 28.321461 18.624395 28.339442 18.590401 28.34375 18.5625 C 28.348058 18.534599 28.338692 18.51279 28.3125 18.46875 C 28.34235 18.46975 28.35763 18.48075 28.375 18.46875 L 28.375 18.3125 C 28.304397 18.4059 28.353346 18.38575 28.25 18.46875 C 28.22293 18.38505 28.26534 18.3555 28.1875 18.3125 C 28.181074 18.321 28.165605 18.30775 28.15625 18.3125 C 28.11839 18.3145 28.08177 18.3285 28.0625 18.3125 C 28.05882 18.3455 28.06065 18.39625 28.03125 18.40625 C 27.969429 18.42315 27.960105 18.417636 27.9375 18.40625 C 27.94936 18.41225 27.928567 18.43825 27.875 18.46875 C 27.884488 18.4827 27.893771 18.498302 27.90625 18.5 C 27.85836 18.531 27.92389 18.5505 27.875 18.5625 C 27.830064 18.531 27.736022 18.588136 27.6875 18.5625 C 27.727695 18.579462 27.762118 18.6386 27.8125 18.59375 C 27.830208 18.69975 27.67559 18.578 27.6875 18.625 C 27.68694 18.6046 27.64181 18.60375 27.625 18.59375 C 27.637005 18.5598 27.665856 18.553367 27.6875 18.5625 C 27.671326 18.553955 27.690368 18.530575 27.6875 18.5 C 27.83068 18.544 27.707927 18.466 27.8125 18.5 C 27.81082 18.462 27.82694 18.42525 27.84375 18.40625 C 27.81133 18.40225 27.7567 18.43525 27.75 18.40625 C 27.84309 18.41315 27.82563 18.29125 27.8125 18.28125 C 27.738997 18.32075 27.694089 18.167 27.59375 18.125 C 27.763804 18.142 27.861951 18.13475 27.96875 18.21875 C 27.949369 18.14375 28.01521 18.19025 28.03125 18.15625 C 28.04995 18.18925 28.07077 18.22875 28.125 18.21875 C 28.20741 18.11475 28.22641 18.10325 28.15625 18.03125 C 28.256921 18.00925 28.2795 18.0485 28.34375 18.0625 C 28.35333 17.9325 28.27795 18.0015 28.25 17.9375 C 28.25734 17.8855 28.27103 17.82975 28.34375 17.84375 C 28.34268 17.83573 28.314424 17.826081 28.3125 17.8125 C 28.297577 17.796975 28.26697 17.796973 28.25 17.78125 C 28.253231 17.85025 28.17767 17.863 28.125 17.875 C 28.11697 17.7974 28.05722 17.79075 28.09375 17.71875 C 28.083309 17.722942 28.08357 17.71675 28.0625 17.71875 C 28.01896 17.67475 28.08161 17.669 28.09375 17.625 C 28.025601 17.613 27.98857 17.649 27.96875 17.625 C 27.96764 17.5573 27.93563 17.49975 28 17.46875 C 28.03007 17.485 28.038375 17.514375 28.03125 17.53125 C 28.044241 17.493855 28.082364 17.47745 28.0625 17.40625 L 28.21875 17.375 C 28.1811 17.3546 28.15309 17.31425 28.1875 17.28125 C 28.096404 17.24925 28.01393 17.328 28 17.25 C 28.087755 17.214 28.119369 17.2005 28.25 17.1875 C 28.24333 17.169994 28.256846 17.14092 28.25 17.125 C 28.20072 17.133 28.149057 17.116375 28.09375 17.125 C 28.038443 17.133625 27.992069 17.17425 27.9375 17.21875 C 27.991514 17.13005 27.96416 17.1425 28.0625 17.0625 C 28.06595 17.0875 28.06836 17.115 28.09375 17.125 C 28.09775 17.092 28.12195 17.09375 28.15625 17.09375 C 28.147031 17.068625 28.163789 17.028045 28.15625 17 C 28.211704 16.997 28.28589 17.00075 28.3125 16.96875 C 28.285662 16.91665 28.23773 16.87275 28.1875 16.84375 C 28.202648 16.75805 28.27074 16.71525 28.3125 16.65625 C 28.198685 16.63915 28.24747 16.417 28.3125 16.375 C 28.182322 16.3288 28.351208 16.20125 28.1875 16.15625 C 28.15019 16.16225 28.2181 16.22975 28.125 16.21875 C 28.128 16.17875 28.12719 16.139 28.15625 16.125 L 28.25 16.125 C 28.2393 16.0562 28.29862 16.04375 28.28125 15.96875 C 28.25243 15.96919 28.214799 15.925311 28.1875 15.90625 C 28.146551 15.877659 28.127698 15.86715 28.1875 15.84375 C 28.182315 15.87625 28.175339 15.893625 28.1875 15.90625 C 28.199661 15.918875 28.23096 15.92675 28.25 15.90625 C 28.30625 15.84825 28.23674 15.8815 28.25 15.8125 C 28.316385 15.8285 28.30874 15.76625 28.375 15.78125 C 28.38391 15.72975 28.32571 15.7485 28.34375 15.6875 C 28.262126 15.6615 28.25016 15.72025 28.21875 15.65625 C 28.27128 15.62725 28.22005 15.5835 28.25 15.5625 C 28.307798 15.6215 28.31374 15.5525 28.375 15.5625 C 28.380123 15.4207 28.21333 15.47225 28.1875 15.40625 C 28.22114 15.40125 28.20242 15.36075 28.1875 15.34375 C 28.29152 15.32895 28.386157 15.12475 28.28125 15.09375 C 28.369898 15.05975 28.4006 15.0855 28.46875 15.0625 C 28.34892 15.0402 28.30851 14.86825 28.375 14.78125 C 28.28379 14.75525 28.3068 14.8025 28.25 14.8125 C 28.21036 14.7871 28.1959 14.74275 28.15625 14.71875 C 28.220393 14.64595 28.1034 14.4275 28.28125 14.4375 C 28.30741 14.321 28.368159 14.28125 28.25 14.28125 C 28.234855 14.20425 28.31134 14.18475 28.34375 14.21875 C 28.342501 14.085314 28.405819 14.037946 28.46875 13.96875 L 29.15625 13.96875 C 29.140546 14.12545 29.19966 14.313 29.25 14.375 C 29.141753 14.6128 29.309745 15.0811 29.53125 15.25 C 30.118591 15.2306 30.093157 14.5749 30.4375 14.3125 C 30.509108 14.3717 30.6395 14.3565 30.6875 14.4375 C 30.712892 14.6974 31.058966 14.91935 31.28125 14.71875 C 31.337056 14.452796 31.411438 14.220571 31.34375 13.96875 L 31.4375 13.96875 C 31.433161 13.960478 31.441784 13.945837 31.4375 13.9375 C 31.41769 13.8419 31.39861 13.74825 31.375 13.65625 C 31.372383 13.67325 31.366719 13.7045 31.34375 13.71875 C 31.334562 13.72445 31.321645 13.718138 31.3125 13.71875 C 31.304951 13.700987 31.319809 13.674246 31.3125 13.65625 C 31.348309 13.627019 31.383022 13.63575 31.40625 13.59375 C 31.41305 13.49235 31.278402 13.45125 31.40625 13.40625 C 31.337211 13.37415 31.27345 13.3588 31.28125 13.25 C 31.28337 13.194 31.34175 13.21225 31.34375 13.15625 C 31.316132 13.12625 31.252 13.14975 31.25 13.09375 C 31.31292 13.07475 31.28385 13.08625 31.28125 13.03125 L 31.375 13.03125 C 31.38391 12.97995 31.32582 12.96725 31.34375 12.90625 L 31.28125 12.90625 C 31.32714 12.85735 31.2457 12.82225 31.21875 12.78125 C 31.293264 12.70705 31.28361 12.8125 31.34375 12.8125 C 31.380286 12.6528 31.2111 12.6011 31.28125 12.375 C 31.262155 12.342 31.233186 12.35925 31.21875 12.375 C 31.235607 12.360594 31.253026 12.34375 31.28125 12.34375 C 31.245489 12.273688 31.223495 12.18795 31.21875 12.0625 C 31.39381 12.0111 31.23096 11.91125 31.25 11.78125 C 31.335833 11.80225 31.32437 11.7335 31.34375 11.6875 C 31.276375 11.702333 31.274524 11.609495 31.28125 11.5625 C 31.255441 11.515899 31.240522 11.454635 31.28125 11.40625 C 31.226217 11.358667 31.145333 11.331762 31.09375 11.28125 C 31.088592 11.276199 31.09766 11.256291 31.09375 11.25 C 31.153517 11.249884 31.164092 11.227083 31.21875 11.21875 C 31.2252 11.17675 31.20153 11.17825 31.1875 11.15625 C 31.258328 11.14725 31.33228 11.1305 31.34375 11.0625 C 31.226369 11.0935 31.20017 10.92105 31.125 11.03125 C 31.131078 11.03785 31.146152 11.059689 31.15625 11.0625 C 31.145957 11.062209 31.133178 11.082363 31.125 11.09375 C 31.1298 11.074266 31.119939 11.050561 31.125 11.03125 C 31.133153 11.000139 31.147433 10.968145 31.15625 10.9375 C 31.259625 10.578208 31.413499 10.247318 31.59375 9.96875 L 31.59375 1.6875 L 24.03125 1.6875 z M 28.25 17.1875 C 28.22516 17.2513 28.22679 17.32075 28.28125 17.34375 C 28.307768 17.29469 28.271679 17.244396 28.25 17.1875 z M 28.09375 17.71875 C 28.170372 17.70675 28.17337 17.79325 28.25 17.78125 C 28.19909 17.73408 28.160825 17.67075 28.15625 17.625 C 28.110012 17.6538 28.135513 17.701982 28.09375 17.71875 z M 28.1875 18.3125 C 28.2316 18.2695 28.2523 18.31675 28.28125 18.34375 C 28.32167 18.25475 28.265862 18.21225 28.375 18.28125 L 28.375 18.125 C 28.3347 18.146 28.2955 18.06 28.28125 18.125 C 28.348737 18.1824 28.17941 18.171 28.15625 18.25 C 28.2011 18.25525 28.206778 18.287 28.1875 18.3125 z M 28.375 18.46875 C 28.377335 18.5146 28.353355 18.547963 28.34375 18.5625 C 28.334145 18.577037 28.338915 18.57275 28.375 18.59375 L 28.375 18.46875 z M 24.25 8.5625 C 24.265065 8.5607 24.269047 8.561636 24.28125 8.5625 C 24.274014 8.5917683 24.29002 8.6276315 24.28125 8.65625 C 24.28069 8.63475 24.23556 8.66625 24.21875 8.65625 C 24.23556 8.63725 24.2515 8.6005 24.25 8.5625 z M 31 12.1875 C 31.032795 12.193426 31.064567 12.21 31.0625 12.25 C 31.029146 12.243 31.010412 12.25 31 12.25 C 30.999305 12.22965 31.000419 12.207945 31 12.1875 z M 27.65625 14 C 27.731637 13.99 27.71737 14.06175 27.75 14.09375 C 27.712468 14.12075 27.69816 14.16625 27.625 14.15625 C 27.65482 14.12825 27.656027 14.058 27.65625 14 z M 27.65625 14.25 C 27.738875 14.246 27.74346 14.3025 27.8125 14.3125 C 27.742116 14.2876 27.73126 14.436 27.6875 14.5 C 27.64852 14.4378 27.57939 14.39695 27.59375 14.28125 C 27.61891 14.28325 27.65145 14.267 27.65625 14.25 z M 28.03125 14.25 C 28.06634 14.244 28.06602 14.28125 28.09375 14.28125 C 28.10033 14.33625 28.0568 14.35375 28 14.34375 C 28.01692 14.32475 28.03285 14.288 28.03125 14.25 z M 30.90625 14.3125 C 30.89723 14.391 30.8035 14.405 30.8125 14.5 C 30.749574 14.4356 30.83097 14.3125 30.90625 14.3125 z M 31.09375 14.3125 C 31.16335 14.2935 31.13048 14.385 31.1875 14.375 C 31.169125 14.425 31.09747 14.385 31.0625 14.375 C 31.06797 14.351 31.093428 14.3415 31.09375 14.3125 z M 30.84375 14.5625 C 30.855004 14.556267 30.882251 14.555644 30.90625 14.5625 C 30.954248 14.576213 31.00568 14.61975 31 14.65625 C 30.913247 14.66325 30.9285 14.58375 30.84375 14.59375 C 30.837235 14.580575 30.832496 14.568733 30.84375 14.5625 z M 27.78125 14.8125 C 27.8463 14.8151 27.83867 14.9085 27.8125 14.9375 C 27.79311 14.889 27.73237 14.8645 27.78125 14.8125 z M 27.34375 14.9375 L 27.40625 14.9375 C 27.41527 15.0129 27.39257 15.04525 27.3125 15.03125 C 27.27219 14.99285 27.3315 14.9835 27.34375 14.9375 z M 27.5625 15.25 C 27.591971 15.253625 27.60422 15.273 27.59375 15.3125 C 27.532611 15.3305 27.55222 15.27125 27.5 15.28125 C 27.500947 15.24925 27.533029 15.246375 27.5625 15.25 z M 28.03125 15.34375 C 28.09639 15.32225 28.08865 15.3995 28.09375 15.4375 L 28.03125 15.4375 C 28.02211 15.3925 28.02435 15.37275 28.03125 15.34375 z M 27.53125 15.8125 C 27.569844 15.829741 27.607057 15.924 27.65625 15.9375 C 27.63776 15.9705 27.58515 16.01 27.53125 16 C 27.55742 15.9083 27.5083 15.90075 27.5 15.84375 C 27.520045 15.82765 27.518385 15.806753 27.53125 15.8125 z M 27.90625 16 C 27.92417 16.0613 27.8662 16.04175 27.875 16.09375 C 27.84984 16.08175 27.83159 16.0525 27.78125 16.0625 C 27.767676 16.060388 27.765306 16.03725 27.75 16.03125 C 27.775613 15.99825 27.86749 16.026 27.90625 16 z M 27.46875 16.5625 C 27.537454 16.584926 27.491394 16.601103 27.4375 16.625 C 27.460706 16.615687 27.47688 16.603 27.46875 16.5625 z M 27.875 16.59375 C 27.915821 16.598217 27.94635 16.6655 27.9375 16.71875 C 27.843502 16.70145 27.90303 16.654 27.8125 16.625 C 27.825975 16.608375 27.861393 16.592261 27.875 16.59375 z M 28.03125 16.84375 L 28.09375 16.84375 C 28.10934 16.90965 28.07805 16.934 28.09375 17 C 28.072726 16.999 28.0673 16.9535 28.0625 16.9375 C 28.03178 16.9365 28.0038 16.94475 28 16.96875 C 27.967535 16.92365 28.006606 16.913538 28.03125 16.90625 C 28.035984 16.89682 28.04868 16.869125 28.03125 16.84375 z M 28.15625 16.84375 C 28.16149 16.87475 28.21115 16.9095 28.21875 16.9375 C 28.17081 16.9365 28.153194 16.955875 28.15625 16.96875 C 28.143224 16.908168 28.112052 16.870081 28.15625 16.84375 z M 27.46875 16.96875 C 27.46686 16.99975 27.47484 17.02125 27.5 17.03125 C 27.47795 17.06925 27.40473 17.0165 27.375 17.0625 C 27.400423 17.061875 27.421475 17.076 27.46875 17.0625 C 27.45038 17.1241 27.43313 17.19675 27.375 17.21875 C 27.411525 17.14175 27.36384 17.08 27.3125 17.125 C 27.27987 17.106 27.30898 17.1165 27.28125 17.0625 C 27.319783 17.0785 27.349577 17.063125 27.375 17.0625 C 27.332347 17.0385 27.42476 16.97875 27.46875 16.96875 z M 27.3125 17.53125 C 27.379317 17.55125 27.37842 17.63545 27.40625 17.53125 C 27.43566 17.53925 27.4337 17.591 27.4375 17.625 C 27.418955 17.62 27.385524 17.619 27.375 17.625 C 27.353976 17.626 27.34865 17.64025 27.34375 17.65625 C 27.30793 17.63435 27.33232 17.56925 27.3125 17.53125 z M 27.1875 17.59375 C 27.19675 17.605062 27.21937 17.60275 27.25 17.59375 C 27.2343 17.66065 27.29706 17.65275 27.28125 17.71875 C 27.250137 17.676291 27.220827 17.633643 27.1875 17.59375 z M 28 17.75 C 28.08273 17.7666 28.08537 17.9055 28.03125 17.9375 C 28.00921 17.9225 28.01129 17.89625 27.96875 17.90625 C 27.97566 17.85505 28.0127 17.82 28 17.75 z M 27.8125 17.96875 C 27.83934 17.98775 27.84827 18.1155 27.875 18.0625 C 27.938253 18.0865 27.84992 18.135 27.8125 18.125 C 27.78643 18.097 27.804 18.0935 27.8125 18.0625 C 27.74413 18.0525 27.76267 18.11075 27.6875 18.09375 C 27.684492 18.01135 27.74523 17.98075 27.8125 17.96875 z M 27.59375 18.375 C 27.61323 18.394 27.66088 18.4975 27.6875 18.4375 C 27.732273 18.4495 27.65122 18.519 27.59375 18.5 C 27.59175 18.4191 27.56947 18.444 27.59375 18.375 z M 28.0625 18.4375 C 28.078502 18.441255 28.091425 18.45685 28.09375 18.5 C 28.024703 18.448333 27.990898 18.510347 27.9375 18.5 C 27.982993 18.487609 28.030496 18.429991 28.0625 18.4375 z M 27.9375 18.5625 C 28.01022 18.5829 27.95784 18.58825 27.96875 18.65625 C 27.88445 18.64785 27.90119 18.5965 27.9375 18.5625 z M 28.25 18.59375 C 28.193536 18.632825 28.181874 18.660308 28.15625 18.6875 C 28.14947 18.6565 28.09491 18.6975 28.0625 18.6875 L 28.0625 18.625 C 28.157043 18.614 28.17305 18.60975 28.25 18.59375 z M 27.25 18.96875 C 27.27138 18.99775 27.28365 19.00925 27.3125 19.03125 C 27.30315 19.06525 27.25653 19.057 27.28125 19.125 C 27.237373 19.107235 27.232991 19.020881 27.25 18.96875 z M 27.1875 19.125 L 27.25 19.125 C 27.2332 19.144 27.21715 19.18075 27.21875 19.21875 L 27.125 19.21875 C 27.091753 19.1625 27.176138 19.161734 27.1875 19.15625 C 27.18349 19.14425 27.17424 19.125 27.1875 19.125 z M 27.875 19.1875 C 27.91587 19.1905 27.8875 19.26 27.9375 19.25 C 27.92403 19.327 27.83995 19.23375 27.84375 19.34375 C 27.80889 19.34975 27.80908 19.3125 27.78125 19.3125 L 27.78125 19.28125 C 27.80653 19.27925 27.8077 19.26525 27.8125 19.28125 C 27.85072 19.23495 27.90696 19.2575 27.875 19.1875 z M 27.40625 19.375 C 27.41708 19.364 27.44057 19.3685 27.46875 19.375 C 27.44183 19.4402 27.48913 19.4645 27.46875 19.5625 C 27.48623 19.5425 27.52555 19.56225 27.53125 19.53125 C 27.595844 19.58825 27.44314 19.62225 27.46875 19.65625 C 27.394143 19.63725 27.482133 19.5725 27.375 19.5625 C 27.36492 19.53005 27.380274 19.491863 27.40625 19.46875 C 27.401041 19.466162 27.418876 19.43875 27.40625 19.4375 C 27.39979 19.41 27.39542 19.386 27.40625 19.375 z M 27.1875 19.46875 C 27.21371 19.46275 27.27177 19.53125 27.21875 19.53125 C 27.22821 19.55925 27.24406 19.5625 27.28125 19.5625 C 27.27458 19.5945 27.2198 19.58375 27.1875 19.59375 C 27.24419 19.54575 27.12023 19.52675 27.1875 19.46875 z M 27.75 19.5625 C 27.80713 19.5565 27.7429 19.644 27.8125 19.625 C 27.8292 19.6802 27.74936 19.72 27.8125 19.75 C 27.777533 19.784 27.72726 19.76 27.6875 19.75 C 27.65776 19.641 27.7512 19.6425 27.75 19.5625 z M 28.21875 19.625 C 28.288125 19.6496 28.34745 19.68425 28.34375 19.78125 C 28.25688 19.81825 28.17715 19.6782 28.1875 19.8125 C 28.053421 19.755 28.21185 19.715 28.21875 19.625 z M 27.21875 19.8125 C 27.230411 19.8131 27.242325 19.81622 27.25 19.8125 C 27.26382 19.862 27.29299 19.92675 27.25 19.96875 C 27.23842 19.91505 27.24147 19.8975 27.21875 19.8125 z M 27.40625 19.8125 C 27.435665 19.809625 27.478105 19.8305 27.46875 19.875 C 27.432672 19.875 27.37994 19.8752 27.34375 19.875 C 27.343805 19.842 27.376835 19.815375 27.40625 19.8125 z M 27.59375 19.84375 C 27.64787 19.84575 27.63742 19.90675 27.65625 19.84375 C 27.68163 19.87575 27.7534 19.84525 27.75 19.90625 C 27.654114 19.91625 27.65923 19.87725 27.59375 19.90625 L 27.59375 19.84375 z M 27.71875 19.96875 C 27.796038 19.91835 27.90951 19.99425 27.96875 20.03125 C 27.934896 20.04925 27.74214 20.03275 27.71875 19.96875 z "
       transform="translate(0,1004.3622)"
       id="rect4463" />
    <rect
       style="fill:none;fill-opacity:1;stroke:#7d7d7d;stroke-width:0.39848712;stroke-miterlimit:4;stroke-opacity:1;stroke-dasharray:none"
       id="rect887"
       width="44.601513"
       height="44.601513"
       x="1.6992435"
       y="1006.0615"
       ry="5.6755357" />
  </g>
</svg>
