<?xml version="1.0" encoding="UTF-8" standalone="no"?>
<!-- Created with Inkscape (http://www.inkscape.org/) -->

<svg
   xmlns:dc="http://purl.org/dc/elements/1.1/"
   xmlns:cc="http://creativecommons.org/ns#"
   xmlns:rdf="http://www.w3.org/1999/02/22-rdf-syntax-ns#"
   xmlns:svg="http://www.w3.org/2000/svg"
   xmlns="http://www.w3.org/2000/svg"
   xmlns:xlink="http://www.w3.org/1999/xlink"
   xmlns:sodipodi="http://sodipodi.sourceforge.net/DTD/sodipodi-0.dtd"
   xmlns:inkscape="http://www.inkscape.org/namespaces/inkscape"
   width="48"
   height="48"
   id="svg2"
   version="1.1"
   inkscape:version="0.48+devel r11772"
   sodipodi:docname="baobab.svg">
  <defs
     id="defs4">
    <linearGradient
       id="linearGradient873">
      <stop
         id="stop875"
         offset="0"
         style="stop-color:#e6e6e6;stop-opacity:1" />
      <stop
         id="stop877"
         offset="1"
         style="stop-color:#ffffff;stop-opacity:1" />
    </linearGradient>
    <linearGradient
       id="linearGradient886">
      <stop
         style="stop-color:#000000;stop-opacity:1"
         offset="0"
         id="stop888" />
      <stop
         style="stop-color:#808080;stop-opacity:1"
         offset="1"
         id="stop890" />
    </linearGradient>
    <linearGradient
       id="linearGradient870">
      <stop
         id="stop872"
         offset="0"
         style="stop-color:#616161;stop-opacity:1" />
      <stop
         id="stop874"
         offset="1"
         style="stop-color:#d6d6d6;stop-opacity:1" />
    </linearGradient>
    <linearGradient
       id="linearGradient856">
      <stop
         id="stop858"
         offset="0"
         style="stop-color:#c5ebb1;stop-opacity:1" />
      <stop
         id="stop860"
         offset="1"
         style="stop-color:#469f28;stop-opacity:1" />
    </linearGradient>
    <linearGradient
       id="linearGradient3795">
      <stop
         style="stop-color:#5276cc;stop-opacity:1;"
         offset="0"
         id="stop3797" />
      <stop
         style="stop-color:#5984e1;stop-opacity:1;"
         offset="1"
         id="stop3799" />
    </linearGradient>
    <linearGradient
       inkscape:collect="always"
       id="linearGradient3914">
      <stop
         style="stop-color:#59b3e1;stop-opacity:1;"
         offset="0"
         id="stop3916" />
      <stop
         style="stop-color:#59b3e1;stop-opacity:0;"
         offset="1"
         id="stop3918" />
    </linearGradient>
    <linearGradient
       id="linearGradient3698">
      <stop
         id="stop3700"
         offset="0"
         style="stop-color:#96d0e1;stop-opacity:1" />
      <stop
         style="stop-color:#89b7e1;stop-opacity:1"
         offset="0.67819428"
         id="stop3706" />
      <stop
         id="stop3702"
         offset="1"
         style="stop-color:#699dd3;stop-opacity:1" />
    </linearGradient>
    <linearGradient
       id="linearGradient3708">
      <stop
         id="stop3710"
         offset="0"
         style="stop-color:#658db6;stop-opacity:1" />
      <stop
         style="stop-color:#527fab;stop-opacity:1;"
         offset="0.76777935"
         id="stop3716" />
      <stop
         id="stop3712"
         offset="1"
         style="stop-color:#4071a0;stop-opacity:1" />
    </linearGradient>
    <linearGradient
       id="linearGradient3750">
      <stop
         style="stop-color:#d0e2f1;stop-opacity:1"
         offset="0"
         id="stop3752" />
      <stop
         id="stop3756"
         offset="0.85580856"
         style="stop-color:#cadef0;stop-opacity:1" />
      <stop
         style="stop-color:#95bee3;stop-opacity:1"
         offset="1"
         id="stop3754" />
    </linearGradient>
    <linearGradient
       id="linearGradient3803">
      <stop
         id="stop3805"
         offset="0"
         style="stop-color:#d7def0;stop-opacity:1;" />
      <stop
         style="stop-color:#ffffff;stop-opacity:1"
         offset="0.5"
         id="stop3811" />
      <stop
         id="stop3807"
         offset="1"
         style="stop-color:#d5def0;stop-opacity:1" />
    </linearGradient>
    <linearGradient
       inkscape:collect="always"
       xlink:href="#linearGradient3914"
       id="linearGradient3920"
       x1="6.8000002"
       y1="25.0625"
       x2="45.325001"
       y2="25.0625"
       gradientUnits="userSpaceOnUse" />
    <linearGradient
       inkscape:collect="always"
       xlink:href="#linearGradient3795"
       id="linearGradient3801"
       x1="23.204165"
       y1="1053.158"
       x2="23.204165"
       y2="1004.8474"
       gradientUnits="userSpaceOnUse"
       gradientTransform="translate(0,2.4148533e-6)" />
    <linearGradient
       y2="1049.5842"
       x2="24.113745"
       y1="1007.2183"
       x1="24.113745"
       gradientTransform="matrix(0.96799712,0,0,1.0252613,0.76812014,-25.977808)"
       gradientUnits="userSpaceOnUse"
       id="linearGradient3030"
       xlink:href="#linearGradient3795-2"
       inkscape:collect="always" />
    <linearGradient
       id="linearGradient3795-2">
      <stop
         style="stop-color:#68b8d8;stop-opacity:1;"
         offset="0"
         id="stop3797-8" />
      <stop
         style="stop-color:#3097bd;stop-opacity:1;"
         offset="1"
         id="stop3799-4" />
    </linearGradient>
    <linearGradient
       y2="1049.5842"
       x2="24.113745"
       y1="1007.2183"
       x1="24.113745"
       gradientTransform="matrix(0.96799712,0,0,1.0252613,-47.23188,-2082.7026)"
       gradientUnits="userSpaceOnUse"
       id="linearGradient3117"
       xlink:href="#linearGradient873"
       inkscape:collect="always" />
    <linearGradient
       inkscape:collect="always"
       xlink:href="#linearGradient870"
       id="linearGradient868"
       x1="24.491693"
       y1="46.185963"
       x2="24.491693"
       y2="38.938118"
       gradientUnits="userSpaceOnUse" />
    <inkscape:perspective
       id="perspective835"
       inkscape:persp3d-origin="24 : 16 : 1"
       inkscape:vp_z="48 : 24 : 1"
       inkscape:vp_y="0 : 1000 : 0"
       inkscape:vp_x="0 : 24 : 1"
       sodipodi:type="inkscape:persp3d" />
    <linearGradient
       inkscape:collect="always"
       xlink:href="#linearGradient886"
       id="linearGradient871"
       x1="24.875"
       y1="1046.9716"
       x2="24.875"
       y2="1045.8466"
       gradientUnits="userSpaceOnUse"
       gradientTransform="translate(0,-2093.3181)" />
  </defs>
  <sodipodi:namedview
     id="base"
     pagecolor="#ffffff"
     bordercolor="#666666"
     borderopacity="1.0"
     inkscape:pageopacity="0.0"
     inkscape:pageshadow="2"
     inkscape:zoom="5.6568542"
     inkscape:cx="38.238455"
     inkscape:cy="27.034092"
     inkscape:document-units="px"
     inkscape:current-layer="layer1"
     showgrid="false"
     inkscape:window-width="1366"
     inkscape:window-height="712"
     inkscape:window-x="0"
     inkscape:window-y="0"
     inkscape:window-maximized="1" />
  <metadata
     id="metadata7">
    <rdf:RDF>
      <cc:Work
         rdf:about="">
        <dc:format>image/svg+xml</dc:format>
        <dc:type
           rdf:resource="http://purl.org/dc/dcmitype/StillImage" />
        <dc:title />
      </cc:Work>
    </rdf:RDF>
  </metadata>
  <g
     inkscape:label="Capa 1"
     inkscape:groupmode="layer"
     id="layer1"
     transform="translate(0,-1004.3622)">
    <rect
       ry="5.6755357"
       y="-1050.6631"
       x="-46.300758"
       height="44.601513"
       width="44.601513"
       id="rect2992"
       style="fill:url(#linearGradient3117);fill-opacity:1.0;stroke:#7d7d7d;stroke-width:0.39848712;stroke-miterlimit:4;stroke-opacity:1;stroke-dasharray:none"
       transform="scale(-1,-1)" />
    <path
       style="fill:url(#linearGradient868);fill-opacity:1;stroke:none"
       d="M 1.6875 38.28125 L 1.6875 40.625 C 1.6875 43.769247 4.2307532 46.3125 7.375 46.3125 L 40.625 46.3125 C 43.769247 46.3125 46.3125 43.769247 46.3125 40.625 L 46.3125 38.28125 L 1.6875 38.28125 z "
       transform="translate(0,1004.3622)"
       id="rect841" />
    <rect
       style="fill:url(#linearGradient871);fill-opacity:1;stroke:none"
       id="rect863"
       width="29.125"
       height="1.1875"
       x="9.4375"
       y="-1047.2528"
       ry="0.59375"
       transform="scale(1,-1)" />
    <rect
       transform="scale(-1,-1)"
       style="fill:none;fill-opacity:1;stroke:#7d7d7d;stroke-width:0.39848712;stroke-miterlimit:4;stroke-opacity:1;stroke-dasharray:none"
       id="rect879"
       width="44.601513"
       height="44.601513"
       x="-46.300758"
       y="-1050.6631"
       ry="5.6755357" />
    <path
       style="fill:#000000;stroke:none;fill-opacity:0.45142856"
       d="M 1.6875 38.28125 L 1.6875 38.6875 L 46.3125 38.6875 L 46.3125 38.28125 L 1.6875 38.28125 z "
       transform="translate(0,1004.3622)"
       id="rect881" />
    <path
       style="fill:#1f1f1f;fill-opacity:0.65714288;stroke:none"
       d="m 24.166973,1014.706 c -5.954414,0 -10.78125,4.4352 -10.78125,9.9062 0,5.4711 4.826836,9.9063 10.78125,9.9063 5.954414,0 10.78125,-4.4352 10.78125,-9.9063 C 34.948223,1019.1412 30.121387,1014.706 24.166973,1014.706 z m 0,6.288 c 2.17479,0 3.937609,1.6196 3.937609,3.6182 0,1.9986 -1.762819,3.6183 -3.937609,3.6183 -2.17479,0 -3.937609,-1.6197 -3.937609,-3.6183 C 20.229364,1022.6136 21.992183,1020.994 24.166973,1020.994 z m 0,0.74 c -1.730116,0 -3.132476,1.2888 -3.132476,2.8782 0,1.5895 1.40236,2.8783 3.132476,2.8783 1.730116,0 3.132476,-1.2888 3.132476,-2.8783 C 27.299449,1023.0228 25.897089,1021.734 24.166973,1021.734 z m 0,1.8495 c 0.61845,0 1.119638,0.4606 1.119638,1.0287 0,0.5682 -0.501188,1.0288 -1.119638,1.0288 -0.309223,0 -0.589951,-0.1144 -0.792557,-0.3003 -0.05063,-0.044 -0.08556,-0.096 -0.125797,-0.1505 -0.120716,-0.1643 -0.201284,-0.3647 -0.201284,-0.578 0,-0.072 0.01026,-0.1411 0.02517,-0.2081 0.04473,-0.2007 0.149973,-0.3808 0.301928,-0.5203 0.05063,-0.045 0.116557,-0.09 0.176122,-0.1269 C 23.729238,1023.6459 23.935052,1023.5835 24.166973,1023.5835 z m -4.277272,2.1962 0.402561,0.8554 -4.805643,2.5197 C 14.924943,1028.5861 14.713376,1027.9709 14.618586,1027.34 z m 1.157378,2.2428 2.239276,0.8783 -0.767388,4.8316 C 20.458972,1033.5371 18.959052,1032.827 17.751058,1031.8483 Z"
       id="path4076"
       inkscape:connector-curvature="0"
       sodipodi:nodetypes="ssssssssssssssssssccscccscccccccccc" />
  </g>
</svg>
