<?xml version="1.0" encoding="UTF-8" standalone="no"?>
<!-- Created with Inkscape (http://www.inkscape.org/) -->

<svg
   xmlns:dc="http://purl.org/dc/elements/1.1/"
   xmlns:cc="http://creativecommons.org/ns#"
   xmlns:rdf="http://www.w3.org/1999/02/22-rdf-syntax-ns#"
   xmlns:svg="http://www.w3.org/2000/svg"
   xmlns="http://www.w3.org/2000/svg"
   xmlns:xlink="http://www.w3.org/1999/xlink"
   xmlns:sodipodi="http://sodipodi.sourceforge.net/DTD/sodipodi-0.dtd"
   xmlns:inkscape="http://www.inkscape.org/namespaces/inkscape"
   width="48"
   height="48"
   id="svg944"
   version="1.1"
   inkscape:version="0.48+devel r11556"
   sodipodi:docname="bluefish.svg">
  <defs
     id="defs946">
    <linearGradient
       id="linearGradient1528">
      <stop
         id="stop1530"
         offset="0"
         style="stop-color:#99cfe5;stop-opacity:1" />
      <stop
         id="stop1532"
         offset="1"
         style="stop-color:#1d5c73;stop-opacity:1" />
    </linearGradient>
    <linearGradient
       y2="1049.5842"
       x2="24.113745"
       y1="1007.2183"
       x1="24.113745"
       gradientTransform="matrix(0.96799712,0,0,1.0252613,0.76812014,-25.977808)"
       gradientUnits="userSpaceOnUse"
       id="linearGradient3030"
       xlink:href="#linearGradient3795"
       inkscape:collect="always" />
    <linearGradient
       id="linearGradient3795">
      <stop
         style="stop-color:#68b8d8;stop-opacity:1;"
         offset="0"
         id="stop3797" />
      <stop
         style="stop-color:#3097bd;stop-opacity:1;"
         offset="1"
         id="stop3799" />
    </linearGradient>
    <linearGradient
       y2="1049.5842"
       x2="24.113745"
       y1="1007.2183"
       x1="24.113745"
       gradientTransform="matrix(0.96799712,0,0,1.0252613,1641.3245,-665.99295)"
       gradientUnits="userSpaceOnUse"
       id="linearGradient1507"
       xlink:href="#linearGradient1528"
       inkscape:collect="always" />
  </defs>
  <sodipodi:namedview
     id="base"
     pagecolor="#ffffff"
     bordercolor="#666666"
     borderopacity="1.0"
     inkscape:pageopacity="0.0"
     inkscape:pageshadow="2"
     inkscape:zoom="5.6"
     inkscape:cx="28.34922"
     inkscape:cy="20.184114"
     inkscape:document-units="px"
     inkscape:current-layer="layer1"
     showgrid="false"
     width="0px"
     height="0px"
     fit-margin-top="0"
     fit-margin-left="0"
     fit-margin-right="0"
     fit-margin-bottom="0"
     inkscape:window-width="888"
     inkscape:window-height="616"
     inkscape:window-x="407"
     inkscape:window-y="40"
     inkscape:window-maximized="0" />
  <metadata
     id="metadata949">
    <rdf:RDF>
      <cc:Work
         rdf:about="">
        <dc:format>image/svg+xml</dc:format>
        <dc:type
           rdf:resource="http://purl.org/dc/dcmitype/StillImage" />
        <dc:title />
      </cc:Work>
    </rdf:RDF>
  </metadata>
  <g
     inkscape:label="Capa 1"
     inkscape:groupmode="layer"
     id="layer1"
     transform="translate(-1640.5564,-364.34714)">
    <rect
       ry="5.6755357"
       y="366.04639"
       x="1642.2556"
       height="44.601513"
       width="44.601513"
       id="rect2992"
       style="fill:url(#linearGradient1507);fill-opacity:1;stroke:#7d7d7d;stroke-width:0.39848712;stroke-miterlimit:4;stroke-opacity:1;stroke-dasharray:none" />
    <rect
       style="fill:none;stroke:none"
       id="rect1526"
       width="48"
       height="48"
       x="1640.5564"
       y="364.34714"
       ry="0" />
    <path
       style="fill:#ffffff;stroke:none"
       d="M 20.71875 14.46875 C 13.84215 14.46875 8.28125 18.92436 8.28125 24.40625 C 8.28125 29.88814 13.84215 34.3125 20.71875 34.3125 C 20.82527 34.3125 20.925385 34.314626 21.03125 34.3125 L 16.5 32.34375 L 22.125 24.78125 L 24.5625 33.84375 C 28.116483 32.919834 30.966349 30.734341 32.3125 27.96875 L 25.90625 22.90625 L 31.0625 18.84375 C 28.8249 16.20346 25.01665 14.46875 20.71875 14.46875 z M 12.75 19.71875 C 13.377628 19.71875 13.875 20.216122 13.875 20.84375 C 13.875 21.471378 13.377628 22 12.75 22 C 12.122372 22 11.625 21.471378 11.625 20.84375 C 11.625 20.216122 12.122372 19.71875 12.75 19.71875 z "
       transform="translate(1640.5564,364.34714)"
       id="path1534" />
    <path
       sodipodi:type="star"
       style="fill:#ffffff;stroke:none"
       id="path1536"
       sodipodi:sides="3"
       sodipodi:cx="45.961941"
       sodipodi:cy="10.624356"
       sodipodi:r1="7.3626885"
       sodipodi:r2="3.6813443"
       sodipodi:arg1="3.1415927"
       sodipodi:arg2="4.1887902"
       inkscape:flatsided="true"
       inkscape:rounded="0"
       inkscape:randomized="0"
       d="m 38.599252,10.624356 11.044033,-6.3762749 0,12.7525509 z"
       transform="matrix(1.0693133,0,0,1.4641512,1627.2027,371.80397)"
       inkscape:transform-center-x="1.9682557" />
    <path
       inkscape:transform-center-x="0.3268781"
       transform="matrix(0.48723013,-0.13055292,-0.17875884,-0.66713709,1641.1552,408.61715)"
       d="m 38.599252,10.624356 11.044033,-6.3762749 0,12.7525509 z"
       inkscape:randomized="0"
       inkscape:rounded="0"
       inkscape:flatsided="true"
       sodipodi:arg2="4.1887902"
       sodipodi:arg1="3.1415927"
       sodipodi:r2="3.6813443"
       sodipodi:r1="7.3626885"
       sodipodi:cy="10.624356"
       sodipodi:cx="45.961941"
       sodipodi:sides="3"
       id="path822"
       style="fill:#ffffff;stroke:none"
       sodipodi:type="star"
       inkscape:transform-center-y="-3.0455312" />
    <path
       inkscape:transform-center-y="-2.6188056"
       sodipodi:type="star"
       style="fill:#ffffff;stroke:none"
       id="path828"
       sodipodi:sides="3"
       sodipodi:cx="45.961941"
       sodipodi:cy="10.624356"
       sodipodi:r1="7.3626885"
       sodipodi:r2="3.6813443"
       sodipodi:arg1="3.1415927"
       sodipodi:arg2="4.1887902"
       inkscape:flatsided="true"
       inkscape:rounded="0"
       inkscape:randomized="0"
       d="m 38.599252,10.624356 11.044033,-6.3762749 0,12.7525509 z"
       transform="matrix(-0.29920878,-0.29920878,0.40968992,-0.40968993,1671.2399,397.85919)"
       inkscape:transform-center-x="-0.32044548" />
    <path
       transform="matrix(-0.35667721,-0.35667721,0.48837824,-0.48837825,1673.7585,400.91344)"
       style="fill:#ffffff;stroke:none"
       inkscape:transform-center-x="-0.38193644"
       inkscape:transform-center-y="-3.1217957"
       d="M 33.997058,13.985476 49.643285,4.2480811 43.094008,20.491026 z"
       id="path830"
       inkscape:connector-curvature="0"
       sodipodi:nodetypes="cccc" />
    <path
       inkscape:transform-center-x="-0.32044548"
       transform="matrix(-0.29920878,-0.29920878,0.40968992,-0.40968993,1668.7145,398.74307)"
       d="m 38.599252,10.624356 11.044033,-6.3762749 0,12.7525509 z"
       inkscape:randomized="0"
       inkscape:rounded="0"
       inkscape:flatsided="true"
       sodipodi:arg2="4.1887902"
       sodipodi:arg1="3.1415927"
       sodipodi:r2="3.6813443"
       sodipodi:r1="7.3626885"
       sodipodi:cy="10.624356"
       sodipodi:cx="45.961941"
       sodipodi:sides="3"
       id="path837"
       style="fill:#ffffff;stroke:none"
       sodipodi:type="star"
       inkscape:transform-center-y="-2.6188056" />
  </g>
</svg>
