<?xml version="1.0" encoding="UTF-8" standalone="no"?>
<!-- Created with Inkscape (http://www.inkscape.org/) -->

<svg
   xmlns:dc="http://purl.org/dc/elements/1.1/"
   xmlns:cc="http://creativecommons.org/ns#"
   xmlns:rdf="http://www.w3.org/1999/02/22-rdf-syntax-ns#"
   xmlns:svg="http://www.w3.org/2000/svg"
   xmlns="http://www.w3.org/2000/svg"
   xmlns:xlink="http://www.w3.org/1999/xlink"
   xmlns:sodipodi="http://sodipodi.sourceforge.net/DTD/sodipodi-0.dtd"
   xmlns:inkscape="http://www.inkscape.org/namespaces/inkscape"
   width="48"
   height="48"
   id="svg2"
   version="1.1"
   inkscape:version="0.48+devel r11521"
   sodipodi:docname="totem.svg">
  <defs
     id="defs4">
    <linearGradient
       inkscape:collect="always"
       id="linearGradient1016">
      <stop
         style="stop-color:#000000;stop-opacity:1;"
         offset="0"
         id="stop1018" />
      <stop
         style="stop-color:#000000;stop-opacity:0;"
         offset="1"
         id="stop1020" />
    </linearGradient>
    <inkscape:perspective
       sodipodi:type="inkscape:persp3d"
       inkscape:vp_x="0 : 24 : 1"
       inkscape:vp_y="0 : 1000 : 0"
       inkscape:vp_z="48 : 24 : 1"
       inkscape:persp3d-origin="24 : 16 : 1"
       id="perspective3014" />
    <linearGradient
       id="linearGradient3795">
      <stop
         style="stop-color:#3a3a3a;stop-opacity:1;"
         offset="0"
         id="stop3797" />
      <stop
         style="stop-color:#4d4d4d;stop-opacity:1;"
         offset="1"
         id="stop3799" />
    </linearGradient>
    <linearGradient
       inkscape:collect="always"
       id="linearGradient3914">
      <stop
         style="stop-color:#59b3e1;stop-opacity:1;"
         offset="0"
         id="stop3916" />
      <stop
         style="stop-color:#59b3e1;stop-opacity:0;"
         offset="1"
         id="stop3918" />
    </linearGradient>
    <linearGradient
       id="linearGradient3698">
      <stop
         id="stop3700"
         offset="0"
         style="stop-color:#96d0e1;stop-opacity:1" />
      <stop
         style="stop-color:#89b7e1;stop-opacity:1"
         offset="0.67819428"
         id="stop3706" />
      <stop
         id="stop3702"
         offset="1"
         style="stop-color:#699dd3;stop-opacity:1" />
    </linearGradient>
    <linearGradient
       id="linearGradient3708">
      <stop
         id="stop3710"
         offset="0"
         style="stop-color:#658db6;stop-opacity:1" />
      <stop
         style="stop-color:#527fab;stop-opacity:1;"
         offset="0.76777935"
         id="stop3716" />
      <stop
         id="stop3712"
         offset="1"
         style="stop-color:#4071a0;stop-opacity:1" />
    </linearGradient>
    <linearGradient
       id="linearGradient3750">
      <stop
         style="stop-color:#d0e2f1;stop-opacity:1"
         offset="0"
         id="stop3752" />
      <stop
         id="stop3756"
         offset="0.85580856"
         style="stop-color:#cadef0;stop-opacity:1" />
      <stop
         style="stop-color:#95bee3;stop-opacity:1"
         offset="1"
         id="stop3754" />
    </linearGradient>
    <linearGradient
       id="linearGradient3803">
      <stop
         id="stop3805"
         offset="0"
         style="stop-color:#d7def0;stop-opacity:1;" />
      <stop
         style="stop-color:#ffffff;stop-opacity:1"
         offset="0.5"
         id="stop3811" />
      <stop
         id="stop3807"
         offset="1"
         style="stop-color:#d5def0;stop-opacity:1" />
    </linearGradient>
    <linearGradient
       inkscape:collect="always"
       xlink:href="#linearGradient3914"
       id="linearGradient3920"
       x1="6.8000002"
       y1="25.0625"
       x2="45.325001"
       y2="25.0625"
       gradientUnits="userSpaceOnUse" />
    <linearGradient
       id="linearGradient3795-7">
      <stop
         style="stop-color:#48af7a;stop-opacity:1;"
         offset="0"
         id="stop3797-9" />
      <stop
         style="stop-color:#67e7d2;stop-opacity:1;"
         offset="1"
         id="stop3799-2" />
    </linearGradient>
    <linearGradient
       id="linearGradient3698-1">
      <stop
         id="stop3700-9"
         offset="0"
         style="stop-color:#96d0e1;stop-opacity:1" />
      <stop
         style="stop-color:#89b7e1;stop-opacity:1"
         offset="0.67819428"
         id="stop3706-0" />
      <stop
         id="stop3702-6"
         offset="1"
         style="stop-color:#699dd3;stop-opacity:1" />
    </linearGradient>
    <linearGradient
       id="linearGradient3708-9">
      <stop
         id="stop3710-0"
         offset="0"
         style="stop-color:#658db6;stop-opacity:1" />
      <stop
         style="stop-color:#527fab;stop-opacity:1;"
         offset="0.76777935"
         id="stop3716-1" />
      <stop
         id="stop3712-6"
         offset="1"
         style="stop-color:#4071a0;stop-opacity:1" />
    </linearGradient>
    <linearGradient
       id="linearGradient3750-6">
      <stop
         style="stop-color:#d0e2f1;stop-opacity:1"
         offset="0"
         id="stop3752-4" />
      <stop
         id="stop3756-3"
         offset="0.85580856"
         style="stop-color:#cadef0;stop-opacity:1" />
      <stop
         style="stop-color:#95bee3;stop-opacity:1"
         offset="1"
         id="stop3754-5" />
    </linearGradient>
    <linearGradient
       id="linearGradient3803-3">
      <stop
         id="stop3805-4"
         offset="0"
         style="stop-color:#d7def0;stop-opacity:1;" />
      <stop
         style="stop-color:#ffffff;stop-opacity:1"
         offset="0.5"
         id="stop3811-9" />
      <stop
         id="stop3807-1"
         offset="1"
         style="stop-color:#d5def0;stop-opacity:1" />
    </linearGradient>
    <linearGradient
       inkscape:collect="always"
       xlink:href="#linearGradient3795-7"
       id="linearGradient3801-4"
       x1="23.204165"
       y1="1053.158"
       x2="23.204165"
       y2="1004.8474"
       gradientUnits="userSpaceOnUse" />
    <linearGradient
       inkscape:collect="always"
       xlink:href="#linearGradient3919"
       id="linearGradient4038"
       x1="260.03125"
       y1="92.121216"
       x2="260.03125"
       y2="419.87878"
       gradientUnits="userSpaceOnUse" />
    <linearGradient
       id="linearGradient3919">
      <stop
         id="stop3921"
         offset="0"
         style="stop-color:#00a070;stop-opacity:1;" />
      <stop
         id="stop3923"
         offset="1"
         style="stop-color:#11ffeb;stop-opacity:1;" />
    </linearGradient>
    <clipPath
       clipPathUnits="userSpaceOnUse"
       id="clipPath4063">
      <path
         style="fill:url(#linearGradient4067);fill-opacity:1;stroke:none"
         d="M 240,92.121216 240,129 c -52.45501,6.5377 -95.05053,44.80985 -107.96875,95 l 33.1875,0 c 13.61057,-36.22794 49.64746,-64.48252 89.03125,-64.21875 0.95497,-0.0253 1.92176,-0.0369 2.875,-0.0312 14.29865,0.0853 28.35374,3.63533 41.09375,10 22.94737,10.32987 39.98645,30.74431 48.3125,54.25 l 33.4375,0 C 367.05053,173.80985 324.45501,135.5377 272,129 l 0,-36.878784 z M 132.03125,288 C 144.94947,338.19015 187.54499,376.4623 240,383 l 0,36.87878 32,0 L 272,383 c 52.45501,-6.5377 95.05053,-44.80985 107.96875,-95 L 347,288 c -12.9362,38.16182 -52.91943,65.60507 -93.34375,64.1875 -39.35846,0.19888 -75.06281,-27.91764 -88.375,-64.1875 z"
         id="path4065"
         clip-path="url(#clipPath4127-2)"
         inkscape:connector-curvature="0"
         sodipodi:nodetypes="cccccccccccccccccccccc" />
    </clipPath>
    <linearGradient
       y2="419.87878"
       x2="260.03125"
       y1="92.121216"
       x1="260.03125"
       gradientUnits="userSpaceOnUse"
       id="linearGradient3202"
       xlink:href="#linearGradient3919"
       inkscape:collect="always" />
    <clipPath
       clipPathUnits="userSpaceOnUse"
       id="clipPath4254">
      <path
         style="fill:url(#linearGradient4258);fill-opacity:1;stroke:none;display:inline"
         d="m 256,176 c -44.18278,0 -80,35.64044 -80,80 0,0 -0.53033,7.51472 1.76777,16 l 122.85723,0 c -3.3167,9.26456 -9.26562,17.57666 -17.34375,23.125 -18.58481,14.67263 -46.73117,9.33733 -62.5625,-7.125 l -38.03125,0 c 12.35038,28.24167 40.51668,48 73.3125,48 44.18278,0 80,-35.81722 80,-80 0,0 0,-8.22183 -1.59099,-16 L 211.5,240 c 6.91612,-17.48162 23.43148,-31.64803 42.625,-31.8125 0.96047,-0.0463 1.91732,-0.0507 2.875,-0.0312 12.86627,0.2609 25.35078,6.36236 34.03125,15.84375 l 38.28125,0 C 316.96212,195.75833 288.79582,176 256,176 z"
         id="path4256"
         inkscape:connector-curvature="0"
         sodipodi:nodetypes="sscccccsscccsccs"
         clip-path="url(#clipPath4174-8)"
         transform="translate(0,-1.7889608)" />
    </clipPath>
    <linearGradient
       y2="1049.5842"
       x2="24.113745"
       y1="1007.2183"
       x1="24.113745"
       gradientTransform="matrix(0.96799712,0,0,1.0252613,0.76812014,-25.977808)"
       gradientUnits="userSpaceOnUse"
       id="linearGradient3030"
       xlink:href="#linearGradient3795-5"
       inkscape:collect="always" />
    <linearGradient
       id="linearGradient3795-5">
      <stop
         style="stop-color:#68b8d8;stop-opacity:1;"
         offset="0"
         id="stop3797-2" />
      <stop
         style="stop-color:#3097bd;stop-opacity:1;"
         offset="1"
         id="stop3799-7" />
    </linearGradient>
    <linearGradient
       gradientUnits="userSpaceOnUse"
       y2="24.798252"
       x2="42.475323"
       y1="34.43922"
       x1="21.973417"
       id="linearGradient3895"
       xlink:href="#linearGradient3795-0"
       inkscape:collect="always" />
    <linearGradient
       y2="1030.9086"
       x2="31.448042"
       y1="1006.2238"
       x1="17.196316"
       gradientUnits="userSpaceOnUse"
       id="linearGradient3879"
       xlink:href="#linearGradient3795-0"
       inkscape:collect="always" />
    <linearGradient
       y2="1015.5485"
       x2="22.811094"
       y1="1027.8575"
       x1="29.718235"
       gradientUnits="userSpaceOnUse"
       id="linearGradient3877"
       xlink:href="#linearGradient3795-0"
       inkscape:collect="always" />
    <linearGradient
       y2="1024.0002"
       x2="28.641211"
       y1="1024.0002"
       x1="26.192217"
       gradientUnits="userSpaceOnUse"
       id="linearGradient3871"
       xlink:href="#linearGradient3795-0"
       inkscape:collect="always" />
    <linearGradient
       y2="1024.0002"
       x2="28.641211"
       y1="1024.0002"
       x1="26.192217"
       gradientUnits="userSpaceOnUse"
       id="linearGradient3869"
       xlink:href="#linearGradient3795-0"
       inkscape:collect="always" />
    <linearGradient
       y2="1024.0002"
       x2="28.641211"
       y1="1024.0002"
       x1="26.192217"
       gradientUnits="userSpaceOnUse"
       id="linearGradient3867"
       xlink:href="#linearGradient3795-0"
       inkscape:collect="always" />
    <linearGradient
       gradientUnits="userSpaceOnUse"
       y2="1024.0002"
       x2="28.641211"
       y1="1024.0002"
       x1="26.192217"
       id="linearGradient3859"
       xlink:href="#linearGradient3795-0"
       inkscape:collect="always" />
    <linearGradient
       gradientTransform="matrix(1,0,0,-1,0,1052.3622)"
       gradientUnits="userSpaceOnUse"
       y2="1004.8474"
       x2="23.204165"
       y1="1053.158"
       x1="23.204165"
       id="linearGradient3801-9"
       xlink:href="#linearGradient838"
       inkscape:collect="always" />
    <linearGradient
       id="linearGradient3803-1">
      <stop
         id="stop3811-8"
         offset="0"
         style="stop-color:#ffffff;stop-opacity:1" />
      <stop
         style="stop-color:#ffffff;stop-opacity:0;"
         offset="1"
         id="stop3807-0" />
    </linearGradient>
    <linearGradient
       id="linearGradient3750-1">
      <stop
         id="stop3752-3"
         offset="0"
         style="stop-color:#d0e2f1;stop-opacity:1" />
      <stop
         style="stop-color:#cadef0;stop-opacity:1"
         offset="0.85580856"
         id="stop3756-9" />
      <stop
         id="stop3754-0"
         offset="1"
         style="stop-color:#95bee3;stop-opacity:1" />
    </linearGradient>
    <linearGradient
       id="linearGradient3708-1">
      <stop
         style="stop-color:#658db6;stop-opacity:1"
         offset="0"
         id="stop3710-8" />
      <stop
         id="stop3716-4"
         offset="0.76777935"
         style="stop-color:#527fab;stop-opacity:1;" />
      <stop
         style="stop-color:#4071a0;stop-opacity:1"
         offset="1"
         id="stop3712-5" />
    </linearGradient>
    <linearGradient
       id="linearGradient3698-6">
      <stop
         style="stop-color:#96d0e1;stop-opacity:1"
         offset="0"
         id="stop3700-7" />
      <stop
         id="stop3706-9"
         offset="0.67819428"
         style="stop-color:#89b7e1;stop-opacity:1" />
      <stop
         style="stop-color:#699dd3;stop-opacity:1"
         offset="1"
         id="stop3702-5" />
    </linearGradient>
    <linearGradient
       id="linearGradient3795-0">
      <stop
         id="stop3797-5"
         offset="0"
         style="stop-color:#68d871;stop-opacity:1;" />
      <stop
         id="stop3799-3"
         offset="1"
         style="stop-color:#30bd41;stop-opacity:1;" />
    </linearGradient>
    <linearGradient
       id="linearGradient838">
      <stop
         style="stop-color:#676767;stop-opacity:1"
         offset="0"
         id="stop840" />
      <stop
         style="stop-color:#000000;stop-opacity:1"
         offset="1"
         id="stop842" />
    </linearGradient>
    <linearGradient
       inkscape:collect="always"
       xlink:href="#linearGradient1016"
       id="linearGradient1022"
       x1="23.35421"
       y1="9.8761187"
       x2="23.35421"
       y2="10.51596"
       gradientUnits="userSpaceOnUse" />
  </defs>
  <sodipodi:namedview
     id="base"
     pagecolor="#ffffff"
     bordercolor="#666666"
     borderopacity="1.0"
     inkscape:pageopacity="0.0"
     inkscape:pageshadow="2"
     inkscape:zoom="13.261539"
     inkscape:cx="41.413858"
     inkscape:cy="26.057872"
     inkscape:document-units="px"
     inkscape:current-layer="layer1"
     showgrid="false"
     inkscape:window-width="1920"
     inkscape:window-height="1035"
     inkscape:window-x="0"
     inkscape:window-y="26"
     inkscape:window-maximized="1"
     showguides="true"
     inkscape:guide-bbox="true" />
  <metadata
     id="metadata7">
    <rdf:RDF>
      <cc:Work
         rdf:about="">
        <dc:format>image/svg+xml</dc:format>
        <dc:type
           rdf:resource="http://purl.org/dc/dcmitype/StillImage" />
        <dc:title />
      </cc:Work>
    </rdf:RDF>
  </metadata>
  <g
     inkscape:label="Capa 1"
     inkscape:groupmode="layer"
     id="layer1"
     transform="translate(0,-1004.3622)">
    <g
       id="layer1-1"
       inkscape:label="Capa 1">
      <path
         id="rect2991-0"
         transform="translate(0,1004.3622)"
         d="m 7.375,1.6875 c -3.1442467,0 -5.6875,2.5432 -5.6875,5.6875 l 0,33.25 c 0,3.1443 2.5432533,5.6875 5.6875,5.6875 l 33.25,0 c 3.144247,0 5.6875,-2.5432 5.6875,-5.6875 l 0,-33.25 c 0,-3.1443 -2.543253,-5.6875 -5.6875,-5.6875 l -33.25,0 z"
         style="fill:url(#linearGradient3801-9);fill-opacity:1;stroke:none"
         inkscape:connector-curvature="0" />
    </g>
    <path
       id="path985"
       style="fill:none;stroke:#8e8e8e;stroke-width:1;stroke-linecap:butt;stroke-linejoin:miter;stroke-opacity:1;stroke-miterlimit:4;stroke-dasharray:none"
       d="m 29.188287,1044.5323 -0.0377,-5.2811 9.961892,0 0,5.0529 m -30.0541154,0.4167 0,-5.4696 20.0901604,0 0,4.3365"
       inkscape:connector-curvature="0"
       sodipodi:nodetypes="cccccccc" />
    <g
       style="font-size:7.82130814px;font-style:normal;font-weight:normal;line-height:125%;letter-spacing:0px;word-spacing:0px;fill:#ffffff;fill-opacity:1;stroke:none;font-family:Droid Sans;-inkscape-font-specification:Droid Sans"
       id="text990">
      <path
         d="m 12.917267,1031.8871 q 0,0.6759 -0.09929,1.2106 -0.09548,0.5347 -0.313158,0.9051 -0.213864,0.3704 -0.553755,0.5652 -0.33989,0.1948 -0.824903,0.1948 -0.450642,0 -0.786714,-0.1948 -0.332253,-0.1948 -0.5537545,-0.5652 -0.2176829,-0.3704 -0.3284339,-0.9051 -0.1069319,-0.5347 -0.1069319,-1.2106 0,-0.676 0.095475,-1.2106 0.099294,-0.5347 0.3093389,-0.9013 0.2138639,-0.3705 0.5499355,-0.5652 0.339891,-0.1948 0.821085,-0.1948 0.454461,0 0.790532,0.1948 0.336072,0.1909 0.557574,0.5614 0.221502,0.3666 0.332253,0.9012 0.110751,0.5347 0.110751,1.2145 z m -2.86043,0 q 0,0.5728 0.05729,1.0006 0.05729,0.4277 0.183312,0.7141 0.126027,0.2826 0.328434,0.4277 0.206226,0.1413 0.500289,0.1413 0.294063,0 0.500289,-0.1413 0.206225,-0.1413 0.336071,-0.4239 0.133665,-0.2826 0.19095,-0.7103 0.0611,-0.4316 0.0611,-1.0082 0,-0.5729 -0.0611,-1.0006 -0.05728,-0.4277 -0.19095,-0.7103 -0.129846,-0.2826 -0.336071,-0.4239 -0.206226,-0.1413 -0.500289,-0.1413 -0.294063,0 -0.500289,0.1413 -0.202407,0.1413 -0.328434,0.4239 -0.126027,0.2826 -0.183312,0.7103 -0.05729,0.4277 -0.05729,1.0006 z"
         style=""
         id="path1025" />
      <path
         d="m 16.953948,1030.4091 q 0,0.2788 -0.08784,0.508 -0.08784,0.2291 -0.248235,0.3971 -0.156579,0.1681 -0.378081,0.2788 -0.221502,0.1069 -0.49265,0.1528 l 0,0.023 q 0.675962,0.084 1.02731,0.4315 0.351348,0.3437 0.351348,0.8975 0,0.3666 -0.126027,0.6721 -0.122208,0.3056 -0.374262,0.5271 -0.252054,0.2215 -0.637773,0.3437 -0.385718,0.1222 -0.91274,0.1222 -0.416271,0 -0.786714,-0.065 -0.366624,-0.065 -0.691238,-0.2368 l 0,-0.6492 q 0.332252,0.1756 0.717971,0.2711 0.389538,0.095 0.744705,0.095 0.351348,0 0.607221,-0.076 0.255872,-0.076 0.420089,-0.2177 0.168036,-0.1413 0.244416,-0.3475 0.0802,-0.2062 0.0802,-0.4621 0,-0.2597 -0.103113,-0.443 -0.09929,-0.1872 -0.286425,-0.3055 -0.187131,-0.1222 -0.458279,-0.1795 -0.26733,-0.057 -0.607221,-0.057 l -0.507927,0 0,-0.5767 0.507927,0 q 0.309339,0 0.549936,-0.076 0.240597,-0.076 0.400994,-0.2176 0.164217,-0.1414 0.248235,-0.3361 0.08402,-0.1948 0.08402,-0.4277 0,-0.1986 -0.06874,-0.3552 -0.06874,-0.1566 -0.194769,-0.2635 -0.126027,-0.1108 -0.3017,-0.1681 -0.175674,-0.057 -0.389538,-0.057 -0.408633,0 -0.721791,0.1298 -0.309339,0.126 -0.591945,0.3323 l -0.351347,-0.4774 q 0.145121,-0.1184 0.320795,-0.2215 0.179493,-0.1031 0.389538,-0.1795 0.210045,-0.08 0.446823,-0.126 0.240597,-0.046 0.507927,-0.046 0.412452,0 0.72179,0.1031 0.313158,0.1032 0.523203,0.2903 0.210045,0.1833 0.316977,0.4392 0.106932,0.252 0.106932,0.5537 z"
         style=""
         id="path1027" />
      <path
         d="m 18.153113,1034.2625 q 0,-0.1451 0.03819,-0.2444 0.03819,-0.1031 0.103113,-0.1642 0.06492,-0.065 0.15276,-0.092 0.08784,-0.03 0.19095,-0.03 0.09929,0 0.187131,0.03 0.09166,0.027 0.156579,0.092 0.06492,0.061 0.103113,0.1642 0.03819,0.099 0.03819,0.2444 0,0.1413 -0.03819,0.2444 -0.03819,0.099 -0.103113,0.1642 -0.06492,0.065 -0.156579,0.095 -0.08784,0.031 -0.187131,0.031 -0.103113,0 -0.19095,-0.031 -0.08784,-0.031 -0.15276,-0.095 -0.06492,-0.065 -0.103113,-0.1642 -0.03819,-0.1031 -0.03819,-0.2444 z m 0,-3.3454 q 0,-0.149 0.03819,-0.2483 0.03819,-0.1031 0.103113,-0.1642 0.06492,-0.065 0.15276,-0.092 0.08784,-0.027 0.19095,-0.027 0.09929,0 0.187131,0.027 0.09166,0.027 0.156579,0.092 0.06492,0.061 0.103113,0.1642 0.03819,0.099 0.03819,0.2483 0,0.1413 -0.03819,0.2405 -0.03819,0.099 -0.103113,0.1643 -0.06492,0.065 -0.156579,0.095 -0.08784,0.031 -0.187131,0.031 -0.103113,0 -0.19095,-0.031 -0.08784,-0.031 -0.15276,-0.095 -0.06492,-0.065 -0.103113,-0.1643 -0.03819,-0.099 -0.03819,-0.2405 z"
         style=""
         id="path1029" />
      <path
         d="m 22.399839,1034.6864 -0.672144,0 0,-3.4867 q 0,-0.1643 0,-0.3514 0.0038,-0.1871 0.0076,-0.3704 0.0076,-0.1872 0.01146,-0.3552 0.0076,-0.1719 0.01146,-0.3017 -0.06492,0.069 -0.11457,0.1184 -0.04965,0.05 -0.103113,0.096 -0.04965,0.046 -0.106932,0.099 -0.05729,0.05 -0.137484,0.1183 l -0.565211,0.4621 -0.366624,-0.4697 1.462676,-1.1419 0.57285,0 0,5.5834 z"
         style=""
         id="path1031" />
      <path
         d="m 24.423908,1032.2995 q 0,-0.401 0.03819,-0.7981 0.04201,-0.3972 0.141303,-0.76 0.103113,-0.3666 0.278787,-0.6798 0.175674,-0.3132 0.446822,-0.5423 0.271149,-0.233 0.64923,-0.3628 0.378081,-0.1337 0.886008,-0.1337 0.07256,0 0.160398,0 0.08784,0 0.175673,0.015 0.09166,0.01 0.171855,0.023 0.08402,0.011 0.148941,0.031 l 0,0.5919 q -0.133665,-0.046 -0.301701,-0.069 -0.168035,-0.023 -0.332252,-0.023 -0.34371,0 -0.607221,0.084 -0.259692,0.08 -0.450642,0.2291 -0.19095,0.149 -0.320796,0.3552 -0.126027,0.2062 -0.206226,0.4583 -0.0802,0.2482 -0.118389,0.5308 -0.03819,0.2826 -0.04965,0.5881 l 0.04583,0 q 0.07638,-0.1374 0.183312,-0.2558 0.110751,-0.1222 0.255873,-0.2063 0.145122,-0.088 0.324615,-0.1374 0.183312,-0.05 0.408633,-0.05 0.362805,0 0.656868,0.1146 0.294062,0.1107 0.500288,0.3284 0.206226,0.2177 0.316977,0.5347 0.11457,0.3131 0.11457,0.718 0,0.4353 -0.118389,0.7828 -0.118389,0.3476 -0.339891,0.592 -0.221502,0.2406 -0.534659,0.3704 -0.313158,0.1299 -0.702696,0.1299 -0.3819,0 -0.717972,-0.149 -0.332253,-0.1489 -0.576668,-0.4544 -0.244416,-0.3055 -0.385719,-0.7676 -0.141303,-0.4621 -0.141303,-1.0923 z m 1.814024,1.879 q 0.22914,0 0.416271,-0.076 0.19095,-0.08 0.328434,-0.2368 0.137484,-0.1604 0.210044,-0.401 0.07638,-0.2444 0.07638,-0.5766 0,-0.2674 -0.06492,-0.4774 -0.0611,-0.2139 -0.18713,-0.3628 -0.126027,-0.149 -0.316977,-0.2292 -0.187131,-0.08 -0.439185,-0.08 -0.255873,0 -0.469737,0.092 -0.210045,0.088 -0.358986,0.2329 -0.148941,0.1414 -0.232959,0.3247 -0.0802,0.1833 -0.0802,0.3666 0,0.2559 0.06874,0.5117 0.07256,0.2521 0.210045,0.4545 0.141303,0.2024 0.351348,0.3322 0.210045,0.1261 0.488832,0.1261 z"
         style=""
         id="path1033" />
      <path
         d="m 28.861585,1034.2625 q 0,-0.1451 0.03819,-0.2444 0.03819,-0.1031 0.103113,-0.1642 0.06492,-0.065 0.152759,-0.092 0.08784,-0.03 0.19095,-0.03 0.09929,0 0.187131,0.03 0.09166,0.027 0.156579,0.092 0.06492,0.061 0.103113,0.1642 0.03819,0.099 0.03819,0.2444 0,0.1413 -0.03819,0.2444 -0.03819,0.099 -0.103113,0.1642 -0.06492,0.065 -0.156579,0.095 -0.08784,0.031 -0.187131,0.031 -0.103113,0 -0.19095,-0.031 -0.08784,-0.031 -0.152759,-0.095 -0.06492,-0.065 -0.103113,-0.1642 -0.03819,-0.1031 -0.03819,-0.2444 z m 0,-3.3454 q 0,-0.149 0.03819,-0.2483 0.03819,-0.1031 0.103113,-0.1642 0.06492,-0.065 0.152759,-0.092 0.08784,-0.027 0.19095,-0.027 0.09929,0 0.187131,0.027 0.09166,0.027 0.156579,0.092 0.06492,0.061 0.103113,0.1642 0.03819,0.099 0.03819,0.2483 0,0.1413 -0.03819,0.2405 -0.03819,0.099 -0.103113,0.1643 -0.06492,0.065 -0.156579,0.095 -0.08784,0.031 -0.187131,0.031 -0.103113,0 -0.19095,-0.031 -0.08784,-0.031 -0.152759,-0.095 -0.06492,-0.065 -0.103113,-0.1643 -0.03819,-0.099 -0.03819,-0.2405 z"
         style=""
         id="path1035" />
      <path
         d="m 34.544253,1033.4338 -0.813447,0 0,1.2526 -0.672144,0 0,-1.2526 -2.577823,0 0,-0.6073 2.531995,-3.754 0.717972,0 0,3.7273 0.813447,0 0,0.634 z m -1.485591,-0.634 0,-1.3595 q 0,-0.2139 0.0038,-0.4469 0.0076,-0.2367 0.01528,-0.4582 0.0076,-0.2254 0.01528,-0.4201 0.01146,-0.1948 0.01528,-0.3247 l -0.03437,0 q -0.02673,0.076 -0.06874,0.1719 -0.03819,0.092 -0.08784,0.1871 -0.04583,0.092 -0.09548,0.1795 -0.04965,0.088 -0.09166,0.149 l -1.569608,2.3219 1.898042,0 z"
         style=""
         id="path1037" />
      <path
         d="m 35.132379,1032.2995 q 0,-0.401 0.03819,-0.7981 0.04201,-0.3972 0.141303,-0.76 0.103113,-0.3666 0.278787,-0.6798 0.175674,-0.3132 0.446823,-0.5423 0.271149,-0.233 0.649229,-0.3628 0.378081,-0.1337 0.886008,-0.1337 0.07256,0 0.160398,0 0.08784,0 0.175674,0.015 0.09166,0.01 0.171855,0.023 0.08402,0.011 0.148941,0.031 l 0,0.5919 q -0.133665,-0.046 -0.301701,-0.069 -0.168036,-0.023 -0.332253,-0.023 -0.34371,0 -0.607221,0.084 -0.259692,0.08 -0.450642,0.2291 -0.190949,0.149 -0.320795,0.3552 -0.126027,0.2062 -0.206226,0.4583 -0.0802,0.2482 -0.118389,0.5308 -0.03819,0.2826 -0.04965,0.5881 l 0.04583,0 q 0.07638,-0.1374 0.183312,-0.2558 0.110751,-0.1222 0.255873,-0.2063 0.145121,-0.088 0.324614,-0.1374 0.183312,-0.05 0.408633,-0.05 0.362805,0 0.656868,0.1146 0.294063,0.1107 0.500289,0.3284 0.206226,0.2177 0.316976,0.5347 0.11457,0.3131 0.11457,0.718 0,0.4353 -0.118389,0.7828 -0.118388,0.3476 -0.33989,0.592 -0.221502,0.2406 -0.53466,0.3704 -0.313158,0.1299 -0.702696,0.1299 -0.3819,0 -0.717971,-0.149 -0.332253,-0.1489 -0.576669,-0.4544 -0.244416,-0.3055 -0.385719,-0.7676 -0.141303,-0.4621 -0.141303,-1.0923 z m 1.814024,1.879 q 0.22914,0 0.416271,-0.076 0.19095,-0.08 0.328434,-0.2368 0.137484,-0.1604 0.210045,-0.401 0.07638,-0.2444 0.07638,-0.5766 0,-0.2674 -0.06492,-0.4774 -0.0611,-0.2139 -0.187131,-0.3628 -0.126027,-0.149 -0.316977,-0.2292 -0.187131,-0.08 -0.439185,-0.08 -0.255873,0 -0.469737,0.092 -0.210044,0.088 -0.358985,0.2329 -0.148941,0.1414 -0.232959,0.3247 -0.0802,0.1833 -0.0802,0.3666 0,0.2559 0.06874,0.5117 0.07256,0.2521 0.210045,0.4545 0.141303,0.2024 0.351347,0.3322 0.210045,0.1261 0.488832,0.1261 z"
         style=""
         id="path1039" />
    </g>
    <path
       style="fill:#ffffff;fill-opacity:1;stroke:none"
       d="M 5.4375 2.03125 C 4.6110637 2.3310665 3.8780538 2.8162265 3.28125 3.4375 L 9.3125 9.96875 L 1.9375 16.78125 L 6.6875 16.78125 L 14.65625 9.6875 L 7.0625 2.03125 L 5.4375 2.03125 z "
       transform="translate(0,1004.3622)"
       id="path994" />
    <path
       sodipodi:nodetypes="ccccccc"
       inkscape:connector-curvature="0"
       id="path996"
       d="m 10.240301,1021.1441 4.746363,0 7.959039,-7.0995 -7.602224,-7.6424 -5.088262,0 7.350829,7.914 z"
       style="fill:#ffffff;fill-opacity:1;stroke:none" />
    <path
       style="fill:#ffffff;fill-opacity:1;stroke:none"
       d="m 18.534962,1021.1441 4.746363,0 7.959039,-7.0995 -7.602224,-7.6424 -5.088262,0 7.350829,7.914 z"
       id="path998"
       inkscape:connector-curvature="0"
       sodipodi:nodetypes="ccccccc" />
    <path
       sodipodi:nodetypes="ccccccc"
       inkscape:connector-curvature="0"
       id="path1000"
       d="m 26.829624,1021.1441 4.746363,0 7.959039,-7.0995 -7.602224,-7.6424 -5.088262,0 7.350829,7.914 z"
       style="fill:#ffffff;fill-opacity:1;stroke:none" />
    <path
       style="fill:#ffffff;fill-opacity:1;stroke:none"
       d="M 35.125 2.03125 L 42.5 9.96875 L 35.125 16.78125 L 39.875 16.78125 L 46.3125 11.0625 L 46.3125 8.15625 L 40.21875 2.03125 L 35.125 2.03125 z "
       transform="translate(0,1004.3622)"
       id="path1002" />
    <g
       inkscape:label="Capa 1"
       id="g1004"
       style="fill:none;stroke:#ff0000" />
    <g
       style="fill:none;stroke:#ff0000"
       id="g1008"
       inkscape:label="Capa 1" />
    <path
       style="fill:none;stroke:url(#linearGradient1022);stroke-width:1px;stroke-linecap:butt;stroke-linejoin:miter;stroke-opacity:1"
       d="m 1.866204,9.9827586 44.309015,0"
       id="path1014"
       inkscape:connector-curvature="0"
       transform="translate(0,1004.3622)" />
  </g>
</svg>
