<?xml version="1.0" encoding="UTF-8" standalone="no"?>
<!-- Created with Inkscape (http://www.inkscape.org/) -->

<svg
   xmlns:dc="http://purl.org/dc/elements/1.1/"
   xmlns:cc="http://creativecommons.org/ns#"
   xmlns:rdf="http://www.w3.org/1999/02/22-rdf-syntax-ns#"
   xmlns:svg="http://www.w3.org/2000/svg"
   xmlns="http://www.w3.org/2000/svg"
   xmlns:xlink="http://www.w3.org/1999/xlink"
   xmlns:sodipodi="http://sodipodi.sourceforge.net/DTD/sodipodi-0.dtd"
   xmlns:inkscape="http://www.inkscape.org/namespaces/inkscape"
   width="48"
   height="48"
   id="svg944"
   version="1.1"
   inkscape:version="0.48+devel r11556"
   sodipodi:docname="defcon.svg">
  <defs
     id="defs946">
    <linearGradient
       id="linearGradient2113"
       inkscape:collect="always">
      <stop
         id="stop2115"
         offset="0"
         style="stop-color:#cd00f3;stop-opacity:1" />
      <stop
         id="stop2117"
         offset="1"
         style="stop-color:#5a005d;stop-opacity:1" />
    </linearGradient>
    <linearGradient
       id="linearGradient1528">
      <stop
         id="stop1530"
         offset="0"
         style="stop-color:#b4b4b4;stop-opacity:1" />
      <stop
         id="stop1532"
         offset="1"
         style="stop-color:#040802;stop-opacity:1" />
    </linearGradient>
    <linearGradient
       y2="1049.5842"
       x2="24.113745"
       y1="1007.2183"
       x1="24.113745"
       gradientTransform="matrix(0.96799712,0,0,1.0252613,0.76812014,-25.977808)"
       gradientUnits="userSpaceOnUse"
       id="linearGradient3030"
       xlink:href="#linearGradient3795"
       inkscape:collect="always" />
    <linearGradient
       id="linearGradient3795">
      <stop
         style="stop-color:#68b8d8;stop-opacity:1;"
         offset="0"
         id="stop3797" />
      <stop
         style="stop-color:#3097bd;stop-opacity:1;"
         offset="1"
         id="stop3799" />
    </linearGradient>
    <linearGradient
       y2="1049.5842"
       x2="24.113745"
       y1="1007.2183"
       x1="24.113745"
       gradientTransform="matrix(0.96799712,0,0,1.0252613,1641.3245,-665.99295)"
       gradientUnits="userSpaceOnUse"
       id="linearGradient1507"
       xlink:href="#linearGradient2113"
       inkscape:collect="always" />
    <linearGradient
       x1="-128"
       y1="64"
       x2="-67.417709"
       y2="38.740906"
       id="linearGradient4357"
       xlink:href="#linearGradient4335"
       gradientUnits="userSpaceOnUse"
       gradientTransform="matrix(0.706098,0,0,0.706098,130.63254,20.2435)" />
    <linearGradient
       id="linearGradient4335">
      <stop
         id="stop4337"
         style="stop-color:#000000;stop-opacity:1"
         offset="0" />
      <stop
         id="stop4339"
         style="stop-color:#19007b;stop-opacity:0.84705883"
         offset="1" />
    </linearGradient>
    <linearGradient
       id="linearGradient3763-7">
      <stop
         id="stop3765-7"
         offset="0"
         style="stop-color:#ffffff;stop-opacity:1;" />
      <stop
         id="stop3767-6"
         offset="1"
         style="stop-color:#c1c1c1;stop-opacity:1;" />
    </linearGradient>
    <linearGradient
       id="linearGradient3883">
      <stop
         style="stop-color:#ff00b7;stop-opacity:0.18085106;"
         offset="0"
         id="stop3885" />
      <stop
         style="stop-color:#999999;stop-opacity:0;"
         offset="1"
         id="stop3887" />
    </linearGradient>
    <linearGradient
       id="linearGradient3789">
      <stop
         style="stop-color:#ff0013;stop-opacity:0.18085106;"
         offset="0"
         id="stop3791" />
      <stop
         style="stop-color:#ffffff;stop-opacity:0"
         offset="1"
         id="stop3793" />
    </linearGradient>
    <linearGradient
       id="linearGradient3802">
      <stop
         id="stop3804"
         offset="0"
         style="stop-color:#ffc300;stop-opacity:0.18039216;" />
      <stop
         id="stop3806"
         offset="1"
         style="stop-color:#ffffff;stop-opacity:0" />
    </linearGradient>
    <linearGradient
       id="linearGradient3823">
      <stop
         style="stop-color:#4d9600;stop-opacity:0.18039216;"
         offset="0"
         id="stop3825" />
      <stop
         style="stop-color:#ffffff;stop-opacity:0"
         offset="1"
         id="stop3827" />
    </linearGradient>
    <linearGradient
       id="linearGradient1291">
      <stop
         id="stop1293"
         offset="0"
         style="stop-color:#ffc300;stop-opacity:0.18039216;" />
      <stop
         id="stop1295"
         offset="1"
         style="stop-color:#ffffff;stop-opacity:0" />
    </linearGradient>
    <linearGradient
       id="linearGradient3877">
      <stop
         style="stop-color:#00dfff;stop-opacity:0.18039216;"
         offset="0"
         id="stop3879" />
      <stop
         style="stop-color:#ffffff;stop-opacity:0"
         offset="1"
         id="stop3881" />
    </linearGradient>
    <linearGradient
       id="linearGradient1302">
      <stop
         style="stop-color:#00dfff;stop-opacity:0.18039216;"
         offset="0"
         id="stop1304" />
      <stop
         style="stop-color:#ffffff;stop-opacity:0"
         offset="1"
         id="stop1306" />
    </linearGradient>
    <linearGradient
       id="linearGradient3981">
      <stop
         id="stop3983"
         offset="0"
         style="stop-color:#9a9a9a;stop-opacity:0.18039216;" />
      <stop
         id="stop3985"
         offset="1"
         style="stop-color:#ffffff;stop-opacity:0" />
    </linearGradient>
    <linearGradient
       id="linearGradient1313">
      <stop
         style="stop-color:#ff00b7;stop-opacity:0.18085106;"
         offset="0"
         id="stop1315" />
      <stop
         style="stop-color:#999999;stop-opacity:0;"
         offset="1"
         id="stop1317" />
    </linearGradient>
    <linearGradient
       id="linearGradient1320">
      <stop
         style="stop-color:#ff0013;stop-opacity:0.18085106;"
         offset="0"
         id="stop1322" />
      <stop
         style="stop-color:#ffffff;stop-opacity:0"
         offset="1"
         id="stop1324" />
    </linearGradient>
    <linearGradient
       id="linearGradient1327">
      <stop
         id="stop1329"
         offset="0"
         style="stop-color:#ffc300;stop-opacity:0.18039216;" />
      <stop
         id="stop1331"
         offset="1"
         style="stop-color:#ffffff;stop-opacity:0" />
    </linearGradient>
    <linearGradient
       id="linearGradient1334">
      <stop
         style="stop-color:#4d9600;stop-opacity:0.18039216;"
         offset="0"
         id="stop1336" />
      <stop
         style="stop-color:#ffffff;stop-opacity:0"
         offset="1"
         id="stop1338" />
    </linearGradient>
    <linearGradient
       id="linearGradient1341">
      <stop
         id="stop1343"
         offset="0"
         style="stop-color:#ffc300;stop-opacity:0.18039216;" />
      <stop
         id="stop1345"
         offset="1"
         style="stop-color:#ffffff;stop-opacity:0" />
    </linearGradient>
    <linearGradient
       id="linearGradient1348">
      <stop
         style="stop-color:#00dfff;stop-opacity:0.18039216;"
         offset="0"
         id="stop1350" />
      <stop
         style="stop-color:#ffffff;stop-opacity:0"
         offset="1"
         id="stop1352" />
    </linearGradient>
    <linearGradient
       id="linearGradient1355">
      <stop
         style="stop-color:#00dfff;stop-opacity:0.18039216;"
         offset="0"
         id="stop1357" />
      <stop
         style="stop-color:#ffffff;stop-opacity:0"
         offset="1"
         id="stop1359" />
    </linearGradient>
    <linearGradient
       id="linearGradient3993">
      <stop
         style="stop-color:#000000;stop-opacity:0.43617022;"
         offset="0"
         id="stop3995" />
      <stop
         style="stop-color:#ffffff;stop-opacity:0"
         offset="1"
         id="stop3997" />
    </linearGradient>
    <linearGradient
       id="linearGradient1366">
      <stop
         style="stop-color:#000000;stop-opacity:0.43617022;"
         offset="0"
         id="stop1368" />
      <stop
         style="stop-color:#ffffff;stop-opacity:0"
         offset="1"
         id="stop1370" />
    </linearGradient>
    <linearGradient
       inkscape:collect="always"
       xlink:href="#linearGradient4009"
       id="linearGradient3850"
       gradientUnits="userSpaceOnUse"
       gradientTransform="matrix(0.72722764,-0.71098048,0.71098048,0.72722764,-723.18298,303.80541)"
       x1="8.8905392"
       y1="1026.2065"
       x2="19.3482"
       y2="1026.2065" />
    <linearGradient
       id="linearGradient4009">
      <stop
         style="stop-color:#9a9a9a;stop-opacity:0.64361703;"
         offset="0"
         id="stop4011" />
      <stop
         style="stop-color:#ffffff;stop-opacity:0"
         offset="1"
         id="stop4013" />
    </linearGradient>
  </defs>
  <sodipodi:namedview
     id="base"
     pagecolor="#ffffff"
     bordercolor="#666666"
     borderopacity="1.0"
     inkscape:pageopacity="0.0"
     inkscape:pageshadow="2"
     inkscape:zoom="4"
     inkscape:cx="8.5066328"
     inkscape:cy="25.786267"
     inkscape:document-units="px"
     inkscape:current-layer="layer1"
     showgrid="false"
     width="0px"
     height="0px"
     fit-margin-top="0"
     fit-margin-left="0"
     fit-margin-right="0"
     fit-margin-bottom="0"
     inkscape:window-width="1016"
     inkscape:window-height="672"
     inkscape:window-x="306"
     inkscape:window-y="14"
     inkscape:window-maximized="0">
    <inkscape:grid
       type="xygrid"
       id="grid1823"
       empspacing="5"
       visible="true"
       enabled="true"
       snapvisiblegridlinesonly="true" />
  </sodipodi:namedview>
  <metadata
     id="metadata949">
    <rdf:RDF>
      <cc:Work
         rdf:about="">
        <dc:format>image/svg+xml</dc:format>
        <dc:type
           rdf:resource="http://purl.org/dc/dcmitype/StillImage" />
        <dc:title></dc:title>
      </cc:Work>
    </rdf:RDF>
  </metadata>
  <g
     inkscape:label="Capa 1"
     inkscape:groupmode="layer"
     id="layer1"
     transform="translate(-1640.5564,-364.34714)">
    <rect
       ry="5.6755357"
       y="366.04639"
       x="1642.2556"
       height="44.601513"
       width="44.601513"
       id="rect2992"
       style="fill:url(#linearGradient1507);fill-opacity:1.0;stroke:#7d7d7d;stroke-width:0.39848712;stroke-miterlimit:4;stroke-opacity:1;stroke-dasharray:none" />
    <path
       style="fill:#ffffff;fill-opacity:0.46700511;stroke:none"
       d="M 24 8.65625 C 15.5266 8.65625 8.65625 15.52666 8.65625 24 C 8.65625 32.47334 15.5266 39.34375 24 39.34375 C 32.4733 39.34375 39.34375 32.47334 39.34375 24 C 39.34375 15.52666 32.4733 8.65625 24 8.65625 z M 24.03125 18.34375 C 27.179021 18.34375 29.71875 20.883479 29.71875 24.03125 C 29.71875 27.179021 27.179021 29.71875 24.03125 29.71875 C 20.883479 29.71875 18.3125 27.179021 18.3125 24.03125 C 18.3125 20.883479 20.883479 18.34375 24.03125 18.34375 z M 18.5625 32.59375 L 20.25 32.59375 L 22.46875 32.59375 L 23.40625 32.59375 C 23.40625 32.59375 23.63575 33.33488 23.71875 33.5625 C 24.01935 34.40249 24.0725 34.6279 24.0625 34.6875 C 24.0849 34.62785 24.19935 34.42272 24.90625 33.59375 C 25.04005 33.43657 25.75 32.59375 25.75 32.59375 L 28.4375 32.59375 C 29.7961 32.59375 30.75395 33.29875 30.53125 34.1875 C 30.31415 35.08158 29.0406 35.78125 27.6875 35.78125 L 25.875 35.78125 L 26.40625 33.5625 L 27.6875 33.5625 L 27.3125 35.0625 L 27.59375 35.0625 C 28.35085 35.0625 29.06285 34.80524 29.21875 34.1875 C 29.35255 33.6238 28.84975 33.3125 28.03125 33.3125 L 27.75 33.3125 L 26.5 33.3125 L 23.59375 36.5 L 22.4375 33.34375 C 22.4375 33.34375 22.4485 33.3396 22.4375 33.3125 C 22.4315 33.307 22.386 33.27625 22.375 33.28125 C 22.352 33.28645 22.365 33.33875 22.375 33.34375 C 22.378 33.36545 22.375 33.3641 22.375 33.375 C 22.48 33.61874 22.4825 34.02482 22.4375 34.1875 C 22.2147 35.08159 20.94665 35.78125 19.59375 35.78125 L 17.78125 35.78125 L 18.3125 33.5625 L 19.59375 33.5625 L 19.21875 35.0625 L 19.5 35.0625 C 20.2571 35.0625 20.9746 34.80525 21.125 34.1875 C 21.2643 33.62381 20.7561 33.3125 19.9375 33.3125 L 19.65625 33.3125 L 18.375 33.3125 L 18.5625 32.59375 z M 23.625 36.53125 C 27.0548 36.53125 29.84375 36.90364 29.84375 37.375 C 29.84375 37.85191 27.0548 38.25 23.625 38.25 C 20.1952 38.25 17.4375 37.85191 17.4375 37.375 C 17.4375 36.90364 20.1952 36.53125 23.625 36.53125 z M 23.40625 37.125 C 22.62105 37.125 22 37.24926 22 37.40625 C 22 37.56343 22.62105 37.6875 23.40625 37.6875 C 24.19135 37.6875 24.84375 37.56343 24.84375 37.40625 C 24.84375 37.24926 24.19135 37.125 23.40625 37.125 z "
       transform="translate(1640.5564,364.34714)"
       id="path2141" />
    <rect
       style="fill:none;stroke:none"
       id="rect1526"
       width="48"
       height="48"
       x="1640.5564"
       y="364.34714"
       ry="0" />
    <rect
       style="fill:none;stroke:none"
       id="rect3332"
       width="33.150757"
       height="33.150757"
       x="1647.981"
       y="371.77176" />
    <path
       style="fill:#ffffff;fill-opacity:1;stroke:none"
       d="M 24 8.65625 C 15.5266 8.65625 8.65625 15.52666 8.65625 24 C 8.65625 32.47334 15.5266 39.34375 24 39.34375 C 32.4733 39.34375 39.34375 32.47334 39.34375 24 L 39.34375 23.78125 L 29.71875 23.78125 L 29.71875 24.03125 C 29.71875 27.17902 27.17905 29.71875 24.03125 29.71875 C 20.88345 29.71875 18.3125 27.17902 18.3125 24.03125 C 18.3125 20.88348 20.88345 18.34375 24.03125 18.34375 C 24.06425 18.34375 24.092 18.3432 24.125 18.34375 L 24.125 8.65625 C 24.083 8.65591 24.042 8.65625 24 8.65625 z M 21.4375 21.53125 C 21.321 21.65135 21.2242 21.77129 21.125 21.90625 C 21.222 21.77305 21.3232 21.64989 21.4375 21.53125 z M 21.53125 26.625 C 21.65135 26.74148 21.77135 26.83824 21.90625 26.9375 C 21.77305 26.84 21.64995 26.73926 21.53125 26.625 z M 18.5625 32.59375 L 20.25 32.59375 L 22.46875 32.59375 L 23.40625 32.59375 C 23.40625 32.59375 23.63575 33.33488 23.71875 33.5625 C 24.01935 34.40249 24.0725 34.6279 24.0625 34.6875 C 24.0849 34.62785 24.19935 34.42272 24.90625 33.59375 C 25.04005 33.43657 25.75 32.59375 25.75 32.59375 L 28.4375 32.59375 C 29.7961 32.59375 30.75395 33.29875 30.53125 34.1875 C 30.31415 35.08158 29.0406 35.78125 27.6875 35.78125 L 25.875 35.78125 L 26.40625 33.5625 L 27.6875 33.5625 L 27.3125 35.0625 L 27.59375 35.0625 C 28.35085 35.0625 29.06285 34.80524 29.21875 34.1875 C 29.35255 33.6238 28.84975 33.3125 28.03125 33.3125 L 27.75 33.3125 L 26.5 33.3125 L 23.59375 36.5 L 22.4375 33.34375 C 22.4375 33.34375 22.4485 33.3396 22.4375 33.3125 C 22.4315 33.307 22.386 33.27625 22.375 33.28125 C 22.352 33.28645 22.365 33.33875 22.375 33.34375 C 22.378 33.36545 22.375 33.3641 22.375 33.375 C 22.48 33.61874 22.4825 34.02482 22.4375 34.1875 C 22.2147 35.08159 20.94665 35.78125 19.59375 35.78125 L 17.78125 35.78125 L 18.3125 33.5625 L 19.59375 33.5625 L 19.21875 35.0625 L 19.5 35.0625 C 20.2571 35.0625 20.9746 34.80525 21.125 34.1875 C 21.2643 33.62381 20.7561 33.3125 19.9375 33.3125 L 19.65625 33.3125 L 18.375 33.3125 L 18.5625 32.59375 z M 23.625 36.53125 C 27.0548 36.53125 29.84375 36.90364 29.84375 37.375 C 29.84375 37.85191 27.0548 38.25 23.625 38.25 C 20.1952 38.25 17.4375 37.85191 17.4375 37.375 C 17.4375 36.90364 20.1952 36.53125 23.625 36.53125 z M 23.40625 37.125 C 22.62105 37.125 22 37.24926 22 37.40625 C 22 37.56343 22.62105 37.6875 23.40625 37.6875 C 24.19135 37.6875 24.84375 37.56343 24.84375 37.40625 C 24.84375 37.24926 24.19135 37.125 23.40625 37.125 z "
       transform="translate(1640.5564,364.34714)"
       id="path2985" />
    <path
       sodipodi:type="arc"
       style="fill:#ffffff;stroke:none"
       id="path2158"
       sodipodi:cx="25.669643"
       sodipodi:cy="27.0625"
       sodipodi:rx="7.5446429"
       sodipodi:ry="7.5446429"
       d="m 33.214286,27.0625 a 7.5446429,7.5446429 0 1 1 -15.089286,0 7.5446429,7.5446429 0 1 1 15.089286,0 z"
       transform="matrix(0.31666848,0,0,0.31666848,1656.4276,379.7773)" />
    <path
       style="fill:#ffffff;fill-opacity:1;stroke:none"
       d="m 1664.5692,383.67617 c -2.5852,0 -4.6967,2.08584 -4.6967,4.67105 0,2.58522 2.1115,4.67106 4.6967,4.67106 2.5852,0 4.6711,-2.08584 4.6711,-4.67106 0,-0.0678 0,-0.13818 0,-0.20532 l -1.7196,0 c 0,0.07 0.026,0.13412 0.026,0.20532 0,1.63876 -1.3385,2.97716 -2.9772,2.97716 -0.2048,0 -0.3968,-0.0115 -0.5903,-0.0513 -1.354,-0.27858 -2.3868,-1.49191 -2.3868,-2.92583 0,-0.20484 0.011,-0.39686 0.051,-0.59029 0.2786,-1.35402 1.4919,-2.38686 2.9258,-2.38686 0.026,0 0.051,-6.9e-4 0.077,0 l 0,-1.6939 c -0.027,-4.5e-4 -0.05,0 -0.077,0 z"
       id="path2167"
       inkscape:connector-curvature="0" />
  </g>
</svg>
