<?xml version="1.0" encoding="UTF-8" standalone="no"?>
<!-- Created with Inkscape (http://www.inkscape.org/) -->

<svg
   xmlns:dc="http://purl.org/dc/elements/1.1/"
   xmlns:cc="http://creativecommons.org/ns#"
   xmlns:rdf="http://www.w3.org/1999/02/22-rdf-syntax-ns#"
   xmlns:svg="http://www.w3.org/2000/svg"
   xmlns="http://www.w3.org/2000/svg"
   xmlns:xlink="http://www.w3.org/1999/xlink"
   xmlns:sodipodi="http://sodipodi.sourceforge.net/DTD/sodipodi-0.dtd"
   xmlns:inkscape="http://www.inkscape.org/namespaces/inkscape"
   width="48"
   height="48"
   id="svg2"
   version="1.1"
   inkscape:version="0.48+devel r11521"
   sodipodi:docname="eog.svg">
  <defs
     id="defs4">
    <linearGradient
       id="linearGradient3839">
      <stop
         id="stop3841"
         offset="0"
         style="stop-color:#d4d4d4;stop-opacity:1;" />
      <stop
         id="stop3843"
         offset="1"
         style="stop-color:#e9e9e9;stop-opacity:1;" />
    </linearGradient>
    <linearGradient
       id="linearGradient3795">
      <stop
         style="stop-color:#0f63b6;stop-opacity:1;"
         offset="0"
         id="stop3797" />
      <stop
         style="stop-color:#65b7d9;stop-opacity:1;"
         offset="1"
         id="stop3799" />
    </linearGradient>
    <linearGradient
       id="linearGradient3698">
      <stop
         id="stop3700"
         offset="0"
         style="stop-color:#96d0e1;stop-opacity:1" />
      <stop
         style="stop-color:#89b7e1;stop-opacity:1"
         offset="0.67819428"
         id="stop3706" />
      <stop
         id="stop3702"
         offset="1"
         style="stop-color:#699dd3;stop-opacity:1" />
    </linearGradient>
    <linearGradient
       id="linearGradient3708">
      <stop
         id="stop3710"
         offset="0"
         style="stop-color:#658d45;stop-opacity:1;" />
      <stop
         style="stop-color:#294056;stop-opacity:1;"
         offset="0.76777935"
         id="stop3716" />
      <stop
         id="stop3712"
         offset="1"
         style="stop-color:#7471a0;stop-opacity:1;" />
    </linearGradient>
    <linearGradient
       id="linearGradient3750">
      <stop
         style="stop-color:#d0e2f1;stop-opacity:1"
         offset="0"
         id="stop3752" />
      <stop
         id="stop3756"
         offset="0.85580856"
         style="stop-color:#cadef0;stop-opacity:1" />
      <stop
         style="stop-color:#95bee3;stop-opacity:1"
         offset="1"
         id="stop3754" />
    </linearGradient>
    <linearGradient
       id="linearGradient3803">
      <stop
         id="stop3805"
         offset="0"
         style="stop-color:#5870f0;stop-opacity:1;" />
      <stop
         style="stop-color:#60ffff;stop-opacity:1;"
         offset="0.5"
         id="stop3811" />
      <stop
         id="stop3807"
         offset="1"
         style="stop-color:#d5def0;stop-opacity:1" />
    </linearGradient>
    <linearGradient
       inkscape:collect="always"
       xlink:href="#linearGradient3839"
       id="linearGradient3801"
       x1="23.204165"
       y1="1053.158"
       x2="23.204165"
       y2="1004.8474"
       gradientUnits="userSpaceOnUse"
       gradientTransform="translate(0,-1004.3622)" />
    <linearGradient
       id="linearGradient3786">
      <stop
         id="stop3788"
         offset="0"
         style="stop-color:#bd792b;stop-opacity:1;" />
      <stop
         id="stop3790"
         offset="1"
         style="stop-color:#eba93a;stop-opacity:1;" />
    </linearGradient>
    <linearGradient
       id="linearGradient3054">
      <stop
         id="stop3056"
         offset="0"
         style="stop-color:#bd792b;stop-opacity:1;" />
      <stop
         id="stop3058"
         offset="1"
         style="stop-color:#eba93a;stop-opacity:1;" />
    </linearGradient>
    <linearGradient
       inkscape:collect="always"
       xlink:href="#linearGradient3795"
       id="linearGradient3833"
       x1="53.625"
       y1="1073.3622"
       x2="53.625"
       y2="1024.9846"
       gradientUnits="userSpaceOnUse" />
    <linearGradient
       inkscape:collect="always"
       xlink:href="#linearGradient3795"
       id="linearGradient3835"
       gradientUnits="userSpaceOnUse"
       x1="41.988213"
       y1="1069.5234"
       x2="41.988213"
       y2="1036.8947" />
    <linearGradient
       inkscape:collect="always"
       xlink:href="#linearGradient3795"
       id="linearGradient3837"
       gradientUnits="userSpaceOnUse"
       x1="54.875"
       y1="1061.9408"
       x2="54.875"
       y2="1031.3898" />
    <linearGradient
       inkscape:collect="always"
       xlink:href="#linearGradient3786"
       id="linearGradient3816"
       x1="13.200194"
       y1="21.470451"
       x2="44.080379"
       y2="21.470451"
       gradientUnits="userSpaceOnUse" />
    <linearGradient
       inkscape:collect="always"
       xlink:href="#linearGradient3708"
       id="linearGradient3828"
       gradientUnits="userSpaceOnUse"
       x1="13.200194"
       y1="21.470451"
       x2="44.080379"
       y2="21.470451"
       gradientTransform="matrix(0.96592583,-0.25881905,0.25881905,0.96592583,-10.33232,1012.0188)" />
    <linearGradient
       inkscape:collect="always"
       xlink:href="#linearGradient3795"
       id="linearGradient3840"
       gradientUnits="userSpaceOnUse"
       x1="54.875"
       y1="1061.9408"
       x2="54.875"
       y2="1031.3898"
       gradientTransform="matrix(1,0,0,0.75260417,-29.125,244.63938)" />
    <linearGradient
       inkscape:collect="always"
       xlink:href="#linearGradient3795"
       id="linearGradient3843"
       gradientUnits="userSpaceOnUse"
       x1="41.988213"
       y1="1069.5234"
       x2="41.988213"
       y2="1036.8947"
       gradientTransform="matrix(1,0,0,0.75260417,-29.125,244.63938)" />
    <linearGradient
       inkscape:collect="always"
       xlink:href="#linearGradient3786"
       id="linearGradient3880"
       gradientUnits="userSpaceOnUse"
       x1="13.200194"
       y1="21.470451"
       x2="44.080379"
       y2="21.470451" />
    <linearGradient
       inkscape:collect="always"
       xlink:href="#linearGradient3786"
       id="linearGradient3887"
       gradientUnits="userSpaceOnUse"
       x1="13.200194"
       y1="21.470451"
       x2="44.080379"
       y2="21.470451"
       gradientTransform="matrix(1.023388,0,0,1,-0.66570467,1003.8319)" />
    <linearGradient
       inkscape:collect="always"
       xlink:href="#linearGradient3803"
       id="linearGradient3893"
       gradientUnits="userSpaceOnUse"
       gradientTransform="matrix(0.92156173,-0.51155593,0.53206393,0.88604085,-18.645312,1023.1434)"
       x1="13.200194"
       y1="21.470451"
       x2="44.080379"
       y2="21.470451" />
    <linearGradient
       inkscape:collect="always"
       xlink:href="#linearGradient3795"
       id="linearGradient3931"
       gradientUnits="userSpaceOnUse"
       gradientTransform="matrix(1,0,0,0.75260417,-29.125,-759.72282)"
       x1="41.988213"
       y1="1069.5234"
       x2="41.988213"
       y2="1040.2729" />
    <linearGradient
       y2="1049.5842"
       x2="24.113745"
       y1="1007.2183"
       x1="24.113745"
       gradientTransform="matrix(0.96799712,0,0,1.0252613,0.76812407,-25.977641)"
       gradientUnits="userSpaceOnUse"
       id="linearGradient878"
       xlink:href="#linearGradient3708-9"
       inkscape:collect="always" />
    <linearGradient
       id="linearGradient3708-9">
      <stop
         id="stop3710-5"
         offset="0"
         style="stop-color:#658db6;stop-opacity:1" />
      <stop
         style="stop-color:#527fab;stop-opacity:1;"
         offset="0.76777935"
         id="stop3716-5" />
      <stop
         id="stop3712-4"
         offset="1"
         style="stop-color:#4071a0;stop-opacity:1" />
    </linearGradient>
  </defs>
  <sodipodi:namedview
     id="base"
     pagecolor="#ffffff"
     bordercolor="#666666"
     borderopacity="1.0"
     inkscape:pageopacity="0.0"
     inkscape:pageshadow="2"
     inkscape:zoom="11.313708"
     inkscape:cx="51.084985"
     inkscape:cy="29.105151"
     inkscape:document-units="px"
     inkscape:current-layer="layer1"
     showgrid="false"
     inkscape:window-width="1920"
     inkscape:window-height="1035"
     inkscape:window-x="0"
     inkscape:window-y="26"
     inkscape:window-maximized="1" />
  <metadata
     id="metadata7">
    <rdf:RDF>
      <cc:Work
         rdf:about="">
        <dc:format>image/svg+xml</dc:format>
        <dc:type
           rdf:resource="http://purl.org/dc/dcmitype/StillImage" />
        <dc:title />
      </cc:Work>
    </rdf:RDF>
  </metadata>
  <g
     inkscape:label="Capa 1"
     inkscape:groupmode="layer"
     id="layer1"
     transform="translate(0,-1004.3622)">
    <path
       style="fill:url(#linearGradient3801);fill-opacity:1;stroke:none"
       d="M 7.375 1.6875 C 4.2307533 1.6875 1.6875 4.2307 1.6875 7.375 L 1.6875 40.625 C 1.6875 43.7692 4.2307533 46.3125 7.375 46.3125 L 40.625 46.3125 C 43.769247 46.3125 46.3125 43.7692 46.3125 40.625 L 46.3125 7.375 C 46.3125 4.2307 43.769247 1.6875 40.625 1.6875 L 7.375 1.6875 z "
       transform="translate(0,1004.3622)"
       id="rect2991" />
    <g
       id="g935"
       transform="matrix(0.96575288,0,0,0.96575288,0.82192635,35.218456)">
      <path
         style="opacity:0.37000002;fill:#000000;fill-opacity:1;stroke:none"
         d="m 1.1452301,1030.6167 21.3281579,-21.3282 c 0.377475,-0.3774 0.985247,-0.3774 1.362722,0 l 15.456392,15.4564 c 0.377475,0.3775 0.377475,0.9853 0,1.3628 l -21.328157,21.3281 c -0.377475,0.3775 -0.985248,0.3775 -1.362722,0 L 1.1452301,1031.9794 c -0.37747477,-0.3775 -0.37747477,-0.9852 0,-1.3627 z"
         id="rect3926"
         inkscape:connector-curvature="0" />
      <path
         style="fill:#ffffff;fill-opacity:1;stroke:none"
         d="m 1.5729449,1030.6159 20.8996581,-20.8996 c 0.367901,-0.3679 0.960244,-0.3679 1.328145,0 l 15.064089,15.064 c 0.367901,0.3679 0.367901,0.9603 0,1.3282 l -20.899658,20.8996 c -0.367893,0.3679 -0.960244,0.3679 -1.328144,0 l -15.0640901,-15.064 c -0.3679006,-0.3679 -0.3678935,-0.9603 0,-1.3282 z"
         id="rect3928"
         inkscape:connector-curvature="0" />
      <path
         style="opacity:0.37000002;fill:#000000;fill-opacity:1;stroke:none"
         d="M 4.7944072,1024.7076 30.91595,1009.6263 c 0.462311,-0.2669 1.049382,-0.1096 1.316297,0.3527 l 10.92932,18.9301 c 0.266915,0.4624 0.109604,1.0494 -0.352707,1.3163 l -26.121543,15.0813 c -0.46231,0.2669 -1.049373,0.1096 -1.316288,-0.3527 L 4.4417087,1026.0239 c -0.266915,-0.4623 -0.1096119,-1.0494 0.3526985,-1.3163 z"
         id="rect3920"
         inkscape:connector-curvature="0" />
      <path
         style="opacity:0.37000002;fill:#000000;fill-opacity:1;stroke:none"
         d="m 11.132172,1019.5836 29.134796,-7.8067 c 0.51564,-0.1381 1.041986,0.1658 1.180152,0.6814 l 5.657442,21.1139 c 0.138158,0.5156 -0.165718,1.042 -0.681358,1.1801 l -29.134796,7.8067 c -0.51565,0.1381 -1.042007,-0.1658 -1.180164,-0.6814 l -5.657443,-21.1139 c -0.138165,-0.5156 0.165721,-1.042 0.681371,-1.1801 z"
         id="rect3922"
         inkscape:connector-curvature="0" />
      <path
         sodipodi:nodetypes="ccccc"
         inkscape:connector-curvature="0"
         id="path3891"
         d="m 2.9217058,1031.7485 11.8828542,11.4688 20.384621,-19.599 -11.830521,-11.7031 z"
         style="fill:url(#linearGradient3893);fill-opacity:1;stroke:none" />
      <path
         inkscape:connector-curvature="0"
         id="rect3873"
         d="m 5.2076969,1024.8175 25.5967491,-14.7783 c 0.450576,-0.2601 1.022744,-0.1068 1.282884,0.3437 l 10.651925,18.4497 c 0.260145,0.4506 0.106827,1.0228 -0.343749,1.2829 l -25.596749,14.7783 c -0.450576,0.2601 -1.022744,0.1068 -1.282889,-0.3438 L 4.8639428,1026.1004 c -0.26014,-0.4506 -0.1068216,-1.0228 0.3437541,-1.2829 z"
         style="fill:#ffffff;fill-opacity:1;stroke:none" />
      <path
         style="fill:url(#linearGradient3828);fill-opacity:1;stroke:none"
         d="m 7.0675515,1025.3885 7.8849755,13.7179 23.461467,-13.5456 -7.778194,-13.9264 z"
         id="path3826"
         inkscape:connector-curvature="0"
         sodipodi:nodetypes="ccccc" />
      <path
         inkscape:connector-curvature="0"
         id="rect3924"
         d="m 11.50297,1019.7968 28.549474,-7.6499 c 0.502552,-0.1346 1.015546,0.1616 1.150207,0.6641 l 5.513842,20.578 c 0.134663,0.5025 -0.161531,1.0155 -0.664083,1.1501 l -28.549474,7.6498 c -0.502552,0.1347 -1.015533,-0.1614 -1.150196,-0.664 l -5.513842,-20.5779 c -0.134661,-0.5026 0.16152,-1.0156 0.664072,-1.1502 z"
         style="fill:#ffffff;fill-opacity:1;stroke:none" />
      <path
         sodipodi:nodetypes="ccccc"
         inkscape:connector-curvature="0"
         id="path3039"
         d="m 12.993088,1021.2495 4.160955,15.2912 26.779892,-7.0116 -4.000134,-15.4651 z"
         style="fill:url(#linearGradient3887);fill-opacity:1;stroke:none" />
      <path
         inkscape:connector-curvature="0"
         id="path3818"
         d="m 21.885913,1029.3956 -2.207438,-1.4739 -2.465658,0.9828 0.7197,-2.5549 -1.696643,-2.0413 2.652237,-0.105 1.417075,-2.2444 0.919473,2.49 2.572443,0.6541 -2.083971,1.644 z"
         inkscape:transform-center-x="0.9992673"
         style="fill:#4d4d4d;fill-opacity:1;stroke:none" />
      <path
         inkscape:connector-curvature="0"
         id="path3820"
         d="m 28.073097,1032.224 -2.207438,-1.4739 -2.465658,0.9828 0.7197,-2.5549 -1.696643,-2.0413 2.652237,-0.105 1.417075,-2.2444 0.919473,2.49 2.572443,0.6541 -2.083971,1.644 z"
         inkscape:transform-center-x="0.9992673"
         style="fill:#800000;fill-opacity:1;stroke:none" />
      <path
         inkscape:connector-curvature="0"
         id="path3822"
         d="m 31.520243,1025.5949 -2.207438,-1.4739 -2.465658,0.9828 0.7197,-2.5549 -1.696643,-2.0413 2.652237,-0.105 1.417075,-2.2444 0.919473,2.49 2.572443,0.6541 -2.083971,1.644 z"
         inkscape:transform-center-x="0.9992673"
         style="fill:#483737;fill-opacity:1;stroke:none" />
      <path
         inkscape:connector-curvature="0"
         id="path3824"
         d="m 39.210029,1030.5446 -2.207438,-1.4739 -2.465658,0.9828 0.7197,-2.5549 -1.696643,-2.0413 2.652237,-0.105 1.417075,-2.2444 0.919473,2.49 2.572443,0.6541 -2.083971,1.644 z"
         inkscape:transform-center-x="0.9992673"
         style="fill:#ff6600;fill-opacity:1;stroke:none" />
    </g>
    <path
       style="opacity:0.9;fill:url(#linearGradient3931);fill-opacity:1;stroke:none"
       d="M 1.6875 11.875 L 1.6875 40.625 C 1.6875 43.7692 4.2307533 46.3125 7.375 46.3125 L 40.625 46.3125 C 43.769247 46.3125 46.3125 43.7692 46.3125 40.625 L 46.3125 16.375 L 28.375 16.375 L 28.375 13.65625 C 28.375 12.66805 27.581938 11.875 26.59375 11.875 L 1.78125 11.875 C 1.7505821 11.875 1.7177742 11.87349 1.6875 11.875 z "
       transform="translate(0,1004.3622)"
       id="rect3014" />
  </g>
</svg>
