<?xml version="1.0" encoding="UTF-8" standalone="no"?>
<!-- Created with Inkscape (http://www.inkscape.org/) -->

<svg
   xmlns:dc="http://purl.org/dc/elements/1.1/"
   xmlns:cc="http://creativecommons.org/ns#"
   xmlns:rdf="http://www.w3.org/1999/02/22-rdf-syntax-ns#"
   xmlns:svg="http://www.w3.org/2000/svg"
   xmlns="http://www.w3.org/2000/svg"
   xmlns:xlink="http://www.w3.org/1999/xlink"
   xmlns:sodipodi="http://sodipodi.sourceforge.net/DTD/sodipodi-0.dtd"
   xmlns:inkscape="http://www.inkscape.org/namespaces/inkscape"
   width="48"
   height="48"
   id="svg3066"
   version="1.1"
   inkscape:version="0.48+devel r11521"
   sodipodi:docname="dconf-editor.svg">
  <defs
     id="defs3068">
    <linearGradient
       id="linearGradient834"
       y2="745.96997"
       gradientUnits="userSpaceOnUse"
       x2="190.87"
       y1="715.69"
       x1="177.02">
      <stop
         id="stop836"
         style="stop-color:#e3e3e3;stop-opacity:1"
         offset="0" />
      <stop
         id="stop838"
         style="stop-color:#a4a4a4;stop-opacity:1"
         offset="1" />
    </linearGradient>
    <linearGradient
       id="linearGradient3879">
      <stop
         style="stop-color:#dbdbdb;stop-opacity:1;"
         offset="0"
         id="stop3881" />
      <stop
         style="stop-color:#a6a6a6;stop-opacity:1;"
         offset="1"
         id="stop3883" />
    </linearGradient>
    <linearGradient
       inkscape:collect="always"
       xlink:href="#linearGradient3795"
       id="linearGradient4079"
       gradientUnits="userSpaceOnUse"
       x1="23.204165"
       y1="1053.158"
       x2="23.204165"
       y2="1004.8474" />
    <linearGradient
       id="linearGradient3795">
      <stop
         style="stop-color:#c9c9c9;stop-opacity:1;"
         offset="0"
         id="stop3797" />
      <stop
         style="stop-color:#efefef;stop-opacity:1;"
         offset="1"
         id="stop3799" />
    </linearGradient>
    <linearGradient
       y2="1037.6692"
       x2="23.204165"
       y1="1053.158"
       x1="23.204165"
       gradientUnits="userSpaceOnUse"
       id="linearGradient3064"
       xlink:href="#linearGradient3795"
       inkscape:collect="always"
       gradientTransform="translate(0,2.9e-5)" />
    <radialGradient
       inkscape:collect="always"
       xlink:href="#linearGradient3879"
       id="radialGradient3885"
       cx="24"
       cy="1028.3622"
       fx="24"
       fy="1028.3622"
       r="18.056477"
       gradientTransform="matrix(1.4551505,0,0,1.088849,-10.923612,-91.368974)"
       gradientUnits="userSpaceOnUse" />
    <linearGradient
       inkscape:collect="always"
       xlink:href="#linearGradient3795"
       id="linearGradient3891"
       gradientUnits="userSpaceOnUse"
       gradientTransform="translate(-80.685935,-1004.3622)"
       x1="23.204165"
       y1="1053.158"
       x2="23.204165"
       y2="1037.6692" />
    <radialGradient
       inkscape:collect="always"
       xlink:href="#linearGradient3879"
       id="radialGradient3893"
       gradientUnits="userSpaceOnUse"
       gradientTransform="matrix(1.4551505,0,0,1.088849,-10.671074,-91.495243)"
       cx="24"
       cy="1028.3622"
       fx="24"
       fy="1028.3622"
       r="18.056477" />
    <radialGradient
       inkscape:collect="always"
       xlink:href="#linearGradient3879"
       id="radialGradient3897"
       gradientUnits="userSpaceOnUse"
       gradientTransform="matrix(1.4551505,0,0,1.088849,-91.609552,-91.369007)"
       cx="24"
       cy="1028.3622"
       fx="24"
       fy="1028.3622"
       r="18.056477" />
    <linearGradient
       inkscape:collect="always"
       xlink:href="#linearGradient3879"
       id="linearGradient3908"
       x1="18.091589"
       y1="23.369341"
       x2="18.091589"
       y2="28.902662"
       gradientUnits="userSpaceOnUse" />
    <linearGradient
       y2="1049.5842"
       x2="24.113745"
       y1="1007.2183"
       x1="24.113745"
       gradientTransform="matrix(0.96799712,0,0,1.0252613,0.76811925,-25.978236)"
       gradientUnits="userSpaceOnUse"
       id="linearGradient3201"
       xlink:href="#linearGradient4042"
       inkscape:collect="always" />
    <linearGradient
       x1="177.02"
       y1="715.69"
       x2="190.87"
       gradientUnits="userSpaceOnUse"
       y2="745.96997"
       id="linearGradient4042">
      <stop
         offset="0"
         style="stop-color:#f5f5f5;stop-opacity:1;"
         id="stop4117" />
      <stop
         offset="1"
         style="stop-color:#d1d2cd;stop-opacity:1;"
         id="stop4119" />
    </linearGradient>
    <linearGradient
       y2="1049.5842"
       x2="24.113745"
       y1="1026.3446"
       x1="24.113745"
       gradientTransform="matrix(0.96799712,0,0,1.0252613,0.76812041,-25.978488)"
       gradientUnits="userSpaceOnUse"
       id="linearGradient3095"
       xlink:href="#linearGradient834"
       inkscape:collect="always" />
    <radialGradient
       inkscape:collect="always"
       xlink:href="#linearGradient3879"
       id="radialGradient3085"
       gradientUnits="userSpaceOnUse"
       gradientTransform="matrix(1.4551505,0,0,1.088849,-10.671074,-1095.8574)"
       cx="24"
       cy="1028.3622"
       fx="24"
       fy="1028.3622"
       r="18.056477" />
    <linearGradient
       inkscape:collect="always"
       xlink:href="#linearGradient3879"
       id="linearGradient3096"
       gradientUnits="userSpaceOnUse"
       x1="18.091589"
       y1="23.369341"
       x2="18.091589"
       y2="28.902662" />
    <linearGradient
       inkscape:collect="always"
       xlink:href="#linearGradient3879"
       id="linearGradient840"
       x1="26.215185"
       y1="23.354954"
       x2="25.557335"
       y2="31.611546"
       gradientUnits="userSpaceOnUse" />
  </defs>
  <sodipodi:namedview
     id="base"
     pagecolor="#ffffff"
     bordercolor="#666666"
     borderopacity="1.0"
     inkscape:pageopacity="0.0"
     inkscape:pageshadow="2"
     inkscape:zoom="7.7513819"
     inkscape:cx="-14.728381"
     inkscape:cy="32.604896"
     inkscape:document-units="px"
     inkscape:current-layer="layer1"
     showgrid="false"
     inkscape:window-width="1920"
     inkscape:window-height="1035"
     inkscape:window-x="0"
     inkscape:window-y="26"
     inkscape:window-maximized="1" />
  <metadata
     id="metadata3071">
    <rdf:RDF>
      <cc:Work
         rdf:about="">
        <dc:format>image/svg+xml</dc:format>
        <dc:type
           rdf:resource="http://purl.org/dc/dcmitype/StillImage" />
        <dc:title />
      </cc:Work>
    </rdf:RDF>
  </metadata>
  <g
     inkscape:label="Capa 1"
     inkscape:groupmode="layer"
     id="layer1"
     transform="translate(0,-1004.3622)">
    <rect
       style="fill:url(#linearGradient3095);fill-opacity:1;stroke:#7d7d7d;stroke-width:0.39848712;stroke-miterlimit:4;stroke-opacity:1;stroke-dasharray:none"
       id="rect3184"
       width="44.601513"
       height="44.601513"
       x="1.6992435"
       y="1006.0615"
       ry="5.6755357" />
    <g
       id="g3088"
       transform="translate(-0.015625,1.2789917e-5)">
      <path
         id="rect3877"
         transform="translate(0,1004.3622)"
         d="m 14.25,16.4375 c -4.18962,0 -7.53125,3.3729 -7.53125,7.5625 0,4.1896 3.34162,7.5625 7.53125,7.5625 l 19.5,0 c 4.18963,0 7.5625,-3.3729 7.5625,-7.5625 0,-4.1896 -3.37287,-7.5625 -7.5625,-7.5625 l -19.5,0 z"
         style="fill:url(#linearGradient840);fill-opacity:1;stroke:#808080"
         inkscape:connector-curvature="0" />
      <path
         transform="translate(-2.5645166,1005.616)"
         d="m 26.895311,22.746187 c 0,4.881554 -3.957281,8.838835 -8.838834,8.838835 -4.881554,0 -8.8388352,-3.957281 -8.8388352,-8.838835 0,-4.881553 3.9572812,-8.838835 8.8388352,-8.838835 4.881553,0 8.838834,3.957282 8.838834,8.838835 z"
         sodipodi:ry="8.8388348"
         sodipodi:rx="8.8388348"
         sodipodi:cy="22.746187"
         sodipodi:cx="18.056477"
         id="path3900"
         style="fill:url(#linearGradient3096);fill-opacity:1;stroke:#999999;stroke-width:0.69999999;stroke-linecap:round;stroke-linejoin:round;stroke-miterlimit:4;stroke-opacity:1;stroke-dasharray:none"
         sodipodi:type="arc" />
      <text
         sodipodi:linespacing="125%"
         id="text3910"
         y="1030.3829"
         x="26.149632"
         style="font-size:5.68480062px;font-style:normal;font-variant:normal;font-weight:bold;font-stretch:normal;line-height:125%;letter-spacing:0px;word-spacing:0px;fill:#000000;fill-opacity:1;stroke:none;font-family:Decker;-inkscape-font-specification:Decker Bold"
         xml:space="preserve"><tspan
           y="1030.3829"
           x="26.149632"
           id="tspan3912"
           sodipodi:role="line">OFF</tspan></text>
    </g>
  </g>
</svg>
