<?xml version="1.0" encoding="UTF-8" standalone="no"?>
<!-- Created with Inkscape (http://www.inkscape.org/) -->

<svg
   xmlns:dc="http://purl.org/dc/elements/1.1/"
   xmlns:cc="http://creativecommons.org/ns#"
   xmlns:rdf="http://www.w3.org/1999/02/22-rdf-syntax-ns#"
   xmlns:svg="http://www.w3.org/2000/svg"
   xmlns="http://www.w3.org/2000/svg"
   xmlns:xlink="http://www.w3.org/1999/xlink"
   xmlns:sodipodi="http://sodipodi.sourceforge.net/DTD/sodipodi-0.dtd"
   xmlns:inkscape="http://www.inkscape.org/namespaces/inkscape"
   width="48"
   height="48"
   id="svg2"
   version="1.1"
   inkscape:version="0.48+devel r11717"
   sodipodi:docname="google.svg">
  <defs
     id="defs4">
    <linearGradient
       id="linearGradient842">
      <stop
         id="stop844"
         offset="0"
         style="stop-color:#ffcc00;stop-opacity:1" />
      <stop
         id="stop846"
         offset="1"
         style="stop-color:#ffa700;stop-opacity:1" />
    </linearGradient>
    <linearGradient
       id="linearGradient3795">
      <stop
         style="stop-color:#68b8d8;stop-opacity:1;"
         offset="0"
         id="stop3797" />
      <stop
         style="stop-color:#3097bd;stop-opacity:1;"
         offset="1"
         id="stop3799" />
    </linearGradient>
    <linearGradient
       id="linearGradient3698">
      <stop
         id="stop3700"
         offset="0"
         style="stop-color:#96d0e1;stop-opacity:1" />
      <stop
         style="stop-color:#89b7e1;stop-opacity:1"
         offset="0.67819428"
         id="stop3706" />
      <stop
         id="stop3702"
         offset="1"
         style="stop-color:#699dd3;stop-opacity:1" />
    </linearGradient>
    <linearGradient
       id="linearGradient3708">
      <stop
         id="stop3710"
         offset="0"
         style="stop-color:#658db6;stop-opacity:1" />
      <stop
         style="stop-color:#527fab;stop-opacity:1;"
         offset="0.76777935"
         id="stop3716" />
      <stop
         id="stop3712"
         offset="1"
         style="stop-color:#4071a0;stop-opacity:1" />
    </linearGradient>
    <linearGradient
       id="linearGradient3750">
      <stop
         style="stop-color:#d0e2f1;stop-opacity:1"
         offset="0"
         id="stop3752" />
      <stop
         id="stop3756"
         offset="0.85580856"
         style="stop-color:#cadef0;stop-opacity:1" />
      <stop
         style="stop-color:#95bee3;stop-opacity:1"
         offset="1"
         id="stop3754" />
    </linearGradient>
    <linearGradient
       id="linearGradient3803">
      <stop
         id="stop3805"
         offset="0"
         style="stop-color:#d7def0;stop-opacity:1;" />
      <stop
         style="stop-color:#ffffff;stop-opacity:1"
         offset="0.5"
         id="stop3811" />
      <stop
         id="stop3807"
         offset="1"
         style="stop-color:#d5def0;stop-opacity:1" />
    </linearGradient>
    <linearGradient
       inkscape:collect="always"
       xlink:href="#linearGradient3795"
       id="linearGradient3801"
       x1="23.204165"
       y1="1053.158"
       x2="23.204165"
       y2="1004.8474"
       gradientUnits="userSpaceOnUse"
       gradientTransform="translate(0,-2056.7244)" />
    <linearGradient
       inkscape:collect="always"
       xlink:href="#linearGradient3795"
       id="linearGradient3859"
       x1="26.192217"
       y1="1024.0002"
       x2="28.641211"
       y2="1024.0002"
       gradientUnits="userSpaceOnUse" />
    <linearGradient
       inkscape:collect="always"
       xlink:href="#linearGradient3795"
       id="linearGradient3867"
       gradientUnits="userSpaceOnUse"
       x1="26.192217"
       y1="1024.0002"
       x2="28.641211"
       y2="1024.0002" />
    <linearGradient
       inkscape:collect="always"
       xlink:href="#linearGradient3795"
       id="linearGradient3869"
       gradientUnits="userSpaceOnUse"
       x1="26.192217"
       y1="1024.0002"
       x2="28.641211"
       y2="1024.0002" />
    <linearGradient
       inkscape:collect="always"
       xlink:href="#linearGradient3795"
       id="linearGradient3871"
       gradientUnits="userSpaceOnUse"
       x1="26.192217"
       y1="1024.0002"
       x2="28.641211"
       y2="1024.0002" />
    <linearGradient
       inkscape:collect="always"
       xlink:href="#linearGradient3795"
       id="linearGradient3877"
       gradientUnits="userSpaceOnUse"
       x1="29.718235"
       y1="1027.8575"
       x2="22.811094"
       y2="1015.5485" />
    <linearGradient
       inkscape:collect="always"
       xlink:href="#linearGradient3795"
       id="linearGradient3879"
       gradientUnits="userSpaceOnUse"
       x1="17.196316"
       y1="1006.2238"
       x2="31.448042"
       y2="1030.9086" />
    <linearGradient
       inkscape:collect="always"
       xlink:href="#linearGradient3795"
       id="linearGradient3895"
       x1="21.973417"
       y1="34.43922"
       x2="42.475323"
       y2="24.798252"
       gradientUnits="userSpaceOnUse" />
    <linearGradient
       inkscape:collect="always"
       xlink:href="#linearGradient3895-8"
       id="linearGradient3857"
       gradientUnits="userSpaceOnUse"
       gradientTransform="matrix(0.96799712,0,0,1.0252613,604.84439,-419.13965)"
       x1="24.113745"
       y1="1049.2139"
       x2="24.113745"
       y2="1007.5135" />
    <linearGradient
       id="linearGradient3895-8">
      <stop
         id="stop3897"
         offset="0"
         style="stop-color:#e0880b;stop-opacity:1;" />
      <stop
         id="stop3899"
         offset="1"
         style="stop-color:#f7ce50;stop-opacity:1;" />
    </linearGradient>
    <linearGradient
       inkscape:collect="always"
       xlink:href="#linearGradient861"
       id="linearGradient3801-0"
       x1="23.204165"
       y1="1053.158"
       x2="23.204165"
       y2="1004.8474"
       gradientUnits="userSpaceOnUse"
       gradientTransform="translate(0,-2056.7244)" />
    <linearGradient
       id="linearGradient861">
      <stop
         style="stop-color:#87cdde;stop-opacity:1"
         offset="0"
         id="stop863" />
      <stop
         style="stop-color:#006680;stop-opacity:1"
         offset="1"
         id="stop865" />
    </linearGradient>
    <linearGradient
       inkscape:collect="always"
       xlink:href="#linearGradient861-5"
       id="linearGradient958"
       x1="24.04163"
       y1="-1005.3812"
       x2="24.04163"
       y2="-1051.6967"
       gradientUnits="userSpaceOnUse" />
    <linearGradient
       id="linearGradient861-5">
      <stop
         style="stop-color:#d35fbc;stop-opacity:1"
         offset="0"
         id="stop863-8" />
      <stop
         style="stop-color:#a02c89;stop-opacity:1"
         offset="1"
         id="stop865-3" />
    </linearGradient>
    <linearGradient
       id="linearGradient1003">
      <stop
         style="stop-color:#5fd35f;stop-opacity:1"
         offset="0"
         id="stop1005" />
      <stop
         style="stop-color:#008000;stop-opacity:1"
         offset="1"
         id="stop1007" />
    </linearGradient>
    <linearGradient
       id="linearGradient3795-9">
      <stop
         id="stop3797-7"
         offset="0"
         style="stop-color:#e8e8e8;stop-opacity:1;" />
      <stop
         id="stop3799-1"
         offset="1"
         style="stop-color:#cdcdcd;stop-opacity:1;" />
    </linearGradient>
    <linearGradient
       id="linearGradient3698-1">
      <stop
         style="stop-color:#96d0e1;stop-opacity:1"
         offset="0"
         id="stop3700-7" />
      <stop
         id="stop3706-5"
         offset="0.67819428"
         style="stop-color:#89b7e1;stop-opacity:1" />
      <stop
         style="stop-color:#699dd3;stop-opacity:1"
         offset="1"
         id="stop3702-6" />
    </linearGradient>
    <linearGradient
       id="linearGradient3708-4">
      <stop
         style="stop-color:#658db6;stop-opacity:1"
         offset="0"
         id="stop3710-9" />
      <stop
         id="stop3716-3"
         offset="0.76777935"
         style="stop-color:#527fab;stop-opacity:1;" />
      <stop
         style="stop-color:#4071a0;stop-opacity:1"
         offset="1"
         id="stop3712-0" />
    </linearGradient>
    <linearGradient
       id="linearGradient3750-9">
      <stop
         id="stop3752-0"
         offset="0"
         style="stop-color:#d0e2f1;stop-opacity:1" />
      <stop
         style="stop-color:#cadef0;stop-opacity:1"
         offset="0.85580856"
         id="stop3756-3" />
      <stop
         id="stop3754-1"
         offset="1"
         style="stop-color:#95bee3;stop-opacity:1" />
    </linearGradient>
    <linearGradient
       id="linearGradient3803-1">
      <stop
         style="stop-color:#d7def0;stop-opacity:1;"
         offset="0"
         id="stop3805-6" />
      <stop
         id="stop3811-2"
         offset="0.5"
         style="stop-color:#ffffff;stop-opacity:1" />
      <stop
         style="stop-color:#d5def0;stop-opacity:1"
         offset="1"
         id="stop3807-0" />
    </linearGradient>
    <linearGradient
       gradientUnits="userSpaceOnUse"
       y2="1024.0002"
       x2="28.641211"
       y1="1024.0002"
       x1="26.192217"
       id="linearGradient3859-1"
       xlink:href="#linearGradient3795-9"
       inkscape:collect="always" />
    <linearGradient
       y2="1024.0002"
       x2="28.641211"
       y1="1024.0002"
       x1="26.192217"
       gradientUnits="userSpaceOnUse"
       id="linearGradient3867-6"
       xlink:href="#linearGradient3795-9"
       inkscape:collect="always" />
    <linearGradient
       y2="1024.0002"
       x2="28.641211"
       y1="1024.0002"
       x1="26.192217"
       gradientUnits="userSpaceOnUse"
       id="linearGradient3869-1"
       xlink:href="#linearGradient3795-9"
       inkscape:collect="always" />
    <linearGradient
       y2="1024.0002"
       x2="28.641211"
       y1="1024.0002"
       x1="26.192217"
       gradientUnits="userSpaceOnUse"
       id="linearGradient3871-2"
       xlink:href="#linearGradient3795-9"
       inkscape:collect="always" />
    <linearGradient
       y2="1015.5485"
       x2="22.811094"
       y1="1027.8575"
       x1="29.718235"
       gradientUnits="userSpaceOnUse"
       id="linearGradient3877-9"
       xlink:href="#linearGradient3795-9"
       inkscape:collect="always" />
    <linearGradient
       y2="1030.9086"
       x2="31.448042"
       y1="1006.2238"
       x1="17.196316"
       gradientUnits="userSpaceOnUse"
       id="linearGradient3879-6"
       xlink:href="#linearGradient3795-9"
       inkscape:collect="always" />
    <linearGradient
       gradientUnits="userSpaceOnUse"
       y2="24.798252"
       x2="42.475323"
       y1="34.43922"
       x1="21.973417"
       id="linearGradient3895-3"
       xlink:href="#linearGradient3795-9"
       inkscape:collect="always" />
    <radialGradient
       gradientTransform="matrix(2.1446,0.54333,-0.23563,0.93006,-92.14468,107.95031)"
       r="25.774"
       cy="846.39001"
       cx="213.74001"
       gradientUnits="userSpaceOnUse"
       id="radialGradient4036-3">
      <stop
         offset="0"
         style="stop-color:#fff"
         id="stop4012-29" />
      <stop
         offset="1"
         style="stop-color:#fff;stop-opacity:0"
         id="stop4014-0" />
    </radialGradient>
    <clipPath
       clipPathUnits="userSpaceOnUse"
       id="clipPath4157">
      <path
         d="m 269.47,688.53 c 15.602,15.625 19.169,37.385 19.169,37.385 0,0 -21.729,-3.5724 -37.33,-19.197 -15.602,-15.625 -19.169,-37.385 -19.169,-37.385 0,0 21.729,3.5724 37.33,19.197 z"
         style="color:#000000;fill:#f57900;fill-rule:evenodd;enable-background:new"
         id="path4159"
         inkscape:connector-curvature="0" />
    </clipPath>
    <filter
       color-interpolation-filters="sRGB"
       height="1.2398"
       x="-0.12009"
       y="-0.11991"
       width="1.2402"
       id="filter4161">
      <feGaussianBlur
         stdDeviation="2.8270453"
         id="feGaussianBlur4163" />
    </filter>
    <clipPath
       clipPathUnits="userSpaceOnUse"
       id="clipPath4083">
      <path
         d="m 515.87,745.01 c 15.602,15.625 19.169,37.385 19.169,37.385 0,0 -21.729,-3.5724 -37.33,-19.197 -15.602,-15.625 -19.169,-37.385 -19.169,-37.385 0,0 21.729,3.5724 37.33,19.197 z"
         style="color:#000000;fill:#729fcf;fill-rule:evenodd;enable-background:new"
         id="path4085"
         inkscape:connector-curvature="0" />
    </clipPath>
    <filter
       color-interpolation-filters="sRGB"
       height="1.2398"
       x="-0.12009"
       y="-0.11991"
       width="1.2402"
       id="filter4087">
      <feGaussianBlur
         stdDeviation="2.8270455"
         id="feGaussianBlur4089" />
    </filter>
    <clipPath
       clipPathUnits="userSpaceOnUse"
       id="clipPath4071">
      <path
         d="m 515.87,706.72 c -15.602,15.625 -37.33,19.197 -37.33,19.197 0,0 3.5672,-21.76 19.169,-37.385 15.6018,-15.625 37.33,-19.197 37.33,-19.197 0,0 -3.5672,21.76 -19.169,37.385 z"
         style="color:#000000;fill:#afea2c;fill-rule:evenodd;enable-background:new"
         id="path4073"
         inkscape:connector-curvature="0" />
    </clipPath>
    <filter
       color-interpolation-filters="sRGB"
       height="1.2398"
       x="-0.12009"
       y="-0.11991"
       width="1.2402"
       id="filter4075">
      <feGaussianBlur
         stdDeviation="2.8270455"
         id="feGaussianBlur4077" />
    </filter>
    <clipPath
       clipPathUnits="userSpaceOnUse"
       id="clipPath4133">
      <path
         d="m 538.47,738.73 c -22.064,0 -39.951,-12.861 -39.951,-12.861 0,0 17.887,-12.861 39.951,-12.861 22.064,0 39.951,12.861 39.951,12.861 0,0 -17.887,12.861 -39.951,12.861 z"
         style="color:#000000;fill:#65c808;fill-rule:evenodd;enable-background:new"
         id="path4135"
         inkscape:connector-curvature="0" />
    </clipPath>
    <filter
       color-interpolation-filters="sRGB"
       height="1.4928"
       x="-0.079314999"
       y="-0.24639"
       width="1.1586"
       id="filter4137">
      <feGaussianBlur
         stdDeviation="2.6406015"
         id="feGaussianBlur4139" />
    </filter>
    <clipPath
       clipPathUnits="userSpaceOnUse"
       id="clipPath4197">
      <path
         d="m 299.47,763.2 c -15.602,15.625 -37.33,19.197 -37.33,19.197 0,0 3.5672,-21.76 19.169,-37.385 15.6018,-15.625 37.33,-19.197 37.33,-19.197 0,0 -3.5672,21.76 -19.169,37.385 z"
         style="color:#000000;fill:#75507b;fill-rule:evenodd;enable-background:new"
         id="path4199"
         inkscape:connector-curvature="0" />
    </clipPath>
    <filter
       color-interpolation-filters="sRGB"
       height="1.2398"
       x="-0.12009"
       y="-0.11991"
       width="1.2402"
       id="filter4201">
      <feGaussianBlur
         stdDeviation="2.8270453"
         id="feGaussianBlur4203" />
    </filter>
    <clipPath
       clipPathUnits="userSpaceOnUse"
       id="clipPath4181">
      <path
         d="m 348.71,698.73 c -22.064,0 -39.951,-12.861 -39.951,-12.861 0,0 17.887,-12.861 39.951,-12.861 22.064,0 39.951,12.861 39.951,12.861 0,0 -17.887,12.861 -39.951,12.861 z"
         style="color:#000000;fill:#ef2929;fill-rule:evenodd;enable-background:new"
         id="path4183"
         inkscape:connector-curvature="0" />
    </clipPath>
    <filter
       color-interpolation-filters="sRGB"
       height="1.4928"
       x="-0.079314999"
       y="-0.24639"
       width="1.1586"
       id="filter4189">
      <feGaussianBlur
         stdDeviation="2.6406013"
         id="feGaussianBlur4191" />
    </filter>
    <clipPath
       clipPathUnits="userSpaceOnUse"
       id="clipPath4145">
      <path
         d="m 401.43,865.8 c 0,22.097 -12.842,40.01 -12.842,40.01 0,0 -12.842,-17.913 -12.842,-40.01 0,-22.097 12.842,-40.01 12.842,-40.01 0,0 12.842,17.913 12.842,40.01 z"
         style="color:#000000;fill:#3465a4;fill-rule:evenodd;enable-background:new"
         id="path4147"
         inkscape:connector-curvature="0" />
    </clipPath>
    <filter
       color-interpolation-filters="sRGB"
       height="1.1585"
       x="-0.24693"
       y="-0.079258002"
       width="1.4938999"
       id="filter4149">
      <feGaussianBlur
         stdDeviation="2.642588"
         id="feGaussianBlur4151" />
    </filter>
    <clipPath
       clipPathUnits="userSpaceOnUse"
       id="clipPath4169">
      <path
         d="m 471.43,685.93 c 0,22.097 -12.842,40.01 -12.842,40.01 0,0 -12.842,-17.913 -12.842,-40.01 0,-22.097 12.842,-40.01 12.842,-40.01 0,0 12.842,17.913 12.842,40.01 z"
         style="color:#000000;fill:#edd400;fill-rule:evenodd;enable-background:new"
         id="path4171"
         inkscape:connector-curvature="0" />
    </clipPath>
    <filter
       color-interpolation-filters="sRGB"
       height="1.1585"
       x="-0.24693"
       y="-0.079258002"
       width="1.4938999"
       id="filter4173">
      <feGaussianBlur
         stdDeviation="2.642588"
         id="feGaussianBlur4175" />
    </filter>
    <radialGradient
       id="radialGradient4036-3-6"
       gradientUnits="userSpaceOnUse"
       cx="213.74"
       cy="846.39"
       r="25.774"
       gradientTransform="matrix(2.1446,0.54333,-0.23563,0.93006,-46.185,-798.23)">
      <stop
         id="stop4012-29-2"
         style="stop-color:#fff"
         offset="0" />
      <stop
         id="stop4014-0-5"
         style="stop-color:#fff;stop-opacity:0"
         offset="1" />
    </radialGradient>
    <radialGradient
       id="radialGradient4036-6"
       gradientUnits="userSpaceOnUse"
       cx="174.42"
       cy="689.06"
       r="25.774"
       gradientTransform="matrix(0.66762,-1.2556,0.62963,0.33477,-513.52,163.93)">
      <stop
         id="stop4012-3"
         style="stop-color:#fff"
         offset="0" />
      <stop
         id="stop4014-4"
         style="stop-color:#fff;stop-opacity:0"
         offset="1" />
    </radialGradient>
    <radialGradient
       id="radialGradient4036-9"
       gradientUnits="userSpaceOnUse"
       cx="196.29"
       cy="714.44"
       r="25.774"
       gradientTransform="matrix(-0.59883,-1.0815,1.5121,-0.83725,-944.83,910.25)">
      <stop
         id="stop4012-2"
         style="stop-color:#fff"
         offset="0" />
      <stop
         id="stop4014-51"
         style="stop-color:#fff;stop-opacity:0"
         offset="1" />
    </radialGradient>
    <radialGradient
       id="radialGradient4036"
       gradientUnits="userSpaceOnUse"
       cx="190.11"
       cy="803.94"
       r="25.774"
       gradientTransform="matrix(-7.1009,-3.7574,0.65284,-1.2338,945.4,1718.8)">
      <stop
         id="stop4012-4"
         style="stop-color:#fff"
         offset="0" />
      <stop
         id="stop4014-5"
         style="stop-color:#fff;stop-opacity:0"
         offset="1" />
    </radialGradient>
    <filter
       id="filter4144"
       color-interpolation-filters="sRGB">
      <feGaussianBlur
         id="feGaussianBlur4146"
         stdDeviation="0.52449438" />
    </filter>
    <linearGradient
       id="linearGradient4042"
       y2="745.97"
       gradientUnits="userSpaceOnUse"
       x2="190.87"
       y1="715.69"
       x1="177.02">
      <stop
         id="stop4117"
         style="stop-color:#e3e3e1"
         offset="0" />
      <stop
         id="stop4119"
         style="stop-color:#7f8376"
         offset="1" />
    </linearGradient>
    <filter
       id="filter4161-2"
       width="1.2402"
       y="-.11991"
       x="-.12009"
       height="1.2398"
       color-interpolation-filters="sRGB">
      <feGaussianBlur
         id="feGaussianBlur4163-7"
         stdDeviation="2.8270453" />
    </filter>
    <clipPath
       id="clipPath4157-4"
       clipPathUnits="userSpaceOnUse">
      <path
         id="path4159-8"
         style="color:#000000;fill-rule:evenodd;enable-background:new;fill:#f57900"
         d="m269.47 688.53c15.602 15.625 19.169 37.385 19.169 37.385s-21.729-3.5724-37.33-19.197c-15.602-15.625-19.169-37.385-19.169-37.385s21.729 3.5724 37.33 19.197z" />
    </clipPath>
    <filter
       id="filter4087-4"
       width="1.2402"
       y="-.11991"
       x="-.12009"
       height="1.2398"
       color-interpolation-filters="sRGB">
      <feGaussianBlur
         id="feGaussianBlur4089-4"
         stdDeviation="2.8270455" />
    </filter>
    <clipPath
       id="clipPath4083-1"
       clipPathUnits="userSpaceOnUse">
      <path
         id="path4085-9"
         style="color:#000000;fill-rule:evenodd;enable-background:new;fill:#729fcf"
         d="m515.87 745.01c15.602 15.625 19.169 37.385 19.169 37.385s-21.729-3.5724-37.33-19.197c-15.602-15.625-19.169-37.385-19.169-37.385s21.729 3.5724 37.33 19.197z" />
    </clipPath>
    <filter
       id="filter4075-6"
       width="1.2402"
       y="-.11991"
       x="-.12009"
       height="1.2398"
       color-interpolation-filters="sRGB">
      <feGaussianBlur
         id="feGaussianBlur4077-0"
         stdDeviation="2.8270455" />
    </filter>
    <clipPath
       id="clipPath4071-8"
       clipPathUnits="userSpaceOnUse">
      <path
         id="path4073-0"
         style="color:#000000;fill-rule:evenodd;enable-background:new;fill:#afea2c"
         d="m515.87 706.72c-15.602 15.625-37.33 19.197-37.33 19.197s3.5672-21.76 19.169-37.385 37.33-19.197 37.33-19.197-3.5672 21.76-19.169 37.385z" />
    </clipPath>
    <filter
       id="filter4137-2"
       width="1.1586"
       y="-.24639"
       x="-.079315"
       height="1.4928"
       color-interpolation-filters="sRGB">
      <feGaussianBlur
         id="feGaussianBlur4139-6"
         stdDeviation="2.6406015" />
    </filter>
    <clipPath
       id="clipPath4133-7"
       clipPathUnits="userSpaceOnUse">
      <path
         id="path4135-5"
         style="color:#000000;fill-rule:evenodd;enable-background:new;fill:#65c808"
         d="m538.47 738.73c-22.064 0-39.951-12.861-39.951-12.861s17.887-12.861 39.951-12.861 39.951 12.861 39.951 12.861-17.887 12.861-39.951 12.861z" />
    </clipPath>
    <filter
       id="filter4201-7"
       width="1.2402"
       y="-.11991"
       x="-.12009"
       height="1.2398"
       color-interpolation-filters="sRGB">
      <feGaussianBlur
         id="feGaussianBlur4203-3"
         stdDeviation="2.8270453" />
    </filter>
    <clipPath
       id="clipPath4197-9"
       clipPathUnits="userSpaceOnUse">
      <path
         id="path4199-2"
         style="color:#000000;fill-rule:evenodd;enable-background:new;fill:#75507b"
         d="m299.47 763.2c-15.602 15.625-37.33 19.197-37.33 19.197s3.5672-21.76 19.169-37.385 37.33-19.197 37.33-19.197-3.5672 21.76-19.169 37.385z" />
    </clipPath>
    <filter
       id="filter4189-0"
       width="1.1586"
       y="-.24639"
       x="-.079315"
       height="1.4928"
       color-interpolation-filters="sRGB">
      <feGaussianBlur
         id="feGaussianBlur4191-5"
         stdDeviation="2.6406013" />
    </filter>
    <clipPath
       id="clipPath4181-1"
       clipPathUnits="userSpaceOnUse">
      <path
         id="path4183-8"
         style="color:#000000;fill-rule:evenodd;enable-background:new;fill:#ef2929"
         d="m348.71 698.73c-22.064 0-39.951-12.861-39.951-12.861s17.887-12.861 39.951-12.861 39.951 12.861 39.951 12.861-17.887 12.861-39.951 12.861z" />
    </clipPath>
    <filter
       id="filter4149-2"
       width="1.4939"
       y="-.079258"
       x="-.24693"
       height="1.1585"
       color-interpolation-filters="sRGB">
      <feGaussianBlur
         id="feGaussianBlur4151-0"
         stdDeviation="2.642588" />
    </filter>
    <clipPath
       id="clipPath4145-6"
       clipPathUnits="userSpaceOnUse">
      <path
         id="path4147-6"
         style="color:#000000;fill-rule:evenodd;enable-background:new;fill:#3465a4"
         d="m401.43 865.8c0 22.097-12.842 40.01-12.842 40.01s-12.842-17.913-12.842-40.01 12.842-40.01 12.842-40.01 12.842 17.913 12.842 40.01z" />
    </clipPath>
    <filter
       id="filter4173-0"
       width="1.4939"
       y="-.079258"
       x="-.24693"
       height="1.1585"
       color-interpolation-filters="sRGB">
      <feGaussianBlur
         id="feGaussianBlur4175-6"
         stdDeviation="2.642588" />
    </filter>
    <clipPath
       id="clipPath4169-3"
       clipPathUnits="userSpaceOnUse">
      <path
         id="path4171-8"
         style="color:#000000;fill-rule:evenodd;enable-background:new;fill:#edd400"
         d="m471.43 685.93c0 22.097-12.842 40.01-12.842 40.01s-12.842-17.913-12.842-40.01 12.842-40.01 12.842-40.01 12.842 17.913 12.842 40.01z" />
    </clipPath>
    <filter
       id="filter4123"
       color-interpolation-filters="sRGB">
      <feGaussianBlur
         id="feGaussianBlur4125"
         stdDeviation="0.26224718" />
    </filter>
    <clipPath
       id="clipPath3983"
       clipPathUnits="userSpaceOnUse">
      <path
         id="path3985"
         style="color:#000000;fill-rule:evenodd;enable-background:new;fill:#eeeeec"
         d="m184.12 701.5a2.2363 2.2363 0 0 0 -1.4688 0.90625s-3.328 4.7671-4.0312 11.156c-5.0181-4.0229-10.75-5.0625-10.75-5.0625a2.2363 2.2363 0 0 0 -2.5938 2.5625s1.034 5.7649 5.0625 10.781c-6.3978 0.70283-11.188 4.0312-11.188 4.0312a2.2363 2.2363 0 0 0 0 3.625s4.7948 3.3031 11.188 4c-4.0285 5.0164-5.0625 10.781-5.0625 10.781a2.2363 2.2363 0 0 0 2.5938 2.5625s5.7319-1.0396 10.75-5.0625c0.70267 6.3934 4.0312 11.188 4.0312 11.188a2.2363 2.2363 0 0 0 3.625 0s3.3111-4.8145 4-11.219c5.0262 4.0467 10.781 5.0938 10.781 5.0938a2.2363 2.2363 0 0 0 2.5938 -2.5938s-1.0624-5.7373-5.0938-10.75c6.397-0.69632 11.219-4 11.219-4a2.2363 2.2363 0 0 0 0 -3.625s-4.8167-3.329-11.219-4.0312c4.0313-5.0127 5.0938-10.75 5.0938-10.75a2.2363 2.2363 0 0 0 -2.59 -2.6s-5.755 1.047-10.781 5.0938c-0.69265-6.3936-4-11.188-4-11.188a2.2363 2.2363 0 0 0 -2.16 -0.91z" />
    </clipPath>
    <radialGradient
       inkscape:collect="always"
       xlink:href="#linearGradient2679"
       id="radialGradient3823"
       gradientUnits="userSpaceOnUse"
       gradientTransform="matrix(1,0,0,0.22551253,0,805.72436)"
       cx="24"
       cy="1040.3323"
       fx="24"
       fy="1040.3323"
       r="15.678572" />
    <radialGradient
       inkscape:collect="always"
       xlink:href="#linearGradient2679"
       id="radialGradient3821"
       gradientUnits="userSpaceOnUse"
       cx="18.737123"
       cy="12.12002"
       fx="18.737123"
       fy="12.12002"
       r="18.885624" />
    <radialGradient
       inkscape:collect="always"
       xlink:href="#linearGradient2679"
       id="radialGradient4021"
       cx="18.737123"
       cy="12.12002"
       fx="18.737123"
       fy="12.12002"
       r="18.885624"
       gradientUnits="userSpaceOnUse" />
    <radialGradient
       inkscape:collect="always"
       xlink:href="#linearGradient2679"
       id="radialGradient4019"
       cx="24"
       cy="1040.3323"
       fx="24"
       fy="1040.3323"
       r="15.678572"
       gradientTransform="matrix(1,0,0,0.22551253,0,805.72436)"
       gradientUnits="userSpaceOnUse" />
    <inkscape:perspective
       id="perspective68"
       inkscape:persp3d-origin="24 : 16 : 1"
       inkscape:vp_z="48 : 24 : 1"
       inkscape:vp_y="0 : 1000 : 0"
       inkscape:vp_x="0 : 24 : 1"
       sodipodi:type="inkscape:persp3d" />
    <linearGradient
       id="linearGradient4061">
      <stop
         style="stop-color:#474845;stop-opacity:1;"
         offset="0"
         id="stop4063" />
      <stop
         style="stop-color:#838681;stop-opacity:1"
         offset="1"
         id="stop4065" />
    </linearGradient>
    <linearGradient
       id="linearGradient3881">
      <stop
         id="stop3883"
         offset="0"
         style="stop-color:#474845;stop-opacity:1;" />
      <stop
         id="stop3885"
         offset="1"
         style="stop-color:#838681;stop-opacity:1" />
    </linearGradient>
    <linearGradient
       id="linearGradient2684">
      <stop
         style="stop-color:#ffffff;stop-opacity:1;"
         offset="0"
         id="stop2686" />
      <stop
         style="stop-color:#000000;stop-opacity:1;"
         offset="1"
         id="stop2688" />
    </linearGradient>
    <linearGradient
       id="linearGradient2584">
      <stop
         id="stop2586"
         offset="0"
         style="stop-color:#000000;stop-opacity:1;" />
      <stop
         id="stop2588"
         offset="1"
         style="stop-color:#ffffff;stop-opacity:0;" />
    </linearGradient>
    <linearGradient
       id="linearGradient5075">
      <stop
         id="stop5077"
         offset="0"
         style="stop-color:#adb0a8;stop-opacity:1;" />
      <stop
         id="stop5079"
         offset="1"
         style="stop-color:#464744;stop-opacity:1" />
    </linearGradient>
    <linearGradient
       inkscape:collect="always"
       xlink:href="#linearGradient2316"
       id="linearGradient2322"
       x1="24.476166"
       y1="13.658564"
       x2="23.750401"
       y2="36"
       gradientUnits="userSpaceOnUse" />
    <radialGradient
       inkscape:collect="always"
       xlink:href="#linearGradient2679"
       id="radialGradient1439"
       gradientUnits="userSpaceOnUse"
       gradientTransform="matrix(0.222659,-0.996273,2.129992,0.476041,-308.946,20.8517)"
       cx="64.227074"
       cy="147.99352"
       fx="64.227074"
       fy="147.99352"
       r="8.75" />
    <radialGradient
       inkscape:collect="always"
       xlink:href="#linearGradient2679"
       id="radialGradient1436"
       gradientUnits="userSpaceOnUse"
       gradientTransform="matrix(0.222659,-0.996273,2.129992,0.476041,-290.946,20.8517)"
       cx="64.227074"
       cy="147.99352"
       fx="64.227074"
       fy="147.99352"
       r="8.75" />
    <linearGradient
       inkscape:collect="always"
       xlink:href="#linearGradient2584"
       id="linearGradient1426"
       gradientUnits="userSpaceOnUse"
       gradientTransform="translate(-44.99051,-97.26213)"
       x1="49.430401"
       y1="112.94963"
       x2="49.667324"
       y2="115.13713" />
    <linearGradient
       inkscape:collect="always"
       xlink:href="#linearGradient5075"
       id="linearGradient1401"
       gradientUnits="userSpaceOnUse"
       gradientTransform="translate(-47.9996,-121)"
       x1="54.988514"
       y1="156"
       x2="54.896976"
       y2="142.18799" />
    <linearGradient
       id="linearGradient2679"
       inkscape:collect="always">
      <stop
         id="stop2681"
         offset="0"
         style="stop-color:#ffffff;stop-opacity:1" />
      <stop
         id="stop2683"
         offset="1"
         style="stop-color:#d3d7cf" />
    </linearGradient>
    <linearGradient
       id="linearGradient2316">
      <stop
         style="stop-color:#000000;stop-opacity:1;"
         offset="0"
         id="stop2318" />
      <stop
         style="stop-color:#ffffff;stop-opacity:0.65979379;"
         offset="1"
         id="stop2320" />
    </linearGradient>
    <linearGradient
       id="linearGradient8666">
      <stop
         id="stop8668"
         offset="0"
         style="stop-color:#f5f5f5;stop-opacity:1;" />
      <stop
         id="stop8670"
         offset="1"
         style="stop-color:#f5f5f5;stop-opacity:0;" />
    </linearGradient>
    <linearGradient
       id="linearGradient8658">
      <stop
         id="stop8660"
         offset="0"
         style="stop-color:#000000;stop-opacity:1;" />
      <stop
         id="stop8662"
         offset="1"
         style="stop-color:#000000;stop-opacity:0;" />
    </linearGradient>
    <linearGradient
       id="linearGradient8645">
      <stop
         id="stop8647"
         offset="0"
         style="stop-color:#333333;stop-opacity:1;" />
      <stop
         id="stop8649"
         offset="1"
         style="stop-color:#333333;stop-opacity:0;" />
    </linearGradient>
    <linearGradient
       id="linearGradient8635">
      <stop
         style="stop-color:#333333;stop-opacity:1;"
         offset="0"
         id="stop8637" />
      <stop
         style="stop-color:#f0f0f0;stop-opacity:0;"
         offset="1"
         id="stop8639" />
    </linearGradient>
    <linearGradient
       id="linearGradient8657">
      <stop
         id="stop8659"
         offset="0"
         style="stop-color:#ffffff;stop-opacity:1;" />
      <stop
         id="stop8661"
         offset="1"
         style="stop-color:#dce1e5;stop-opacity:1;" />
    </linearGradient>
    <linearGradient
       id="linearGradient8649">
      <stop
         id="stop8651"
         offset="0"
         style="stop-color:#8c8c8c;stop-opacity:1;" />
      <stop
         id="stop8653"
         offset="1"
         style="stop-color:#f0f0f0;stop-opacity:0;" />
    </linearGradient>
    <linearGradient
       id="linearGradient8636">
      <stop
         id="stop8638"
         offset="0"
         style="stop-color:#646464;stop-opacity:1;" />
      <stop
         id="stop8640"
         offset="1"
         style="stop-color:#333333;stop-opacity:1;" />
    </linearGradient>
    <inkscape:perspective
       id="perspective10"
       inkscape:persp3d-origin="372.04724 : 350.78739 : 1"
       inkscape:vp_z="744.09448 : 526.18109 : 1"
       inkscape:vp_y="0 : 1000 : 0"
       inkscape:vp_x="0 : 526.18109 : 1"
       sodipodi:type="inkscape:persp3d" />
    <inkscape:perspective
       sodipodi:type="inkscape:persp3d"
       inkscape:vp_x="0 : 526.18109 : 1"
       inkscape:vp_y="0 : 1000 : 0"
       inkscape:vp_z="744.09448 : 526.18109 : 1"
       inkscape:persp3d-origin="372.04724 : 350.78739 : 1"
       id="perspective7856" />
    <radialGradient
       gradientUnits="userSpaceOnUse"
       gradientTransform="matrix(2.1073751,0,0,2.1073803,-78.023434,-81.059384)"
       r="55.811367"
       fy="73.199226"
       fx="70.458"
       cy="73.199226"
       cx="70.458"
       id="radialGradient8642"
       xlink:href="#linearGradient8636"
       inkscape:collect="always" />
    <radialGradient
       gradientUnits="userSpaceOnUse"
       gradientTransform="matrix(1,0,0,1.0000025,0,-1.8169358e-4)"
       r="55.811367"
       fy="73.199226"
       fx="70.458"
       cy="73.199226"
       cx="70.458"
       id="radialGradient8665"
       xlink:href="#linearGradient8657"
       inkscape:collect="always" />
    <linearGradient
       gradientUnits="userSpaceOnUse"
       y2="34.237083"
       x2="70.205498"
       y1="7.3844137"
       x1="70.205498"
       id="linearGradient8651"
       xlink:href="#linearGradient8645"
       inkscape:collect="always" />
    <linearGradient
       gradientUnits="userSpaceOnUse"
       y2="87.977859"
       x2="70.458"
       y1="14.799726"
       x1="70.458"
       id="linearGradient8664"
       xlink:href="#linearGradient8645"
       inkscape:collect="always" />
    <linearGradient
       gradientUnits="userSpaceOnUse"
       y2="60.825073"
       x2="70.205498"
       y1="14.045123"
       x1="70.205498"
       id="linearGradient8672"
       xlink:href="#linearGradient8666"
       inkscape:collect="always" />
    <radialGradient
       gradientUnits="userSpaceOnUse"
       gradientTransform="matrix(1.8914286,0,0,1.7898877,-62.808273,-57.81917)"
       r="60.276276"
       fy="73.199226"
       fx="70.458"
       cy="73.199226"
       cx="70.458"
       id="radialGradient8689"
       xlink:href="#linearGradient8636"
       inkscape:collect="always" />
    <radialGradient
       r="55.811367"
       fy="73.199226"
       fx="70.458"
       cy="73.199226"
       cx="70.458"
       gradientTransform="matrix(1,0,0,1.0000025,0,-1.8169358e-4)"
       gradientUnits="userSpaceOnUse"
       id="radialGradient8699"
       xlink:href="#linearGradient8657"
       inkscape:collect="always" />
    <linearGradient
       y2="87.977859"
       x2="70.458"
       y1="14.799726"
       x1="70.458"
       gradientUnits="userSpaceOnUse"
       id="linearGradient8701"
       xlink:href="#linearGradient8645"
       inkscape:collect="always" />
    <linearGradient
       y2="60.825073"
       x2="70.205498"
       y1="-7.918128"
       x1="70.205498"
       gradientUnits="userSpaceOnUse"
       id="linearGradient8703"
       xlink:href="#linearGradient8666"
       inkscape:collect="always" />
    <radialGradient
       r="60.276276"
       fy="73.199226"
       fx="70.458"
       cy="73.199226"
       cx="70.458"
       gradientTransform="matrix(1.8914286,0,0,1.7898877,-62.808273,-57.81917)"
       gradientUnits="userSpaceOnUse"
       id="radialGradient8705"
       xlink:href="#linearGradient8636"
       inkscape:collect="always" />
    <inkscape:perspective
       sodipodi:type="inkscape:persp3d"
       inkscape:vp_x="0 : 526.18109 : 1"
       inkscape:vp_y="0 : 1000 : 0"
       inkscape:vp_z="744.09448 : 526.18109 : 1"
       inkscape:persp3d-origin="372.04724 : 350.78739 : 1"
       id="perspective8732" />
    <linearGradient
       id="linearGradient3761">
      <stop
         id="stop3763"
         offset="0"
         style="stop-color:#2d2d2d;stop-opacity:1" />
      <stop
         id="stop3765"
         offset="1"
         style="stop-color:#a7a7a7;stop-opacity:1" />
    </linearGradient>
    <linearGradient
       id="linearGradient3017">
      <stop
         id="stop3019"
         offset="0"
         style="stop-color:#2d2d2d;stop-opacity:1" />
      <stop
         id="stop3021"
         offset="1"
         style="stop-color:#a7a7a7;stop-opacity:1" />
    </linearGradient>
    <inkscape:perspective
       sodipodi:type="inkscape:persp3d"
       inkscape:vp_x="0 : 526.18109 : 1"
       inkscape:vp_y="0 : 1000 : 0"
       inkscape:vp_z="744.09448 : 526.18109 : 1"
       inkscape:persp3d-origin="372.04724 : 350.78739 : 1"
       id="perspective2447" />
    <radialGradient
       gradientUnits="userSpaceOnUse"
       gradientTransform="matrix(0.35511065,0.93482427,-0.45025703,0.17103863,478.2024,829.1008)"
       r="15.999846"
       fy="1027.5085"
       fx="24.131573"
       cy="1027.5085"
       cx="24.131573"
       id="radialGradient3962-3"
       xlink:href="#linearGradient5075-4"
       inkscape:collect="always" />
    <linearGradient
       id="linearGradient5075-4">
      <stop
         id="stop5077-1"
         offset="0"
         style="stop-color:#adb0a8;stop-opacity:1;" />
      <stop
         id="stop5079-8"
         offset="1"
         style="stop-color:#464744;stop-opacity:1" />
    </linearGradient>
    <linearGradient
       inkscape:collect="always"
       xlink:href="#linearGradient1003-3"
       id="linearGradient3801-2"
       x1="23.204165"
       y1="1053.158"
       x2="23.204165"
       y2="1004.8474"
       gradientUnits="userSpaceOnUse"
       gradientTransform="translate(0,-2056.7244)" />
    <linearGradient
       id="linearGradient1003-3">
      <stop
         id="stop1005-3"
         offset="0"
         style="stop-color:#666666;stop-opacity:1" />
      <stop
         id="stop1007-1"
         offset="1"
         style="stop-color:#000000;stop-opacity:1" />
    </linearGradient>
    <linearGradient
       inkscape:collect="always"
       xlink:href="#linearGradient3700-8"
       id="linearGradient958-5"
       x1="26.79163"
       y1="-1052.2562"
       x2="26.79163"
       y2="-1004.3217"
       gradientUnits="userSpaceOnUse" />
    <linearGradient
       id="linearGradient3700-8">
      <stop
         id="stop3702-1"
         style="stop-color:#2e4f84;stop-opacity:1"
         offset="0" />
      <stop
         id="stop3704-8"
         style="stop-color:#4c77c5;stop-opacity:1"
         offset="1" />
    </linearGradient>
    <linearGradient
       inkscape:collect="always"
       xlink:href="#linearGradient3718"
       id="linearGradient958-9"
       x1="26.79163"
       y1="-1052.2562"
       x2="26.79163"
       y2="-1004.3217"
       gradientUnits="userSpaceOnUse" />
    <linearGradient
       id="linearGradient3718">
      <stop
         id="stop3720"
         style="stop-color:#269ebf;stop-opacity:1"
         offset="0" />
      <stop
         id="stop3722"
         style="stop-color:#67c7e1;stop-opacity:1"
         offset="1" />
    </linearGradient>
    <linearGradient
       x1="49.767765"
       y1="59.788071"
       x2="49.767765"
       y2="28.564911"
       id="linearGradient3760"
       xlink:href="#linearGradient3754"
       gradientUnits="userSpaceOnUse"
       gradientTransform="translate(-13.750002,1028.6122)" />
    <linearGradient
       id="linearGradient3754">
      <stop
         id="stop3756-8"
         style="stop-color:#6bd9f7;stop-opacity:1"
         offset="0" />
      <stop
         id="stop3758"
         style="stop-color:#a5e8fa;stop-opacity:1"
         offset="1" />
    </linearGradient>
    <linearGradient
       y2="48"
       x2="90"
       y1="48"
       x1="6"
       gradientTransform="matrix(0,-0.5720176,0.5720176,0,-3.4282867,51.4591)"
       gradientUnits="userSpaceOnUse"
       id="linearGradient918"
       xlink:href="#linearGradient3914-2"
       inkscape:collect="always" />
    <linearGradient
       id="linearGradient3914-2">
      <stop
         id="stop3916-6"
         style="stop-color:#028537;stop-opacity:1"
         offset="0" />
      <stop
         id="stop3918-0"
         style="stop-color:#03b035;stop-opacity:1"
         offset="1" />
    </linearGradient>
    <linearGradient
       gradientTransform="matrix(0.5720176,0,0,0.5720176,-3.4282867,-3.4546)"
       x1="23.362806"
       y1="90.200294"
       x2="27.000059"
       y2="62.572609"
       id="linearGradient3940"
       xlink:href="#linearGradient3934"
       gradientUnits="userSpaceOnUse" />
    <linearGradient
       id="linearGradient3934">
      <stop
         id="stop3936"
         style="stop-color:#e8ac0c;stop-opacity:1"
         offset="0" />
      <stop
         id="stop3938"
         style="stop-color:#e8db0c;stop-opacity:1"
         offset="1" />
    </linearGradient>
    <linearGradient
       gradientTransform="matrix(0.5720176,0,0,0.5720176,-3.4282867,-3.4546)"
       x1="69.788139"
       y1="35.460526"
       x2="69.788139"
       y2="5.5467491"
       id="linearGradient3950"
       xlink:href="#linearGradient3944"
       gradientUnits="userSpaceOnUse" />
    <linearGradient
       id="linearGradient3944">
      <stop
         id="stop3946"
         style="stop-color:#df1a1a;stop-opacity:1"
         offset="0" />
      <stop
         id="stop3948"
         style="stop-color:#e44848;stop-opacity:1"
         offset="1" />
    </linearGradient>
    <linearGradient
       gradientTransform="matrix(0.5720176,0,0,0.5720176,-3.4282867,-3.4546)"
       x1="18.07872"
       y1="59.01622"
       x2="18.215158"
       y2="6.6697359"
       id="linearGradient3930"
       xlink:href="#linearGradient3924"
       gradientUnits="userSpaceOnUse" />
    <linearGradient
       id="linearGradient3924">
      <stop
         id="stop3926"
         style="stop-color:#005ec0;stop-opacity:1"
         offset="0" />
      <stop
         id="stop3928"
         style="stop-color:#0072ea;stop-opacity:1"
         offset="1" />
    </linearGradient>
    <linearGradient
       gradientTransform="matrix(0.5720176,0,0,0.5720176,-3.4282887,1000.9079)"
       x1="24.065893"
       y1="5.1119947"
       x2="24.065893"
       y2="90.059601"
       id="linearGradient4040"
       xlink:href="#linearGradient4034"
       gradientUnits="userSpaceOnUse" />
    <linearGradient
       id="linearGradient4034">
      <stop
         id="stop4036"
         style="stop-color:#ffffff;stop-opacity:1"
         offset="0" />
      <stop
         id="stop4038"
         style="stop-color:#f0f0f0;stop-opacity:1"
         offset="1" />
    </linearGradient>
    <linearGradient
       y2="90.059601"
       x2="24.065893"
       y1="5.1119947"
       x1="24.065893"
       gradientTransform="matrix(0.5720176,0,0,0.5720176,-3.4282867,-3.4546)"
       gradientUnits="userSpaceOnUse"
       id="linearGradient903"
       xlink:href="#linearGradient4034"
       inkscape:collect="always" />
  </defs>
  <sodipodi:namedview
     id="base"
     pagecolor="#ffffff"
     bordercolor="#666666"
     borderopacity="1.0"
     inkscape:pageopacity="0.0"
     inkscape:pageshadow="2"
     inkscape:zoom="4.0000002"
     inkscape:cx="-2.6501794"
     inkscape:cy="52.415802"
     inkscape:document-units="px"
     inkscape:current-layer="layer1"
     showgrid="false"
     inkscape:window-width="1366"
     inkscape:window-height="746"
     inkscape:window-x="0"
     inkscape:window-y="0"
     inkscape:window-maximized="1">
    <inkscape:grid
       type="xygrid"
       id="grid3850" />
  </sodipodi:namedview>
  <metadata
     id="metadata7">
    <rdf:RDF>
      <cc:Work
         rdf:about="">
        <dc:format>image/svg+xml</dc:format>
        <dc:type
           rdf:resource="http://purl.org/dc/dcmitype/StillImage" />
        <dc:title></dc:title>
      </cc:Work>
    </rdf:RDF>
  </metadata>
  <g
     inkscape:label="Capa 1"
     inkscape:groupmode="layer"
     id="layer1"
     transform="translate(0,-1004.3622)">
    <path
       style="fill:url(#linearGradient918);fill-opacity:1;fill-rule:nonzero;stroke:none"
       d="M 7.375 1.6875 C 4.2307532 1.6875 1.6875 4.2307532 1.6875 7.375 L 1.6875 40.625 C 1.6875 43.769247 4.2307532 46.3125 7.375 46.3125 L 40.625 46.3125 C 43.769247 46.3125 46.3125 43.769247 46.3125 40.625 L 46.3125 7.375 C 46.3125 4.2307532 43.769247 1.6875 40.625 1.6875 L 7.375 1.6875 z "
       transform="translate(0,1004.3622)"
       id="rect2419" />
    <path
       style="fill:url(#linearGradient3940);fill-opacity:1"
       d="M 17.40625 31.84375 C 10.90833 32.26995 2.5206959 32.926 2.25 40.375 C 2.2026379 41.678246 2.5172863 43.154553 3.21875 44.5 C 4.2567045 45.615287 5.7290139 46.3125 7.375 46.3125 L 24 46.3125 C 24.968709 45.109358 25.277253 43.942495 25.375 41.625 C 25.59418 36.4287 20.555682 34.30785 17.40625 31.84375 z "
       transform="translate(0,1004.3622)"
       id="path3932" />
    <path
       style="fill:url(#linearGradient3950);fill-opacity:1;fill-rule:nonzero;stroke:none"
       d="M 25.1875 1.6875 C 26.382382 3.3316943 27.387208 5.014062 27.71875 6.90625 C 28.446831 11.06165 27.204598 14.569 24.84375 17.3125 C 28.739682 13.4687 32.624954 13.2023 36.8125 13.375 C 41.476446 13.567359 44.170263 15.059026 46.3125 16.78125 L 46.3125 7.375 C 46.3125 4.2307532 43.769247 1.6875 40.625 1.6875 L 25.1875 1.6875 z "
       transform="translate(0,1004.3622)"
       id="path3942" />
    <path
       style="fill:url(#linearGradient3930);fill-opacity:1"
       d="M 7.5625 1.6875 C 6.9146468 2.3506936 6.432192 3.1432904 6.1875 4.125 C 5.3014162 7.6799 6.071268 11.82605 7.59375 14.65625 C 9.5625488 18.31625 12.540495 20.7304 16 20 C 18.114297 19.5536 19.920277 18.29515 20.71875 16.71875 C 22.328522 13.54085 21.492682 7.54225 18.78125 3.46875 C 18.289256 2.7296055 17.837523 2.151492 17.40625 1.6875 L 7.5625 1.6875 z M 1.6875 17.71875 L 1.6875 32.90625 C 5.7019836 31.106142 10.046977 30.134583 14.9375 29.8125 C 13.65534 27.8977 12.625659 25.84795 13.46875 22.15625 C 8.1251537 22.324188 4.5384407 21.250313 1.6875 17.71875 z "
       transform="translate(0,1004.3622)"
       id="path3922" />
    <path
       style="fill:url(#linearGradient903);fill-opacity:1;fill-rule:nonzero;stroke:none"
       d="M 7.375 1.6875 C 4.2307532 1.6875 1.6875 4.2307532 1.6875 7.375 L 1.6875 17.71875 C 4.5371117 21.249187 8.1251534 22.324188 13.46875 22.15625 C 12.625659 25.84805 13.65534 27.86655 14.9375 29.78125 C 10.054432 30.1029 5.6966163 31.10859 1.6875 32.90625 L 1.6875 40.625 C 1.6875 42.123261 2.2739507 43.484808 3.21875 44.5 C 2.5166727 43.153462 2.2026378 41.647042 2.25 40.34375 C 2.5206959 32.89485 10.90833 32.26985 17.40625 31.84375 C 20.555681 34.30775 25.59418 36.4286 25.375 41.625 C 25.277253 43.942426 24.968222 45.109191 24 46.3125 L 27.65625 46.3125 C 28.569565 45.065284 29.431906 43.683873 29.96875 42.21875 C 30.550589 40.49455 30.688104 38.0428 30.28125 36.3125 C 29.613975 33.4747 27.828924 31.17255 23.625 27.78125 C 20.255565 25.06315 19.871864 24.56115 20.09375 22.90625 C 20.243121 21.79215 21.032117 20.78195 23.03125 19.09375 C 26.496299 16.15115 28.61485 12.02055 27.71875 6.90625 C 27.387208 5.014062 26.382382 3.3316943 25.1875 1.6875 L 17.40625 1.6875 C 17.837523 2.1514478 18.289256 2.7296055 18.78125 3.46875 C 21.492682 7.54225 22.328522 13.54085 20.71875 16.71875 C 19.920277 18.29515 18.114297 19.5536 16 20 C 12.540495 20.7305 9.5625488 18.31625 7.59375 14.65625 C 6.071268 11.82605 5.3014162 7.68 6.1875 4.125 C 6.432192 3.143351 6.9146468 2.3507131 7.5625 1.6875 L 7.375 1.6875 z "
       transform="translate(0,1004.3622)"
       id="rect3064-7" />
  </g>
</svg>
