<?xml version="1.0" encoding="UTF-8" standalone="no"?>
<!-- Created with Inkscape (http://www.inkscape.org/) -->

<svg
   xmlns:dc="http://purl.org/dc/elements/1.1/"
   xmlns:cc="http://creativecommons.org/ns#"
   xmlns:rdf="http://www.w3.org/1999/02/22-rdf-syntax-ns#"
   xmlns:svg="http://www.w3.org/2000/svg"
   xmlns="http://www.w3.org/2000/svg"
   xmlns:xlink="http://www.w3.org/1999/xlink"
   xmlns:sodipodi="http://sodipodi.sourceforge.net/DTD/sodipodi-0.dtd"
   xmlns:inkscape="http://www.inkscape.org/namespaces/inkscape"
   width="48"
   height="48"
   id="svg2"
   version="1.1"
   inkscape:version="0.48+devel r11752"
   sodipodi:docname="krita.svg">
  <defs
     id="defs4">
    <linearGradient
       id="linearGradient865">
      <stop
         id="stop867"
         offset="0"
         style="stop-color:#ff00cc;stop-opacity:1" />
      <stop
         id="stop869"
         offset="1"
         style="stop-color:#ff80e5;stop-opacity:1" />
    </linearGradient>
    <linearGradient
       id="linearGradient857">
      <stop
         style="stop-color:#ff0000;stop-opacity:1"
         offset="0"
         id="stop859" />
      <stop
         style="stop-color:#aa0000;stop-opacity:1"
         offset="1"
         id="stop862" />
    </linearGradient>
    <linearGradient
       id="linearGradient3795">
      <stop
         style="stop-color:#8d3e8d;stop-opacity:1;"
         offset="0"
         id="stop3797" />
      <stop
         style="stop-color:#5f225f;stop-opacity:1;"
         offset="1"
         id="stop3799" />
    </linearGradient>
    <linearGradient
       id="linearGradient3698">
      <stop
         id="stop3700"
         offset="0"
         style="stop-color:#96d0e1;stop-opacity:1" />
      <stop
         style="stop-color:#89b7e1;stop-opacity:1"
         offset="0.67819428"
         id="stop3706" />
      <stop
         id="stop3702"
         offset="1"
         style="stop-color:#699dd3;stop-opacity:1" />
    </linearGradient>
    <linearGradient
       id="linearGradient3708">
      <stop
         id="stop3710"
         offset="0"
         style="stop-color:#658db6;stop-opacity:1" />
      <stop
         style="stop-color:#527fab;stop-opacity:1;"
         offset="0.76777935"
         id="stop3716" />
      <stop
         id="stop3712"
         offset="1"
         style="stop-color:#4071a0;stop-opacity:1" />
    </linearGradient>
    <linearGradient
       id="linearGradient3750">
      <stop
         style="stop-color:#d0e2f1;stop-opacity:1"
         offset="0"
         id="stop3752" />
      <stop
         id="stop3756"
         offset="0.85580856"
         style="stop-color:#cadef0;stop-opacity:1" />
      <stop
         style="stop-color:#95bee3;stop-opacity:1"
         offset="1"
         id="stop3754" />
    </linearGradient>
    <linearGradient
       id="linearGradient3803">
      <stop
         id="stop3805"
         offset="0"
         style="stop-color:#d7def0;stop-opacity:1;" />
      <stop
         style="stop-color:#ffffff;stop-opacity:1"
         offset="0.5"
         id="stop3811" />
      <stop
         id="stop3807"
         offset="1"
         style="stop-color:#d5def0;stop-opacity:1" />
    </linearGradient>
    <linearGradient
       inkscape:collect="always"
       xlink:href="#linearGradient3795"
       id="linearGradient3801"
       x1="23.204165"
       y1="1053.158"
       x2="23.204165"
       y2="1004.8474"
       gradientUnits="userSpaceOnUse"
       gradientTransform="translate(0,-2056.7244)" />
    <linearGradient
       inkscape:collect="always"
       xlink:href="#linearGradient3795"
       id="linearGradient3859"
       x1="26.192217"
       y1="1024.0002"
       x2="28.641211"
       y2="1024.0002"
       gradientUnits="userSpaceOnUse" />
    <linearGradient
       inkscape:collect="always"
       xlink:href="#linearGradient3795"
       id="linearGradient3867"
       gradientUnits="userSpaceOnUse"
       x1="26.192217"
       y1="1024.0002"
       x2="28.641211"
       y2="1024.0002" />
    <linearGradient
       inkscape:collect="always"
       xlink:href="#linearGradient3795"
       id="linearGradient3869"
       gradientUnits="userSpaceOnUse"
       x1="26.192217"
       y1="1024.0002"
       x2="28.641211"
       y2="1024.0002" />
    <linearGradient
       inkscape:collect="always"
       xlink:href="#linearGradient3795"
       id="linearGradient3871"
       gradientUnits="userSpaceOnUse"
       x1="26.192217"
       y1="1024.0002"
       x2="28.641211"
       y2="1024.0002" />
    <linearGradient
       inkscape:collect="always"
       xlink:href="#linearGradient3795"
       id="linearGradient3877"
       gradientUnits="userSpaceOnUse"
       x1="29.718235"
       y1="1027.8575"
       x2="22.811094"
       y2="1015.5485" />
    <linearGradient
       inkscape:collect="always"
       xlink:href="#linearGradient3795"
       id="linearGradient3879"
       gradientUnits="userSpaceOnUse"
       x1="17.196316"
       y1="1006.2238"
       x2="31.448042"
       y2="1030.9086" />
    <linearGradient
       inkscape:collect="always"
       xlink:href="#linearGradient3795"
       id="linearGradient3895"
       x1="21.973417"
       y1="34.43922"
       x2="42.475323"
       y2="24.798252"
       gradientUnits="userSpaceOnUse" />
    <linearGradient
       inkscape:collect="always"
       xlink:href="#linearGradient3895-8"
       id="linearGradient3857"
       gradientUnits="userSpaceOnUse"
       gradientTransform="matrix(0.96799712,0,0,1.0252613,604.84439,-419.13965)"
       x1="24.113745"
       y1="1049.2139"
       x2="24.113745"
       y2="1007.5135" />
    <linearGradient
       id="linearGradient3895-8">
      <stop
         id="stop3897"
         offset="0"
         style="stop-color:#e0880b;stop-opacity:1;" />
      <stop
         id="stop3899"
         offset="1"
         style="stop-color:#f7ce50;stop-opacity:1;" />
    </linearGradient>
    <linearGradient
       inkscape:collect="always"
       xlink:href="#linearGradient859"
       id="linearGradient3801-6"
       x1="23.204165"
       y1="1053.158"
       x2="23.204165"
       y2="1004.8474"
       gradientUnits="userSpaceOnUse"
       gradientTransform="translate(0,-2056.7244)" />
    <linearGradient
       id="linearGradient859">
      <stop
         id="stop861"
         offset="0"
         style="stop-color:#ba65be;stop-opacity:1" />
      <stop
         id="stop863"
         offset="1"
         style="stop-color:#ac43b2;stop-opacity:1" />
    </linearGradient>
    <linearGradient
       inkscape:collect="always"
       xlink:href="#linearGradient838"
       id="linearGradient3801-0"
       x1="23.204165"
       y1="1053.158"
       x2="23.204165"
       y2="1004.8474"
       gradientUnits="userSpaceOnUse"
       gradientTransform="translate(0,-2056.7244)" />
    <linearGradient
       id="linearGradient838">
      <stop
         id="stop840"
         offset="0"
         style="stop-color:#00e0ff;stop-opacity:1" />
      <stop
         id="stop842"
         offset="1"
         style="stop-color:#0089ff;stop-opacity:1" />
    </linearGradient>
    <linearGradient
       y2="1004.8474"
       x2="23.204165"
       y1="1053.158"
       x1="23.204165"
       gradientTransform="translate(17.374999,-1052.3622)"
       gradientUnits="userSpaceOnUse"
       id="linearGradient959"
       xlink:href="#linearGradient838-7"
       inkscape:collect="always" />
    <linearGradient
       id="linearGradient838-7">
      <stop
         id="stop840-9"
         offset="0"
         style="stop-color:#00e0ff;stop-opacity:1" />
      <stop
         id="stop842-3"
         offset="1"
         style="stop-color:#0089ff;stop-opacity:1" />
    </linearGradient>
    <linearGradient
       inkscape:collect="always"
       xlink:href="#linearGradient3795-3"
       id="linearGradient3801-7"
       x1="23.204165"
       y1="1053.158"
       x2="23.204165"
       y2="1004.8474"
       gradientUnits="userSpaceOnUse" />
    <linearGradient
       id="linearGradient3795-3">
      <stop
         style="stop-color:#2c89a0;stop-opacity:1"
         offset="0"
         id="stop3797-9" />
      <stop
         style="stop-color:#aaeeff;stop-opacity:1"
         offset="1"
         id="stop3799-3" />
    </linearGradient>
    <linearGradient
       y2="1004.8474"
       x2="23.204165"
       y1="1053.158"
       x1="23.204165"
       gradientUnits="userSpaceOnUse"
       id="linearGradient1671"
       xlink:href="#linearGradient3314-7"
       inkscape:collect="always"
       gradientTransform="translate(8.1469727e-7,-1004.3622)" />
    <inkscape:perspective
       id="perspective28"
       inkscape:persp3d-origin="239.9045 : 218.24599 : 1"
       inkscape:vp_z="479.80899 : 327.36899 : 1"
       inkscape:vp_y="0 : 1000 : 0"
       inkscape:vp_x="0 : 327.36899 : 1"
       sodipodi:type="inkscape:persp3d" />
    <inkscape:perspective
       id="perspective2783"
       inkscape:persp3d-origin="372.04724 : 350.78739 : 1"
       inkscape:vp_z="744.09448 : 526.18109 : 1"
       inkscape:vp_y="0 : 1000 : 0"
       inkscape:vp_x="0 : 526.18109 : 1"
       sodipodi:type="inkscape:persp3d" />
    <linearGradient
       inkscape:collect="always"
       xlink:href="#linearGradient3353"
       id="linearGradient2674"
       x1="520.03998"
       y1="656.388"
       x2="520.03998"
       y2="535.07886"
       gradientUnits="userSpaceOnUse" />
    <linearGradient
       inkscape:collect="always"
       xlink:href="#linearGradient3314"
       id="linearGradient2613"
       gradientUnits="userSpaceOnUse"
       x1="317.72427"
       y1="353.60373"
       x2="317.72427"
       y2="125.0482"
       gradientTransform="translate(895.48654,4.2581206)" />
    <linearGradient
       inkscape:collect="always"
       xlink:href="#linearGradient3367"
       id="linearGradient2607"
       gradientUnits="userSpaceOnUse"
       x1="68.389832"
       y1="653.48999"
       x2="68.389832"
       y2="535.18597"
       gradientTransform="translate(895.48654,4.2581206)" />
    <linearGradient
       id="linearGradient3367">
      <stop
         style="stop-color:#ff00d0;stop-opacity:1"
         offset="0"
         id="stop3369" />
      <stop
         id="stop3371"
         offset="0.5"
         style="stop-color:#ff00d0;stop-opacity:1" />
      <stop
         id="stop3373"
         offset="0.50999999"
         style="stop-color:#ff00d0;stop-opacity:1" />
      <stop
         style="stop-color:#ff6ae2;stop-opacity:1"
         offset="1"
         id="stop3375" />
    </linearGradient>
    <linearGradient
       id="linearGradient3353">
      <stop
         id="stop3355"
         offset="0"
         style="stop-color:#20292b;stop-opacity:1" />
      <stop
         style="stop-color:#20292b;stop-opacity:1"
         offset="0.5"
         id="stop3363" />
      <stop
         style="stop-color:#31393b;stop-opacity:1"
         offset="0.50999999"
         id="stop3361" />
      <stop
         id="stop3357"
         offset="1"
         style="stop-color:#787d7f;stop-opacity:1" />
    </linearGradient>
    <linearGradient
       id="linearGradient3314">
      <stop
         id="stop3316"
         offset="0"
         style="stop-color:#ff11d0;stop-opacity:1;" />
      <stop
         id="stop3318"
         offset="1"
         style="stop-color:#ff4ddd;stop-opacity:1;" />
    </linearGradient>
    <linearGradient
       id="linearGradient3292">
      <stop
         id="stop3294"
         offset="0"
         style="stop-color:#8f9495;stop-opacity:1" />
      <stop
         id="stop3296"
         offset="1"
         style="stop-color:#222b2d;stop-opacity:1" />
    </linearGradient>
    <inkscape:perspective
       id="perspective32"
       inkscape:persp3d-origin="292.73651 : 218.796 : 1"
       inkscape:vp_z="585.47302 : 328.194 : 1"
       inkscape:vp_y="0 : 1000 : 0"
       inkscape:vp_x="0 : 328.194 : 1"
       sodipodi:type="inkscape:persp3d" />
    <inkscape:perspective
       sodipodi:type="inkscape:persp3d"
       inkscape:vp_x="0 : 526.18109 : 1"
       inkscape:vp_y="0 : 1000 : 0"
       inkscape:vp_z="744.09448 : 526.18109 : 1"
       inkscape:persp3d-origin="372.04724 : 350.78739 : 1"
       id="perspective2469" />
    <linearGradient
       gradientUnits="userSpaceOnUse"
       y2="534.97424"
       x2="232.97664"
       y1="656.388"
       x1="232.97664"
       id="linearGradient3359"
       xlink:href="#linearGradient3353"
       inkscape:collect="always" />
    <inkscape:perspective
       sodipodi:type="inkscape:persp3d"
       inkscape:vp_x="0 : 328.194 : 1"
       inkscape:vp_y="0 : 1000 : 0"
       inkscape:vp_z="839.47198 : 328.194 : 1"
       inkscape:persp3d-origin="419.73599 : 218.796 : 1"
       id="perspective34" />
    <inkscape:perspective
       sodipodi:type="inkscape:persp3d"
       inkscape:vp_x="0 : 526.18109 : 1"
       inkscape:vp_y="0 : 1000 : 0"
       inkscape:vp_z="744.09448 : 526.18109 : 1"
       inkscape:persp3d-origin="372.04724 : 350.78739 : 1"
       id="perspective2910" />
    <linearGradient
       y2="1004.8474"
       x2="23.204165"
       y1="1053.158"
       x1="23.204165"
       gradientUnits="userSpaceOnUse"
       id="linearGradient1671-9"
       xlink:href="#linearGradient3314-7"
       inkscape:collect="always"
       gradientTransform="translate(8.1469727e-7,-1004.3622)" />
    <linearGradient
       id="linearGradient3314-7">
      <stop
         id="stop3316-0"
         offset="0"
         style="stop-color:#ff2fd8;stop-opacity:1" />
      <stop
         id="stop3318-2"
         offset="1"
         style="stop-color:#ff62e2;stop-opacity:1" />
    </linearGradient>
  </defs>
  <sodipodi:namedview
     id="base"
     pagecolor="#ffffff"
     bordercolor="#666666"
     borderopacity="1.0"
     inkscape:pageopacity="0.0"
     inkscape:pageshadow="2"
     inkscape:zoom="2.8284272"
     inkscape:cx="23.955929"
     inkscape:cy="66.372497"
     inkscape:document-units="px"
     inkscape:current-layer="layer1"
     showgrid="false"
     inkscape:window-width="1366"
     inkscape:window-height="711"
     inkscape:window-x="0"
     inkscape:window-y="0"
     inkscape:window-maximized="1"
     showguides="false">
    <inkscape:grid
       type="xygrid"
       id="grid3850" />
  </sodipodi:namedview>
  <metadata
     id="metadata7">
    <rdf:RDF>
      <cc:Work
         rdf:about="">
        <dc:format>image/svg+xml</dc:format>
        <dc:type
           rdf:resource="http://purl.org/dc/dcmitype/StillImage" />
        <dc:title />
      </cc:Work>
    </rdf:RDF>
  </metadata>
  <g
     inkscape:label="Capa 1"
     inkscape:groupmode="layer"
     id="layer1"
     transform="translate(0,-1004.3622)">
    <path
       style="fill:url(#linearGradient1671);fill-opacity:1.0;stroke:none"
       d="M 7.375 1.6875 C 4.2307532 1.6875 1.6875 4.2307532 1.6875 7.375 L 1.6875 40.625 C 1.6875 43.769247 4.2307532 46.3125 7.375 46.3125 L 40.625 46.3125 C 43.769247 46.3125 46.3125 43.769247 46.3125 40.625 L 46.3125 7.375 C 46.3125 4.2307532 43.769247 1.6875 40.625 1.6875 L 7.375 1.6875 z "
       transform="translate(0,1004.3622)"
       id="rect2991" />
    <g
       transform="matrix(-0.25881905,-0.96592583,0.96592583,-0.25881905,-53.124997,2.2482469e-5)"
       style="font-size:7.67604971px;font-style:normal;font-variant:normal;font-weight:bold;font-stretch:normal;line-height:125%;letter-spacing:0px;word-spacing:0px;fill:#ffffff;fill-opacity:1;stroke:none;font-family:Split splat splodge;-inkscape-font-specification:Split splat splodge Bold"
       id="text833">
      <path
         d="m -986.64777,-227.19084 c 0.30192,-1.09673 -0.12589,-3.00027 -1.21403,-4.88698 -0.41554,-0.71986 -0.78334,-1.16489 -1.26011,-1.69644 l -3.48287,2.01083 c 0.22175,0.67887 0.42347,1.21962 0.83911,1.93951 1.45268,2.51611 3.50189,4.05082 4.58149,3.42757 C -986.91428,-226.55216 -986.74841,-226.82526 -986.64777,-227.19084 z m -0.77615,-0.7256 c -0.0524,0.19563 -0.16761,0.37746 -0.35688,0.48671 -0.37865,0.21848 -0.86828,0.0873 -1.08667,-0.29117 -0.21848,-0.37848 -0.0873,-0.86814 0.29117,-1.08666 0.37836,-0.21856 0.86799,-0.0874 1.08667,0.29117 C -987.38034,-228.32714 -987.37153,-228.11207 -987.42392,-227.91644 z m -2.01977,-6.10581 c -0.35127,-0.3539 -0.56265,-0.57655 -0.8241,-1.02962 l -2.2539,-3.90388 c -1.3546,-2.34588 -0.91878,-5.23793 0.89217,-7.07258 -0.022,-0.034 -0.0253,-0.0427 -0.0442,-0.0765 l -0.41985,-0.72719 -10.33373,5.96622 0.4198,0.72719 c 0.021,0.0342 0.025,0.0423 0.044,0.0765 2.49465,-0.65086 5.21699,0.4179 6.57111,2.76365 l 2.22371,3.89579 c 0.26183,0.45318 0.37898,0.75548 0.50982,1.23659 L -989.44369,-234.02225 z m -2.80455,-13.07773 -0.61872,-1.07165 -0.59662,-1.03338 -5.16689,2.98311 -5.16683,2.9831 0.5966,1.03338 0.6187,1.07165 5.16687,-2.9831 L -992.24824,-247.09998 z m -1.37002,-2.37294 -1.87825,-3.25323 -1.87016,-3.28342 -0.22964,0.13259 c -0.13782,0.0797 -0.2251,0.0963 -0.26575,0.0258 -0.0514,-0.0864 -0.17307,-0.0532 -0.67866,0.23873 -0.50561,0.29201 -0.62892,0.32471 -0.67867,0.23873 -0.052,-0.0917 -0.4317,0.12164 -2.86831,1.52846 -0.6599,0.38101 -0.8456,0.50939 -1.2328,0.73729 -0.085,-0.0398 -0.18,-0.0551 -0.2798,-0.0426 -0.095,0.05 -0.153,0.13419 -0.1854,0.20913 0,0.0446 -3e-4,0.0632 0.01,0.0986 -0.1714,0.1028 -0.5115,0.31432 -0.6205,0.38374 -0.061,-0.0304 -0.1402,-0.0752 -0.2415,-0.0647 -0.075,0.045 -0.1264,0.098 -0.1913,0.11048 -0.087,0.15029 -0.2029,0.27043 -0.3245,0.36598 -0.085,0.0665 -0.1664,0.11469 -0.268,0.15468 -0.01,0.004 -0.023,-0.012 -0.03,-0.008 -0.1308,-0.0403 -0.2523,-0.10656 -0.338,-0.18761 l -0.06,-0.0162 -0.068,0.014 c -0.145,0.04 -0.2651,0.0595 -0.3725,0.062 0.02,0.13742 0.035,0.25483 0.07,0.34229 0.1843,-0.0302 0.3201,-0.0242 0.4167,0.0146 -0.1916,0.12323 -0.2856,0.18047 -0.2237,0.23123 0.069,0.0563 0.082,0.1056 -0.01,0.15901 -0.073,0.0437 -0.1858,0.0318 -0.2194,-0.0264 -0.033,-0.0579 -0.094,-0.0731 -0.1509,-0.0404 -0.056,0.033 -0.081,0.12336 -0.048,0.18111 0.051,0.0864 -0.072,0.16788 -0.5763,0.46028 -0.1519,0.0877 -0.1898,0.12871 -0.276,0.18487 0.022,-0.0651 0.021,-0.13333 0.018,-0.1892 0.05,-0.12993 0.082,-0.23708 0.089,-0.33204 l 0.046,-0.0523 0.016,-0.0604 0.062,-0.11265 0.016,-0.0604 0.079,-0.17303 c 0.037,-0.1949 0.1022,-0.35184 0.1898,-0.46678 l 0.068,-0.014 0.4027,-0.0539 c -0.01,-0.0225 0.01,-0.0404 0.016,-0.0604 l -0.096,-0.12291 c -0.1424,-0.085 -0.2166,-0.21262 -0.2291,-0.35255 l 0.01,-0.0302 0.046,-0.0523 c 0,-0.035 0.012,-0.0681 0.024,-0.0906 l 0.016,-0.0604 c 0.013,-0.025 0.032,-0.0473 0.046,-0.0523 l 0.04,-0.15093 0.016,-0.0604 0.016,-0.0604 0.071,-0.14284 c 0.01,-0.0825 0.029,-0.16902 0.065,-0.24148 l 0.016,-0.0604 0.024,-0.0906 c -0.015,-0.18741 10e-5,-0.35461 0.031,-0.47705 l 0.04,-0.15092 c 0.053,-0.11244 0.079,-0.2019 0.081,-0.30185 -0.085,-0.1874 -0.1378,-0.37565 -0.1503,-0.52557 -0.017,-0.015 -0.024,-0.0258 -0.022,-0.0383 -0.053,-0.0625 -0.1109,-0.13448 -0.1407,-0.19945 l 0.016,-0.0604 -0.01,-0.0986 -0.014,-0.0685 -0.014,-0.0685 c -0.047,-0.2149 -0.056,-0.39407 -0.052,-0.53149 l -0.06,-0.0162 c -0.1,-0.0899 -0.187,-0.15165 -0.2695,-0.20162 l -0.05,-0.17519 c -0.053,-0.12744 -0.06,-0.26004 -0.062,-0.37248 -0.097,-0.035 -0.1678,-0.0776 -0.2253,-0.12508 -0.2973,-0.39479 -0.6674,-0.63097 -1.1022,-0.71593 l -0.2599,0.1245 c -0.077,0.0175 -0.1581,0.0364 -0.2355,0.0339 -0.013,0.015 -0.024,0.0246 -0.038,0.0221 -0.1025,0.015 -0.1787,0.0367 -0.2436,0.0641 l -0.091,-0.0243 -0.038,0.0221 c -0.2224,-0.01 -0.4042,0.006 -0.5616,0.0436 -0.015,0.0175 -0.026,0.0246 -0.038,0.0221 -0.015,0.015 -0.023,0.0246 -0.038,0.0221 l -0.016,0.0604 c -0.065,0.0425 -0.1259,0.0786 -0.1612,0.11857 -0.2049,0.13744 -0.3505,0.30524 -0.4555,0.49264 -0.037,0.38481 0.1153,0.5224 0.4625,0.44744 l 0.022,0.0383 0.1126,0.0625 0.01,0.0986 c 0.035,0.13244 0.04,0.25695 0.032,0.36439 l 0.014,0.0685 c 0.037,0.10245 0.059,0.17868 0.064,0.24365 l 0.066,0.11482 c 0.065,0.085 0.1124,0.15968 0.1326,0.22964 l 0.088,0.15309 c 0.077,0.0375 0.1396,0.0872 0.187,0.14717 l 0.022,0.0383 c 0.085,0.1849 0.1391,0.34026 0.1666,0.4652 0.1674,0.13243 0.2611,0.28285 0.3336,0.44527 l 0.096,0.1229 c 0.072,0.08 0.1146,0.18046 0.1546,0.26792 0.033,0.28485 0.014,0.52632 -0.1035,0.74871 l -0.016,0.0604 c 0.025,0.10494 0.053,0.19637 0.056,0.27383 0.165,0.42479 0.087,0.83938 -0.2329,1.23167 0.017,0.29985 -0.1001,0.52967 -0.3149,0.69209 -0.1099,0.66216 -0.5959,1.06047 -1.483,1.18791 l -0.046,0.0523 -0.1774,0.17894 -0.016,0.0604 -0.046,0.0523 c -0.027,0.0775 -0.057,0.15322 -0.087,0.2032 -0.045,0.16492 -0.076,0.31206 -0.1434,0.41451 l -0.024,0.0906 -0.032,0.12074 c -0.015,0.0675 -0.018,0.14423 -0.018,0.1892 l -0.016,0.0604 c -0.01,0.0975 -0.044,0.17153 -0.065,0.24149 -0.015,0.1849 -0.036,0.33593 -0.091,0.46086 0.013,0.72213 0.3286,1.11505 0.9206,1.15253 0.015,-0.0175 0.026,-0.0246 0.038,-0.0221 0.165,-0.0575 0.2884,-0.15371 0.3908,-0.25116 0.072,-0.30735 0.1966,-0.55139 0.3914,-0.73629 l 0.1671,-0.0199 c 0.072,-0.003 0.1272,-0.0101 0.1672,-0.0199 l 0.4247,-0.0156 0.046,-0.0523 0.038,-0.0221 0.2297,-0.13258 0.046,-0.0523 0.085,-0.0744 c 0.077,-0.22239 0.1849,-0.39506 0.3348,-0.52499 l 0.062,-0.11266 c 0.025,-0.1949 0.054,-0.35303 0.1294,-0.48296 l 0.046,-0.0523 0.038,-0.0221 c 0.015,-0.025 0.023,-0.0196 0.038,-0.0221 0.087,-0.0425 0.1852,-0.10778 0.2377,-0.16276 l -0.014,-0.0685 0.041,-0.15093 -0.014,-0.0685 0.024,-0.0906 c -0.044,-0.20876 -0.052,-0.37434 -0.052,-0.53149 0.1948,0.39451 0.6569,1.18201 1.6713,2.93895 l 1.8702,3.28341 5.17495,-3.01329 L -993.61826,-249.47292 z m -15.32814,2.75152 c -0.077,-0.03 -0.1489,-0.0566 -0.2113,-0.0566 l -0.046,0.0523 C -1009.1091,-246.61328 -1009.0338,-246.60895 -1008.9464,-246.7214 z m 1.8832,-11.01283 -0.091,-0.0243 C -1007.1471,-257.65854 -1007.1112,-257.64674 -1007.0632,-257.73423 z m -1.6886,4.85331 c -0.2174,-0.16991 -0.4539,-0.2312 -0.6862,-0.21621 -0.235,-0.20239 -0.5022,-0.33182 -0.7746,-0.3693 -0.3098,-0.22239 -0.6264,-0.35766 -0.9637,-0.38765 -0.095,-0.0375 -0.1679,-0.0626 -0.2253,-0.12507 l -0.1127,-0.0625 -0.091,-0.0243 -0.082,-0.0545 -0.091,-0.0243 -0.06,-0.0162 c -0.095,-0.0425 -0.1654,-0.0851 -0.2254,-0.12507 l -0.099,0.006 -0.022,-0.0383 c -0.1249,-0.0675 -0.2542,-0.10976 -0.3541,-0.12725 l -0.2113,-0.0566 -0.06,-0.0162 c -0.158,-0.0424 -0.3164,-0.0654 -0.4388,-0.0529 -0.2324,0.0425 -0.3579,0.18257 -0.3929,0.37998 0.047,0.0575 0.074,0.0829 0.096,0.12291 l 0.1731,0.0787 0.022,0.0383 c 0.027,0.007 0.022,0.0183 0.022,0.0383 0.1624,0.0575 0.3059,0.13382 0.3984,0.20379 l 0.5433,0.14559 c 0.3823,0.23238 0.7547,0.32983 1.147,0.30734 0.16,0.065 0.306,0.12637 0.3984,0.20379 l 0.06,0.0162 c 0.057,0.02 0.104,0.0178 0.1591,0.0103 l 0.06,0.0162 0.06,0.0162 0.06,0.0162 0.09,0.0243 0.099,-0.006 c 0.2723,0.0325 0.5013,0.0541 0.6662,0.0491 0.1299,0.16242 0.2776,0.24536 0.4425,0.28034 C -1008.9228,-252.65223 -1008.7843,-252.73597 -1008.7518,-252.88092 z m -0.199,-5.2944 c 0,-0.0319 0,-0.0376 -0.052,-0.0464 -0.11,0.0575 -0.2327,0.0958 -0.3202,0.10832 0.01,0.1799 0.1288,0.21141 0.332,0.089 C -1008.95,-258.07936 -1008.9477,-258.14346 -1008.9508,-258.17532 z m -2.0582,7.43956 c 0.014,-0.10869 -0.022,-0.20525 -0.1083,-0.32019 l -0.1509,-0.0404 -0.06,-0.0162 c -0.1624,0.0725 -0.3423,0.12825 -0.4873,0.12825 -0.1249,-0.005 -0.2225,-0.026 -0.3099,-0.0507 l -0.2614,-0.2318 -0.091,-0.0243 -0.099,0.006 -0.022,-0.0383 -0.3563,0.002 -0.06,-0.0162 -0.06,-0.0162 -0.06,-0.0162 -0.06,-0.0162 -0.068,0.014 c -0.08,-0.007 -0.1665,-0.0297 -0.2414,-0.0647 l -0.1973,0.0118 c -0.047,0.12243 -0.035,0.21676 0.04,0.3342 l 0.06,0.0162 0.2938,0.11106 0.06,0.0162 c 0.13,0.007 0.2231,5.1e-4 0.3181,0.0205 l 0.1207,0.0324 0.1207,0.0324 0.052,0.0464 0.1509,0.0404 0.091,0.0243 0.091,0.0243 0.06,0.0162 0.091,0.0243 0.06,0.0162 0.091,0.0243 0.1509,0.0404 c 0.1924,0.0475 0.3494,0.11231 0.4668,0.18978 l 0.1892,0.0183 C -1011.0829,-250.50025 -1011.0226,-250.62706 -1011.009,-250.73576 Z"
         id="path1649"
         inkscape:connector-curvature="0" />
    </g>
    <g
       id="g1005"
       transform="matrix(0.87162206,0,0,0.87162206,4.3180003,125.84358)">
      <path
         d="m 29.018781,1031.5565 c 0.217435,-0.3407 0.327738,-0.7171 0.327738,-1.1358 0,-0.5386 -0.188148,-0.9994 -0.567831,-1.3791 -0.379682,-0.3796 -0.840452,-0.571 -1.375825,-0.5678 -0.421884,0 -0.801566,0.1103 -1.138976,0.3309 l -4.825289,4.822 0.0035,0 c -0.0035,0 -0.0035,0 -0.0035,0.01 -0.12654,0.1266 -0.2336,0.2597 -0.321252,0.4057 -0.02597,0.042 -0.04868,0.088 -0.07142,0.1363 -0.120046,0.253 -0.181726,0.5321 -0.181726,0.8372 -0.0035,0.5354 0.188219,0.9961 0.567902,1.3758 0.379682,0.3796 0.840452,0.5679 1.379132,0.5711 0.535373,0 0.996215,-0.1947 1.379076,-0.5744 0,0 0,0 0.0035,0 l 0.957256,-0.9572 c 0.02924,-0.029 0.06167,-0.062 0.09083,-0.091 0.275801,-0.2758 0.551666,-0.5516 0.827466,-0.8275 0.181727,-0.185 0.363447,-0.3666 0.548359,-0.5484 l 2.401312,-2.4012 L 29.018781,1031.5565 Z"
         id="path7"
         style="fill:#ffffff;fill-opacity:1"
         inkscape:connector-curvature="0" />
      <path
         d="m 19.030857,1031.0211 c -0.382869,-0.3797 -0.843703,-0.5711 -1.37914,-0.5711 -0.538616,0 -0.996207,0.1914 -1.375826,0.5711 -0.29528,0.2953 -0.486742,0.6392 -0.567894,1.0319 l -0.0035,0 0,8.1221 0.0035,0 c 0,0 0,0 0,0 -0.0035,0.1785 0.01625,0.3505 0.0584,0.5127 0.01625,0.049 0.03243,0.1006 0.05194,0.1493 0.09083,0.2628 0.243343,0.503 0.457528,0.7204 0.02597,0.026 0.05194,0.052 0.07791,0.075 0.0746,0.068 0.152512,0.1265 0.233664,0.1817 0.165498,0.1103 0.343974,0.1914 0.535437,0.2434 0.06167,0.02 0.126539,0.035 0.191469,0.045 l 0.0035,0 8.122113,0.033 -0.0035,0 c 0.0035,0 0.0035,0 0.0064,0 0.178484,0 0.350467,-0.019 0.515965,-0.062 0.04861,-0.016 0.100567,-0.033 0.149262,-0.049 0.262878,-0.094 0.502971,-0.2466 0.720406,-0.4575 0.376432,-0.3797 0.564588,-0.8404 0.564588,-1.3791 0,-0.5355 -0.188156,-0.9962 -0.567838,-1.3759 -0.379675,-0.3796 -0.840453,-0.571 -1.379133,-0.571 -0.0035,0 -0.0064,0 -0.0064,0 l -5.840912,0 0.0035,-6.1914 c -0.08772,-0.3927 -0.275936,-0.7366 -0.571209,-1.0319 L 19.030857,1031.0211 Z"
         id="path9"
         style="fill:#ffffff"
         inkscape:connector-curvature="0" />
      <path
         inkscape:connector-curvature="0"
         d="m 38.156645,1035.4472 c 0,-4.3028 -1.521908,-7.9761 -4.562411,-11.0166 -3.040495,-3.0405 -6.713822,-4.5624 -11.013347,-4.5624 -4.302838,0 -7.976101,1.5219 -11.016597,4.5624 -3.0405655,3.0405 -4.5591597,6.7138 -4.5591597,11.0166 0,4.2996 1.518658,7.9729 4.5591597,11.0134 3.040496,3.0405 6.713823,4.5623 11.016597,4.5656 4.299525,0 7.972781,-1.5252 11.013284,-4.5656 3.040502,-3.0405 4.562474,-6.7138 4.562474,-11.0134 L 38.156645,1035.4472 z m -15.575758,-11.6851 c 3.222158,0 5.977188,1.139 8.258389,3.4202 2.281202,2.2812 3.423428,5.0362 3.423428,8.2616 0,3.2255 -1.142226,5.9805 -3.423428,8.2617 -2.281201,2.2812 -5.036167,3.4234 -8.258389,3.4234 -3.225471,0 -5.980437,-1.1422 -8.261638,-3.4234 -2.281202,-2.2812 -3.423428,-5.0362 -3.420185,-8.2617 -0.0035,-3.2254 1.138983,-5.9804 3.420185,-8.2616 2.281137,-2.2812 5.036167,-3.4202 8.261638,-3.4202 L 22.580887,1023.7621 Z"
         id="path2555"
         style="fill:#ffffff;fill-opacity:1" />
    </g>
  </g>
  <g
     inkscape:groupmode="layer"
     id="layer7"
     inkscape:label="Capa">
    <rect
       style="fill:none;stroke:none;display:inline"
       id="rect6857"
       width="25.25"
       height="24.75"
       x="11.749999"
       y="12.000001"
       rx="5"
       ry="5" />
    <path
       style="fill:none;stroke:none;display:inline"
       d="m 17.437499,23.375001 0,6.5 c 0.678503,3.33119 4.907026,1.813397 4.5625,0 l 0,-4.75 c 0.368436,-1.775597 3.710364,-2.385978 4.75,0 l 0,7.125 0,-7.125 c 0.950148,-2.189897 3.957536,-1.829918 4.5625,0 l 0,7.125 -0.0625,-0.3125"
       id="path8309"
       inkscape:connector-curvature="0"
       sodipodi:nodetypes="cccccccccc" />
  </g>
</svg>
