<?xml version="1.0" encoding="UTF-8" standalone="no"?>
<!-- Created with Inkscape (http://www.inkscape.org/) -->

<svg
   xmlns:dc="http://purl.org/dc/elements/1.1/"
   xmlns:cc="http://creativecommons.org/ns#"
   xmlns:rdf="http://www.w3.org/1999/02/22-rdf-syntax-ns#"
   xmlns:svg="http://www.w3.org/2000/svg"
   xmlns="http://www.w3.org/2000/svg"
   xmlns:xlink="http://www.w3.org/1999/xlink"
   xmlns:sodipodi="http://sodipodi.sourceforge.net/DTD/sodipodi-0.dtd"
   xmlns:inkscape="http://www.inkscape.org/namespaces/inkscape"
   width="48"
   height="48"
   id="svg2"
   version="1.1"
   inkscape:version="0.48+devel r11521"
   sodipodi:docname="gnome-panel-screenshot.svg">
  <defs
     id="defs4">
    <linearGradient
       id="linearGradient3795">
      <stop
         style="stop-color:#9f1e25;stop-opacity:1;"
         offset="0"
         id="stop3797" />
      <stop
         style="stop-color:#e16459;stop-opacity:1;"
         offset="1"
         id="stop3799" />
    </linearGradient>
    <linearGradient
       inkscape:collect="always"
       id="linearGradient3914">
      <stop
         style="stop-color:#59b3e1;stop-opacity:1;"
         offset="0"
         id="stop3916" />
      <stop
         style="stop-color:#59b3e1;stop-opacity:0;"
         offset="1"
         id="stop3918" />
    </linearGradient>
    <linearGradient
       id="linearGradient3698">
      <stop
         id="stop3700"
         offset="0"
         style="stop-color:#96d0e1;stop-opacity:1" />
      <stop
         style="stop-color:#89b7e1;stop-opacity:1"
         offset="0.67819428"
         id="stop3706" />
      <stop
         id="stop3702"
         offset="1"
         style="stop-color:#699dd3;stop-opacity:1" />
    </linearGradient>
    <linearGradient
       id="linearGradient3708">
      <stop
         style="stop-color:#b54ac8;stop-opacity:1;"
         offset="0"
         id="stop3716" />
      <stop
         id="stop3712"
         offset="1"
         style="stop-color:#cd79df;stop-opacity:1;" />
    </linearGradient>
    <linearGradient
       id="linearGradient3750">
      <stop
         style="stop-color:#d0e2f1;stop-opacity:1"
         offset="0"
         id="stop3752" />
      <stop
         id="stop3756"
         offset="0.85580856"
         style="stop-color:#cadef0;stop-opacity:1" />
      <stop
         style="stop-color:#95bee3;stop-opacity:1"
         offset="1"
         id="stop3754" />
    </linearGradient>
    <linearGradient
       id="linearGradient3803">
      <stop
         id="stop3805"
         offset="0"
         style="stop-color:#d7def0;stop-opacity:1;" />
      <stop
         style="stop-color:#ffffff;stop-opacity:1"
         offset="0.5"
         id="stop3811" />
      <stop
         id="stop3807"
         offset="1"
         style="stop-color:#d5def0;stop-opacity:1" />
    </linearGradient>
    <linearGradient
       inkscape:collect="always"
       xlink:href="#linearGradient3914"
       id="linearGradient3920"
       x1="6.8000002"
       y1="25.0625"
       x2="45.325001"
       y2="25.0625"
       gradientUnits="userSpaceOnUse" />
    <linearGradient
       x1="62.336792"
       y1="79.015236"
       x2="62.336792"
       y2="12.797539"
       id="linearGradient2936"
       xlink:href="#linearGradient3694"
       gradientUnits="userSpaceOnUse"
       gradientTransform="matrix(0.87485882,0,0,0.90698611,2.762671,6.33428)" />
    <linearGradient
       id="linearGradient3694">
      <stop
         id="stop3696"
         style="stop-color:#e6e6e6;stop-opacity:1"
         offset="0" />
      <stop
         id="stop3698"
         style="stop-color:#f5f5f5;stop-opacity:1"
         offset="1" />
    </linearGradient>
    <linearGradient
       x1="55"
       y1="18"
       x2="55"
       y2="112"
       id="linearGradient3831"
       xlink:href="#linearGradient3825"
       gradientUnits="userSpaceOnUse" />
    <linearGradient
       id="linearGradient3825">
      <stop
         id="stop3827"
         style="stop-color:#501616;stop-opacity:1"
         offset="0" />
      <stop
         id="stop3829"
         style="stop-color:#501616;stop-opacity:0"
         offset="1" />
    </linearGradient>
    <linearGradient
       id="linearGradient3795-43">
      <stop
         style="stop-color:#52a2cc;stop-opacity:1;"
         offset="0"
         id="stop3797-8" />
      <stop
         style="stop-color:#59b3e1;stop-opacity:1;"
         offset="1"
         id="stop3799-4" />
    </linearGradient>
    <linearGradient
       inkscape:collect="always"
       id="linearGradient3914-0">
      <stop
         style="stop-color:#59b3e1;stop-opacity:1;"
         offset="0"
         id="stop3916-1" />
      <stop
         style="stop-color:#59b3e1;stop-opacity:0;"
         offset="1"
         id="stop3918-3" />
    </linearGradient>
    <linearGradient
       id="linearGradient3698-8">
      <stop
         id="stop3700-2"
         offset="0"
         style="stop-color:#96d0e1;stop-opacity:1" />
      <stop
         style="stop-color:#89b7e1;stop-opacity:1"
         offset="0.67819428"
         id="stop3706-0" />
      <stop
         id="stop3702-9"
         offset="1"
         style="stop-color:#699dd3;stop-opacity:1" />
    </linearGradient>
    <linearGradient
       id="linearGradient3708-2">
      <stop
         id="stop3710-9"
         offset="0"
         style="stop-color:#658db6;stop-opacity:1" />
      <stop
         style="stop-color:#527fab;stop-opacity:1;"
         offset="0.76777935"
         id="stop3716-3" />
      <stop
         id="stop3712-5"
         offset="1"
         style="stop-color:#4071a0;stop-opacity:1" />
    </linearGradient>
    <linearGradient
       id="linearGradient3750-1">
      <stop
         style="stop-color:#d0e2f1;stop-opacity:1"
         offset="0"
         id="stop3752-3" />
      <stop
         id="stop3756-9"
         offset="0.85580856"
         style="stop-color:#cadef0;stop-opacity:1" />
      <stop
         style="stop-color:#95bee3;stop-opacity:1"
         offset="1"
         id="stop3754-4" />
    </linearGradient>
    <linearGradient
       id="linearGradient3803-2">
      <stop
         id="stop3805-8"
         offset="0"
         style="stop-color:#d7def0;stop-opacity:1;" />
      <stop
         style="stop-color:#ffffff;stop-opacity:1"
         offset="0.5"
         id="stop3811-0" />
      <stop
         id="stop3807-2"
         offset="1"
         style="stop-color:#d5def0;stop-opacity:1" />
    </linearGradient>
    <linearGradient
       inkscape:collect="always"
       xlink:href="#linearGradient3914-0"
       id="linearGradient3920-9"
       x1="6.8000002"
       y1="25.0625"
       x2="45.325001"
       y2="25.0625"
       gradientUnits="userSpaceOnUse" />
    <linearGradient
       inkscape:collect="always"
       xlink:href="#linearGradient3795-43"
       id="linearGradient3801-7"
       x1="23.204165"
       y1="1053.158"
       x2="23.204165"
       y2="1004.8474"
       gradientUnits="userSpaceOnUse" />
    <linearGradient
       y2="1049.5842"
       x2="24.113745"
       y1="1007.2183"
       x1="24.113745"
       gradientTransform="matrix(0.96799712,0,0,1.0252613,0.76812014,-25.977808)"
       gradientUnits="userSpaceOnUse"
       id="linearGradient3030"
       xlink:href="#linearGradient3795-4"
       inkscape:collect="always" />
    <linearGradient
       id="linearGradient3795-4">
      <stop
         style="stop-color:#68b8d8;stop-opacity:1;"
         offset="0"
         id="stop3797-0" />
      <stop
         style="stop-color:#3097bd;stop-opacity:1;"
         offset="1"
         id="stop3799-0" />
    </linearGradient>
    <linearGradient
       y2="1049.5842"
       x2="24.113745"
       y1="1007.2183"
       x1="24.113745"
       gradientTransform="matrix(0.96799712,0,0,1.0252613,0.76812206,-2082.7022)"
       gradientUnits="userSpaceOnUse"
       id="linearGradient3151"
       xlink:href="#linearGradient3795"
       inkscape:collect="always" />
    <linearGradient
       gradientUnits="userSpaceOnUse"
       y2="25.0625"
       x2="45.325001"
       y1="25.0625"
       x1="6.8000002"
       id="linearGradient3920-6"
       xlink:href="#linearGradient3914-6"
       inkscape:collect="always" />
    <linearGradient
       id="linearGradient3803-8">
      <stop
         style="stop-color:#d7def0;stop-opacity:1;"
         offset="0"
         id="stop3805-4" />
      <stop
         id="stop3811-03"
         offset="0.5"
         style="stop-color:#ffffff;stop-opacity:1" />
      <stop
         style="stop-color:#d5def0;stop-opacity:1"
         offset="1"
         id="stop3807-8" />
    </linearGradient>
    <linearGradient
       id="linearGradient3750-0">
      <stop
         id="stop3752-1"
         offset="0"
         style="stop-color:#d0e2f1;stop-opacity:1" />
      <stop
         style="stop-color:#cadef0;stop-opacity:1"
         offset="0.85580856"
         id="stop3756-0" />
      <stop
         id="stop3754-7"
         offset="1"
         style="stop-color:#95bee3;stop-opacity:1" />
    </linearGradient>
    <linearGradient
       id="linearGradient3708-3">
      <stop
         style="stop-color:#658db6;stop-opacity:1"
         offset="0"
         id="stop3710" />
      <stop
         id="stop3716-0"
         offset="0.76777935"
         style="stop-color:#527fab;stop-opacity:1;" />
      <stop
         style="stop-color:#4071a0;stop-opacity:1"
         offset="1"
         id="stop3712-6" />
    </linearGradient>
    <linearGradient
       id="linearGradient3698-7">
      <stop
         style="stop-color:#96d0e1;stop-opacity:1"
         offset="0"
         id="stop3700-0" />
      <stop
         id="stop3706-7"
         offset="0.67819428"
         style="stop-color:#89b7e1;stop-opacity:1" />
      <stop
         style="stop-color:#699dd3;stop-opacity:1"
         offset="1"
         id="stop3702-0" />
    </linearGradient>
    <linearGradient
       id="linearGradient3914-6"
       inkscape:collect="always">
      <stop
         id="stop3916-9"
         offset="0"
         style="stop-color:#59b3e1;stop-opacity:1;" />
      <stop
         id="stop3918-7"
         offset="1"
         style="stop-color:#59b3e1;stop-opacity:0;" />
    </linearGradient>
    <linearGradient
       id="linearGradient3795-9">
      <stop
         id="stop3797-06"
         offset="0"
         style="stop-color:#2a6d20;stop-opacity:1;" />
      <stop
         style="stop-color:#76c45a;stop-opacity:1;"
         offset="1"
         id="stop3800" />
    </linearGradient>
  </defs>
  <sodipodi:namedview
     id="base"
     pagecolor="#ffffff"
     bordercolor="#666666"
     borderopacity="1.0"
     inkscape:pageopacity="0.0"
     inkscape:pageshadow="2"
     inkscape:zoom="4.1120981"
     inkscape:cx="10.604267"
     inkscape:cy="-1.0216895"
     inkscape:document-units="px"
     inkscape:current-layer="layer1"
     showgrid="false"
     inkscape:window-width="960"
     inkscape:window-height="1035"
     inkscape:window-x="0"
     inkscape:window-y="26"
     inkscape:window-maximized="0"
     showguides="true"
     inkscape:guide-bbox="true" />
  <metadata
     id="metadata7">
    <rdf:RDF>
      <cc:Work
         rdf:about="">
        <dc:format>image/svg+xml</dc:format>
        <dc:type
           rdf:resource="http://purl.org/dc/dcmitype/StillImage" />
        <dc:title />
      </cc:Work>
    </rdf:RDF>
  </metadata>
  <g
     inkscape:label="Capa 1"
     inkscape:groupmode="layer"
     id="layer1"
     transform="translate(0,-1004.3622)">
    <rect
       ry="5.6755357"
       y="-1050.663"
       x="1.6992435"
       height="44.601513"
       width="44.601513"
       id="rect2992"
       style="fill:url(#linearGradient3151);fill-opacity:1.0;stroke:#7d7d7d;stroke-width:0.39848712;stroke-miterlimit:4;stroke-opacity:1;stroke-dasharray:none"
       transform="scale(1,-1)" />
    <g
       id="g3217"
       transform="matrix(0.65578677,0,0,0.65578677,8.189391,353.89833)">
      <path
         transform="matrix(0.79933457,0,0,0.79933457,4.6161382,1008.6786)"
         d="m 28.874998,24.625002 c 0,2.554317 -2.070683,4.625 -4.625,4.625 -2.554317,0 -4.625,-2.070683 -4.625,-4.625 0,-2.554317 2.070683,-4.625 4.625,-4.625 2.554317,0 4.625,2.070683 4.625,4.625 z"
         sodipodi:ry="4.625"
         sodipodi:rx="4.625"
         sodipodi:cy="24.625002"
         sodipodi:cx="24.249998"
         id="path3030"
         style="fill:#ffffff;fill-opacity:1;stroke:none"
         sodipodi:type="arc" />
      <g
         inkscape:transform-center-y="-11.510246"
         inkscape:transform-center-x="-6.5316986"
         id="g3125"
         transform="translate(-0.98131061,-0.28492656)">
        <g
           id="g3127">
          <path
             inkscape:connector-curvature="0"
             id="path3129"
             d="m 21.812499,1022.9872 22.624999,0 -8.8125,-8.8125 z"
             style="fill:#ffffff;stroke:none" />
        </g>
        <g
           transform="matrix(-0.25881905,-0.96592582,0.96592582,-0.25881905,-962.99775,1317.5702)"
           id="g3133" />
      </g>
      <g
         transform="matrix(0.5,-0.8660254,0.8660254,0.5,-879.3729,535.8269)"
         id="g3177"
         inkscape:transform-center-x="1.3496883"
         inkscape:transform-center-y="-9.8470345">
        <g
           id="g3179">
          <path
             style="fill:#ffffff;stroke:none"
             d="m 21.812499,1022.9872 22.624999,0 -8.8125,-8.8125 z"
             id="path3181"
             inkscape:connector-curvature="0" />
        </g>
        <g
           id="g3183"
           transform="matrix(-0.25881905,-0.96592582,0.96592582,-0.25881905,-962.99775,1317.5702)" />
      </g>
      <g
         inkscape:transform-center-y="-4.0688345"
         inkscape:transform-center-x="10.634027"
         id="g3185"
         transform="matrix(-0.5,-0.8660254,0.8660254,-0.5,-854.28224,1564.5923)">
        <g
           id="g3187">
          <path
             inkscape:connector-curvature="0"
             id="path3189"
             d="m 21.812499,1022.9872 22.624999,0 -8.8125,-8.8125 z"
             style="fill:#ffffff;stroke:none" />
        </g>
        <g
           transform="matrix(-0.25881905,-0.96592582,0.96592582,-0.25881905,-962.99775,1317.5702)"
           id="g3191" />
      </g>
      <g
         transform="matrix(-1,0,0,-1,49.20006,2057.2458)"
         id="g3193"
         inkscape:transform-center-x="8.0343259"
         inkscape:transform-center-y="10.184406">
        <g
           id="g3195">
          <path
             style="fill:#ffffff;stroke:none"
             d="m 21.812499,1022.9872 22.624999,0 -8.8125,-8.8125 z"
             id="path3197"
             inkscape:connector-curvature="0" />
        </g>
        <g
           id="g3199"
           transform="matrix(-0.25881905,-0.96592582,0.96592582,-0.25881905,-962.99775,1317.5702)" />
      </g>
      <g
         inkscape:transform-center-y="9.8470461"
         inkscape:transform-center-x="-1.3496739"
         id="g3201"
         transform="matrix(-0.5,0.8660254,-0.8660254,-0.5,927.59166,1521.134)">
        <g
           id="g3203">
          <path
             inkscape:connector-curvature="0"
             id="path3205"
             d="m 21.812499,1022.9872 22.624999,0 -8.8125,-8.8125 z"
             style="fill:#ffffff;stroke:none" />
        </g>
        <g
           transform="matrix(-0.25881905,-0.96592582,0.96592582,-0.25881905,-962.99775,1317.5702)"
           id="g3207" />
      </g>
      <g
         transform="matrix(0.5,0.8660254,-0.8660254,0.5,902.50102,492.36862)"
         id="g3209"
         inkscape:transform-center-x="-10.634032"
         inkscape:transform-center-y="4.0688661">
        <g
           id="g3211">
          <path
             style="fill:#ffffff;stroke:none"
             d="m 21.812499,1022.9872 22.624999,0 -8.8125,-8.8125 z"
             id="path3213"
             inkscape:connector-curvature="0" />
        </g>
        <g
           id="g3215"
           transform="matrix(-0.25881905,-0.96592582,0.96592582,-0.25881905,-962.99775,1317.5702)" />
      </g>
    </g>
    <path
       sodipodi:type="arc"
       style="fill:none;stroke:#ffffff;stroke-width:3.29999995;stroke-linecap:square;stroke-linejoin:miter;stroke-miterlimit:4;stroke-opacity:1;stroke-dasharray:none;stroke-dashoffset:0"
       id="path3041"
       sodipodi:cx="24.395184"
       sodipodi:cy="23.604816"
       sodipodi:rx="13.258251"
       sodipodi:ry="13.258251"
       d="m 37.653435,23.604816 a 13.258251,13.258251 0 1 1 -26.516503,0 13.258251,13.258251 0 1 1 26.516503,0 z"
       transform="translate(-0.39518356,1004.7574)" />
  </g>
</svg>
