<?xml version="1.0" encoding="UTF-8" standalone="no"?>
<!-- Created with Inkscape (http://www.inkscape.org/) -->

<svg
   xmlns:dc="http://purl.org/dc/elements/1.1/"
   xmlns:cc="http://creativecommons.org/ns#"
   xmlns:rdf="http://www.w3.org/1999/02/22-rdf-syntax-ns#"
   xmlns:svg="http://www.w3.org/2000/svg"
   xmlns="http://www.w3.org/2000/svg"
   xmlns:xlink="http://www.w3.org/1999/xlink"
   xmlns:sodipodi="http://sodipodi.sourceforge.net/DTD/sodipodi-0.dtd"
   xmlns:inkscape="http://www.inkscape.org/namespaces/inkscape"
   width="48"
   height="48"
   id="svg2"
   version="1.1"
   inkscape:version="0.48+devel r11772"
   sodipodi:docname="gparted.svg">
  <defs
     id="defs4">
    <linearGradient
       id="linearGradient886">
      <stop
         style="stop-color:#000000;stop-opacity:1"
         offset="0"
         id="stop888" />
      <stop
         style="stop-color:#808080;stop-opacity:1"
         offset="1"
         id="stop890" />
    </linearGradient>
    <linearGradient
       id="linearGradient870">
      <stop
         id="stop872"
         offset="0"
         style="stop-color:#808080;stop-opacity:1" />
      <stop
         id="stop874"
         offset="1"
         style="stop-color:#f2f2f2;stop-opacity:1" />
    </linearGradient>
    <linearGradient
       id="linearGradient856">
      <stop
         id="stop858"
         offset="0"
         style="stop-color:#c5ebb1;stop-opacity:1" />
      <stop
         id="stop860"
         offset="1"
         style="stop-color:#469f28;stop-opacity:1" />
    </linearGradient>
    <linearGradient
       id="linearGradient3795">
      <stop
         style="stop-color:#5276cc;stop-opacity:1;"
         offset="0"
         id="stop3797" />
      <stop
         style="stop-color:#5984e1;stop-opacity:1;"
         offset="1"
         id="stop3799" />
    </linearGradient>
    <linearGradient
       inkscape:collect="always"
       id="linearGradient3914">
      <stop
         style="stop-color:#59b3e1;stop-opacity:1;"
         offset="0"
         id="stop3916" />
      <stop
         style="stop-color:#59b3e1;stop-opacity:0;"
         offset="1"
         id="stop3918" />
    </linearGradient>
    <linearGradient
       id="linearGradient3698">
      <stop
         id="stop3700"
         offset="0"
         style="stop-color:#96d0e1;stop-opacity:1" />
      <stop
         style="stop-color:#89b7e1;stop-opacity:1"
         offset="0.67819428"
         id="stop3706" />
      <stop
         id="stop3702"
         offset="1"
         style="stop-color:#699dd3;stop-opacity:1" />
    </linearGradient>
    <linearGradient
       id="linearGradient3708">
      <stop
         id="stop3710"
         offset="0"
         style="stop-color:#658db6;stop-opacity:1" />
      <stop
         style="stop-color:#527fab;stop-opacity:1;"
         offset="0.76777935"
         id="stop3716" />
      <stop
         id="stop3712"
         offset="1"
         style="stop-color:#4071a0;stop-opacity:1" />
    </linearGradient>
    <linearGradient
       id="linearGradient3750">
      <stop
         style="stop-color:#d0e2f1;stop-opacity:1"
         offset="0"
         id="stop3752" />
      <stop
         id="stop3756"
         offset="0.85580856"
         style="stop-color:#cadef0;stop-opacity:1" />
      <stop
         style="stop-color:#95bee3;stop-opacity:1"
         offset="1"
         id="stop3754" />
    </linearGradient>
    <linearGradient
       id="linearGradient3803">
      <stop
         id="stop3805"
         offset="0"
         style="stop-color:#d7def0;stop-opacity:1;" />
      <stop
         style="stop-color:#ffffff;stop-opacity:1"
         offset="0.5"
         id="stop3811" />
      <stop
         id="stop3807"
         offset="1"
         style="stop-color:#d5def0;stop-opacity:1" />
    </linearGradient>
    <linearGradient
       inkscape:collect="always"
       xlink:href="#linearGradient3914"
       id="linearGradient3920"
       x1="6.8000002"
       y1="25.0625"
       x2="45.325001"
       y2="25.0625"
       gradientUnits="userSpaceOnUse" />
    <linearGradient
       inkscape:collect="always"
       xlink:href="#linearGradient3795"
       id="linearGradient3801"
       x1="23.204165"
       y1="1053.158"
       x2="23.204165"
       y2="1004.8474"
       gradientUnits="userSpaceOnUse"
       gradientTransform="translate(0,2.4148533e-6)" />
    <linearGradient
       y2="1049.5842"
       x2="24.113745"
       y1="1007.2183"
       x1="24.113745"
       gradientTransform="matrix(0.96799712,0,0,1.0252613,0.76812014,-25.977808)"
       gradientUnits="userSpaceOnUse"
       id="linearGradient3030"
       xlink:href="#linearGradient3795-2"
       inkscape:collect="always" />
    <linearGradient
       id="linearGradient3795-2">
      <stop
         style="stop-color:#68b8d8;stop-opacity:1;"
         offset="0"
         id="stop3797-8" />
      <stop
         style="stop-color:#3097bd;stop-opacity:1;"
         offset="1"
         id="stop3799-4" />
    </linearGradient>
    <linearGradient
       y2="1049.5842"
       x2="24.113745"
       y1="1007.2183"
       x1="24.113745"
       gradientTransform="matrix(0.96799712,0,0,1.0252613,-47.23188,-2082.7026)"
       gradientUnits="userSpaceOnUse"
       id="linearGradient3117"
       xlink:href="#linearGradient3795-2"
       inkscape:collect="always" />
    <radialGradient
       inkscape:collect="always"
       xlink:href="#linearGradient856"
       id="radialGradient854"
       cx="17.147339"
       cy="40.575378"
       fx="17.147339"
       fy="40.575378"
       r="1.767767"
       gradientUnits="userSpaceOnUse" />
    <linearGradient
       inkscape:collect="always"
       xlink:href="#linearGradient870"
       id="linearGradient868"
       x1="24.491693"
       y1="46.185963"
       x2="24.491693"
       y2="38.938118"
       gradientUnits="userSpaceOnUse" />
    <linearGradient
       inkscape:collect="always"
       xlink:href="#linearGradient886"
       id="linearGradient884"
       x1="20.125"
       y1="41.625"
       x2="21.125"
       y2="41.625"
       gradientUnits="userSpaceOnUse"
       gradientTransform="matrix(0.4375,0,0,0.76281714,-49.19835,1014.9162)" />
    <linearGradient
       inkscape:collect="always"
       xlink:href="#linearGradient886"
       id="linearGradient894"
       gradientUnits="userSpaceOnUse"
       gradientTransform="matrix(0.4375,0,0,0.76281714,-47.577897,1014.9162)"
       x1="20.125"
       y1="41.625"
       x2="21.125"
       y2="41.625" />
    <linearGradient
       inkscape:collect="always"
       xlink:href="#linearGradient886"
       id="linearGradient898"
       gradientUnits="userSpaceOnUse"
       gradientTransform="matrix(0.4375,0,0,0.76281714,-45.957443,1014.9162)"
       x1="20.125"
       y1="41.625"
       x2="21.125"
       y2="41.625" />
    <linearGradient
       inkscape:collect="always"
       xlink:href="#linearGradient886"
       id="linearGradient902"
       gradientUnits="userSpaceOnUse"
       gradientTransform="matrix(0.4375,0,0,0.76281714,-44.336991,1014.9162)"
       x1="20.125"
       y1="41.625"
       x2="21.125"
       y2="41.625" />
    <inkscape:perspective
       id="perspective835"
       inkscape:persp3d-origin="24 : 16 : 1"
       inkscape:vp_z="48 : 24 : 1"
       inkscape:vp_y="0 : 1000 : 0"
       inkscape:vp_x="0 : 24 : 1"
       sodipodi:type="inkscape:persp3d" />
  </defs>
  <sodipodi:namedview
     id="base"
     pagecolor="#ffffff"
     bordercolor="#666666"
     borderopacity="1.0"
     inkscape:pageopacity="0.0"
     inkscape:pageshadow="2"
     inkscape:zoom="4"
     inkscape:cx="-3.6226305"
     inkscape:cy="49.503229"
     inkscape:document-units="px"
     inkscape:current-layer="layer1"
     showgrid="false"
     inkscape:window-width="1366"
     inkscape:window-height="712"
     inkscape:window-x="0"
     inkscape:window-y="0"
     inkscape:window-maximized="1" />
  <metadata
     id="metadata7">
    <rdf:RDF>
      <cc:Work
         rdf:about="">
        <dc:format>image/svg+xml</dc:format>
        <dc:type
           rdf:resource="http://purl.org/dc/dcmitype/StillImage" />
        <dc:title></dc:title>
      </cc:Work>
    </rdf:RDF>
  </metadata>
  <g
     inkscape:label="Capa 1"
     inkscape:groupmode="layer"
     id="layer1"
     transform="translate(0,-1004.3622)">
    <rect
       ry="5.6755357"
       y="-1050.6631"
       x="-46.300758"
       height="44.601513"
       width="44.601513"
       id="rect2992"
       style="fill:url(#linearGradient3117);fill-opacity:1.0;stroke:#7d7d7d;stroke-width:0.39848712;stroke-miterlimit:4;stroke-opacity:1;stroke-dasharray:none"
       transform="scale(-1,-1)" />
    <path
       style="fill:url(#linearGradient868);fill-opacity:1;stroke:none"
       d="M 1.6875 38.28125 L 1.6875 40.625 C 1.6875 43.769247 4.2307532 46.3125 7.375 46.3125 L 40.625 46.3125 C 43.769247 46.3125 46.3125 43.769247 46.3125 40.625 L 46.3125 38.28125 L 1.6875 38.28125 z "
       transform="translate(0,1004.3622)"
       id="rect841" />
    <g
       id="g904"
       transform="translate(-0.0109178,-0.00938132)">
      <path
         transform="translate(-7.6013978,1006.0416)"
         d="m 18.915106,40.575378 c 0,0.976311 -0.791456,1.767767 -1.767767,1.767767 -0.976311,0 -1.767767,-0.791456 -1.767767,-1.767767 0,-0.97631 0.791456,-1.767767 1.767767,-1.767767 C 18.12365,38.807611 18.915106,39.599068 18.915106,40.575378 Z"
         sodipodi:ry="1.767767"
         sodipodi:rx="1.767767"
         sodipodi:cy="40.575378"
         sodipodi:cx="17.147339"
         id="path846"
         style="fill:url(#radialGradient854);fill-opacity:1;stroke:#333333;stroke-width:0.30000001;stroke-miterlimit:4;stroke-dasharray:none"
         sodipodi:type="arc" />
      <rect
         transform="scale(-1,1)"
         ry="0.3814086"
         y="1044.38"
         x="-40.393661"
         height="4.5769029"
         width="0.4375"
         id="rect876"
         style="fill:url(#linearGradient884);fill-opacity:1;stroke:none" />
      <rect
         transform="scale(-1,1)"
         style="fill:url(#linearGradient894);fill-opacity:1;stroke:none"
         id="rect892"
         width="0.4375"
         height="4.5769029"
         x="-38.773209"
         y="1044.38"
         ry="0.3814086" />
      <rect
         transform="scale(-1,1)"
         ry="0.3814086"
         y="1044.38"
         x="-37.152756"
         height="4.5769029"
         width="0.4375"
         id="rect896"
         style="fill:url(#linearGradient898);fill-opacity:1;stroke:none" />
      <rect
         transform="scale(-1,1)"
         style="fill:url(#linearGradient902);fill-opacity:1;stroke:none"
         id="rect900"
         width="0.4375"
         height="4.5769029"
         x="-35.532303"
         y="1044.38"
         ry="0.3814086" />
    </g>
    <g
       id="g836"
       transform="matrix(0.3009708,0.26393783,-0.3009708,0.26393783,311.28592,740.72717)"
       style="fill:#2c2c2c;fill-opacity:0.66857141">
      <path
         id="rect826"
         transform="translate(0,1004.3622)"
         d="m 63.5625,3.875 c -3.116255,0 -5.625,2.5087452 -5.625,5.625 l 0,2.65625 c 0,3.116255 2.508745,5.625 5.625,5.625 l 20,0 c 3.116255,0 5.625,-2.508745 5.625,-5.625 l 0,-2.65625 c 0,-3.1162548 -2.508745,-5.625 -5.625,-5.625 L 63.5625,3.875 z m 18.59375,4.21875 c 1.513852,0 2.71875,1.236148 2.71875,2.75 0,1.513852 -1.204898,2.71875 -2.71875,2.71875 -1.513852,0 -2.75,-1.204898 -2.75,-2.71875 C 79.40625,9.329898 80.642398,8.09375 82.15625,8.09375 Z"
         style="fill:#2c2c2c;fill-opacity:0.66857141;fill-rule:nonzero;stroke:none"
         inkscape:connector-curvature="0" />
      <path
         id="path831"
         transform="translate(0,1004.3622)"
         d="m 43.84375,-1.71875 c -5.334755,0 -9.903213,3.2910298 -11.8125,7.9375 l 10.8125,0 c 0.995993,0 1.8125,0.8165073 1.8125,1.8125 l 0,6.03125 c 0,0.995993 -0.816507,1.8125 -1.8125,1.8125 L 32,15.875 c 1.901002,4.664335 6.496113,7.9375 11.84375,7.9375 7.051493,0 12.75,-5.698507 12.75,-12.75 C 56.59375,4.0110071 50.895243,-1.71875 43.84375,-1.71875 Z"
         style="fill:#2c2c2c;fill-opacity:0.66857141;fill-rule:nonzero;stroke:none"
         inkscape:connector-curvature="0" />
    </g>
  </g>
</svg>
