<?xml version="1.0" encoding="UTF-8" standalone="no"?>
<!-- Created with Inkscape (http://www.inkscape.org/) -->

<svg
   xmlns:dc="http://purl.org/dc/elements/1.1/"
   xmlns:cc="http://creativecommons.org/ns#"
   xmlns:rdf="http://www.w3.org/1999/02/22-rdf-syntax-ns#"
   xmlns:svg="http://www.w3.org/2000/svg"
   xmlns="http://www.w3.org/2000/svg"
   xmlns:xlink="http://www.w3.org/1999/xlink"
   xmlns:sodipodi="http://sodipodi.sourceforge.net/DTD/sodipodi-0.dtd"
   xmlns:inkscape="http://www.inkscape.org/namespaces/inkscape"
   width="48"
   height="48"
   id="svg2"
   version="1.1"
   inkscape:version="0.48+devel r11521"
   sodipodi:docname="kscreensaver.svg">
  <defs
     id="defs4">
    <linearGradient
       id="linearGradient964">
      <stop
         style="stop-color:#202020;stop-opacity:1"
         offset="0"
         id="stop966" />
      <stop
         style="stop-color:#7c7c7c;stop-opacity:1"
         offset="1"
         id="stop968" />
    </linearGradient>
    <linearGradient
       id="linearGradient3795">
      <stop
         style="stop-color:#f13939;stop-opacity:1;"
         offset="0"
         id="stop3797" />
      <stop
         style="stop-color:#9d4221;stop-opacity:1;"
         offset="1"
         id="stop3799" />
    </linearGradient>
    <linearGradient
       id="linearGradient3698">
      <stop
         id="stop3700"
         offset="0"
         style="stop-color:#96d0e1;stop-opacity:1" />
      <stop
         style="stop-color:#89b7e1;stop-opacity:1"
         offset="0.67819428"
         id="stop3706" />
      <stop
         id="stop3702"
         offset="1"
         style="stop-color:#699dd3;stop-opacity:1" />
    </linearGradient>
    <linearGradient
       id="linearGradient3708">
      <stop
         id="stop3710"
         offset="0"
         style="stop-color:#658db6;stop-opacity:1" />
      <stop
         style="stop-color:#527fab;stop-opacity:1;"
         offset="0.76777935"
         id="stop3716" />
      <stop
         id="stop3712"
         offset="1"
         style="stop-color:#4071a0;stop-opacity:1" />
    </linearGradient>
    <linearGradient
       id="linearGradient3750">
      <stop
         style="stop-color:#d0e2f1;stop-opacity:1"
         offset="0"
         id="stop3752" />
      <stop
         id="stop3756"
         offset="0.85580856"
         style="stop-color:#cadef0;stop-opacity:1" />
      <stop
         style="stop-color:#95bee3;stop-opacity:1"
         offset="1"
         id="stop3754" />
    </linearGradient>
    <linearGradient
       id="linearGradient3803">
      <stop
         id="stop3805"
         offset="0"
         style="stop-color:#d7def0;stop-opacity:1;" />
      <stop
         style="stop-color:#ffffff;stop-opacity:1"
         offset="0.5"
         id="stop3811" />
      <stop
         id="stop3807"
         offset="1"
         style="stop-color:#d5def0;stop-opacity:1" />
    </linearGradient>
    <linearGradient
       inkscape:collect="always"
       xlink:href="#linearGradient3795"
       id="linearGradient3859"
       x1="26.192217"
       y1="1024.0002"
       x2="28.641211"
       y2="1024.0002"
       gradientUnits="userSpaceOnUse" />
    <linearGradient
       inkscape:collect="always"
       xlink:href="#linearGradient3795"
       id="linearGradient3867"
       gradientUnits="userSpaceOnUse"
       x1="26.192217"
       y1="1024.0002"
       x2="28.641211"
       y2="1024.0002" />
    <linearGradient
       inkscape:collect="always"
       xlink:href="#linearGradient3795"
       id="linearGradient3869"
       gradientUnits="userSpaceOnUse"
       x1="26.192217"
       y1="1024.0002"
       x2="28.641211"
       y2="1024.0002" />
    <linearGradient
       inkscape:collect="always"
       xlink:href="#linearGradient3795"
       id="linearGradient3871"
       gradientUnits="userSpaceOnUse"
       x1="26.192217"
       y1="1024.0002"
       x2="28.641211"
       y2="1024.0002" />
    <linearGradient
       inkscape:collect="always"
       xlink:href="#linearGradient3795"
       id="linearGradient3877"
       gradientUnits="userSpaceOnUse"
       x1="29.718235"
       y1="1027.8575"
       x2="22.811094"
       y2="1015.5485" />
    <linearGradient
       inkscape:collect="always"
       xlink:href="#linearGradient3795"
       id="linearGradient3879"
       gradientUnits="userSpaceOnUse"
       x1="17.196316"
       y1="1006.2238"
       x2="31.448042"
       y2="1030.9086" />
    <linearGradient
       inkscape:collect="always"
       xlink:href="#linearGradient3795"
       id="linearGradient3895"
       x1="21.973417"
       y1="34.43922"
       x2="42.475323"
       y2="24.798252"
       gradientUnits="userSpaceOnUse" />
    <linearGradient
       inkscape:collect="always"
       xlink:href="#linearGradient964"
       id="linearGradient3151"
       gradientUnits="userSpaceOnUse"
       gradientTransform="matrix(0.96799712,0,0,1.0252613,0.76812196,-2082.7023)"
       x1="24.113745"
       y1="1007.2183"
       x2="24.113745"
       y2="1049.5842" />
    <linearGradient
       id="linearGradient3795-4">
      <stop
         id="stop3797-0"
         offset="0"
         style="stop-color:#68b8d8;stop-opacity:1;" />
      <stop
         id="stop3799-0"
         offset="1"
         style="stop-color:#3097bd;stop-opacity:1;" />
    </linearGradient>
    <linearGradient
       inkscape:collect="always"
       xlink:href="#linearGradient3795-4"
       id="linearGradient3030"
       gradientUnits="userSpaceOnUse"
       gradientTransform="matrix(0.96799712,0,0,1.0252613,0.76812014,-25.977808)"
       x1="24.113745"
       y1="1007.2183"
       x2="24.113745"
       y2="1049.5842" />
    <linearGradient
       gradientUnits="userSpaceOnUse"
       y2="1004.8474"
       x2="23.204165"
       y1="1053.158"
       x1="23.204165"
       id="linearGradient3801-7"
       xlink:href="#linearGradient3795-2"
       inkscape:collect="always" />
    <linearGradient
       gradientUnits="userSpaceOnUse"
       y2="25.0625"
       x2="45.325001"
       y1="25.0625"
       x1="6.8000002"
       id="linearGradient3920"
       xlink:href="#linearGradient3914"
       inkscape:collect="always" />
    <linearGradient
       id="linearGradient3803-4">
      <stop
         style="stop-color:#d7def0;stop-opacity:1;"
         offset="0"
         id="stop3805-1" />
      <stop
         id="stop3811-8"
         offset="0.5"
         style="stop-color:#ffffff;stop-opacity:1" />
      <stop
         style="stop-color:#d5def0;stop-opacity:1"
         offset="1"
         id="stop3807-4" />
    </linearGradient>
    <linearGradient
       id="linearGradient3750-2">
      <stop
         id="stop3752-5"
         offset="0"
         style="stop-color:#d0e2f1;stop-opacity:1" />
      <stop
         style="stop-color:#cadef0;stop-opacity:1"
         offset="0.85580856"
         id="stop3756-8" />
      <stop
         id="stop3754-4"
         offset="1"
         style="stop-color:#95bee3;stop-opacity:1" />
    </linearGradient>
    <linearGradient
       id="linearGradient3708-9">
      <stop
         style="stop-color:#658db6;stop-opacity:1"
         offset="0"
         id="stop3710-2" />
      <stop
         id="stop3716-0"
         offset="0.76777935"
         style="stop-color:#527fab;stop-opacity:1;" />
      <stop
         style="stop-color:#4071a0;stop-opacity:1"
         offset="1"
         id="stop3712-8" />
    </linearGradient>
    <linearGradient
       id="linearGradient3698-8">
      <stop
         style="stop-color:#96d0e1;stop-opacity:1"
         offset="0"
         id="stop3700-7" />
      <stop
         id="stop3706-7"
         offset="0.67819428"
         style="stop-color:#89b7e1;stop-opacity:1" />
      <stop
         style="stop-color:#699dd3;stop-opacity:1"
         offset="1"
         id="stop3702-3" />
    </linearGradient>
    <linearGradient
       id="linearGradient3914"
       inkscape:collect="always">
      <stop
         id="stop3916"
         offset="0"
         style="stop-color:#59b3e1;stop-opacity:1;" />
      <stop
         id="stop3918"
         offset="1"
         style="stop-color:#59b3e1;stop-opacity:0;" />
    </linearGradient>
    <linearGradient
       id="linearGradient3795-2">
      <stop
         id="stop3797-5"
         offset="0"
         style="stop-color:#52a2cc;stop-opacity:1;" />
      <stop
         id="stop3799-4"
         offset="1"
         style="stop-color:#59b3e1;stop-opacity:1;" />
    </linearGradient>
  </defs>
  <sodipodi:namedview
     id="base"
     pagecolor="#ffffff"
     bordercolor="#666666"
     borderopacity="1.0"
     inkscape:pageopacity="0.0"
     inkscape:pageshadow="2"
     inkscape:zoom="6.4537095"
     inkscape:cx="30.953678"
     inkscape:cy="17.384559"
     inkscape:document-units="px"
     inkscape:current-layer="layer1"
     showgrid="false"
     inkscape:window-width="960"
     inkscape:window-height="1035"
     inkscape:window-x="0"
     inkscape:window-y="26"
     inkscape:window-maximized="0">
    <inkscape:grid
       type="xygrid"
       id="grid3850" />
  </sodipodi:namedview>
  <metadata
     id="metadata7">
    <rdf:RDF>
      <cc:Work
         rdf:about="">
        <dc:format>image/svg+xml</dc:format>
        <dc:type
           rdf:resource="http://purl.org/dc/dcmitype/StillImage" />
        <dc:title />
      </cc:Work>
    </rdf:RDF>
  </metadata>
  <g
     inkscape:label="Capa 1"
     inkscape:groupmode="layer"
     id="layer1"
     transform="translate(0,-1004.3622)">
    <rect
       ry="5.6755357"
       y="-1050.663"
       x="1.6992435"
       height="44.601513"
       width="44.601513"
       id="rect2992"
       style="fill:url(#linearGradient3151);fill-opacity:1;stroke:#7d7d7d;stroke-width:0.39848712;stroke-miterlimit:4;stroke-opacity:1;stroke-dasharray:none"
       transform="scale(1,-1)" />
    <g
       id="g948"
       transform="translate(-40.695467,-30.401907)">
      <path
         style="fill:none;stroke:#ffffff;stroke-width:0.86400002;stroke-miterlimit:4;stroke-dasharray:none"
         d="m 23.483123,1017.5954 c -5.310789,0.2885 -9.537251,5.0081 -9.537251,10.7711 0,5.9489 4.502967,10.7711 10.054131,10.7711 5.551163,0 10.05413,-4.8222 10.05413,-10.7711 0,-5.9489 -4.502967,-10.7711 -10.05413,-10.7711 -0.173472,0 -0.345564,-0.01 -0.51688,0 z"
         id="path4518"
         inkscape:connector-curvature="0" />
      <g
         style="stroke:#ffffff"
         transform="matrix(0.58343619,0,0,0.50710745,-79.049408,506.73533)"
         id="g4578">
        <path
           inkscape:connector-curvature="0"
           id="rect4522"
           d="m 175.19921,1002.2507 2.85157,0 c 0.16224,0 0.29285,0.4977 0.29285,1.1161 l 0,3.4039 c 0,0.6182 -0.13061,1.116 -0.29285,1.116 l -2.85157,0 c -0.16224,0 -0.29285,-0.4978 -0.29285,-1.116 l 0,-3.4039 c 0,-0.6184 0.13061,-1.1161 0.29285,-1.1161 z"
           style="fill:#ffffff;fill-opacity:1;stroke:#ffffff" />
        <path
           inkscape:connector-curvature="0"
           id="rect4524"
           d="m 175.19921,1049.3769 2.85157,0 c 0.16224,0 0.29285,0.4978 0.29285,1.116 l 0,3.4039 c 0,0.6183 -0.13061,1.1161 -0.29285,1.1161 l -2.85157,0 c -0.16224,0 -0.29285,-0.4978 -0.29285,-1.1161 l 0,-3.4039 c 0,-0.6182 0.13061,-1.116 0.29285,-1.116 z"
           style="fill:#ffffff;fill-opacity:1;stroke:#ffffff" />
      </g>
      <g
         style="stroke:#ffffff"
         transform="matrix(0.56612059,0,0,0.65593785,10.413107,353.82016)"
         id="g4648">
        <path
           style="fill:#ffffff;fill-opacity:1;stroke:#ffffff"
           d="m 46.371442,1027.0891 0,2.5542 c 0,0.1454 -0.445819,0.2624 -0.999756,0.2624 l -3.049073,0 c -0.553758,0 -0.999667,-0.117 -0.999667,-0.2624 l 0,-2.5542 c 0,-0.1454 0.445909,-0.2624 0.999667,-0.2624 l 3.049073,0 c 0.553937,0 0.999756,0.117 0.999756,0.2624 z"
           id="path4596"
           inkscape:connector-curvature="0" />
        <path
           style="fill:#ffffff;fill-opacity:1;stroke:#ffffff"
           d="m 6.6770503,1027.0891 0,2.5542 c 0,0.1454 -0.4459087,0.2624 -0.9996667,0.2624 l -3.0490731,0 c -0.5538476,0 -0.9997563,-0.117 -0.9997563,-0.2624 l 0,-2.5542 c 0,-0.1454 0.4459176,-0.2624 0.9997563,-0.2624 l 3.0490731,0 c 0.553758,0 0.9996667,0.117 0.9996667,0.2624 z"
           id="path4598"
           inkscape:connector-curvature="0" />
      </g>
      <path
         inkscape:connector-curvature="0"
         id="path3056"
         d="m 24.063672,1038.2619 c -0.0218,2e-4 -0.04361,3e-4 -0.06544,3e-4 -5.07314,0 -9.185732,-4.4324 -9.185732,-9.9 0,-5.4677 4.112592,-9.9 9.185732,-9.9 0.02183,0 0.04364,0 0.06544,2e-4"
         style="fill:#ffffff;fill-opacity:1;stroke:none" />
      <g
         id="g3026"
         transform="matrix(0.41255169,-0.41255169,0.35857912,0.35857912,-417.71282,732.38324)"
         style="stroke:#ffffff">
        <path
           style="fill:#ffffff;fill-opacity:1;stroke:#ffffff"
           d="m 175.19921,1002.2507 2.85157,0 c 0.16224,0 0.29285,0.4977 0.29285,1.1161 l 0,3.4039 c 0,0.6182 -0.13061,1.116 -0.29285,1.116 l -2.85157,0 c -0.16224,0 -0.29285,-0.4978 -0.29285,-1.116 l 0,-3.4039 c 0,-0.6184 0.13061,-1.1161 0.29285,-1.1161 z"
           id="path3028"
           inkscape:connector-curvature="0" />
        <path
           style="fill:#ffffff;fill-opacity:1;stroke:#ffffff"
           d="m 175.19921,1049.3769 2.85157,0 c 0.16224,0 0.29285,0.4978 0.29285,1.116 l 0,3.4039 c 0,0.6183 -0.13061,1.1161 -0.29285,1.1161 l -2.85157,0 c -0.16224,0 -0.29285,-0.4978 -0.29285,-1.1161 l 0,-3.4039 c 0,-0.6182 0.13061,-1.116 0.29285,-1.116 z"
           id="path3030"
           inkscape:connector-curvature="0" />
      </g>
      <g
         style="stroke:#ffffff"
         transform="matrix(0.41255169,0.41255169,0.35857912,-0.35857912,-417.71282,1324.3411)"
         id="g3032">
        <path
           inkscape:connector-curvature="0"
           id="path3034"
           d="m 175.19921,1002.2507 2.85157,0 c 0.16224,0 0.29285,0.4977 0.29285,1.1161 l 0,3.4039 c 0,0.6182 -0.13061,1.116 -0.29285,1.116 l -2.85157,0 c -0.16224,0 -0.29285,-0.4978 -0.29285,-1.116 l 0,-3.4039 c 0,-0.6184 0.13061,-1.1161 0.29285,-1.1161 z"
           style="fill:#ffffff;fill-opacity:1;stroke:#ffffff" />
        <path
           inkscape:connector-curvature="0"
           id="path3036"
           d="m 175.19921,1049.3769 2.85157,0 c 0.16224,0 0.29285,0.4978 0.29285,1.116 l 0,3.4039 c 0,0.6183 -0.13061,1.1161 -0.29285,1.1161 l -2.85157,0 c -0.16224,0 -0.29285,-0.4978 -0.29285,-1.1161 l 0,-3.4039 c 0,-0.6182 0.13061,-1.116 0.29285,-1.116 z"
           style="fill:#ffffff;fill-opacity:1;stroke:#ffffff" />
      </g>
    </g>
    <g
       id="g1152"
       transform="translate(1.3303815,1.47145)">
      <g
         id="g1143">
        <g
           style="font-size:6.40345573px;font-style:normal;font-weight:normal;line-height:125%;letter-spacing:0px;word-spacing:0px;fill:#55d400;fill-opacity:1;stroke:none;font-family:Decker;-inkscape-font-specification:Decker"
           id="text970">
          <path
             d="m 8.823334,1012.1812 q 0,0.5659 0.2907819,0.8817 0.2907819,0.3158 0.8066853,0.3158 0.5127768,0 0.8035588,-0.3127 0.290782,-0.3126 0.290782,-0.8723 l 0,-1.5696 q 0,-0.5566 -0.293909,-0.8692 -0.290782,-0.3158 -0.8004318,-0.3158 -0.5159034,0 -0.8066853,0.3189 -0.2907819,0.3158 -0.2907819,0.8849 l 0,1.5383 z m -0.440863,-0.097 0,-1.3508 q 0,-0.4408 0.062534,-0.6628 0.062534,-0.2252 0.2063614,-0.419 0.2251215,-0.297 0.5502969,-0.4565 0.3283022,-0.1595 0.7191381,-0.1595 0.7160116,0 1.1287336,0.444 0.412723,0.444 0.412723,1.2288 l 0,1.3945 q 0,0.369 -0.05941,0.6128 -0.05941,0.2408 -0.190728,0.4253 -0.215741,0.3033 -0.553424,0.469 -0.337682,0.1657 -0.7378976,0.1657 -0.3908359,0 -0.7160114,-0.1563 -0.3251755,-0.1595 -0.559677,-0.4597 -0.1375743,-0.1751 -0.200108,-0.4252 -0.062534,-0.2533 -0.062534,-0.6503 z"
             id="path132"
             inkscape:connector-curvature="0" />
          <path
             d="m 10.227217,1021.6894 -0.4752569,0 0,-4.1616 -0.7941786,0 0,-0.3908 1.2694355,0 0,4.5524 z"
             id="path134"
             inkscape:connector-curvature="0" />
        </g>
        <g
           style="font-size:6.40345573px;font-style:normal;font-weight:normal;line-height:125%;letter-spacing:0px;word-spacing:0px;fill:#55d400;fill-opacity:1;stroke:none;font-family:Decker;-inkscape-font-specification:Decker"
           id="text982">
          <path
             d="m 8.823334,1027.1428 q 0,0.5659 0.2907819,0.8817 0.2907819,0.3158 0.8066853,0.3158 0.5127768,0 0.8035588,-0.3127 0.290782,-0.3126 0.290782,-0.8723 l 0,-1.5696 q 0,-0.5565 -0.293909,-0.8692 -0.290782,-0.3158 -0.8004318,-0.3158 -0.5159034,0 -0.8066853,0.3189 -0.2907819,0.3158 -0.2907819,0.8849 l 0,1.5383 z m -0.440863,-0.097 0,-1.3508 q 0,-0.4408 0.062534,-0.6628 0.062534,-0.2251 0.2063614,-0.419 0.2251215,-0.297 0.5502969,-0.4565 0.3283022,-0.1595 0.7191381,-0.1595 0.7160116,0 1.1287336,0.444 0.412723,0.444 0.412723,1.2288 l 0,1.3945 q 0,0.369 -0.05941,0.6129 -0.05941,0.2407 -0.190728,0.4252 -0.215741,0.3033 -0.553424,0.469 -0.337682,0.1657 -0.7378976,0.1657 -0.3908359,0 -0.7160114,-0.1563 -0.3251755,-0.1595 -0.559677,-0.4597 -0.1375743,-0.175 -0.200108,-0.4252 -0.062534,-0.2532 -0.062534,-0.6503 z"
             id="path137"
             inkscape:connector-curvature="0" />
          <path
             d="m 10.227217,1036.651 -0.4752569,0 0,-4.1616 -0.7941786,0 0,-0.3908 1.2694355,0 0,4.5524 z"
             id="path139"
             inkscape:connector-curvature="0" />
          <path
             d="m 8.823334,1043.1514 q 0,0.566 0.2907819,0.8818 0.2907819,0.3158 0.8066853,0.3158 0.5127768,0 0.8035588,-0.3127 0.290782,-0.3127 0.290782,-0.8724 l 0,-1.5696 q 0,-0.5565 -0.293909,-0.8692 -0.290782,-0.3158 -0.8004318,-0.3158 -0.5159034,0 -0.8066853,0.3189 -0.2907819,0.3158 -0.2907819,0.8849 l 0,1.5383 z m -0.440863,-0.097 0,-1.3507 q 0,-0.4409 0.062534,-0.6629 0.062534,-0.2251 0.2063614,-0.419 0.2251215,-0.297 0.5502969,-0.4565 0.3283022,-0.1594 0.7191381,-0.1594 0.7160116,0 1.1287336,0.444 0.412723,0.444 0.412723,1.2288 l 0,1.3945 q 0,0.3689 -0.05941,0.6128 -0.05941,0.2407 -0.190728,0.4252 -0.215741,0.3033 -0.553424,0.469 -0.337682,0.1657 -0.7378976,0.1657 -0.3908359,0 -0.7160114,-0.1563 -0.3251755,-0.1595 -0.559677,-0.4596 -0.1375743,-0.1751 -0.200108,-0.4252 -0.062534,-0.2533 -0.062534,-0.6504 z"
             id="path141"
             inkscape:connector-curvature="0" />
        </g>
      </g>
      <g
         transform="translate(0.31120208,0)"
         id="g1134">
        <g
           style="font-size:6.40345573px;font-style:normal;font-weight:normal;line-height:125%;letter-spacing:0px;word-spacing:0px;fill:#55d400;fill-opacity:1;stroke:none;font-family:Decker;-inkscape-font-specification:Decker"
           id="text976">
          <path
             d="m 15.344784,1013.6851 -0.475257,0 0,-4.1616 -0.794178,0 0,-0.3908 1.269435,0 0,4.5524 z"
             id="path144"
             inkscape:connector-curvature="0" />
          <path
             d="m 15.344784,1021.6894 -0.475257,0 0,-4.1616 -0.794178,0 0,-0.3908 1.269435,0 0,4.5524 z"
             id="path146"
             inkscape:connector-curvature="0" />
        </g>
        <g
           style="font-size:6.40345573px;font-style:normal;font-weight:normal;line-height:125%;letter-spacing:0px;word-spacing:0px;fill:#55d400;fill-opacity:1;stroke:none;font-family:Decker;-inkscape-font-specification:Decker"
           id="text988">
          <path
             d="m 13.611036,1027.1428 q 0,0.5659 0.290782,0.8817 0.290781,0.3158 0.806685,0.3158 0.512777,0 0.803558,-0.3127 0.290782,-0.3126 0.290782,-0.8723 l 0,-1.5696 q 0,-0.5565 -0.293908,-0.8692 -0.290782,-0.3158 -0.800432,-0.3158 -0.515904,0 -0.806685,0.3189 -0.290782,0.3158 -0.290782,0.8849 l 0,1.5383 z m -0.440863,-0.097 0,-1.3508 q 0,-0.4408 0.06253,-0.6628 0.06253,-0.2251 0.206362,-0.419 0.225121,-0.297 0.550297,-0.4565 0.328302,-0.1595 0.719138,-0.1595 0.716011,0 1.128734,0.444 0.412723,0.444 0.412723,1.2288 l 0,1.3945 q 0,0.369 -0.05941,0.6129 -0.05941,0.2407 -0.190728,0.4252 -0.215742,0.3033 -0.553424,0.469 -0.337682,0.1657 -0.737898,0.1657 -0.390836,0 -0.716012,-0.1563 -0.325175,-0.1595 -0.559677,-0.4597 -0.137574,-0.175 -0.200108,-0.4252 -0.06253,-0.2532 -0.06253,-0.6503 z"
             id="path149"
             inkscape:connector-curvature="0" />
          <path
             d="m 15.014918,1036.651 -0.475256,0 0,-4.1616 -0.794179,0 0,-0.3908 1.269435,0 0,4.5524 z"
             id="path151"
             inkscape:connector-curvature="0" />
          <path
             d="m 15.014918,1044.6554 -0.475256,0 0,-4.1617 -0.794179,0 0,-0.3908 1.269435,0 0,4.5525 z"
             id="path153"
             inkscape:connector-curvature="0" />
        </g>
      </g>
      <g
         transform="translate(-0.30592819,0)"
         id="g1125">
        <g
           style="font-size:6.40345573px;font-style:normal;font-weight:normal;line-height:125%;letter-spacing:0px;word-spacing:0px;fill:#55d400;fill-opacity:1;stroke:none;font-family:Decker;-inkscape-font-specification:Decker"
           id="text994">
          <path
             d="m 19.327068,1012.1812 q 0,0.5659 0.290782,0.8817 0.290781,0.3158 0.806685,0.3158 0.512777,0 0.803559,-0.3127 0.290781,-0.3126 0.290781,-0.8723 l 0,-1.5696 q 0,-0.5566 -0.293908,-0.8692 -0.290782,-0.3158 -0.800432,-0.3158 -0.515904,0 -0.806685,0.3189 -0.290782,0.3158 -0.290782,0.8849 l 0,1.5383 z m -0.440863,-0.097 0,-1.3508 q 0,-0.4408 0.06253,-0.6628 0.06253,-0.2252 0.206362,-0.419 0.225121,-0.297 0.550297,-0.4565 0.328302,-0.1595 0.719138,-0.1595 0.716011,0 1.128734,0.444 0.412723,0.444 0.412723,1.2288 l 0,1.3945 q 0,0.369 -0.05941,0.6128 -0.05941,0.2408 -0.190728,0.4253 -0.215742,0.3033 -0.553424,0.469 -0.337682,0.1657 -0.737898,0.1657 -0.390836,0 -0.716012,-0.1563 -0.325175,-0.1595 -0.559677,-0.4597 -0.137574,-0.1751 -0.200108,-0.4252 -0.06253,-0.2533 -0.06253,-0.6503 z"
             id="path156"
             inkscape:connector-curvature="0" />
          <path
             d="m 20.73095,1021.6894 -0.475256,0 0,-4.1616 -0.794179,0 0,-0.3908 1.269435,0 0,4.5524 z"
             id="path158"
             inkscape:connector-curvature="0" />
        </g>
        <g
           style="font-size:6.40345573px;font-style:normal;font-weight:normal;line-height:125%;letter-spacing:0px;word-spacing:0px;fill:#55d400;fill-opacity:1;stroke:none;font-family:Decker;-inkscape-font-specification:Decker"
           id="text1006">
          <path
             d="m 20.73095,1028.6467 -0.475256,0 0,-4.1616 -0.794179,0 0,-0.3908 1.269435,0 0,4.5524 z"
             id="path161"
             inkscape:connector-curvature="0" />
          <path
             d="m 20.73095,1036.651 -0.475256,0 0,-4.1616 -0.794179,0 0,-0.3908 1.269435,0 0,4.5524 z"
             id="path163"
             inkscape:connector-curvature="0" />
          <path
             d="m 19.327068,1043.1514 q 0,0.566 0.290782,0.8818 0.290781,0.3158 0.806685,0.3158 0.512777,0 0.803559,-0.3127 0.290781,-0.3127 0.290781,-0.8724 l 0,-1.5696 q 0,-0.5565 -0.293908,-0.8692 -0.290782,-0.3158 -0.800432,-0.3158 -0.515904,0 -0.806685,0.3189 -0.290782,0.3158 -0.290782,0.8849 l 0,1.5383 z m -0.440863,-0.097 0,-1.3507 q 0,-0.4409 0.06253,-0.6629 0.06253,-0.2251 0.206362,-0.419 0.225121,-0.297 0.550297,-0.4565 0.328302,-0.1594 0.719138,-0.1594 0.716011,0 1.128734,0.444 0.412723,0.444 0.412723,1.2288 l 0,1.3945 q 0,0.3689 -0.05941,0.6128 -0.05941,0.2407 -0.190728,0.4252 -0.215742,0.3033 -0.553424,0.469 -0.337682,0.1657 -0.737898,0.1657 -0.390836,0 -0.716012,-0.1563 -0.325175,-0.1595 -0.559677,-0.4596 -0.137574,-0.1751 -0.200108,-0.4252 -0.06253,-0.2533 -0.06253,-0.6504 z"
             id="path165"
             inkscape:connector-curvature="0" />
        </g>
      </g>
      <g
         transform="translate(0.33513931,0)"
         id="g1116">
        <g
           style="font-size:6.40345573px;font-style:normal;font-weight:normal;line-height:125%;letter-spacing:0px;word-spacing:0px;fill:#55d400;fill-opacity:1;stroke:none;font-family:Decker;-inkscape-font-specification:Decker"
           id="text1000">
          <path
             d="m 23.784902,1012.1812 q 0,0.5659 0.290782,0.8817 0.290782,0.3158 0.806685,0.3158 0.512777,0 0.803559,-0.3127 0.290782,-0.3126 0.290782,-0.8723 l 0,-1.5696 q 0,-0.5566 -0.293909,-0.8692 -0.290782,-0.3158 -0.800432,-0.3158 -0.515903,0 -0.806685,0.3189 -0.290782,0.3158 -0.290782,0.8849 l 0,1.5383 z m -0.440863,-0.097 0,-1.3508 q 0,-0.4408 0.06253,-0.6628 0.06253,-0.2252 0.206361,-0.419 0.225122,-0.297 0.550297,-0.4565 0.328302,-0.1595 0.719138,-0.1595 0.716012,0 1.128734,0.444 0.412723,0.444 0.412723,1.2288 l 0,1.3945 q 0,0.369 -0.05941,0.6128 -0.05941,0.2408 -0.190728,0.4253 -0.215741,0.3033 -0.553424,0.469 -0.337682,0.1657 -0.737898,0.1657 -0.390836,0 -0.716011,-0.1563 -0.325176,-0.1595 -0.559677,-0.4597 -0.137575,-0.1751 -0.200108,-0.4252 -0.06253,-0.2533 -0.06253,-0.6503 z"
             id="path168"
             inkscape:connector-curvature="0" />
          <path
             d="m 25.188784,1021.6894 -0.475256,0 0,-4.1616 -0.794179,0 0,-0.3908 1.269435,0 0,4.5524 z"
             id="path170"
             inkscape:connector-curvature="0" />
        </g>
        <g
           style="font-size:6.40345573px;font-style:normal;font-weight:normal;line-height:125%;letter-spacing:0px;word-spacing:0px;fill:#55d400;fill-opacity:1;stroke:none;font-family:Decker;-inkscape-font-specification:Decker"
           id="text1012">
          <path
             d="m 23.784902,1027.1428 q 0,0.5659 0.290782,0.8817 0.290782,0.3158 0.806685,0.3158 0.512777,0 0.803559,-0.3127 0.290782,-0.3126 0.290782,-0.8723 l 0,-1.5696 q 0,-0.5565 -0.293909,-0.8692 -0.290782,-0.3158 -0.800432,-0.3158 -0.515903,0 -0.806685,0.3189 -0.290782,0.3158 -0.290782,0.8849 l 0,1.5383 z m -0.440863,-0.097 0,-1.3508 q 0,-0.4408 0.06253,-0.6628 0.06253,-0.2251 0.206361,-0.419 0.225122,-0.297 0.550297,-0.4565 0.328302,-0.1595 0.719138,-0.1595 0.716012,0 1.128734,0.444 0.412723,0.444 0.412723,1.2288 l 0,1.3945 q 0,0.369 -0.05941,0.6129 -0.05941,0.2407 -0.190728,0.4252 -0.215741,0.3033 -0.553424,0.469 -0.337682,0.1657 -0.737898,0.1657 -0.390836,0 -0.716011,-0.1563 -0.325176,-0.1595 -0.559677,-0.4597 -0.137575,-0.175 -0.200108,-0.4252 -0.06253,-0.2532 -0.06253,-0.6503 z"
             id="path173"
             inkscape:connector-curvature="0" />
          <path
             d="m 25.188784,1036.651 -0.475256,0 0,-4.1616 -0.794179,0 0,-0.3908 1.269435,0 0,4.5524 z"
             id="path175"
             inkscape:connector-curvature="0" />
          <path
             d="m 23.784902,1043.1514 q 0,0.566 0.290782,0.8818 0.290782,0.3158 0.806685,0.3158 0.512777,0 0.803559,-0.3127 0.290782,-0.3127 0.290782,-0.8724 l 0,-1.5696 q 0,-0.5565 -0.293909,-0.8692 -0.290782,-0.3158 -0.800432,-0.3158 -0.515903,0 -0.806685,0.3189 -0.290782,0.3158 -0.290782,0.8849 l 0,1.5383 z m -0.440863,-0.097 0,-1.3507 q 0,-0.4409 0.06253,-0.6629 0.06253,-0.2251 0.206361,-0.419 0.225122,-0.297 0.550297,-0.4565 0.328302,-0.1594 0.719138,-0.1594 0.716012,0 1.128734,0.444 0.412723,0.444 0.412723,1.2288 l 0,1.3945 q 0,0.3689 -0.05941,0.6128 -0.05941,0.2407 -0.190728,0.4252 -0.215741,0.3033 -0.553424,0.469 -0.337682,0.1657 -0.737898,0.1657 -0.390836,0 -0.716011,-0.1563 -0.325176,-0.1595 -0.559677,-0.4596 -0.137575,-0.1751 -0.200108,-0.4252 -0.06253,-0.2533 -0.06253,-0.6504 z"
             id="path177"
             inkscape:connector-curvature="0" />
        </g>
      </g>
      <g
         transform="translate(0.04787544,0)"
         id="g1107">
        <g
           style="font-size:6.40345573px;font-style:normal;font-weight:normal;line-height:125%;letter-spacing:0px;word-spacing:0px;fill:#55d400;fill-opacity:1;stroke:none;font-family:Decker;-inkscape-font-specification:Decker"
           id="text1036">
          <path
             d="m 29.171067,1012.1812 q 0,0.5659 0.290782,0.8817 0.290782,0.3158 0.806686,0.3158 0.512776,0 0.803558,-0.3127 0.290782,-0.3126 0.290782,-0.8723 l 0,-1.5696 q 0,-0.5566 -0.293908,-0.8692 -0.290782,-0.3158 -0.800432,-0.3158 -0.515904,0 -0.806686,0.3189 -0.290782,0.3158 -0.290782,0.8849 l 0,1.5383 z m -0.440862,-0.097 0,-1.3508 q 0,-0.4408 0.06253,-0.6628 0.06253,-0.2252 0.206362,-0.419 0.225121,-0.297 0.550297,-0.4565 0.328302,-0.1595 0.719138,-0.1595 0.716011,0 1.128734,0.444 0.412723,0.444 0.412723,1.2288 l 0,1.3945 q 0,0.369 -0.05941,0.6128 -0.05941,0.2408 -0.190728,0.4253 -0.215742,0.3033 -0.553424,0.469 -0.337682,0.1657 -0.737898,0.1657 -0.390836,0 -0.716012,-0.1563 -0.325175,-0.1595 -0.559677,-0.4597 -0.137574,-0.1751 -0.200108,-0.4252 -0.06253,-0.2533 -0.06253,-0.6503 z"
             id="path180"
             inkscape:connector-curvature="0" />
          <path
             d="m 30.57495,1021.6894 -0.475256,0 0,-4.1616 -0.794179,0 0,-0.3908 1.269435,0 0,4.5524 z"
             id="path182"
             inkscape:connector-curvature="0" />
        </g>
        <g
           style="font-size:6.40345573px;font-style:normal;font-weight:normal;line-height:125%;letter-spacing:0px;word-spacing:0px;fill:#55d400;fill-opacity:1;stroke:none;font-family:Decker;-inkscape-font-specification:Decker"
           id="text1048">
          <path
             d="m 30.904817,1028.6467 -0.475257,0 0,-4.1616 -0.794179,0 0,-0.3908 1.269436,0 0,4.5524 z"
             id="path185"
             inkscape:connector-curvature="0" />
          <path
             d="m 30.904817,1036.651 -0.475257,0 0,-4.1616 -0.794179,0 0,-0.3908 1.269436,0 0,4.5524 z"
             id="path187"
             inkscape:connector-curvature="0" />
          <path
             d="m 30.904817,1044.6554 -0.475257,0 0,-4.1617 -0.794179,0 0,-0.3908 1.269436,0 0,4.5525 z"
             id="path189"
             inkscape:connector-curvature="0" />
        </g>
      </g>
      <g
         id="g1098">
        <g
           style="font-size:6.40345573px;font-style:normal;font-weight:normal;line-height:125%;letter-spacing:0px;word-spacing:0px;fill:#55d400;fill-opacity:1;stroke:none;font-family:Decker;-inkscape-font-specification:Decker"
           id="text1042">
          <path
             d="m 34.317847,1012.1812 q 0,0.5659 0.290782,0.8817 0.290782,0.3158 0.806686,0.3158 0.512776,0 0.803558,-0.3127 0.290782,-0.3126 0.290782,-0.8723 l 0,-1.5696 q 0,-0.5566 -0.293908,-0.8692 -0.290782,-0.3158 -0.800432,-0.3158 -0.515904,0 -0.806686,0.3189 -0.290782,0.3158 -0.290782,0.8849 l 0,1.5383 z m -0.440862,-0.097 0,-1.3508 q 0,-0.4408 0.06253,-0.6628 0.06253,-0.2252 0.206362,-0.419 0.225121,-0.297 0.550297,-0.4565 0.328302,-0.1595 0.719138,-0.1595 0.716011,0 1.128734,0.444 0.412723,0.444 0.412723,1.2288 l 0,1.3945 q 0,0.369 -0.05941,0.6128 -0.05941,0.2408 -0.190728,0.4253 -0.215742,0.3033 -0.553424,0.469 -0.337682,0.1657 -0.737898,0.1657 -0.390836,0 -0.716012,-0.1563 -0.325175,-0.1595 -0.559677,-0.4597 -0.137574,-0.1751 -0.200108,-0.4252 -0.06253,-0.2533 -0.06253,-0.6503 z"
             id="path192"
             inkscape:connector-curvature="0" />
          <path
             d="m 35.72173,1021.6894 -0.475256,0 0,-4.1616 -0.794179,0 0,-0.3908 1.269435,0 0,4.5524 z"
             id="path194"
             inkscape:connector-curvature="0" />
        </g>
        <g
           style="font-size:6.40345573px;font-style:normal;font-weight:normal;line-height:125%;letter-spacing:0px;word-spacing:0px;fill:#55d400;fill-opacity:1;stroke:none;font-family:Decker;-inkscape-font-specification:Decker"
           id="text1054">
          <path
             d="m 34.317847,1027.1428 q 0,0.5659 0.290782,0.8817 0.290782,0.3158 0.806686,0.3158 0.512776,0 0.803558,-0.3127 0.290782,-0.3126 0.290782,-0.8723 l 0,-1.5696 q 0,-0.5565 -0.293908,-0.8692 -0.290782,-0.3158 -0.800432,-0.3158 -0.515904,0 -0.806686,0.3189 -0.290782,0.3158 -0.290782,0.8849 l 0,1.5383 z m -0.440862,-0.097 0,-1.3508 q 0,-0.4408 0.06253,-0.6628 0.06253,-0.2251 0.206362,-0.419 0.225121,-0.297 0.550297,-0.4565 0.328302,-0.1595 0.719138,-0.1595 0.716011,0 1.128734,0.444 0.412723,0.444 0.412723,1.2288 l 0,1.3945 q 0,0.369 -0.05941,0.6129 -0.05941,0.2407 -0.190728,0.4252 -0.215742,0.3033 -0.553424,0.469 -0.337682,0.1657 -0.737898,0.1657 -0.390836,0 -0.716012,-0.1563 -0.325175,-0.1595 -0.559677,-0.4597 -0.137574,-0.175 -0.200108,-0.4252 -0.06253,-0.2532 -0.06253,-0.6503 z"
             id="path197"
             inkscape:connector-curvature="0" />
          <path
             d="m 35.72173,1036.651 -0.475256,0 0,-4.1616 -0.794179,0 0,-0.3908 1.269435,0 0,4.5524 z"
             id="path199"
             inkscape:connector-curvature="0" />
          <path
             d="m 35.72173,1044.6554 -0.475256,0 0,-4.1617 -0.794179,0 0,-0.3908 1.269435,0 0,4.5525 z"
             id="path201"
             inkscape:connector-curvature="0" />
        </g>
      </g>
    </g>
  </g>
</svg>
