<?xml version="1.0" encoding="UTF-8" standalone="no"?>
<!-- Created with Inkscape (http://www.inkscape.org/) -->

<svg
   xmlns:dc="http://purl.org/dc/elements/1.1/"
   xmlns:cc="http://creativecommons.org/ns#"
   xmlns:rdf="http://www.w3.org/1999/02/22-rdf-syntax-ns#"
   xmlns:svg="http://www.w3.org/2000/svg"
   xmlns="http://www.w3.org/2000/svg"
   xmlns:xlink="http://www.w3.org/1999/xlink"
   xmlns:sodipodi="http://sodipodi.sourceforge.net/DTD/sodipodi-0.dtd"
   xmlns:inkscape="http://www.inkscape.org/namespaces/inkscape"
   width="48"
   height="48"
   id="svg2"
   version="1.1"
   inkscape:version="0.48+devel r11772"
   sodipodi:docname="usb-creator-gtk.svg">
  <defs
     id="defs4">
    <linearGradient
       id="linearGradient3795">
      <stop
         style="stop-color:#cd5c24;stop-opacity:1;"
         offset="0"
         id="stop3797" />
      <stop
         style="stop-color:#ff6700;stop-opacity:1;"
         offset="1"
         id="stop3799" />
    </linearGradient>
    <linearGradient
       inkscape:collect="always"
       id="linearGradient3914">
      <stop
         style="stop-color:#59b3e1;stop-opacity:1;"
         offset="0"
         id="stop3916" />
      <stop
         style="stop-color:#59b3e1;stop-opacity:0;"
         offset="1"
         id="stop3918" />
    </linearGradient>
    <linearGradient
       id="linearGradient3698">
      <stop
         id="stop3700"
         offset="0"
         style="stop-color:#96d0e1;stop-opacity:1" />
      <stop
         style="stop-color:#89b7e1;stop-opacity:1"
         offset="0.67819428"
         id="stop3706" />
      <stop
         id="stop3702"
         offset="1"
         style="stop-color:#699dd3;stop-opacity:1" />
    </linearGradient>
    <linearGradient
       id="linearGradient3708">
      <stop
         id="stop3710"
         offset="0"
         style="stop-color:#658db6;stop-opacity:1" />
      <stop
         style="stop-color:#527fab;stop-opacity:1;"
         offset="0.76777935"
         id="stop3716" />
      <stop
         id="stop3712"
         offset="1"
         style="stop-color:#4071a0;stop-opacity:1" />
    </linearGradient>
    <linearGradient
       id="linearGradient3750">
      <stop
         style="stop-color:#d0e2f1;stop-opacity:1"
         offset="0"
         id="stop3752" />
      <stop
         id="stop3756"
         offset="0.85580856"
         style="stop-color:#cadef0;stop-opacity:1" />
      <stop
         style="stop-color:#95bee3;stop-opacity:1"
         offset="1"
         id="stop3754" />
    </linearGradient>
    <linearGradient
       id="linearGradient3803">
      <stop
         id="stop3805"
         offset="0"
         style="stop-color:#d7def0;stop-opacity:1;" />
      <stop
         style="stop-color:#ffffff;stop-opacity:1"
         offset="0.5"
         id="stop3811" />
      <stop
         id="stop3807"
         offset="1"
         style="stop-color:#d5def0;stop-opacity:1" />
    </linearGradient>
    <linearGradient
       inkscape:collect="always"
       xlink:href="#linearGradient3914"
       id="linearGradient3920"
       x1="6.8000002"
       y1="25.0625"
       x2="45.325001"
       y2="25.0625"
       gradientUnits="userSpaceOnUse" />
    <linearGradient
       gradientTransform="matrix(1,0,0,0.78986124,0,1012.5622)"
       gradientUnits="userSpaceOnUse"
       y2="-1.4572467"
       x2="25.267857"
       y1="48.197823"
       x1="25.267857"
       id="linearGradient4008"
       xlink:href="#linearGradient4231"
       inkscape:collect="always" />
    <linearGradient
       gradientUnits="userSpaceOnUse"
       y2="1044.6023"
       x2="24.961096"
       y1="1038.2335"
       x1="24.897961"
       id="linearGradient3978"
       xlink:href="#linearGradient4231"
       inkscape:collect="always" />
    <linearGradient
       gradientTransform="translate(0,1005.0318)"
       gradientUnits="userSpaceOnUse"
       y2="39.32737"
       x2="25.067858"
       y1="35.56216"
       x1="25.067858"
       id="linearGradient3976"
       xlink:href="#linearGradient4231"
       inkscape:collect="always" />
    <linearGradient
       y2="694.26605"
       x2="375.77673"
       y1="650.54742"
       x1="375.77673"
       gradientTransform="translate(0.3302618,-86.368043)"
       gradientUnits="userSpaceOnUse"
       id="linearGradient3089"
       xlink:href="#linearGradient3774"
       inkscape:collect="always" />
    <linearGradient
       y2="574.83228"
       x2="385.21429"
       y1="599.87164"
       x1="385.21429"
       gradientTransform="matrix(1,0,0,-1,0,1180.3736)"
       gradientUnits="userSpaceOnUse"
       id="linearGradient3087"
       xlink:href="#linearGradient3782"
       inkscape:collect="always" />
    <linearGradient
       y2="574.83228"
       x2="385.21429"
       y1="599.87164"
       x1="385.21429"
       gradientUnits="userSpaceOnUse"
       id="linearGradient3085"
       xlink:href="#linearGradient3782"
       inkscape:collect="always" />
    <linearGradient
       y2="133.04079"
       x2="397.94641"
       y1="474.48978"
       x1="397.94641"
       gradientUnits="userSpaceOnUse"
       id="linearGradient3083"
       xlink:href="#linearGradient4231"
       inkscape:collect="always" />
    <radialGradient
       r="225.35712"
       fy="545.8598"
       fx="382.62653"
       cy="545.8598"
       cx="382.62653"
       gradientTransform="matrix(1.2620436,0,0,0.6946441,-101.18703,208.95601)"
       gradientUnits="userSpaceOnUse"
       id="radialGradient3081"
       xlink:href="#linearGradient3782"
       inkscape:collect="always" />
    <linearGradient
       y2="694.26605"
       x2="375.77673"
       y1="650.54742"
       x1="375.77673"
       gradientTransform="translate(0.3302618,-86.368043)"
       gradientUnits="userSpaceOnUse"
       id="linearGradient4383"
       xlink:href="#linearGradient3774"
       inkscape:collect="always" />
    <linearGradient
       y2="574.83228"
       x2="385.21429"
       y1="599.87164"
       x1="385.21429"
       gradientTransform="matrix(1,0,0,-1,0,1180.3736)"
       gradientUnits="userSpaceOnUse"
       id="linearGradient4381"
       xlink:href="#linearGradient3782"
       inkscape:collect="always" />
    <linearGradient
       y2="574.83228"
       x2="385.21429"
       y1="599.87164"
       x1="385.21429"
       gradientUnits="userSpaceOnUse"
       id="linearGradient4379"
       xlink:href="#linearGradient3782"
       inkscape:collect="always" />
    <linearGradient
       y2="133.04079"
       x2="397.94641"
       y1="474.48978"
       x1="397.94641"
       gradientUnits="userSpaceOnUse"
       id="linearGradient4377"
       xlink:href="#linearGradient4231"
       inkscape:collect="always" />
    <radialGradient
       r="225.35712"
       fy="545.8598"
       fx="382.62653"
       cy="545.8598"
       cx="382.62653"
       gradientTransform="matrix(1.2620436,0,0,0.6946441,-101.18703,208.95601)"
       gradientUnits="userSpaceOnUse"
       id="radialGradient4375"
       xlink:href="#linearGradient3782"
       inkscape:collect="always" />
    <linearGradient
       y2="496.61642"
       x2="414.16257"
       y1="673.67914"
       x1="411.13211"
       gradientUnits="userSpaceOnUse"
       id="linearGradient4373"
       xlink:href="#linearGradient4215"
       inkscape:collect="always" />
    <linearGradient
       y2="694.26605"
       x2="375.77673"
       y1="650.54742"
       x1="375.77673"
       gradientTransform="translate(0.3302618,-86.368043)"
       gradientUnits="userSpaceOnUse"
       id="linearGradient3927"
       xlink:href="#linearGradient3774"
       inkscape:collect="always" />
    <linearGradient
       y2="574.83228"
       x2="385.21429"
       y1="599.87164"
       x1="385.21429"
       gradientTransform="matrix(1,0,0,-1,0,1180.3736)"
       gradientUnits="userSpaceOnUse"
       id="linearGradient3925"
       xlink:href="#linearGradient3782"
       inkscape:collect="always" />
    <linearGradient
       y2="574.83228"
       x2="385.21429"
       y1="599.87164"
       x1="385.21429"
       gradientUnits="userSpaceOnUse"
       id="linearGradient3923"
       xlink:href="#linearGradient3782"
       inkscape:collect="always" />
    <radialGradient
       r="225.35712"
       fy="545.8598"
       fx="382.62653"
       cy="545.8598"
       cx="382.62653"
       gradientTransform="matrix(1.2620436,0,0,0.6946441,-101.18703,208.95601)"
       gradientUnits="userSpaceOnUse"
       id="radialGradient3921"
       xlink:href="#linearGradient3782"
       inkscape:collect="always" />
    <linearGradient
       id="linearGradient3774">
      <stop
         style="stop-color:#554004;stop-opacity:1;"
         offset="0"
         id="stop3828" />
      <stop
         id="stop3842"
         offset="0.1895"
         style="stop-color:#ffbd00;stop-opacity:1;" />
      <stop
         id="stop3830"
         offset="0.37900001"
         style="stop-color:#dfaf3d;stop-opacity:1;" />
      <stop
         style="stop-color:#fffbed;stop-opacity:1;"
         offset="0.68000001"
         id="stop3840" />
      <stop
         id="stop3778"
         offset="1"
         style="stop-color:#ffbd00;stop-opacity:1;" />
    </linearGradient>
    <linearGradient
       id="linearGradient3782">
      <stop
         id="stop3784"
         offset="0"
         style="stop-color:#e9e9e9;stop-opacity:1;" />
      <stop
         id="stop3786"
         offset="1"
         style="stop-color:#5d5d5d;stop-opacity:1;" />
    </linearGradient>
    <linearGradient
       id="linearGradient4215"
       inkscape:collect="always">
      <stop
         id="stop4217"
         offset="0"
         style="stop-color:#000000;stop-opacity:1;" />
      <stop
         id="stop4219"
         offset="1"
         style="stop-color:#000000;stop-opacity:0;" />
    </linearGradient>
    <linearGradient
       id="linearGradient4231">
      <stop
         id="stop4233"
         offset="0"
         style="stop-color:#dbdcdd;stop-opacity:1;" />
      <stop
         id="stop4235"
         offset="1"
         style="stop-color:#a6a8ab;stop-opacity:1;" />
    </linearGradient>
    <linearGradient
       inkscape:collect="always"
       xlink:href="#linearGradient4010"
       id="linearGradient4016"
       x1="25.011299"
       y1="1050.813"
       x2="25.011299"
       y2="1006.2652"
       gradientUnits="userSpaceOnUse" />
    <linearGradient
       inkscape:collect="always"
       id="linearGradient4010">
      <stop
         style="stop-color:#bdbdbd;stop-opacity:1"
         offset="0"
         id="stop4012" />
      <stop
         style="stop-color:#fcfcfc;stop-opacity:1"
         offset="1"
         id="stop4014" />
    </linearGradient>
    <radialGradient
       inkscape:collect="always"
       xlink:href="#linearGradient856"
       id="radialGradient854"
       cx="17.147339"
       cy="40.575378"
       fx="17.147339"
       fy="40.575378"
       r="1.767767"
       gradientUnits="userSpaceOnUse" />
    <linearGradient
       id="linearGradient856">
      <stop
         id="stop858"
         offset="0"
         style="stop-color:#c5ebb1;stop-opacity:1" />
      <stop
         id="stop860"
         offset="1"
         style="stop-color:#469f28;stop-opacity:1" />
    </linearGradient>
    <linearGradient
       inkscape:collect="always"
       xlink:href="#linearGradient886"
       id="linearGradient884"
       x1="20.125"
       y1="41.625"
       x2="21.125"
       y2="41.625"
       gradientUnits="userSpaceOnUse"
       gradientTransform="matrix(0.4375,0,0,0.76281714,-49.19835,1014.9162)" />
    <linearGradient
       id="linearGradient886">
      <stop
         style="stop-color:#000000;stop-opacity:1"
         offset="0"
         id="stop888" />
      <stop
         style="stop-color:#808080;stop-opacity:1"
         offset="1"
         id="stop890" />
    </linearGradient>
    <linearGradient
       inkscape:collect="always"
       xlink:href="#linearGradient886"
       id="linearGradient894"
       gradientUnits="userSpaceOnUse"
       gradientTransform="matrix(0.4375,0,0,0.76281714,-47.577897,1014.9162)"
       x1="20.125"
       y1="41.625"
       x2="21.125"
       y2="41.625" />
    <linearGradient
       id="linearGradient899">
      <stop
         style="stop-color:#000000;stop-opacity:1"
         offset="0"
         id="stop901" />
      <stop
         style="stop-color:#808080;stop-opacity:1"
         offset="1"
         id="stop903" />
    </linearGradient>
    <linearGradient
       inkscape:collect="always"
       xlink:href="#linearGradient886"
       id="linearGradient898"
       gradientUnits="userSpaceOnUse"
       gradientTransform="matrix(0.4375,0,0,0.76281714,-45.957443,1014.9162)"
       x1="20.125"
       y1="41.625"
       x2="21.125"
       y2="41.625" />
    <linearGradient
       id="linearGradient906">
      <stop
         style="stop-color:#000000;stop-opacity:1"
         offset="0"
         id="stop908" />
      <stop
         style="stop-color:#808080;stop-opacity:1"
         offset="1"
         id="stop910" />
    </linearGradient>
    <linearGradient
       inkscape:collect="always"
       xlink:href="#linearGradient886"
       id="linearGradient902"
       gradientUnits="userSpaceOnUse"
       gradientTransform="matrix(0.4375,0,0,0.76281714,-44.336991,1014.9162)"
       x1="20.125"
       y1="41.625"
       x2="21.125"
       y2="41.625" />
    <linearGradient
       id="linearGradient913">
      <stop
         style="stop-color:#000000;stop-opacity:1"
         offset="0"
         id="stop915" />
      <stop
         style="stop-color:#808080;stop-opacity:1"
         offset="1"
         id="stop917" />
    </linearGradient>
    <linearGradient
       inkscape:collect="always"
       xlink:href="#linearGradient870"
       id="linearGradient932"
       gradientUnits="userSpaceOnUse"
       x1="23.204165"
       y1="1053.158"
       x2="23.204165"
       y2="1042.8474"
       gradientTransform="translate(-1.5633162e-7,-1004.3622)" />
    <linearGradient
       id="linearGradient870">
      <stop
         id="stop872"
         offset="0"
         style="stop-color:#808080;stop-opacity:1" />
      <stop
         id="stop874"
         offset="1"
         style="stop-color:#f2f2f2;stop-opacity:1" />
    </linearGradient>
    <linearGradient
       inkscape:collect="always"
       xlink:href="#linearGradient895"
       id="linearGradient3801"
       x1="23.204165"
       y1="1053.158"
       x2="23.204165"
       y2="1004.8474"
       gradientUnits="userSpaceOnUse" />
    <linearGradient
       id="linearGradient895">
      <stop
         id="stop897"
         offset="0"
         style="stop-color:#ffb380;stop-opacity:1" />
      <stop
         id="stop899"
         offset="1"
         style="stop-color:#ff6600;stop-opacity:1" />
    </linearGradient>
    <linearGradient
       y2="1004.8474"
       x2="23.204165"
       y1="1053.158"
       x1="23.204165"
       gradientUnits="userSpaceOnUse"
       id="linearGradient936"
       xlink:href="#linearGradient895"
       inkscape:collect="always"
       gradientTransform="translate(-1.5633162e-7,-1004.3622)" />
  </defs>
  <sodipodi:namedview
     id="base"
     pagecolor="#ffffff"
     bordercolor="#666666"
     borderopacity="1.0"
     inkscape:pageopacity="0.0"
     inkscape:pageshadow="2"
     inkscape:zoom="8.0000001"
     inkscape:cx="26.588599"
     inkscape:cy="34.721086"
     inkscape:document-units="px"
     inkscape:current-layer="layer1"
     showgrid="false"
     inkscape:window-width="1366"
     inkscape:window-height="712"
     inkscape:window-x="0"
     inkscape:window-y="0"
     inkscape:window-maximized="1" />
  <metadata
     id="metadata7">
    <rdf:RDF>
      <cc:Work
         rdf:about="">
        <dc:format>image/svg+xml</dc:format>
        <dc:type
           rdf:resource="http://purl.org/dc/dcmitype/StillImage" />
        <dc:title />
      </cc:Work>
    </rdf:RDF>
  </metadata>
  <g
     inkscape:label="Capa 1"
     inkscape:groupmode="layer"
     id="layer1"
     transform="translate(0,-1004.3622)">
    <path
       style="fill:url(#linearGradient936);fill-opacity:1;fill-rule:nonzero;stroke:none"
       d="M 7.375 1.6875 C 4.2307532 1.6875 1.6875 4.2307532 1.6875 7.375 L 1.6875 40.625 C 1.6875 43.769247 4.2307532 46.3125 7.375 46.3125 L 40.625 46.3125 C 43.769247 46.3125 46.3125 43.769247 46.3125 40.625 L 46.3125 7.375 C 46.3125 4.2307532 43.769247 1.6875 40.625 1.6875 L 7.375 1.6875 z "
       transform="translate(0,1004.3622)"
       id="rect2991" />
    <path
       style="fill:url(#linearGradient932);fill-opacity:1;fill-rule:nonzero;stroke:none"
       d="M 1.6875 38.25 L 1.6875 40.625 C 1.6875 43.769247 4.2307532 46.3125 7.375 46.3125 L 40.625 46.3125 C 43.769247 46.3125 46.3125 43.769247 46.3125 40.625 L 46.3125 38.25 L 1.6875 38.25 z "
       transform="translate(0,1004.3622)"
       id="rect926" />
    <g
       id="g904"
       transform="translate(-0.01091795,0.81871759)">
      <path
         transform="translate(-7.6013978,1006.0416)"
         d="m 18.915106,40.575378 c 0,0.976311 -0.791456,1.767767 -1.767767,1.767767 -0.976311,0 -1.767767,-0.791456 -1.767767,-1.767767 0,-0.97631 0.791456,-1.767767 1.767767,-1.767767 C 18.12365,38.807611 18.915106,39.599068 18.915106,40.575378 Z"
         sodipodi:ry="1.767767"
         sodipodi:rx="1.767767"
         sodipodi:cy="40.575378"
         sodipodi:cx="17.147339"
         id="path846"
         style="fill:url(#radialGradient854);fill-opacity:1;stroke:#333333;stroke-width:0.30000001;stroke-miterlimit:4;stroke-dasharray:none"
         sodipodi:type="arc" />
      <rect
         transform="scale(-1,1)"
         ry="0.3814086"
         y="1044.38"
         x="-40.393661"
         height="4.5769029"
         width="0.4375"
         id="rect876"
         style="fill:url(#linearGradient884);fill-opacity:1;stroke:none" />
      <rect
         transform="scale(-1,1)"
         style="fill:url(#linearGradient894);fill-opacity:1;stroke:none"
         id="rect892"
         width="0.4375"
         height="4.5769029"
         x="-38.773209"
         y="1044.38"
         ry="0.3814086" />
      <rect
         transform="scale(-1,1)"
         ry="0.3814086"
         y="1044.38"
         x="-37.152756"
         height="4.5769029"
         width="0.4375"
         id="rect896"
         style="fill:url(#linearGradient898);fill-opacity:1;stroke:none" />
      <rect
         transform="scale(-1,1)"
         style="fill:url(#linearGradient902);fill-opacity:1;stroke:none"
         id="rect900"
         width="0.4375"
         height="4.5769029"
         x="-35.532303"
         y="1044.38"
         ry="0.3814086" />
    </g>
    <path
       style="fill:#000000;fill-opacity:0.58857141"
       d="m 29.5421,1018.8629 c -0.03924,0.013 -0.248581,0.028 -0.465174,0.038 l -0.393839,0.015 -0.03041,1.203 c -0.0336,1.3301 -0.06666,1.4729 -0.460793,1.991 -0.101173,0.1331 -0.926381,0.8657 -1.833749,1.6282 -1.022211,0.8589 -1.6964,1.4637 -1.772281,1.5901 -0.121095,0.2014 -0.122498,0.2326 -0.122498,2.6787 l 0,2.4751 0.253182,0.073 c 0.344382,0.098 0.818346,0.3928 1.081723,0.6723 0.441038,0.4684 0.611921,1.2752 0.402906,1.9023 -0.387669,1.1635 -1.956582,1.7784 -3.194117,1.2524 -1.051469,-0.447 -1.573981,-1.5175 -1.219762,-2.4988 0.217338,-0.6022 0.764976,-1.106 1.42864,-1.3146 l 0.290958,-0.091 0,-0.895 c 0,-0.8595 -0.0057,-0.904 -0.140655,-1.1262 -0.09236,-0.152 -0.517553,-0.5465 -1.237784,-1.1488 -2.883421,-2.4109 -2.811357,-2.303 -2.812481,-4.2146 -5.51e-4,-1.1123 -0.0032,-1.1375 -0.119414,-1.1704 -0.186237,-0.051 -0.553192,-0.3726 -0.67862,-0.5915 -0.137806,-0.2405 -0.16132,-0.6869 -0.04931,-0.9354 0.218182,-0.4842 0.732122,-0.802 1.296769,-0.802 0.559846,0 1.0793,0.3185 1.292034,0.7921 0.102249,0.2276 0.09211,0.6461 -0.02148,0.8869 -0.1125,0.2388 -0.43539,0.5467 -0.659642,0.6295 l -0.1608,0.061 0,1.175 c 0,1.5396 -0.06292,1.4098 1.200394,2.4758 0.531137,0.4484 1.211002,1.0256 1.510805,1.2827 0.299801,0.257 0.559321,0.4672 0.576706,0.4672 0.01734,0 0.03157,-2.8867 0.03157,-6.4153 l 0,-6.4157 -0.534497,0 c -0.390589,0 -0.534221,-0.017 -0.533534,-0.06 0,-0.035 0.108119,-0.2218 0.239105,-0.4159 0.130985,-0.1942 0.466055,-0.707 0.744531,-1.1395 0.278504,-0.4331 0.51904,-0.7869 0.534497,-0.7871 0.01544,-2e-4 0.06842,0.062 0.117651,0.1375 0.99069,1.5219 1.401446,2.1712 1.401446,2.2142 0,0.034 -0.195928,0.052 -0.534497,0.052 l -0.534497,0 0,4.8368 c 0,2.66 0.01901,4.8362 0.04222,4.8357 0.09489,0 2.978569,-2.482 3.108508,-2.6734 0.138233,-0.2039 0.140989,-0.2285 0.158347,-1.4229 l 0.01763,-1.2156 -0.451727,0 -0.451756,0 -0.01597,-1.1828 c -0.0088,-0.6506 -0.0029,-1.2036 0.01597,-1.2289 0.01845,-0.028 0.601589,-0.039 1.378439,-0.032 l 1.346341,0.015 0.01517,1.1916 C 29.610101,1018.5754 29.597592,1018.8453 29.5421,1018.8629 Z"
       id="path893"
       inkscape:connector-curvature="0" />
    <path
       id="path976"
       transform="translate(0,1004.3622)"
       d="M 7.375 1.6875 C 4.2307532 1.6875 1.6875 4.2307532 1.6875 7.375 L 1.6875 40.625 C 1.6875 43.769247 4.2307532 46.3125 7.375 46.3125 L 40.625 46.3125 C 43.769247 46.3125 46.3125 43.769247 46.3125 40.625 L 46.3125 7.375 C 46.3125 4.2307532 43.769247 1.6875 40.625 1.6875 L 7.375 1.6875 z "
       style="fill:none;fill-opacity:1;fill-rule:nonzero;stroke:#7d7d7d;stroke-width:0.4;stroke-miterlimit:4;stroke-dasharray:none;stroke-opacity:1" />
  </g>
</svg>
