<?xml version="1.0" encoding="UTF-8" standalone="no"?>
<!-- Created with Inkscape (http://www.inkscape.org/) -->

<svg
   xmlns:dc="http://purl.org/dc/elements/1.1/"
   xmlns:cc="http://creativecommons.org/ns#"
   xmlns:rdf="http://www.w3.org/1999/02/22-rdf-syntax-ns#"
   xmlns:svg="http://www.w3.org/2000/svg"
   xmlns="http://www.w3.org/2000/svg"
   xmlns:xlink="http://www.w3.org/1999/xlink"
   xmlns:sodipodi="http://sodipodi.sourceforge.net/DTD/sodipodi-0.dtd"
   xmlns:inkscape="http://www.inkscape.org/namespaces/inkscape"
   width="48"
   height="48.000023"
   id="svg2254"
   version="1.1"
   inkscape:version="0.48+devel r11521"
   sodipodi:docname="WorldOfGoo.svg">
  <defs
     id="defs2256">
    <linearGradient
       id="linearGradient2839">
      <stop
         id="stop2841"
         offset="0"
         style="stop-color:#a868d8;stop-opacity:1" />
      <stop
         id="stop2843"
         offset="1"
         style="stop-color:#7630bd;stop-opacity:1" />
    </linearGradient>
    <linearGradient
       inkscape:collect="always"
       xlink:href="#linearGradient3795"
       id="linearGradient3801"
       x1="23.204165"
       y1="1053.158"
       x2="23.204165"
       y2="1004.8474"
       gradientUnits="userSpaceOnUse"
       gradientTransform="translate(0,-2056.7244)" />
    <linearGradient
       id="linearGradient3795">
      <stop
         style="stop-color:#68b8d8;stop-opacity:1;"
         offset="0"
         id="stop3797" />
      <stop
         style="stop-color:#3097bd;stop-opacity:1;"
         offset="1"
         id="stop3799" />
    </linearGradient>
    <linearGradient
       y2="1004.8474"
       x2="23.204165"
       y1="1053.158"
       x1="23.204165"
       gradientTransform="matrix(1,0,0,-1,10e-5,1052.3622)"
       gradientUnits="userSpaceOnUse"
       id="linearGradient2818"
       xlink:href="#linearGradient2839"
       inkscape:collect="always" />
    <linearGradient
       y2="1049.5842"
       x2="24.113745"
       y1="1007.2183"
       x1="24.113745"
       gradientTransform="matrix(0.96799712,0,0,1.0252613,0.76812014,-25.977808)"
       gradientUnits="userSpaceOnUse"
       id="linearGradient3030"
       xlink:href="#linearGradient3795-7"
       inkscape:collect="always" />
    <linearGradient
       id="linearGradient3795-7">
      <stop
         style="stop-color:#68b8d8;stop-opacity:1;"
         offset="0"
         id="stop3797-8" />
      <stop
         style="stop-color:#3097bd;stop-opacity:1;"
         offset="1"
         id="stop3799-5" />
    </linearGradient>
  </defs>
  <sodipodi:namedview
     id="base"
     pagecolor="#ffffff"
     bordercolor="#666666"
     borderopacity="1.0"
     inkscape:pageopacity="0.0"
     inkscape:pageshadow="2"
     inkscape:zoom="7.590625"
     inkscape:cx="27.267915"
     inkscape:cy="32.368922"
     inkscape:document-units="px"
     inkscape:current-layer="layer1"
     showgrid="false"
     width="0px"
     height="0px"
     fit-margin-top="0"
     fit-margin-left="0"
     fit-margin-right="0"
     fit-margin-bottom="0"
     inkscape:window-width="1020"
     inkscape:window-height="885"
     inkscape:window-x="91"
     inkscape:window-y="130"
     inkscape:window-maximized="0" />
  <metadata
     id="metadata2259">
    <rdf:RDF>
      <cc:Work
         rdf:about="">
        <dc:format>image/svg+xml</dc:format>
        <dc:type
           rdf:resource="http://purl.org/dc/dcmitype/StillImage" />
        <cc:license
           rdf:resource="" />
        <dc:title></dc:title>
      </cc:Work>
    </rdf:RDF>
  </metadata>
  <g
     inkscape:label="Capa 1"
     inkscape:groupmode="layer"
     id="layer1"
     transform="translate(-1913.1428,-188.36217)">
    <path
       style="fill:url(#linearGradient2818);fill-opacity:1;stroke:none"
       d="M 7.375 1.6875 C 4.2307532 1.6875 1.6875 4.2307532 1.6875 7.375 L 1.6875 40.625 C 1.6875 43.769247 4.2307532 46.3125 7.375 46.3125 L 40.625 46.3125 C 43.769247 46.3125 46.3125 43.769247 46.3125 40.625 L 46.3125 7.375 C 46.3125 4.2307532 43.769247 1.6875 40.625 1.6875 L 7.375 1.6875 z "
       transform="translate(1913.1428,188.36217)"
       id="rect2991" />
    <g
       id="g2861">
      <path
         transform="matrix(0.85559329,0,0,0.85559329,1868.0049,199.60071)"
         d="m 98.279131,17.304264 a 16.731165,16.731165 0 1 1 -33.46233,0 16.731165,16.731165 0 1 1 33.46233,0 z"
         sodipodi:ry="16.731165"
         sodipodi:rx="16.731165"
         sodipodi:cy="17.304264"
         sodipodi:cx="81.547966"
         id="path2845"
         style="fill:#4d4d4d;fill-opacity:1;stroke:none"
         sodipodi:type="arc" />
      <g
         transform="translate(2.5873004,-1.0621821)"
         id="g2855">
        <path
           sodipodi:type="arc"
           style="fill:#ffffff;fill-opacity:1;stroke:none"
           id="path2847"
           sodipodi:cx="65.409637"
           sodipodi:cy="2.4833493"
           sodipodi:rx="11.659119"
           sodipodi:ry="11.659119"
           d="m 77.068756,2.4833493 c 0,6.4391535 -5.219965,11.6591187 -11.659119,11.6591187 -6.439153,0 -11.659118,-5.2199652 -11.659118,-11.6591187 0,-6.4391534 5.219965,-11.6591186 11.659118,-11.6591186 6.439154,0 11.659119,5.2199652 11.659119,11.6591186 z"
           transform="matrix(0.5349607,0,0,0.5349607,1893.4786,207.81622)" />
        <path
           transform="matrix(0.44030773,0,0,0.44030773,1914.212,208.0977)"
           d="m 77.068756,2.4833493 c 0,6.4391535 -5.219965,11.6591187 -11.659119,11.6591187 -6.439153,0 -11.659118,-5.2199652 -11.659118,-11.6591187 0,-6.4391534 5.219965,-11.6591186 11.659118,-11.6591186 6.439154,0 11.659119,5.2199652 11.659119,11.6591186 z"
           sodipodi:ry="11.659119"
           sodipodi:rx="11.659119"
           sodipodi:cy="2.4833493"
           sodipodi:cx="65.409637"
           id="path2849"
           style="fill:#ffffff;fill-opacity:1;stroke:none"
           sodipodi:type="arc" />
        <path
           transform="matrix(0.19240712,0,0,0.19240712,1914.0981,207.82608)"
           d="m 77.068756,2.4833493 c 0,6.4391535 -5.219965,11.6591187 -11.659119,11.6591187 -6.439153,0 -11.659118,-5.2199652 -11.659118,-11.6591187 0,-6.4391534 5.219965,-11.6591186 11.659118,-11.6591186 6.439154,0 11.659119,5.2199652 11.659119,11.6591186 z"
           sodipodi:ry="11.659119"
           sodipodi:rx="11.659119"
           sodipodi:cy="2.4833493"
           sodipodi:cx="65.409637"
           id="path2851"
           style="fill:#4d4d4d;fill-opacity:1;stroke:none"
           sodipodi:type="arc" />
        <path
           sodipodi:type="arc"
           style="fill:#4d4d4d;fill-opacity:1;stroke:none"
           id="path2853"
           sodipodi:cx="65.409637"
           sodipodi:cy="2.4833493"
           sodipodi:rx="11.659119"
           sodipodi:ry="11.659119"
           d="m 77.068756,2.4833493 c 0,6.4391535 -5.219965,11.6591187 -11.659119,11.6591187 -6.439153,0 -11.659118,-5.2199652 -11.659118,-11.6591187 0,-6.4391534 5.219965,-11.6591186 11.659118,-11.6591186 6.439154,0 11.659119,5.2199652 11.659119,11.6591186 z"
           transform="matrix(0.19240712,0,0,0.19240712,1931.6502,208.3516)" />
      </g>
    </g>
  </g>
</svg>
