<?xml version="1.0" encoding="UTF-8" standalone="no"?>
<!-- Created with Inkscape (http://www.inkscape.org/) -->

<svg
   xmlns:dc="http://purl.org/dc/elements/1.1/"
   xmlns:cc="http://creativecommons.org/ns#"
   xmlns:rdf="http://www.w3.org/1999/02/22-rdf-syntax-ns#"
   xmlns:svg="http://www.w3.org/2000/svg"
   xmlns="http://www.w3.org/2000/svg"
   xmlns:xlink="http://www.w3.org/1999/xlink"
   xmlns:sodipodi="http://sodipodi.sourceforge.net/DTD/sodipodi-0.dtd"
   xmlns:inkscape="http://www.inkscape.org/namespaces/inkscape"
   width="48"
   height="48"
   id="svg2"
   version="1.1"
   inkscape:version="0.48+devel r11772"
   sodipodi:docname="accessories-text-editor.svg">
  <defs
     id="defs4">
    <linearGradient
       id="linearGradient898"
       inkscape:collect="always">
      <stop
         id="stop900"
         offset="0"
         style="stop-color:#cccccc;stop-opacity:1" />
      <stop
         id="stop902"
         offset="1"
         style="stop-color:#ffffff;stop-opacity:1" />
    </linearGradient>
    <linearGradient
       inkscape:collect="always"
       id="linearGradient861">
      <stop
         style="stop-color:#e1c97b;stop-opacity:1"
         offset="0"
         id="stop863" />
      <stop
         style="stop-color:#eddeac;stop-opacity:1"
         offset="1"
         id="stop865" />
    </linearGradient>
    <linearGradient
       id="linearGradient3795">
      <stop
         style="stop-color:#582200;stop-opacity:1"
         offset="0"
         id="stop3797" />
      <stop
         style="stop-color:#c87137;stop-opacity:1"
         offset="1"
         id="stop3799" />
    </linearGradient>
    <linearGradient
       id="linearGradient3698">
      <stop
         id="stop3700"
         offset="0"
         style="stop-color:#96d0e1;stop-opacity:1" />
      <stop
         style="stop-color:#89b7e1;stop-opacity:1"
         offset="0.67819428"
         id="stop3706" />
      <stop
         id="stop3702"
         offset="1"
         style="stop-color:#699dd3;stop-opacity:1" />
    </linearGradient>
    <linearGradient
       id="linearGradient3708">
      <stop
         id="stop3710"
         offset="0"
         style="stop-color:#658db6;stop-opacity:1" />
      <stop
         style="stop-color:#527fab;stop-opacity:1;"
         offset="0.76777935"
         id="stop3716" />
      <stop
         id="stop3712"
         offset="1"
         style="stop-color:#4071a0;stop-opacity:1" />
    </linearGradient>
    <linearGradient
       id="linearGradient3750">
      <stop
         style="stop-color:#d0e2f1;stop-opacity:1"
         offset="0"
         id="stop3752" />
      <stop
         id="stop3756"
         offset="0.85580856"
         style="stop-color:#cadef0;stop-opacity:1" />
      <stop
         style="stop-color:#95bee3;stop-opacity:1"
         offset="1"
         id="stop3754" />
    </linearGradient>
    <linearGradient
       id="linearGradient3803">
      <stop
         id="stop3805"
         offset="0"
         style="stop-color:#d7def0;stop-opacity:1;" />
      <stop
         style="stop-color:#ffffff;stop-opacity:1"
         offset="0.5"
         id="stop3811" />
      <stop
         id="stop3807"
         offset="1"
         style="stop-color:#d5def0;stop-opacity:1" />
    </linearGradient>
    <linearGradient
       y2="1049.5842"
       x2="24.113745"
       y1="1007.2183"
       x1="24.113745"
       gradientTransform="matrix(0.96799712,0,0,1.0252613,0.76812014,-25.977808)"
       gradientUnits="userSpaceOnUse"
       id="linearGradient3030"
       xlink:href="#linearGradient3795-7"
       inkscape:collect="always" />
    <linearGradient
       id="linearGradient3795-7">
      <stop
         style="stop-color:#68b8d8;stop-opacity:1;"
         offset="0"
         id="stop3797-2" />
      <stop
         style="stop-color:#3097bd;stop-opacity:1;"
         offset="1"
         id="stop3799-5" />
    </linearGradient>
    <linearGradient
       inkscape:collect="always"
       xlink:href="#linearGradient3795"
       id="linearGradient859"
       x1="24.1875"
       y1="6.546875"
       x2="24.1875"
       y2="-1.203125"
       gradientUnits="userSpaceOnUse"
       gradientTransform="translate(0,1005.8621)" />
    <linearGradient
       inkscape:collect="always"
       xlink:href="#linearGradient898"
       id="linearGradient867"
       x1="24.25"
       y1="1049.1123"
       x2="24.25"
       y2="1004.6123"
       gradientUnits="userSpaceOnUse"
       gradientTransform="translate(0,1.4999201)" />
    <linearGradient
       inkscape:collect="always"
       xlink:href="#linearGradient861"
       id="linearGradient896"
       gradientUnits="userSpaceOnUse"
       x1="24.25"
       y1="1049.1123"
       x2="24.25"
       y2="1004.6123"
       gradientTransform="translate(0,-58.866639)" />
  </defs>
  <sodipodi:namedview
     id="base"
     pagecolor="#ffffff"
     bordercolor="#666666"
     borderopacity="1.0"
     inkscape:pageopacity="0.0"
     inkscape:pageshadow="2"
     inkscape:zoom="5.6568543"
     inkscape:cx="34.344755"
     inkscape:cy="36.233343"
     inkscape:document-units="px"
     inkscape:current-layer="layer1"
     showgrid="false"
     inkscape:window-width="1366"
     inkscape:window-height="712"
     inkscape:window-x="0"
     inkscape:window-y="0"
     inkscape:window-maximized="1">
    <inkscape:grid
       type="xygrid"
       id="grid3797" />
  </sodipodi:namedview>
  <metadata
     id="metadata7">
    <rdf:RDF>
      <cc:Work
         rdf:about="">
        <dc:format>image/svg+xml</dc:format>
        <dc:type
           rdf:resource="http://purl.org/dc/dcmitype/StillImage" />
        <dc:title />
      </cc:Work>
    </rdf:RDF>
  </metadata>
  <g
     inkscape:label="Capa 1"
     inkscape:groupmode="layer"
     id="layer1"
     transform="translate(0,-1004.3622)">
    <rect
       ry="5.6755357"
       y="1006.0615"
       x="1.6992435"
       height="44.601513"
       width="44.601513"
       id="rect2992"
       style="fill:url(#linearGradient867);fill-opacity:1;stroke:#7d7d7d;stroke-width:0.39848712;stroke-miterlimit:4;stroke-opacity:1;stroke-dasharray:none" />
    <path
       style="fill:#ff4a4a;fill-opacity:1;stroke:none"
       d="m 8.125,1006.0496 0,44.625 0.375,0 0,-44.625 L 8.125,1006.0496 Z"
       id="rect869"
       inkscape:connector-curvature="0" />
    <path
       style="fill:#5fbcd3;fill-opacity:1;stroke:none"
       d="m 1.6875,1019.8621 0,0.375 44.625,0 0,-0.375 L 1.6875,1019.8621 Z"
       id="rect871"
       inkscape:connector-curvature="0" />
    <path
       style="fill:#5fbcd3;fill-opacity:1;stroke:none"
       d="m 1.6875,1027.0184 0,0.375 44.625,0 0,-0.375 L 1.6875,1027.0184 Z"
       id="rect873"
       inkscape:connector-curvature="0" />
    <path
       style="fill:#5fbcd3;fill-opacity:1;stroke:none"
       d="m 1.6875,1034.2059 0,0.375 44.625,0 0,-0.375 L 1.6875,1034.2059 Z"
       id="rect875"
       inkscape:connector-curvature="0" />
    <path
       style="fill:#5fbcd3;fill-opacity:1;stroke:none"
       d="m 1.6875,1041.3621 0,0.375 44.625,0 0,-0.375 L 1.6875,1041.3621 Z"
       id="rect877"
       inkscape:connector-curvature="0" />
    <path
       style="fill:url(#linearGradient859);fill-opacity:1;stroke:none"
       d="m 7.375,1006.0496 c -3.1442468,0 -5.6875,2.5433 -5.6875,5.6875 l 0,2.25 c 0.0193,0.014 0.0625,0.031 0.0625,0.031 l 44.5,0 c 0.02377,-0.021 0.03888,-0.042 0.0625,-0.062 l 0,-2.2188 C 46.3125,1008.5929 43.769247,1006.0496 40.625,1006.0496 Z"
       id="rect3802"
       inkscape:connector-curvature="0"
       sodipodi:nodetypes="ssccccsss" />
    <rect
       style="fill:url(#linearGradient896);fill-opacity:1;stroke:#7d7d7d;stroke-width:0.39848712;stroke-miterlimit:4;stroke-opacity:1;stroke-dasharray:none"
       id="rect894"
       width="44.601513"
       height="44.601513"
       x="1.6992435"
       y="945.69489"
       ry="5.6755357" />
    <rect
       style="fill:#e6e6e6;fill-opacity:1;stroke:none"
       id="rect904"
       width="5.9432678"
       height="1.4047726"
       x="7.1178236"
       y="1006.8317"
       ry="0.70238632" />
    <rect
       ry="0.70238632"
       y="1006.8317"
       x="21.028366"
       height="1.4047726"
       width="5.9432678"
       id="rect906"
       style="fill:#e6e6e6;fill-opacity:1;stroke:none" />
    <rect
       style="fill:#e6e6e6;fill-opacity:1;stroke:none"
       id="rect916"
       width="5.9432678"
       height="1.4047726"
       x="34.938908"
       y="1006.8317"
       ry="0.70238632" />
    <rect
       style="fill:none;fill-opacity:1;stroke:#7d7d7d;stroke-width:0.39848712;stroke-miterlimit:4;stroke-opacity:1;stroke-dasharray:none"
       id="rect948"
       width="44.601513"
       height="44.601513"
       x="1.6992435"
       y="1006.0615"
       ry="5.6755357" />
  </g>
</svg>
