<?xml version="1.0" encoding="UTF-8" standalone="no"?>
<!-- Created with Inkscape (http://www.inkscape.org/) -->

<svg
   xmlns:dc="http://purl.org/dc/elements/1.1/"
   xmlns:cc="http://creativecommons.org/ns#"
   xmlns:rdf="http://www.w3.org/1999/02/22-rdf-syntax-ns#"
   xmlns:svg="http://www.w3.org/2000/svg"
   xmlns="http://www.w3.org/2000/svg"
   xmlns:xlink="http://www.w3.org/1999/xlink"
   xmlns:sodipodi="http://sodipodi.sourceforge.net/DTD/sodipodi-0.dtd"
   xmlns:inkscape="http://www.inkscape.org/namespaces/inkscape"
   width="48"
   height="48"
   id="svg2"
   version="1.1"
   inkscape:version="0.48+devel r11521"
   sodipodi:docname="xfce4-panel.svg">
  <defs
     id="defs4">
    <linearGradient
       inkscape:collect="always"
       id="linearGradient969">
      <stop
         style="stop-color:#7c3b1c;stop-opacity:1"
         offset="0"
         id="stop971" />
      <stop
         style="stop-color:#592007;stop-opacity:1"
         offset="1"
         id="stop973" />
    </linearGradient>
    <linearGradient
       id="linearGradient963">
      <stop
         style="stop-color:#d86c23;stop-opacity:1"
         offset="0"
         id="stop965" />
      <stop
         style="stop-color:#894222;stop-opacity:1"
         offset="1"
         id="stop967" />
    </linearGradient>
    <linearGradient
       inkscape:collect="always"
       id="linearGradient953">
      <stop
         style="stop-color:#d25f10;stop-opacity:1"
         offset="0"
         id="stop955" />
      <stop
         style="stop-color:#b75e2c;stop-opacity:1"
         offset="1"
         id="stop957" />
    </linearGradient>
    <linearGradient
       id="linearGradient941">
      <stop
         id="stop943"
         offset="0"
         style="stop-color:#d86c23;stop-opacity:1" />
      <stop
         id="stop945"
         offset="1"
         style="stop-color:#4b2212;stop-opacity:1" />
    </linearGradient>
    <linearGradient
       id="linearGradient867-0">
      <stop
         style="stop-color:#5b5b5b;stop-opacity:1"
         offset="0"
         id="stop933" />
      <stop
         style="stop-color:#000000;stop-opacity:1"
         offset="1"
         id="stop935" />
    </linearGradient>
    <linearGradient
       inkscape:collect="always"
       id="linearGradient889">
      <stop
         style="stop-color:#ebe6e0;stop-opacity:1;"
         offset="0"
         id="stop891" />
      <stop
         style="stop-color:#ebe6e0;stop-opacity:0;"
         offset="1"
         id="stop893" />
    </linearGradient>
    <linearGradient
       inkscape:collect="always"
       id="linearGradient877">
      <stop
         style="stop-color:#87807b;stop-opacity:1"
         offset="0"
         id="stop879" />
      <stop
         style="stop-color:#efebe5;stop-opacity:1"
         offset="1"
         id="stop881" />
    </linearGradient>
    <linearGradient
       id="linearGradient867">
      <stop
         id="stop869"
         offset="0"
         style="stop-color:#5b5b5b;stop-opacity:1" />
      <stop
         id="stop871"
         offset="1"
         style="stop-color:#000000;stop-opacity:1" />
    </linearGradient>
    <linearGradient
       id="linearGradient3795">
      <stop
         style="stop-color:#96a4aa;stop-opacity:1;"
         offset="0"
         id="stop3797" />
      <stop
         style="stop-color:#6c7b81;stop-opacity:1;"
         offset="1"
         id="stop3799" />
    </linearGradient>
    <linearGradient
       id="linearGradient3698">
      <stop
         id="stop3700"
         offset="0"
         style="stop-color:#96d0e1;stop-opacity:1" />
      <stop
         style="stop-color:#89b7e1;stop-opacity:1"
         offset="0.67819428"
         id="stop3706" />
      <stop
         id="stop3702"
         offset="1"
         style="stop-color:#699dd3;stop-opacity:1" />
    </linearGradient>
    <linearGradient
       id="linearGradient3708">
      <stop
         id="stop3710"
         offset="0"
         style="stop-color:#658db6;stop-opacity:1" />
      <stop
         style="stop-color:#527fab;stop-opacity:1;"
         offset="0.76777935"
         id="stop3716" />
      <stop
         id="stop3712"
         offset="1"
         style="stop-color:#4071a0;stop-opacity:1" />
    </linearGradient>
    <linearGradient
       id="linearGradient3750">
      <stop
         style="stop-color:#d0e2f1;stop-opacity:1"
         offset="0"
         id="stop3752" />
      <stop
         id="stop3756"
         offset="0.85580856"
         style="stop-color:#cadef0;stop-opacity:1" />
      <stop
         style="stop-color:#95bee3;stop-opacity:1"
         offset="1"
         id="stop3754" />
    </linearGradient>
    <linearGradient
       id="linearGradient3803">
      <stop
         id="stop3805"
         offset="0"
         style="stop-color:#d7def0;stop-opacity:1;" />
      <stop
         style="stop-color:#ffffff;stop-opacity:1"
         offset="0.5"
         id="stop3811" />
      <stop
         id="stop3807"
         offset="1"
         style="stop-color:#d5def0;stop-opacity:1" />
    </linearGradient>
    <linearGradient
       inkscape:collect="always"
       xlink:href="#linearGradient3795"
       id="linearGradient3801"
       x1="23.204165"
       y1="1053.158"
       x2="23.204165"
       y2="1004.8474"
       gradientUnits="userSpaceOnUse"
       gradientTransform="translate(0,-2056.7244)" />
    <linearGradient
       inkscape:collect="always"
       xlink:href="#linearGradient3795"
       id="linearGradient3859"
       x1="26.192217"
       y1="1024.0002"
       x2="28.641211"
       y2="1024.0002"
       gradientUnits="userSpaceOnUse" />
    <linearGradient
       inkscape:collect="always"
       xlink:href="#linearGradient3795"
       id="linearGradient3867"
       gradientUnits="userSpaceOnUse"
       x1="26.192217"
       y1="1024.0002"
       x2="28.641211"
       y2="1024.0002" />
    <linearGradient
       inkscape:collect="always"
       xlink:href="#linearGradient3795"
       id="linearGradient3869"
       gradientUnits="userSpaceOnUse"
       x1="26.192217"
       y1="1024.0002"
       x2="28.641211"
       y2="1024.0002" />
    <linearGradient
       inkscape:collect="always"
       xlink:href="#linearGradient3795"
       id="linearGradient3871"
       gradientUnits="userSpaceOnUse"
       x1="26.192217"
       y1="1024.0002"
       x2="28.641211"
       y2="1024.0002" />
    <linearGradient
       inkscape:collect="always"
       xlink:href="#linearGradient3795"
       id="linearGradient3877"
       gradientUnits="userSpaceOnUse"
       x1="29.718235"
       y1="1027.8575"
       x2="22.811094"
       y2="1015.5485" />
    <linearGradient
       inkscape:collect="always"
       xlink:href="#linearGradient3795"
       id="linearGradient3879"
       gradientUnits="userSpaceOnUse"
       x1="17.196316"
       y1="1006.2238"
       x2="31.448042"
       y2="1030.9086" />
    <linearGradient
       inkscape:collect="always"
       xlink:href="#linearGradient3795"
       id="linearGradient3895"
       x1="21.973417"
       y1="34.43922"
       x2="42.475323"
       y2="24.798252"
       gradientUnits="userSpaceOnUse" />
    <linearGradient
       inkscape:collect="always"
       xlink:href="#linearGradient3795"
       id="linearGradient3860"
       gradientUnits="userSpaceOnUse"
       gradientTransform="matrix(1,0,0,-1,-18.738329,2058.1386)"
       x1="23.204165"
       y1="1053.158"
       x2="23.204165"
       y2="1004.8474" />
    <linearGradient
       inkscape:collect="always"
       xlink:href="#linearGradient877"
       id="linearGradient883"
       x1="-58.364265"
       y1="-13.682132"
       x2="-58.364265"
       y2="20.099768"
       gradientUnits="userSpaceOnUse"
       gradientTransform="translate(36.824208,1053.2253)" />
    <radialGradient
       inkscape:collect="always"
       xlink:href="#linearGradient889"
       id="radialGradient895"
       cx="-21.848897"
       cy="1017.336"
       fx="-21.848897"
       fy="1017.336"
       r="19.876024"
       gradientTransform="matrix(0.93619875,0,0,1.0577159,-1.3939866,-7.8677724)"
       gradientUnits="userSpaceOnUse" />
    <linearGradient
       inkscape:collect="always"
       xlink:href="#linearGradient867-0"
       id="linearGradient923"
       x1="-39.965195"
       y1="1040.1465"
       x2="-39.965195"
       y2="1015.0362"
       gradientUnits="userSpaceOnUse" />
    <linearGradient
       inkscape:collect="always"
       xlink:href="#linearGradient941"
       id="linearGradient939"
       gradientUnits="userSpaceOnUse"
       x1="-39.965195"
       y1="1040.1465"
       x2="-39.965195"
       y2="1015.0362"
       gradientTransform="matrix(0.82352941,0,0,0.87891403,-7.1192177,125.13291)" />
    <linearGradient
       inkscape:collect="always"
       xlink:href="#linearGradient953"
       id="linearGradient959"
       x1="-39.88979"
       y1="33.446636"
       x2="-39.738976"
       y2="28.24362"
       gradientUnits="userSpaceOnUse" />
    <linearGradient
       inkscape:collect="always"
       xlink:href="#linearGradient963"
       id="linearGradient961"
       x1="-41.699535"
       y1="1031.2485"
       x2="-41.699535"
       y2="1027.3651"
       gradientUnits="userSpaceOnUse" />
    <linearGradient
       inkscape:collect="always"
       xlink:href="#linearGradient969"
       id="linearGradient975"
       x1="-40.078304"
       y1="1025.1783"
       x2="-40.078304"
       y2="1019.4474"
       gradientUnits="userSpaceOnUse" />
    <linearGradient
       inkscape:collect="always"
       xlink:href="#linearGradient867-0"
       id="linearGradient3151"
       gradientUnits="userSpaceOnUse"
       gradientTransform="matrix(0.96799712,0,0,1.0252613,0.76812263,-25.977885)"
       x1="24.113745"
       y1="1007.2183"
       x2="24.113745"
       y2="1049.5842" />
    <linearGradient
       id="linearGradient3795-4">
      <stop
         id="stop3797-0"
         offset="0"
         style="stop-color:#68b8d8;stop-opacity:1;" />
      <stop
         id="stop3799-0"
         offset="1"
         style="stop-color:#3097bd;stop-opacity:1;" />
    </linearGradient>
    <linearGradient
       inkscape:collect="always"
       xlink:href="#linearGradient3795-4"
       id="linearGradient3030"
       gradientUnits="userSpaceOnUse"
       gradientTransform="matrix(0.96799712,0,0,1.0252613,0.76812014,-25.977808)"
       x1="24.113745"
       y1="1007.2183"
       x2="24.113745"
       y2="1049.5842" />
    <linearGradient
       gradientUnits="userSpaceOnUse"
       y2="1004.8474"
       x2="23.204165"
       y1="1053.158"
       x1="23.204165"
       id="linearGradient3801-7"
       xlink:href="#linearGradient3795-0"
       inkscape:collect="always" />
    <linearGradient
       gradientUnits="userSpaceOnUse"
       y2="25.0625"
       x2="45.325001"
       y1="25.0625"
       x1="6.8000002"
       id="linearGradient3920"
       xlink:href="#linearGradient3914"
       inkscape:collect="always" />
    <linearGradient
       id="linearGradient3803-7">
      <stop
         style="stop-color:#d7def0;stop-opacity:1;"
         offset="0"
         id="stop3805-5" />
      <stop
         id="stop3811-0"
         offset="0.5"
         style="stop-color:#ffffff;stop-opacity:1" />
      <stop
         style="stop-color:#d5def0;stop-opacity:1"
         offset="1"
         id="stop3807-0" />
    </linearGradient>
    <linearGradient
       id="linearGradient3750-9">
      <stop
         id="stop3752-0"
         offset="0"
         style="stop-color:#d0e2f1;stop-opacity:1" />
      <stop
         style="stop-color:#cadef0;stop-opacity:1"
         offset="0.85580856"
         id="stop3756-0" />
      <stop
         id="stop3754-0"
         offset="1"
         style="stop-color:#95bee3;stop-opacity:1" />
    </linearGradient>
    <linearGradient
       id="linearGradient3708-1">
      <stop
         style="stop-color:#658db6;stop-opacity:1"
         offset="0"
         id="stop3710-5" />
      <stop
         id="stop3716-0"
         offset="0.76777935"
         style="stop-color:#527fab;stop-opacity:1;" />
      <stop
         style="stop-color:#4071a0;stop-opacity:1"
         offset="1"
         id="stop3712-5" />
    </linearGradient>
    <linearGradient
       id="linearGradient3698-3">
      <stop
         style="stop-color:#96d0e1;stop-opacity:1"
         offset="0"
         id="stop3700-2" />
      <stop
         id="stop3706-9"
         offset="0.67819428"
         style="stop-color:#89b7e1;stop-opacity:1" />
      <stop
         style="stop-color:#699dd3;stop-opacity:1"
         offset="1"
         id="stop3702-3" />
    </linearGradient>
    <linearGradient
       id="linearGradient3914"
       inkscape:collect="always">
      <stop
         id="stop3916"
         offset="0"
         style="stop-color:#59b3e1;stop-opacity:1;" />
      <stop
         id="stop3918"
         offset="1"
         style="stop-color:#59b3e1;stop-opacity:0;" />
    </linearGradient>
    <linearGradient
       id="linearGradient3795-0">
      <stop
         id="stop3797-3"
         offset="0"
         style="stop-color:#52a2cc;stop-opacity:1;" />
      <stop
         id="stop3799-4"
         offset="1"
         style="stop-color:#59b3e1;stop-opacity:1;" />
    </linearGradient>
  </defs>
  <sodipodi:namedview
     id="base"
     pagecolor="#ffffff"
     bordercolor="#666666"
     borderopacity="1.0"
     inkscape:pageopacity="0.0"
     inkscape:pageshadow="2"
     inkscape:zoom="6.6307696"
     inkscape:cx="8.7023797"
     inkscape:cy="5.2569283"
     inkscape:document-units="px"
     inkscape:current-layer="layer1"
     showgrid="false"
     inkscape:window-width="1920"
     inkscape:window-height="1035"
     inkscape:window-x="0"
     inkscape:window-y="26"
     inkscape:window-maximized="1">
    <inkscape:grid
       type="xygrid"
       id="grid3850" />
  </sodipodi:namedview>
  <metadata
     id="metadata7">
    <rdf:RDF>
      <cc:Work
         rdf:about="">
        <dc:format>image/svg+xml</dc:format>
        <dc:type
           rdf:resource="http://purl.org/dc/dcmitype/StillImage" />
        <dc:title />
      </cc:Work>
    </rdf:RDF>
  </metadata>
  <g
     inkscape:label="Capa 1"
     inkscape:groupmode="layer"
     id="layer1"
     transform="translate(0,-1004.3622)">
    <rect
       ry="5.6755357"
       y="1006.0615"
       x="1.6992435"
       height="44.601513"
       width="44.601513"
       id="rect2992"
       style="fill:url(#linearGradient3151);fill-opacity:1;stroke:#7d7d7d;stroke-width:0.39848712;stroke-miterlimit:4;stroke-opacity:1;stroke-dasharray:none" />
    <g
       id="g1035"
       transform="matrix(0.5550013,0,0,0.5550013,36.1117,439.10462)">
      <path
         sodipodi:nodetypes="ccccccc"
         inkscape:connector-curvature="0"
         id="path873"
         d="m 2.891495,1088.7079 0,-25.7889 -23.300463,-23.3004 c -0.98471,-1.0941 -1.905683,-0.9134 -2.790023,0 l -23.338166,23.3381 0,25.6004 c 13.924435,0 33.655025,0.1508 49.428652,0.1508 z"
         style="fill:url(#linearGradient883);fill-opacity:1;stroke:none" />
      <path
         style="fill:url(#radialGradient895);fill-opacity:1;stroke:none"
         d="m -3.2409884,1089.2079 0,-23.935 -17.5433836,-17.5435 c -0.741407,-0.8237 -1.434826,-0.6876 -2.100664,0 l -17.57177,17.5718 0,23.7931 c 10.483985,0 25.339539,0.1136 37.2158176,0.1136 z"
         id="path885"
         inkscape:connector-curvature="0"
         sodipodi:nodetypes="ccccccc" />
      <path
         sodipodi:nodetypes="ccccccccccccc"
         inkscape:connector-curvature="0"
         id="path875"
         d="m -48.03364,1066.8779 -4.37355,-4.1097 29.106727,-29.0313 c 0.981358,-0.6814 1.940639,-0.7569 3.22252,0.064 l 28.839471,29.5558 -4.010948,4.011 -1.461306,-1.2701 2.829079,-2.6406 -26.251763,-25.9501 c -1.545537,-0.898 -2.427131,-0.3574 -3.393271,0 l -25.374129,25.6758 2.337587,2.3375 z"
         style="fill:#ee4300;fill-opacity:1;stroke:none" />
      <g
         id="g995">
        <g
           id="g979"
           transform="translate(18.49333,49.136853)">
          <rect
             y="1015.5641"
             x="-48.033642"
             height="24.50696"
             width="15.38283"
             id="rect915"
             style="fill:url(#linearGradient923);fill-opacity:1;stroke:none" />
          <rect
             style="fill:url(#linearGradient939);fill-opacity:1;stroke:#7c4928;stroke-opacity:1"
             id="rect937"
             width="12.668213"
             height="21.539511"
             x="-46.676334"
             y="1017.7264" />
          <rect
             transform="translate(0,1004.3622)"
             y="28.168215"
             x="-44.866589"
             height="5.0522041"
             width="9.5765657"
             id="rect947"
             style="fill:url(#linearGradient959);fill-opacity:1;stroke:none" />
          <rect
             style="fill:url(#linearGradient961);fill-opacity:1;stroke:none"
             id="rect949"
             width="9.6675816"
             height="2.4286032"
             x="-44.912098"
             y="1027.6589" />
          <rect
             style="fill:url(#linearGradient975);fill-opacity:1;stroke:none"
             id="rect951"
             width="9.5765657"
             height="5.0522041"
             x="-44.866589"
             y="1019.9376" />
          <rect
             y="1027.7422"
             x="-36.303295"
             height="2.2621808"
             width="1.0587775"
             id="rect977"
             style="fill:#000000;fill-opacity:1;stroke:none" />
        </g>
        <g
           id="g991"
           transform="translate(37.514503,48.547964)">
          <rect
             style="fill:#cccccc;fill-opacity:1;stroke:none"
             id="rect989"
             width="19.266241"
             height="1.0556844"
             x="-68.996521"
             y="1040.6366" />
          <rect
             y="1040.6366"
             x="-66.922852"
             height="1.0556844"
             width="15.118909"
             id="rect987"
             style="fill:#666666;fill-opacity:1;stroke:none" />
        </g>
      </g>
    </g>
  </g>
</svg>
