<?xml version="1.0" encoding="UTF-8" standalone="no"?>
<!-- Created with Inkscape (http://www.inkscape.org/) -->

<svg
   xmlns:dc="http://purl.org/dc/elements/1.1/"
   xmlns:cc="http://creativecommons.org/ns#"
   xmlns:rdf="http://www.w3.org/1999/02/22-rdf-syntax-ns#"
   xmlns:svg="http://www.w3.org/2000/svg"
   xmlns="http://www.w3.org/2000/svg"
   xmlns:xlink="http://www.w3.org/1999/xlink"
   xmlns:sodipodi="http://sodipodi.sourceforge.net/DTD/sodipodi-0.dtd"
   xmlns:inkscape="http://www.inkscape.org/namespaces/inkscape"
   width="48"
   height="48"
   id="svg2"
   version="1.1"
   inkscape:version="0.48+devel r11701"
   sodipodi:docname="xnoise.svg">
  <defs
     id="defs4">
    <linearGradient
       id="linearGradient3795">
      <stop
         style="stop-color:#d868d3;stop-opacity:1;"
         offset="0"
         id="stop3797" />
      <stop
         style="stop-color:#bd3096;stop-opacity:1;"
         offset="1"
         id="stop3799" />
    </linearGradient>
    <linearGradient
       id="linearGradient3698">
      <stop
         id="stop3700"
         offset="0"
         style="stop-color:#96d0e1;stop-opacity:1" />
      <stop
         style="stop-color:#89b7e1;stop-opacity:1"
         offset="0.67819428"
         id="stop3706" />
      <stop
         id="stop3702"
         offset="1"
         style="stop-color:#699dd3;stop-opacity:1" />
    </linearGradient>
    <linearGradient
       id="linearGradient3708">
      <stop
         id="stop3710"
         offset="0"
         style="stop-color:#658db6;stop-opacity:1" />
      <stop
         style="stop-color:#527fab;stop-opacity:1;"
         offset="0.76777935"
         id="stop3716" />
      <stop
         id="stop3712"
         offset="1"
         style="stop-color:#4071a0;stop-opacity:1" />
    </linearGradient>
    <linearGradient
       id="linearGradient3750">
      <stop
         style="stop-color:#d0e2f1;stop-opacity:1"
         offset="0"
         id="stop3752" />
      <stop
         id="stop3756"
         offset="0.85580856"
         style="stop-color:#cadef0;stop-opacity:1" />
      <stop
         style="stop-color:#95bee3;stop-opacity:1"
         offset="1"
         id="stop3754" />
    </linearGradient>
    <linearGradient
       id="linearGradient3803">
      <stop
         id="stop3805"
         offset="0"
         style="stop-color:#d7def0;stop-opacity:1;" />
      <stop
         style="stop-color:#ffffff;stop-opacity:1"
         offset="0.5"
         id="stop3811" />
      <stop
         id="stop3807"
         offset="1"
         style="stop-color:#d5def0;stop-opacity:1" />
    </linearGradient>
    <linearGradient
       inkscape:collect="always"
       xlink:href="#linearGradient3795"
       id="linearGradient3859"
       x1="26.192217"
       y1="1024.0002"
       x2="28.641211"
       y2="1024.0002"
       gradientUnits="userSpaceOnUse" />
    <linearGradient
       inkscape:collect="always"
       xlink:href="#linearGradient3795"
       id="linearGradient3867"
       gradientUnits="userSpaceOnUse"
       x1="26.192217"
       y1="1024.0002"
       x2="28.641211"
       y2="1024.0002" />
    <linearGradient
       inkscape:collect="always"
       xlink:href="#linearGradient3795"
       id="linearGradient3869"
       gradientUnits="userSpaceOnUse"
       x1="26.192217"
       y1="1024.0002"
       x2="28.641211"
       y2="1024.0002" />
    <linearGradient
       inkscape:collect="always"
       xlink:href="#linearGradient3795"
       id="linearGradient3871"
       gradientUnits="userSpaceOnUse"
       x1="26.192217"
       y1="1024.0002"
       x2="28.641211"
       y2="1024.0002" />
    <linearGradient
       inkscape:collect="always"
       xlink:href="#linearGradient3795"
       id="linearGradient3877"
       gradientUnits="userSpaceOnUse"
       x1="29.718235"
       y1="1027.8575"
       x2="22.811094"
       y2="1015.5485" />
    <linearGradient
       inkscape:collect="always"
       xlink:href="#linearGradient3795"
       id="linearGradient3879"
       gradientUnits="userSpaceOnUse"
       x1="17.196316"
       y1="1006.2238"
       x2="31.448042"
       y2="1030.9086" />
    <linearGradient
       inkscape:collect="always"
       xlink:href="#linearGradient3795"
       id="linearGradient3895"
       x1="21.973417"
       y1="34.43922"
       x2="42.475323"
       y2="24.798252"
       gradientUnits="userSpaceOnUse" />
    <linearGradient
       id="linearGradient3771">
      <stop
         style="stop-color:#dfb18e;stop-opacity:1;"
         offset="0"
         id="stop3773" />
      <stop
         style="stop-color:#c97c3b;stop-opacity:1;"
         offset="1"
         id="stop3775" />
    </linearGradient>
    <linearGradient
       id="linearGradient3755">
      <stop
         id="stop3757"
         offset="0"
         style="stop-color:#8ebedf;stop-opacity:1;" />
      <stop
         id="stop3759"
         offset="1"
         style="stop-color:#5aade5;stop-opacity:1;" />
    </linearGradient>
    <linearGradient
       gradientTransform="matrix(0.91335293,0,0,0.91335293,3.3401952,1007.607)"
       gradientUnits="userSpaceOnUse"
       y2="16.080357"
       x2="37.500004"
       y1="16.080357"
       x1="1.4285715"
       id="linearGradient3761"
       xlink:href="#linearGradient3755"
       inkscape:collect="always" />
    <linearGradient
       y2="16.080357"
       x2="37.500004"
       y1="16.080357"
       x1="1.4285715"
       gradientTransform="matrix(0.91335293,0,0,0.91335293,9.9456947,1021.8781)"
       gradientUnits="userSpaceOnUse"
       id="linearGradient3769"
       xlink:href="#linearGradient3771"
       inkscape:collect="always" />
    <linearGradient
       y2="16.080357"
       x2="37.500004"
       y1="16.080357"
       x1="1.4285715"
       gradientTransform="matrix(0.91335293,0,0,0.91335293,3.3401952,1007.607)"
       gradientUnits="userSpaceOnUse"
       id="linearGradient3785"
       xlink:href="#linearGradient3755"
       inkscape:collect="always" />
    <linearGradient
       y2="16.080357"
       x2="37.500004"
       y1="16.080357"
       x1="1.4285715"
       gradientTransform="matrix(0.91335293,0,0,0.91335293,9.9456947,1021.8781)"
       gradientUnits="userSpaceOnUse"
       id="linearGradient3787"
       xlink:href="#linearGradient3771"
       inkscape:collect="always" />
    <linearGradient
       y2="16.080357"
       x2="37.500004"
       y1="16.080357"
       x1="1.4285715"
       gradientTransform="matrix(1.0138316,0,0,1.0138316,7.8691744,1019.98)"
       gradientUnits="userSpaceOnUse"
       id="linearGradient3000"
       xlink:href="#linearGradient3771"
       inkscape:collect="always" />
    <filter
       id="filter3680"
       color-interpolation-filters="sRGB">
      <feGaussianBlur
         stdDeviation="0.71783716"
         id="feGaussianBlur3682" />
    </filter>
    <radialGradient
       gradientTransform="matrix(1.4729191,0,0,1.2638196,-13.300848,-19.750136)"
       gradientUnits="userSpaceOnUse"
       xlink:href="#linearGradient3663"
       id="radialGradient3691"
       fy="74.094757"
       fx="28.125"
       r="12.053572"
       cy="74.094757"
       cx="28.125" />
    <linearGradient
       id="linearGradient3663">
      <stop
         offset="0"
         style="stop-color:#f73c00;stop-opacity:1"
         id="stop3665" />
      <stop
         offset="0.71272212"
         style="stop-color:#b61100;stop-opacity:1"
         id="stop3669" />
      <stop
         offset="1"
         style="stop-color:#9c0000;stop-opacity:1"
         id="stop3667" />
    </linearGradient>
    <linearGradient
       gradientTransform="translate(100,0)"
       gradientUnits="userSpaceOnUse"
       xlink:href="#linearGradient3630"
       id="linearGradient3636"
       y2="76.053574"
       x2="55.939182"
       y1="22.032881"
       x1="55.939182" />
    <linearGradient
       id="linearGradient3630">
      <stop
         offset="0"
         style="stop-color:#dedede;stop-opacity:1"
         id="stop3632" />
      <stop
         offset="1"
         style="stop-color:#ffffff;stop-opacity:1"
         id="stop3634" />
    </linearGradient>
    <filter
       id="filter5455"
       color-interpolation-filters="sRGB">
      <feGaussianBlur
         stdDeviation="0.71783716"
         id="feGaussianBlur5457" />
    </filter>
    <radialGradient
       gradientTransform="matrix(1.5148225,-8.9895646e-8,6.7407404e-8,1.1024691,-14.479387,-7.7949104)"
       gradientUnits="userSpaceOnUse"
       xlink:href="#linearGradient3655"
       id="radialGradient2871"
       fy="75.058144"
       fx="28.125"
       r="12.053572"
       cy="75.058144"
       cx="28.125" />
    <linearGradient
       id="linearGradient3655">
      <stop
         offset="0"
         style="stop-color:#f73c00;stop-opacity:1"
         id="stop3657" />
      <stop
         offset="1"
         style="stop-color:#9c0000;stop-opacity:1"
         id="stop3659" />
    </linearGradient>
    <linearGradient
       gradientUnits="userSpaceOnUse"
       xlink:href="#linearGradient3737"
       id="linearGradient2873"
       y2="68.053574"
       x2="40.178574"
       y1="68.053574"
       x1="16.071428" />
    <linearGradient
       id="linearGradient3737">
      <stop
         offset="0"
         style="stop-color:#ffffff;stop-opacity:1"
         id="stop3739" />
      <stop
         offset="1"
         style="stop-color:#ffffff;stop-opacity:0"
         id="stop3741" />
    </linearGradient>
    <linearGradient
       gradientUnits="userSpaceOnUse"
       xlink:href="#linearGradient3673"
       id="linearGradient3679"
       y2="68.053574"
       x2="40.178574"
       y1="68.053574"
       x1="16.071428" />
    <linearGradient
       id="linearGradient3673">
      <stop
         offset="0"
         style="stop-color:#ffeeaa;stop-opacity:1"
         id="stop3675" />
      <stop
         offset="1"
         style="stop-color:#ffeeaa;stop-opacity:0"
         id="stop3677" />
    </linearGradient>
    <filter
       id="filter3985"
       color-interpolation-filters="sRGB"
       height="1.3107746"
       width="1.1436011"
       y="-0.15538733"
       x="-0.071800567">
      <feGaussianBlur
         id="feGaussianBlur3987"
         stdDeviation="6.7803529" />
    </filter>
    <filter
       id="filter3989"
       color-interpolation-filters="sRGB">
      <feGaussianBlur
         id="feGaussianBlur3991"
         stdDeviation="6.7803529" />
    </filter>
    <filter
       id="filter3993"
       color-interpolation-filters="sRGB"
       height="1.1447482"
       width="1.2981865"
       y="-0.072374105"
       x="-0.1490933">
      <feGaussianBlur
         id="feGaussianBlur3995"
         stdDeviation="6.7803529" />
    </filter>
    <filter
       id="filter3997"
       color-interpolation-filters="sRGB"
       height="1.2207661"
       width="1.1631417"
       y="-0.11038305"
       x="-0.081570871">
      <feGaussianBlur
         id="feGaussianBlur3999"
         stdDeviation="6.7803529" />
    </filter>
    <filter
       id="filter4001"
       color-interpolation-filters="sRGB"
       height="1.257324"
       width="1.149857"
       y="-0.12866202"
       x="-0.07492853">
      <feGaussianBlur
         id="feGaussianBlur4003"
         stdDeviation="6.7803529" />
    </filter>
    <filter
       id="filter4005"
       color-interpolation-filters="sRGB"
       height="1.152902"
       width="1.2446516"
       y="-0.076450996"
       x="-0.12232576">
      <feGaussianBlur
         id="feGaussianBlur4007"
         stdDeviation="6.7803529" />
    </filter>
    <filter
       id="filter4009"
       color-interpolation-filters="sRGB"
       height="1.1597476"
       width="1.2244866"
       y="-0.079873785"
       x="-0.11224329">
      <feGaussianBlur
         id="feGaussianBlur4011"
         stdDeviation="6.7803529" />
    </filter>
    <radialGradient
       gradientTransform="matrix(-1,0,0,0.9878188,582.03434,46.933265)"
       gradientUnits="userSpaceOnUse"
       xlink:href="#linearGradient6793"
       id="radialGradient2607"
       fy="241.04938"
       fx="353.6283"
       r="220.11942"
       cy="241.04938"
       cx="353.6283" />
    <linearGradient
       id="linearGradient6793">
      <stop
         offset="0"
         style="stop-color:#44b5e8;stop-opacity:1"
         id="stop6795" />
      <stop
         offset="1"
         style="stop-color:#116b98;stop-opacity:1"
         id="stop6797" />
    </linearGradient>
    <radialGradient
       gradientTransform="matrix(-0.999176,-0.04058612,-0.04009174,0.9870049,587.79647,48.361326)"
       gradientUnits="userSpaceOnUse"
       xlink:href="#linearGradient6793"
       id="radialGradient2609"
       fy="241.04938"
       fx="353.6283"
       r="220.11942"
       cy="241.04938"
       cx="353.6283" />
    <linearGradient
       id="linearGradient6977">
      <stop
         offset="0"
         style="stop-color:#44b5e8;stop-opacity:1"
         id="stop6979" />
      <stop
         offset="1"
         style="stop-color:#116b98;stop-opacity:1"
         id="stop6981" />
    </linearGradient>
    <radialGradient
       gradientTransform="matrix(-1,0,0,0.9878188,582.03434,46.933265)"
       gradientUnits="userSpaceOnUse"
       xlink:href="#linearGradient6793"
       id="radialGradient2611"
       fy="241.04938"
       fx="353.6283"
       r="220.11942"
       cy="241.04938"
       cx="353.6283" />
    <linearGradient
       id="linearGradient6984">
      <stop
         offset="0"
         style="stop-color:#44b5e8;stop-opacity:1"
         id="stop6986" />
      <stop
         offset="1"
         style="stop-color:#116b98;stop-opacity:1"
         id="stop6988" />
    </linearGradient>
    <radialGradient
       gradientTransform="matrix(-1,0,0,0.9878188,582.03434,46.933265)"
       gradientUnits="userSpaceOnUse"
       xlink:href="#linearGradient6793"
       id="radialGradient2613"
       fy="241.04938"
       fx="353.6283"
       r="220.11942"
       cy="241.04938"
       cx="353.6283" />
    <linearGradient
       id="linearGradient6991">
      <stop
         offset="0"
         style="stop-color:#44b5e8;stop-opacity:1"
         id="stop6993" />
      <stop
         offset="1"
         style="stop-color:#116b98;stop-opacity:1"
         id="stop6995" />
    </linearGradient>
    <radialGradient
       gradientTransform="matrix(-1,0,0,0.9878188,582.03434,46.933265)"
       gradientUnits="userSpaceOnUse"
       xlink:href="#linearGradient6793"
       id="radialGradient2615"
       fy="241.04938"
       fx="353.6283"
       r="220.11942"
       cy="241.04938"
       cx="353.6283" />
    <linearGradient
       id="linearGradient6998">
      <stop
         offset="0"
         style="stop-color:#44b5e8;stop-opacity:1"
         id="stop7000" />
      <stop
         offset="1"
         style="stop-color:#116b98;stop-opacity:1"
         id="stop7002" />
    </linearGradient>
    <filter
       id="filter3383"
       color-interpolation-filters="sRGB">
      <feBlend
         id="feBlend3385"
         mode="multiply"
         in2="BackgroundImage" />
    </filter>
    <radialGradient
       gradientTransform="matrix(-0.999176,-0.04058612,-0.04009174,0.9870049,587.79647,48.361326)"
       gradientUnits="userSpaceOnUse"
       xlink:href="#linearGradient6793"
       id="radialGradient2617"
       fy="241.04938"
       fx="353.6283"
       r="220.11942"
       cy="241.04938"
       cx="353.6283" />
    <linearGradient
       id="linearGradient7007">
      <stop
         offset="0"
         style="stop-color:#44b5e8;stop-opacity:1"
         id="stop7009" />
      <stop
         offset="1"
         style="stop-color:#116b98;stop-opacity:1"
         id="stop7011" />
    </linearGradient>
    <radialGradient
       gradientTransform="matrix(-1,0,0,0.9878188,582.03434,46.933265)"
       gradientUnits="userSpaceOnUse"
       xlink:href="#linearGradient6793"
       id="radialGradient2619"
       fy="241.04938"
       fx="353.6283"
       r="220.11942"
       cy="241.04938"
       cx="353.6283" />
    <linearGradient
       id="linearGradient7014">
      <stop
         offset="0"
         style="stop-color:#44b5e8;stop-opacity:1"
         id="stop7016" />
      <stop
         offset="1"
         style="stop-color:#116b98;stop-opacity:1"
         id="stop7018" />
    </linearGradient>
    <radialGradient
       gradientTransform="matrix(-1,0,0,0.9878188,582.03434,46.933265)"
       gradientUnits="userSpaceOnUse"
       xlink:href="#linearGradient6793"
       id="radialGradient2621"
       fy="241.04938"
       fx="353.6283"
       r="220.11942"
       cy="241.04938"
       cx="353.6283" />
    <linearGradient
       id="linearGradient7021">
      <stop
         offset="0"
         style="stop-color:#44b5e8;stop-opacity:1"
         id="stop7023" />
      <stop
         offset="1"
         style="stop-color:#116b98;stop-opacity:1"
         id="stop7025" />
    </linearGradient>
    <radialGradient
       gradientTransform="matrix(-1,0,0,0.9878188,582.03434,46.933265)"
       gradientUnits="userSpaceOnUse"
       xlink:href="#linearGradient6793"
       id="radialGradient2623"
       fy="241.04938"
       fx="353.6283"
       r="220.11942"
       cy="241.04938"
       cx="353.6283" />
    <linearGradient
       id="linearGradient7028">
      <stop
         offset="0"
         style="stop-color:#44b5e8;stop-opacity:1"
         id="stop7030" />
      <stop
         offset="1"
         style="stop-color:#116b98;stop-opacity:1"
         id="stop7032" />
    </linearGradient>
    <radialGradient
       gradientTransform="matrix(-1,0,0,0.9878188,582.03434,46.933265)"
       gradientUnits="userSpaceOnUse"
       xlink:href="#linearGradient6793"
       id="radialGradient2625"
       fy="241.04938"
       fx="353.6283"
       r="220.11942"
       cy="241.04938"
       cx="353.6283" />
    <linearGradient
       id="linearGradient7035">
      <stop
         offset="0"
         style="stop-color:#44b5e8;stop-opacity:1"
         id="stop7037" />
      <stop
         offset="1"
         style="stop-color:#116b98;stop-opacity:1"
         id="stop7039" />
    </linearGradient>
    <filter
       id="filter7041"
       color-interpolation-filters="sRGB"
       height="1.3107746"
       width="1.1436011"
       y="-0.15538733"
       x="-0.071800567">
      <feGaussianBlur
         id="feGaussianBlur7043"
         stdDeviation="6.7803529" />
    </filter>
    <filter
       id="filter7045"
       color-interpolation-filters="sRGB">
      <feGaussianBlur
         id="feGaussianBlur7047"
         stdDeviation="6.7803529" />
    </filter>
    <filter
       id="filter7049"
       color-interpolation-filters="sRGB"
       height="1.1447482"
       width="1.2981865"
       y="-0.072374105"
       x="-0.1490933">
      <feGaussianBlur
         id="feGaussianBlur7051"
         stdDeviation="6.7803529" />
    </filter>
    <filter
       id="filter7053"
       color-interpolation-filters="sRGB"
       height="1.2207661"
       width="1.1631417"
       y="-0.11038305"
       x="-0.081570871">
      <feGaussianBlur
         id="feGaussianBlur7055"
         stdDeviation="6.7803529" />
    </filter>
    <filter
       id="filter7057"
       color-interpolation-filters="sRGB"
       height="1.257324"
       width="1.149857"
       y="-0.12866202"
       x="-0.07492853">
      <feGaussianBlur
         id="feGaussianBlur7059"
         stdDeviation="6.7803529" />
    </filter>
    <filter
       id="filter7061"
       color-interpolation-filters="sRGB"
       height="1.152902"
       width="1.2446516"
       y="-0.076450996"
       x="-0.12232576">
      <feGaussianBlur
         id="feGaussianBlur7063"
         stdDeviation="6.7803529" />
    </filter>
    <filter
       id="filter7065"
       color-interpolation-filters="sRGB"
       height="1.1597476"
       width="1.2244866"
       y="-0.079873785"
       x="-0.11224329">
      <feGaussianBlur
         id="feGaussianBlur7067"
         stdDeviation="6.7803529" />
    </filter>
    <radialGradient
       gradientTransform="matrix(-0.0700528,0,0,0.06853979,4.091715,1013.5145)"
       gradientUnits="userSpaceOnUse"
       xlink:href="#linearGradient6793"
       id="radialGradient4089"
       fy="241.04938"
       fx="353.6283"
       r="220.11942"
       cy="241.04938"
       cx="353.6283" />
    <linearGradient
       id="linearGradient7070">
      <stop
         offset="0"
         style="stop-color:#44b5e8;stop-opacity:1"
         id="stop7072" />
      <stop
         offset="1"
         style="stop-color:#116b98;stop-opacity:1"
         id="stop7074" />
    </linearGradient>
    <radialGradient
       gradientTransform="matrix(-0.06999508,-0.00281606,-0.00280854,0.06848332,4.4953669,1013.6136)"
       gradientUnits="userSpaceOnUse"
       xlink:href="#linearGradient6793"
       id="radialGradient4086"
       fy="241.04938"
       fx="353.6283"
       r="220.11942"
       cy="241.04938"
       cx="353.6283" />
    <linearGradient
       id="linearGradient7077">
      <stop
         offset="0"
         style="stop-color:#44b5e8;stop-opacity:1"
         id="stop7079" />
      <stop
         offset="1"
         style="stop-color:#116b98;stop-opacity:1"
         id="stop7081" />
    </linearGradient>
    <radialGradient
       gradientTransform="matrix(-0.0700528,0,0,0.06853979,4.091715,1013.5145)"
       gradientUnits="userSpaceOnUse"
       xlink:href="#linearGradient6793"
       id="radialGradient4081"
       fy="241.04938"
       fx="353.6283"
       r="220.11942"
       cy="241.04938"
       cx="353.6283" />
    <linearGradient
       id="linearGradient7084">
      <stop
         offset="0"
         style="stop-color:#44b5e8;stop-opacity:1"
         id="stop7086" />
      <stop
         offset="1"
         style="stop-color:#116b98;stop-opacity:1"
         id="stop7088" />
    </linearGradient>
    <radialGradient
       gradientTransform="matrix(-0.0700528,0,0,0.06853979,4.091715,1013.5145)"
       gradientUnits="userSpaceOnUse"
       xlink:href="#linearGradient6793"
       id="radialGradient4078"
       fy="241.04938"
       fx="353.6283"
       r="220.11942"
       cy="241.04938"
       cx="353.6283" />
    <linearGradient
       id="linearGradient7091">
      <stop
         offset="0"
         style="stop-color:#44b5e8;stop-opacity:1"
         id="stop7093" />
      <stop
         offset="1"
         style="stop-color:#116b98;stop-opacity:1"
         id="stop7095" />
    </linearGradient>
    <radialGradient
       gradientTransform="matrix(-0.0700528,0,0,0.06853979,4.091715,1013.5145)"
       gradientUnits="userSpaceOnUse"
       xlink:href="#linearGradient6793"
       id="radialGradient4075"
       fy="241.04938"
       fx="353.6283"
       r="220.11942"
       cy="241.04938"
       cx="353.6283" />
    <linearGradient
       id="linearGradient7098">
      <stop
         offset="0"
         style="stop-color:#44b5e8;stop-opacity:1"
         id="stop7100" />
      <stop
         offset="1"
         style="stop-color:#116b98;stop-opacity:1"
         id="stop7102" />
    </linearGradient>
    <radialGradient
       gradientTransform="matrix(-0.0700528,0,0,0.06853979,49.091703,1013.5145)"
       gradientUnits="userSpaceOnUse"
       xlink:href="#linearGradient6793"
       id="radialGradient4105"
       fy="241.04938"
       fx="353.6283"
       r="220.11942"
       cy="241.04938"
       cx="353.6283" />
    <linearGradient
       id="linearGradient7105">
      <stop
         offset="0"
         style="stop-color:#44b5e8;stop-opacity:1"
         id="stop7107" />
      <stop
         offset="1"
         style="stop-color:#116b98;stop-opacity:1"
         id="stop7109" />
    </linearGradient>
    <radialGradient
       gradientTransform="matrix(-0.06999508,-0.00281606,-0.00280854,0.06848332,49.495353,1013.6136)"
       gradientUnits="userSpaceOnUse"
       xlink:href="#linearGradient6793"
       id="radialGradient4107"
       fy="241.04938"
       fx="353.6283"
       r="220.11942"
       cy="241.04938"
       cx="353.6283" />
    <linearGradient
       id="linearGradient7112">
      <stop
         offset="0"
         style="stop-color:#44b5e8;stop-opacity:1"
         id="stop7114" />
      <stop
         offset="1"
         style="stop-color:#116b98;stop-opacity:1"
         id="stop7116" />
    </linearGradient>
    <radialGradient
       gradientTransform="matrix(-0.0700528,0,0,0.06853979,49.091703,1013.5145)"
       gradientUnits="userSpaceOnUse"
       xlink:href="#linearGradient6793"
       id="radialGradient4109"
       fy="241.04938"
       fx="353.6283"
       r="220.11942"
       cy="241.04938"
       cx="353.6283" />
    <linearGradient
       id="linearGradient7119">
      <stop
         offset="0"
         style="stop-color:#44b5e8;stop-opacity:1"
         id="stop7121" />
      <stop
         offset="1"
         style="stop-color:#116b98;stop-opacity:1"
         id="stop7123" />
    </linearGradient>
    <radialGradient
       gradientTransform="matrix(-0.0700528,0,0,0.06853979,49.091703,1013.5145)"
       gradientUnits="userSpaceOnUse"
       xlink:href="#linearGradient6793"
       id="radialGradient4111"
       fy="241.04938"
       fx="353.6283"
       r="220.11942"
       cy="241.04938"
       cx="353.6283" />
    <linearGradient
       id="linearGradient7126">
      <stop
         offset="0"
         style="stop-color:#44b5e8;stop-opacity:1"
         id="stop7128" />
      <stop
         offset="1"
         style="stop-color:#116b98;stop-opacity:1"
         id="stop7130" />
    </linearGradient>
    <radialGradient
       gradientTransform="matrix(-0.0700528,0,0,0.06853979,49.091703,1013.5145)"
       gradientUnits="userSpaceOnUse"
       xlink:href="#linearGradient6793"
       id="radialGradient4113"
       fy="241.04938"
       fx="353.6283"
       r="220.11942"
       cy="241.04938"
       cx="353.6283" />
    <linearGradient
       id="linearGradient7133">
      <stop
         offset="0"
         style="stop-color:#44b5e8;stop-opacity:1"
         id="stop7135" />
      <stop
         offset="1"
         style="stop-color:#116b98;stop-opacity:1"
         id="stop7137" />
    </linearGradient>
    <radialGradient
       gradientTransform="matrix(-0.0700528,0,0,0.06853979,4.091715,1058.5326)"
       gradientUnits="userSpaceOnUse"
       xlink:href="#linearGradient6793"
       id="radialGradient4128"
       fy="241.04938"
       fx="353.6283"
       r="220.11942"
       cy="241.04938"
       cx="353.6283" />
    <linearGradient
       id="linearGradient7140">
      <stop
         offset="0"
         style="stop-color:#44b5e8;stop-opacity:1"
         id="stop7142" />
      <stop
         offset="1"
         style="stop-color:#116b98;stop-opacity:1"
         id="stop7144" />
    </linearGradient>
    <clipPath
       id="clipPath4136">
      <path
         style="fill:#ff0000;fill-opacity:1;fill-rule:nonzero;stroke:none;stroke-width:1;marker-mid:none"
         id="path4138"
         inkscape:connector-curvature="0"
         d="m 69.59375,-44 c -9.3899,0.107682 -23.87987,2.6857 -28.40625,8.03125 -3.614707,5.19851 -4.058095,25.56562 -3.125,24.3125 7.690474,-10.32808 26.131922,-23.08265 37.125,-28.21875 5.944988,-2.777574 1.709505,-4.208752 -5.59375,-4.125 z m -9.0625,16.84375 c -6.358079,0.45418 -17.54026,11.14799 -15.96875,11.09375 12.998614,-0.44859 21.139031,0.31977 31.28125,3.4375 1.501742,0.46164 -1.635623,-13.48623 -15.3125,-14.53125 z M 53.6875,-16 c -0.335662,0.0171 -0.487336,0.12156 -0.375,0.28125 C 60.745916,-5.15172 64.517184,1.9985 67.375,12.125 67.798153,13.62441 77.940461,3.47276 71.40625,-8.46875 68.050526,-12.87991 56.037137,-16.1197 53.6875,-16 z m 3.84375,8.46875 c -0.07395,-0.0188 -0.13144,0.0309 -0.15625,0.125 -3.283392,12.46026 -6.331882,19.9571 -12.25,28.6875 -0.876283,1.2927 13.514543,2.30156 18.4375,-10.375 1.292639,-5.77676 -4.922018,-18.15493 -6.03125,-18.4375 z m -3.625,7.96875 c -0.03023,-0.007 -0.04942,0.0103 -0.09375,0.0312 -11.733345,5.55657 -19.475906,8.09299 -30.03125,9.25 -1.562909,0.17132 6.916816,11.70602 19.875,7.25 5.467993,-2.84143 11.187041,-16.30416 10.25,-16.53125 z" />
    </clipPath>
    <filter
       id="filter4144"
       color-interpolation-filters="sRGB">
      <feGaussianBlur
         stdDeviation="1.2041748"
         id="feGaussianBlur4146" />
    </filter>
    <linearGradient
       gradientTransform="translate(1.9073486e-6,1.2948303e-4)"
       gradientUnits="userSpaceOnUse"
       y2="-1006.1123"
       x2="-25.750002"
       y1="-1051.3623"
       x1="-25.750002"
       id="linearGradient869"
       xlink:href="#linearGradient3795-9"
       inkscape:collect="always" />
    <linearGradient
       id="linearGradient3795-9">
      <stop
         id="stop3797-6"
         offset="0"
         style="stop-color:#c2c2c2;stop-opacity:1" />
      <stop
         id="stop3799-5"
         offset="1"
         style="stop-color:#f3f3f3;stop-opacity:1" />
    </linearGradient>
    <linearGradient
       inkscape:collect="always"
       xlink:href="#linearGradient3795"
       id="linearGradient854"
       gradientUnits="userSpaceOnUse"
       gradientTransform="translate(7.1759033e-6,2056.7244)"
       x1="-25.750002"
       y1="-1051.3623"
       x2="-25.750002"
       y2="-1006.1123" />
  </defs>
  <sodipodi:namedview
     id="base"
     pagecolor="#ffffff"
     bordercolor="#666666"
     borderopacity="1.0"
     inkscape:pageopacity="0.0"
     inkscape:pageshadow="2"
     inkscape:zoom="2.0000001"
     inkscape:cx="11.127744"
     inkscape:cy="3.2480808"
     inkscape:document-units="px"
     inkscape:current-layer="layer1"
     showgrid="false"
     inkscape:window-width="1366"
     inkscape:window-height="746"
     inkscape:window-x="0"
     inkscape:window-y="0"
     inkscape:window-maximized="1">
    <inkscape:grid
       type="xygrid"
       id="grid3850" />
  </sodipodi:namedview>
  <metadata
     id="metadata7">
    <rdf:RDF>
      <cc:Work
         rdf:about="">
        <dc:format>image/svg+xml</dc:format>
        <dc:type
           rdf:resource="http://purl.org/dc/dcmitype/StillImage" />
        <dc:title />
      </cc:Work>
    </rdf:RDF>
  </metadata>
  <g
     inkscape:label="Capa 1"
     inkscape:groupmode="layer"
     id="layer1"
     transform="translate(0,-1004.3622)">
    <rect
       ry="5.6755357"
       y="1006.0615"
       x="-46.300758"
       height="44.601513"
       width="44.601513"
       id="rect2992"
       style="fill:url(#linearGradient854);fill-opacity:1;stroke:#7d7d7d;stroke-width:0.39848712;stroke-miterlimit:4;stroke-opacity:1;stroke-dasharray:none"
       transform="scale(-1,1)" />
    <g
       id="g3031-2"
       transform="matrix(0.06583265,0,0,0.07026711,6.9264656,972.12065)"
       style="fill:#ffffff;fill-opacity:0.98173517;stroke:none">
      <path
         style="font-size:medium;font-style:normal;font-variant:normal;font-weight:normal;font-stretch:normal;text-indent:0;text-align:start;text-decoration:none;line-height:normal;letter-spacing:normal;word-spacing:normal;text-transform:none;direction:ltr;block-progression:tb;writing-mode:lr-tb;text-anchor:start;opacity:0.8;color:#000000;fill:#ffffff;fill-opacity:0.98173517;stroke:none;stroke-width:0.11956072;marker:none;visibility:visible;display:inline;overflow:visible;enable-background:accumulate;font-family:Bitstream Vera Sans;-inkscape-font-specification:Bitstream Vera Sans"
         d="m 401.83462,570.91502 c -59.88638,42.3841 -117.11307,91.8345 -151.42645,157.8252 -2.46369,3.3357 -9.3204,3.1668 -11.37828,0.3011 -29.2047,-41.0683 -72.15781,-80.2867 -132.84709,-120.5429 l -42.942214,57.8622 c 87.469444,57.9915 123.076884,102.9141 141.137394,156.6425 0.13366,0.4083 0.13366,0.8535 0,1.2618 -5.29009,16.3215 -20.79043,40.0317 -45.6564,64.6218 -28.00524,27.6945 -64.80355,55.9739 -99.940005,80.8448 l 44.783985,56.51028 c 36.73852,-25.9951 76.31749,-55.94288 109.24576,-88.50568 17.11489,-16.195 31.99656,-34.3173 45.33088,-53.6703 2.3009,-3.0133 8.09257,-3.2342 11.11452,-0.3181 8.13849,10.1784 16.9819,19.7571 25.94937,29.2033 32.86757,34.1357 72.40613,65.7072 109.14884,93.01208 l 46.33494,-55.51888 c -35.14014,-26.1223 -72.05831,-55.832 -100.13388,-84.9908 -25.41434,-26.3949 -41.40038,-51.9511 -46.52881,-70.0295 -0.11502,-0.3807 -0.11502,-0.7909 0,-1.1716 18.19035,-57.493 54.17591,-105.1979 142.20368,-166.4665 l -44.39624,-56.8708 z"
         id="path4795-9-9"
         sodipodi:nodetypes="cccccccsccccccccscccc"
         inkscape:connector-curvature="0" />
      <path
         d="m 104.9375,830.84375 c -17.199483,11.21891 -26.674908,24.42801 -26.3125,38.375 0.362493,13.95028 10.438439,26.89588 28.3125,37.96875 L 111.15625,900 C 94.580294,889.72509 87.133192,878.90462 86.875,868.96875 c -0.258114,-9.93326 6.59958,-20.67508 22.46875,-31.03125 l -4.40625,-7.09375 z"
         id="path5376-3"
         style="font-size:medium;font-style:normal;font-variant:normal;font-weight:normal;font-stretch:normal;text-indent:0;text-align:start;text-decoration:none;line-height:normal;letter-spacing:normal;word-spacing:normal;text-transform:none;direction:ltr;block-progression:tb;writing-mode:lr-tb;text-anchor:start;opacity:0.8;color:#000000;fill:#ffffff;fill-opacity:0.98173517;stroke:none;stroke-width:0.03961837;marker:none;visibility:visible;display:inline;overflow:visible;enable-background:accumulate;font-family:Bitstream Vera Sans;-inkscape-font-specification:Bitstream Vera Sans"
         inkscape:original="M 105.03125 830.375 C 87.59254 841.66991 77.91266 855.03386 78.28125 869.21875 C 78.64984 883.40365 88.91942 896.511 107.03125 907.65625 L 111.625 899.90625 C 94.88937 889.60783 87.47426 878.80142 87.21875 868.96875 C 86.96325 859.13608 93.78357 848.41305 109.8125 838.03125 L 105.03125 830.375 z "
         inkscape:radius="-0.33790958"
         sodipodi:type="inkscape:offset"
         transform="matrix(3.097912,0,0,2.9397797,128.85987,-1756.0632)" />
      <path
         d="m 105.1875,852.21875 c -5.12659,5.62123 -8.65053,10.55165 -8.90625,16.21875 -0.255774,5.66852 3.010711,11.05266 9.625,16.875 l 3.34375,-3.90625 c -6.0801,-5.3531 -8.03253,-9.19645 -7.875,-12.6875 0.15772,-3.49366 2.69884,-7.6324 7.5625,-12.96875 l -3.75,-3.53125 z"
         id="path5400-9"
         style="font-size:medium;font-style:normal;font-variant:normal;font-weight:normal;font-stretch:normal;text-indent:0;text-align:start;text-decoration:none;line-height:normal;letter-spacing:normal;word-spacing:normal;text-transform:none;direction:ltr;block-progression:tb;writing-mode:lr-tb;text-anchor:start;opacity:0.8;color:#000000;fill:#ffffff;fill-opacity:0.98173517;stroke:none;stroke-width:0.03961837;marker:none;visibility:visible;display:inline;overflow:visible;enable-background:accumulate;font-family:Bitstream Vera Sans;-inkscape-font-specification:Bitstream Vera Sans"
         inkscape:original="M 105.1875 852.09375 C 100.02447 857.74653 96.44569 862.71567 96.1875 868.4375 C 95.92932 874.15933 99.238035 879.58473 105.90625 885.4375 L 109.375 881.40625 C 103.24713 876.02776 101.31212 872.18996 101.46875 868.71875 C 101.62546 865.24754 104.16308 861.11416 109.0625 855.75 L 105.1875 852.09375 z "
         inkscape:radius="-0.082746126"
         sodipodi:type="inkscape:offset"
         transform="matrix(3.097912,0,0,2.9397797,144.95363,-1762.1241)" />
      <path
         transform="matrix(-3.1019207,0,0,2.8840964,376.20544,-1685.8836)"
         d="M 105,830.53125 C 87.638046,841.80245 78.008321,855.10739 78.375,869.21875 78.741707,883.33118 88.964455,896.37737 107,907.5 l 4.46875,-7.5625 C 94.78673,889.64767 87.381276,878.83088 87.125,868.96875 86.868753,859.10735 93.680647,848.37253 109.65625,838 L 105,830.53125 z"
         id="path5376-6-0"
         style="font-size:medium;font-style:normal;font-variant:normal;font-weight:normal;font-stretch:normal;text-indent:0;text-align:start;text-decoration:none;line-height:normal;letter-spacing:normal;word-spacing:normal;text-transform:none;direction:ltr;block-progression:tb;writing-mode:lr-tb;text-anchor:start;opacity:0.8;color:#000000;fill:#ffffff;fill-opacity:0.98173517;stroke:none;stroke-width:0.03997314;marker:none;visibility:visible;display:inline;overflow:visible;enable-background:accumulate;font-family:Bitstream Vera Sans;-inkscape-font-specification:Bitstream Vera Sans"
         inkscape:original="M 105.03125 830.375 C 87.59254 841.66991 77.91266 855.03386 78.28125 869.21875 C 78.64984 883.40365 88.91942 896.511 107.03125 907.65625 L 111.625 899.90625 C 94.88937 889.60783 87.47426 878.80142 87.21875 868.96875 C 86.96325 859.13608 93.78357 848.41305 109.8125 838.03125 L 105.03125 830.375 z "
         inkscape:radius="-0.10098393"
         sodipodi:type="inkscape:offset" />
      <path
         transform="matrix(-3.1019207,0,0,2.8840964,345.96177,-1689.9243)"
         d="m 105.1875,852.21875 c -5.12586,5.62043 -8.650827,10.55825 -8.90625,16.21875 -0.255439,5.66109 3.013551,11.05478 9.625,16.875 l 3.34375,-3.90625 c -6.08226,-5.35487 -8.03284,-9.1895 -7.875,-12.6875 0.15807,-3.50125 2.69794,-7.63141 7.5625,-12.96875 l -3.75,-3.53125 z"
         id="path5400-5-8"
         style="font-size:medium;font-style:normal;font-variant:normal;font-weight:normal;font-stretch:normal;text-indent:0;text-align:start;text-decoration:none;line-height:normal;letter-spacing:normal;word-spacing:normal;text-transform:none;direction:ltr;block-progression:tb;writing-mode:lr-tb;text-anchor:start;opacity:0.8;color:#000000;fill:#ffffff;fill-opacity:0.98173517;stroke:none;stroke-width:0.03997314;marker:none;visibility:visible;display:inline;overflow:visible;enable-background:accumulate;font-family:Bitstream Vera Sans;-inkscape-font-specification:Bitstream Vera Sans"
         inkscape:original="M 105.1875 852.09375 C 100.02447 857.74653 96.44569 862.71567 96.1875 868.4375 C 95.92932 874.15933 99.238035 879.58473 105.90625 885.4375 L 109.375 881.40625 C 103.24713 876.02776 101.31212 872.18996 101.46875 868.71875 C 101.62546 865.24754 104.16308 861.11416 109.0625 855.75 L 105.1875 852.09375 z "
         inkscape:radius="-0.099750273"
         sodipodi:type="inkscape:offset" />
    </g>
    <path
       style="fill:#dbdbdb;fill-opacity:1;fill-rule:nonzero;stroke:none;stroke-width:25;marker-mid:none;display:none;filter:url(#filter3985);enable-background:new"
       id="path3095"
       transform="matrix(0.08878086,0,0,0.08881664,-105.02455,1013.0793)"
       inkscape:connector-curvature="0"
       d="m 324.38759,135.62452 c -45.38059,3.2742 -125.14974,80.45343 -113.93317,80.06244 92.77726,-3.23392 150.72813,2.10512 223.11793,24.5811 C 444.29098,243.59605 422.00588,143.15814 324.38759,135.62452 Z" />
    <path
       style="fill:#dbdbdb;fill-opacity:1;fill-rule:nonzero;stroke:#000000;stroke-width:0;stroke-linecap:butt;stroke-linejoin:round;stroke-miterlimit:4;stroke-opacity:1;stroke-dasharray:none;stroke-dashoffset:1;marker-mid:none;display:none;filter:url(#filter3989);enable-background:new"
       id="path3097"
       transform="matrix(0.08878086,0,0,0.08881664,-105.02455,1013.0793)"
       inkscape:connector-curvature="0"
       d="M 186.37822,72.150309 C 160.57833,109.62675 157.33905,256.29261 163.99898,247.2588 218.88951,172.80293 350.45207,80.852043 428.9148,43.825512 525.90264,-1.943011 243.81268,3.6410539 186.37822,72.150309 Z" />
    <path
       style="fill:#dbdbdb;fill-opacity:1;fill-rule:nonzero;stroke:none;stroke-width:25;marker-mid:none;display:none;filter:url(#filter3993);enable-background:new"
       id="path3099"
       transform="matrix(0.08878086,0,0,0.08881664,-105.02455,1013.0793)"
       inkscape:connector-curvature="0"
       d="M 69.5521,231.67976 C 84.41923,274.68075 179.56014,331.84683 176.28962,321.11052 149.23774,232.30583 139.45061,174.93843 142.49683,99.2009 142.94789,87.986573 51.65499,135.42084 69.5521,231.67976 Z" />
    <path
       style="fill:#dbdbdb;fill-opacity:1;fill-rule:nonzero;stroke:none;stroke-width:25;marker-mid:none;display:none;filter:url(#filter3997);enable-background:new"
       id="path3101"
       transform="matrix(0.08878086,0,0,0.08881664,-105.02455,1013.0793)"
       inkscape:connector-curvature="0"
       d="m 81.97729,372.8505 c 42.13653,17.1648 147.83895,-16.69886 137.60948,-21.31646 -84.61255,-38.1942 -134.204,-68.649 -189.1504,-120.86343 C 22.30057,222.93932 -2.20627,322.85836 81.97729,372.8505 Z" />
    <path
       style="fill:#dbdbdb;fill-opacity:1;fill-rule:nonzero;stroke:none;stroke-width:25;marker-mid:none;display:none;filter:url(#filter4001);enable-background:new"
       id="path3103"
       transform="matrix(0.08878086,0,0,0.08881664,-105.02455,1013.0793)"
       inkscape:connector-curvature="0"
       d="M 203.88504,453.62703 C 244.17168,432.48219 286.43063,329.84726 276.30588,334.69014 192.55947,374.74786 137.30727,393.02355 61.96881,401.3645 50.8136,402.59953 111.39638,485.75077 203.88504,453.62703 Z" />
    <path
       style="fill:#dbdbdb;fill-opacity:1;fill-rule:nonzero;stroke:none;stroke-width:25;marker-mid:none;display:none;filter:url(#filter4005);enable-background:new"
       id="path3105"
       transform="matrix(0.08878086,0,0,0.08881664,-105.02455,1013.0793)"
       inkscape:connector-curvature="0"
       d="M 345.96158,410.03296 C 355.80284,365.6115 304.66105,267.10125 301.82779,277.96113 278.39266,367.78804 256.70286,421.79138 214.46246,484.72945 208.208,494.04859 310.82416,501.41921 345.96158,410.03296 Z" />
    <path
       style="fill:#dbdbdb;fill-opacity:1;fill-rule:nonzero;stroke:none;stroke-width:25;marker-mid:none;display:none;filter:url(#filter4009);enable-background:new"
       id="path3107"
       transform="matrix(0.08878086,0,0,0.08881664,-105.02455,1013.0793)"
       inkscape:connector-curvature="0"
       d="M 401.89383,270.24178 C 374.5208,233.89852 266.4087,208.76833 272.82303,217.97814 325.87887,294.15661 352.83718,345.73234 373.23475,418.73503 376.25499,429.54441 448.53158,356.32899 401.89383,270.24178 Z" />
  </g>
</svg>
