/* XPM */
static char * close_active_xpm[] = {
"45 31 5 1",
" 	c None",
".	c #6C99C0",
"+	c #C75050",
"@	c #FFFFFF",
"#	c #8DC8FB",
".............................................",
"+++++++++++++++++++++++++++++++++++++++++++++",
"+++++++++++++++++++++++++++++++++++++++++++++",
"+++++++++++++++++++++++++++++++++++++++++++++",
"+++++++++++++++++++++++++++++++++++++++++++++",
"+++++++++++++++++++++++++++++++++++++++++++++",
"+++++++++++++++++++++++++++++++++++++++++++++",
"+++++++++++++++++++++++++++++++++++++++++++++",
"+++++++++++++++++++@@++++@@++++++++++++++++++",
"++++++++++++++++++++@@++@@+++++++++++++++++++",
"+++++++++++++++++++++@@@@++++++++++++++++++++",
"++++++++++++++++++++++@@+++++++++++++++++++++",
"+++++++++++++++++++++@@@@++++++++++++++++++++",
"++++++++++++++++++++@@++@@+++++++++++++++++++",
"+++++++++++++++++++@@++++@@++++++++++++++++++",
"+++++++++++++++++++++++++++++++++++++++++++++",
"+++++++++++++++++++++++++++++++++++++++++++++",
"+++++++++++++++++++++++++++++++++++++++++++++",
"+++++++++++++++++++++++++++++++++++++++++++++",
"+++++++++++++++++++++++++++++++++++++++++++++",
"+++++++++++++++++++++++++++++++++++++++++++++",
"#############################################",
"#############################################",
"#############################################",
"#############################################",
"#############################################",
"#############################################",
"#############################################",
"#############################################",
"#############################################",
"#############################################"};
