/* XPM */
static char * top_left_active_xpm[] = {
"8 36 7 1",
" 	c #6C99C0",
".	c #8DC8FB",
"+	c #8AC3F5",
"@	c #86BEEE",
"#	c #82B9E8",
"$	c #7FB4E2",
"%	c #7BAFDC",
"        ",
" .......",
" .......",
" .......",
" .......",
" .......",
" .......",
" .......",
" .......",
" .......",
" .......",
" .......",
" .......",
" .......",
" .......",
" .......",
" .......",
" .......",
" .......",
" .......",
" .......",
" .......",
" .......",
" .......",
" .......",
" .......",
" .......",
" .......",
" .......",
" .......",
" .......",
" ......+",
" ......@",
" ......#",
" ......$",
" ......%"};
