<?xml version="1.0" encoding="UTF-8" standalone="no"?>
<!-- Created with Inkscape (http://www.inkscape.org/) -->

<svg
   xmlns:dc="http://purl.org/dc/elements/1.1/"
   xmlns:cc="http://creativecommons.org/ns#"
   xmlns:rdf="http://www.w3.org/1999/02/22-rdf-syntax-ns#"
   xmlns:svg="http://www.w3.org/2000/svg"
   xmlns="http://www.w3.org/2000/svg"
   xmlns:xlink="http://www.w3.org/1999/xlink"
   xmlns:sodipodi="http://sodipodi.sourceforge.net/DTD/sodipodi-0.dtd"
   xmlns:inkscape="http://www.inkscape.org/namespaces/inkscape"
   width="48"
   height="48"
   id="svg2"
   version="1.1"
   inkscape:version="0.48+devel r11705"
   sodipodi:docname="mail-folder-sent.svg">
  <defs
     id="defs4">
    <linearGradient
       inkscape:collect="always"
       xlink:href="#linearGradient3618"
       id="linearGradient3731"
       gradientUnits="userSpaceOnUse"
       gradientTransform="matrix(0.76078938,0.2038529,-0.2038529,0.76078938,28.364641,-374.93099)"
       x1="6.4285712"
       y1="1027.8086"
       x2="41.607143"
       y2="1027.8086" />
    <linearGradient
       id="linearGradient3618">
      <stop
         id="stop3620"
         offset="0"
         style="stop-color:#7cc430;stop-opacity:1;" />
      <stop
         id="stop3622-3"
         offset="1"
         style="stop-color:#bada59;stop-opacity:1;" />
    </linearGradient>
    <linearGradient
       inkscape:collect="always"
       xlink:href="#linearGradient3754"
       id="linearGradient3770"
       gradientUnits="userSpaceOnUse"
       x1="23.673292"
       y1="1046.1796"
       x2="23.673292"
       y2="1004.5619"
       gradientTransform="translate(-0.0416311,0.21835584)" />
    <linearGradient
       id="linearGradient3754">
      <stop
         style="stop-color:#b1731b;stop-opacity:1;"
         offset="0"
         id="stop3756" />
      <stop
         style="stop-color:#e6ac59;stop-opacity:1;"
         offset="1"
         id="stop3758" />
    </linearGradient>
    <linearGradient
       inkscape:collect="always"
       xlink:href="#linearGradient3754"
       id="linearGradient3767"
       gradientUnits="userSpaceOnUse"
       x1="23.673292"
       y1="1046.1796"
       x2="23.673292"
       y2="1004.5619"
       gradientTransform="translate(-0.0416311,0.21835584)" />
    <linearGradient
       id="linearGradient3919">
      <stop
         style="stop-color:#b1731b;stop-opacity:1;"
         offset="0"
         id="stop3921" />
      <stop
         style="stop-color:#e6ac59;stop-opacity:1;"
         offset="1"
         id="stop3923" />
    </linearGradient>
    <linearGradient
       y2="1004.5619"
       x2="23.673292"
       y1="1046.1796"
       x1="23.673292"
       gradientTransform="translate(-0.0416311,0.21835584)"
       gradientUnits="userSpaceOnUse"
       id="linearGradient3928"
       xlink:href="#linearGradient3754"
       inkscape:collect="always" />
    <linearGradient
       id="linearGradient3754-8">
      <stop
         style="stop-color:#b1731b;stop-opacity:1;"
         offset="0"
         id="stop3756-0" />
      <stop
         style="stop-color:#e6ac59;stop-opacity:1;"
         offset="1"
         id="stop3758-7" />
    </linearGradient>
    <linearGradient
       inkscape:collect="always"
       xlink:href="#linearGradient3754-8"
       id="linearGradient3799"
       x1="26.961445"
       y1="42.171211"
       x2="26.961445"
       y2="0.56316221"
       gradientUnits="userSpaceOnUse"
       gradientTransform="translate(0,1003.6678)" />
    <linearGradient
       id="linearGradient4206">
      <stop
         style="stop-color:#b1731b;stop-opacity:1;"
         offset="0"
         id="stop4208" />
      <stop
         style="stop-color:#e6ac59;stop-opacity:1;"
         offset="1"
         id="stop4210" />
    </linearGradient>
    <linearGradient
       inkscape:collect="always"
       xlink:href="#linearGradient3754-5"
       id="linearGradient7491"
       gradientUnits="userSpaceOnUse"
       gradientTransform="matrix(0.24983345,0,0,0.32251236,-56.696453,951.71879)"
       x1="328.29959"
       y1="257.2666"
       x2="328.29959"
       y2="152.87801" />
    <linearGradient
       id="linearGradient3754-5">
      <stop
         style="stop-color:#b1731b;stop-opacity:1;"
         offset="0"
         id="stop3756-2" />
      <stop
         style="stop-color:#e6ac59;stop-opacity:1;"
         offset="1"
         id="stop3758-5" />
    </linearGradient>
    <linearGradient
       y2="187.30515"
       x2="328.29959"
       y1="286.21814"
       x1="328.29959"
       gradientTransform="matrix(-0.22802514,0,0,0.28771123,27.552866,965.05683)"
       gradientUnits="userSpaceOnUse"
       id="linearGradient1848"
       xlink:href="#linearGradient3754-5"
       inkscape:collect="always" />
    <linearGradient
       id="linearGradient885">
      <stop
         style="stop-color:#b1731b;stop-opacity:1;"
         offset="0"
         id="stop887" />
      <stop
         style="stop-color:#e6ac59;stop-opacity:1;"
         offset="1"
         id="stop889" />
    </linearGradient>
    <linearGradient
       y2="187.30515"
       x2="328.29959"
       y1="286.21814"
       x1="328.29959"
       gradientTransform="matrix(-0.22802514,0,0,0.28771123,97.758463,965.05685)"
       gradientUnits="userSpaceOnUse"
       id="linearGradient896"
       xlink:href="#linearGradient3754-5"
       inkscape:collect="always" />
    <linearGradient
       y2="1027.8086"
       x2="41.607143"
       y1="1027.8086"
       x1="6.4285712"
       gradientTransform="matrix(0.76078938,0.2038529,-0.2038529,0.76078938,28.364641,-374.93099)"
       gradientUnits="userSpaceOnUse"
       id="linearGradient3731-6"
       xlink:href="#linearGradient3618-6"
       inkscape:collect="always" />
    <linearGradient
       id="linearGradient3618-6">
      <stop
         style="stop-color:#7cc430;stop-opacity:1;"
         offset="0"
         id="stop3620-1" />
      <stop
         style="stop-color:#bada59;stop-opacity:1;"
         offset="1"
         id="stop3622-3-9" />
    </linearGradient>
    <linearGradient
       gradientTransform="translate(-0.0416311,0.21835584)"
       y2="1004.5619"
       x2="23.673292"
       y1="1046.1796"
       x1="23.673292"
       gradientUnits="userSpaceOnUse"
       id="linearGradient3770-1"
       xlink:href="#linearGradient3754-55"
       inkscape:collect="always" />
    <linearGradient
       id="linearGradient3754-55">
      <stop
         id="stop3756-1"
         offset="0"
         style="stop-color:#b1731b;stop-opacity:1;" />
      <stop
         id="stop3758-46"
         offset="1"
         style="stop-color:#e6ac59;stop-opacity:1;" />
    </linearGradient>
    <linearGradient
       gradientTransform="translate(-0.0416311,0.21835584)"
       y2="1004.5619"
       x2="23.673292"
       y1="1046.1796"
       x1="23.673292"
       gradientUnits="userSpaceOnUse"
       id="linearGradient3767-5"
       xlink:href="#linearGradient3754-55"
       inkscape:collect="always" />
    <linearGradient
       id="linearGradient3919-3">
      <stop
         id="stop3921-6"
         offset="0"
         style="stop-color:#b1731b;stop-opacity:1;" />
      <stop
         id="stop3923-7"
         offset="1"
         style="stop-color:#e6ac59;stop-opacity:1;" />
    </linearGradient>
    <linearGradient
       inkscape:collect="always"
       xlink:href="#linearGradient3754-55"
       id="linearGradient3928-4"
       gradientUnits="userSpaceOnUse"
       gradientTransform="translate(-0.0416311,0.21835584)"
       x1="23.673292"
       y1="1046.1796"
       x2="23.673292"
       y2="1004.5619" />
    <linearGradient
       id="linearGradient3754-8-0">
      <stop
         id="stop3756-0-3"
         offset="0"
         style="stop-color:#b1731b;stop-opacity:1;" />
      <stop
         id="stop3758-7-5"
         offset="1"
         style="stop-color:#e6ac59;stop-opacity:1;" />
    </linearGradient>
    <linearGradient
       gradientTransform="translate(0,1003.6678)"
       gradientUnits="userSpaceOnUse"
       y2="0.56316221"
       x2="26.961445"
       y1="42.171211"
       x1="26.961445"
       id="linearGradient3799-0"
       xlink:href="#linearGradient3754-8-0"
       inkscape:collect="always" />
    <linearGradient
       id="linearGradient4206-8">
      <stop
         id="stop4208-6"
         offset="0"
         style="stop-color:#b1731b;stop-opacity:1;" />
      <stop
         id="stop4210-8"
         offset="1"
         style="stop-color:#e6ac59;stop-opacity:1;" />
    </linearGradient>
    <linearGradient
       y2="1004.5619"
       x2="23.673292"
       y1="1046.1796"
       x1="23.673292"
       gradientTransform="matrix(1,0,0,1.2787456,-0.0416311,-1290.7344)"
       gradientUnits="userSpaceOnUse"
       id="linearGradient48"
       xlink:href="#linearGradient3754-89"
       inkscape:collect="always" />
    <linearGradient
       id="linearGradient3754-89">
      <stop
         id="stop3756-5"
         offset="0"
         style="stop-color:#b1731b;stop-opacity:1;" />
      <stop
         id="stop3758-9"
         offset="1"
         style="stop-color:#e6ac59;stop-opacity:1;" />
    </linearGradient>
    <linearGradient
       inkscape:collect="always"
       xlink:href="#linearGradient3754-5-4"
       id="linearGradient2540"
       gradientUnits="userSpaceOnUse"
       gradientTransform="matrix(1.0000338,0,0,0.98911462,-52.897336,12.347365)"
       x1="25.385807"
       y1="1051.0098"
       x2="25.385807"
       y2="1014.9384" />
    <linearGradient
       id="linearGradient3754-5-4">
      <stop
         id="stop3756-3"
         offset="0"
         style="stop-color:#b1731b;stop-opacity:1;" />
      <stop
         id="stop3758-4"
         offset="1"
         style="stop-color:#e6ac59;stop-opacity:1;" />
    </linearGradient>
  </defs>
  <sodipodi:namedview
     id="base"
     pagecolor="#ffffff"
     bordercolor="#666666"
     borderopacity="1.0"
     inkscape:pageopacity="0.0"
     inkscape:pageshadow="2"
     inkscape:zoom="3.959798"
     inkscape:cx="5.5040743"
     inkscape:cy="35.97123"
     inkscape:document-units="px"
     inkscape:current-layer="layer1"
     showgrid="false"
     inkscape:window-width="1366"
     inkscape:window-height="746"
     inkscape:window-x="0"
     inkscape:window-y="0"
     inkscape:window-maximized="1" />
  <metadata
     id="metadata7">
    <rdf:RDF>
      <cc:Work
         rdf:about="">
        <dc:format>image/svg+xml</dc:format>
        <dc:type
           rdf:resource="http://purl.org/dc/dcmitype/StillImage" />
        <dc:title />
      </cc:Work>
    </rdf:RDF>
  </metadata>
  <g
     inkscape:label="Capa 1"
     inkscape:groupmode="layer"
     id="layer1"
     transform="translate(0,-1004.3622)">
    <path
       sodipodi:nodetypes="cccccccc"
       inkscape:connector-curvature="0"
       id="path7481"
       d="m 1.096266,1008.3671 10.897216,0 6.126319,0 0.02895,3.7728 28.878846,0 0,32.5393 L 1.096266,1044.6792 Z"
       style="fill:url(#linearGradient7491);fill-opacity:1;stroke:#cccccc;stroke-width:0.1135425;stroke-linecap:square;stroke-linejoin:round;stroke-miterlimit:4;stroke-opacity:1" />
    <path
       sodipodi:nodetypes="cccccc"
       inkscape:connector-curvature="0"
       id="path7485"
       d="m 3.226621,1013.0961 c 7.389566,0.1269 15.089572,0.093 22.173688,0.093 l 19.496912,0 0,29.0063 L 3.226621,1042.1956 Z"
       style="opacity:0.14200003;fill:#000000;fill-opacity:1;stroke:#cccccc;stroke-width:0.10210823;stroke-linecap:square;stroke-linejoin:round;stroke-miterlimit:4;stroke-opacity:1" />
    <path
       style="fill:#ffffff;fill-opacity:1;stroke:none"
       d="m 4.403935,1014.0939 c 6.972012,0.1226 14.236928,0.09 20.920754,0.09 l 18.395226,0 0,28.0142 L 4.403935,1042.1982 Z"
       id="path7487"
       inkscape:connector-curvature="0"
       sodipodi:nodetypes="cccccc" />
    <path
       inkscape:connector-curvature="0"
       style="fill:url(#linearGradient896);fill-opacity:1;stroke:#cccccc;stroke-width:0.1024542;stroke-linecap:square;stroke-linejoin:round;stroke-miterlimit:4;stroke-opacity:1"
       d="m 0.966858,1015.5853 0,32.7775 45.908058,0 0,-24.5491 -8.228437,-8.2284 -37.543452,0 L 0.966858,1015.5853 Z"
       id="path7489" />
    <rect
       style="fill:none;stroke:none"
       id="rect2989"
       width="48"
       height="48"
       x="0"
       y="1004.3622" />
    <path
       inkscape:connector-curvature="0"
       style="fill:#ffffff;fill-opacity:1;stroke:none"
       d="m 32.842474,1026.0559 -17.843174,0.066 8.866581,8.9326 L 32.842474,1026.0559 z m 0.594038,0 -9.614631,9.7906 -9.416619,-9.7029 0,11.7486 19.03125,0 L 33.436512,1026.0559 Z"
       id="rect26795" />
    <g
       id="layer1-5"
       inkscape:label="Capa 1"
       transform="matrix(0.3591364,0,0,0.3591364,31.021741,672.62003)">
      <g
         transform="matrix(0.70710678,-0.70710678,0.70710678,0.70710678,-720.30922,318.33661)"
         id="g824">
        <path
           inkscape:connector-curvature="0"
           style="fill:#ffffff;fill-opacity:1;fill-rule:evenodd;stroke:none"
           d="m 8.34375,11.21875 0,6.40625 0,15.96875 15.03125,0 19.96875,0 0,-15.96875 -19.96875,0 0,-6.40625 L 8.34375,11.21875 Z"
           transform="translate(0,1004.3622)"
           id="rect820" />
        <path
           inkscape:connector-curvature="0"
           style="fill:#aad400;fill-opacity:1;fill-rule:evenodd;stroke:none"
           d="m 11.3125,14.21875 0,6.65625 0,9.71875 9.75,0 18.8125,0 0,-9.71875 -18.8125,0 0,-6.65625 L 11.3125,14.21875 Z"
           transform="translate(0,1004.3622)"
           id="rect815" />
      </g>
    </g>
  </g>
</svg>
