<?xml version="1.0" encoding="UTF-8" standalone="no"?>
<!-- Created with Inkscape (http://www.inkscape.org/) -->

<svg
   xmlns:dc="http://purl.org/dc/elements/1.1/"
   xmlns:cc="http://creativecommons.org/ns#"
   xmlns:rdf="http://www.w3.org/1999/02/22-rdf-syntax-ns#"
   xmlns:svg="http://www.w3.org/2000/svg"
   xmlns="http://www.w3.org/2000/svg"
   xmlns:xlink="http://www.w3.org/1999/xlink"
   xmlns:sodipodi="http://sodipodi.sourceforge.net/DTD/sodipodi-0.dtd"
   xmlns:inkscape="http://www.inkscape.org/namespaces/inkscape"
   width="48"
   height="48"
   id="svg2"
   version="1.1"
   inkscape:version="0.48+devel r11704"
   sodipodi:docname="folder.svg">
  <defs
     id="defs4">
    <linearGradient
       id="linearGradient3754">
      <stop
         style="stop-color:#b1731b;stop-opacity:1;"
         offset="0"
         id="stop3756" />
      <stop
         style="stop-color:#e6ac59;stop-opacity:1;"
         offset="1"
         id="stop3758" />
    </linearGradient>
    <linearGradient
       inkscape:collect="always"
       xlink:href="#linearGradient3754"
       id="linearGradient3760"
       x1="23.673292"
       y1="1046.1796"
       x2="23.673292"
       y2="1004.5619"
       gradientUnits="userSpaceOnUse" />
    <linearGradient
       inkscape:collect="always"
       xlink:href="#linearGradient3754"
       id="linearGradient3762"
       gradientUnits="userSpaceOnUse"
       x1="23.673292"
       y1="1046.1796"
       x2="23.673292"
       y2="1004.5619" />
    <linearGradient
       inkscape:collect="always"
       xlink:href="#linearGradient3754"
       id="linearGradient3764"
       gradientUnits="userSpaceOnUse"
       x1="23.673292"
       y1="1046.1796"
       x2="23.673292"
       y2="1004.5619" />
    <linearGradient
       inkscape:collect="always"
       xlink:href="#linearGradient3754"
       id="linearGradient3767"
       gradientUnits="userSpaceOnUse"
       x1="23.673292"
       y1="1046.1796"
       x2="23.673292"
       y2="1004.5619"
       gradientTransform="translate(-0.0416311,0.21835584)" />
    <linearGradient
       inkscape:collect="always"
       xlink:href="#linearGradient3754"
       id="linearGradient3770"
       gradientUnits="userSpaceOnUse"
       x1="23.673292"
       y1="1046.1796"
       x2="23.673292"
       y2="1004.5619"
       gradientTransform="translate(-0.0416311,-1004.1438)" />
    <linearGradient
       inkscape:collect="always"
       xlink:href="#linearGradient3754"
       id="linearGradient2997"
       gradientUnits="userSpaceOnUse"
       gradientTransform="translate(-0.0416311,-0.01788447)"
       x1="23.673292"
       y1="1046.1796"
       x2="23.673292"
       y2="1004.5619" />
    <linearGradient
       inkscape:collect="always"
       xlink:href="#linearGradient3754"
       id="linearGradient3003"
       gradientUnits="userSpaceOnUse"
       gradientTransform="translate(-0.0416311,-0.01788447)"
       x1="23.673292"
       y1="1046.1796"
       x2="23.673292"
       y2="1004.5619" />
    <linearGradient
       inkscape:collect="always"
       xlink:href="#linearGradient3754"
       id="linearGradient3783"
       x1="35.915424"
       y1="1046.2479"
       x2="35.915424"
       y2="1004.7309"
       gradientUnits="userSpaceOnUse"
       gradientTransform="matrix(1.0310077,0,0,0.84285772,-1.4366704,159.47492)" />
    <linearGradient
       inkscape:collect="always"
       xlink:href="#linearGradient3754"
       id="linearGradient3788"
       gradientUnits="userSpaceOnUse"
       gradientTransform="matrix(1.0310077,0,0,0.84285772,-1.4366704,-844.88728)"
       x1="35.915424"
       y1="1046.2479"
       x2="35.915424"
       y2="1004.7309" />
    <linearGradient
       inkscape:collect="always"
       xlink:href="#linearGradient3754-3"
       id="linearGradient7491"
       gradientUnits="userSpaceOnUse"
       gradientTransform="matrix(0.24983345,0,0,0.32251236,-126.90205,951.71877)"
       x1="328.29959"
       y1="257.2666"
       x2="328.29959"
       y2="152.87801" />
    <linearGradient
       id="linearGradient3754-3">
      <stop
         style="stop-color:#b1731b;stop-opacity:1;"
         offset="0"
         id="stop3756-3" />
      <stop
         style="stop-color:#e6ac59;stop-opacity:1;"
         offset="1"
         id="stop3758-1" />
    </linearGradient>
    <linearGradient
       y2="187.30515"
       x2="328.29959"
       y1="286.21814"
       x1="328.29959"
       gradientTransform="matrix(-0.22802514,0,0,0.28771123,27.552866,965.05683)"
       gradientUnits="userSpaceOnUse"
       id="linearGradient1848"
       xlink:href="#linearGradient3754-3"
       inkscape:collect="always" />
    <linearGradient
       id="linearGradient885">
      <stop
         style="stop-color:#b1731b;stop-opacity:1;"
         offset="0"
         id="stop887" />
      <stop
         style="stop-color:#e6ac59;stop-opacity:1;"
         offset="1"
         id="stop889" />
    </linearGradient>
    <linearGradient
       y2="187.30515"
       x2="328.29959"
       y1="286.21814"
       x1="328.29959"
       gradientTransform="matrix(-0.22802514,0,0,0.28771123,27.552866,965.05683)"
       gradientUnits="userSpaceOnUse"
       id="linearGradient896"
       xlink:href="#linearGradient3754-3"
       inkscape:collect="always" />
  </defs>
  <sodipodi:namedview
     id="base"
     pagecolor="#ffffff"
     bordercolor="#666666"
     borderopacity="1.0"
     inkscape:pageopacity="0.0"
     inkscape:pageshadow="2"
     inkscape:zoom="2.8"
     inkscape:cx="18.126998"
     inkscape:cy="35.494391"
     inkscape:document-units="px"
     inkscape:current-layer="layer1"
     showgrid="false"
     inkscape:window-width="813"
     inkscape:window-height="442"
     inkscape:window-x="387"
     inkscape:window-y="204"
     inkscape:window-maximized="0" />
  <metadata
     id="metadata7">
    <rdf:RDF>
      <cc:Work
         rdf:about="">
        <dc:format>image/svg+xml</dc:format>
        <dc:type
           rdf:resource="http://purl.org/dc/dcmitype/StillImage" />
        <dc:title />
      </cc:Work>
    </rdf:RDF>
  </metadata>
  <g
     inkscape:label="Capa 1"
     inkscape:groupmode="layer"
     id="layer1"
     transform="translate(0,-1004.3622)">
    <g
       id="g864"
       transform="translate(70.205597,2.2074193e-5)">
      <path
         style="fill:url(#linearGradient7491);fill-opacity:1;stroke:#cccccc;stroke-width:0.1135425;stroke-linecap:square;stroke-linejoin:round;stroke-miterlimit:4;stroke-opacity:1"
         d="m -69.109331,1008.3671 10.897216,0 6.126319,0 0.02895,3.7728 28.878846,0 0,32.5393 L -69.109331,1044.6792 Z"
         id="path7481"
         inkscape:connector-curvature="0"
         sodipodi:nodetypes="cccccccc" />
      <path
         style="opacity:0.14200003;fill:#000000;fill-opacity:1;stroke:#cccccc;stroke-width:0.10210823;stroke-linecap:square;stroke-linejoin:round;stroke-miterlimit:4;stroke-opacity:1"
         d="m -66.978976,1013.0961 c 7.389566,0.1269 15.089572,0.093 22.173688,0.093 l 19.496912,0 0,29.0063 L -66.978976,1042.1956 Z"
         id="path7485"
         inkscape:connector-curvature="0"
         sodipodi:nodetypes="cccccc" />
      <path
         sodipodi:nodetypes="cccccc"
         inkscape:connector-curvature="0"
         id="path7487"
         d="m -65.801662,1014.0939 c 6.972012,0.1226 14.236928,0.09 20.920754,0.09 l 18.395226,0 0,28.0142 L -65.801662,1042.1982 Z"
         style="fill:#ffffff;fill-opacity:1;stroke:none" />
      <path
         id="path7489"
         d="m -69.238739,1015.5853 0,32.7775 45.908058,0 0,-24.5491 -8.228437,-8.2284 -37.543452,0 L -69.238739,1015.5853 Z"
         style="fill:url(#linearGradient896);fill-opacity:1;stroke:#cccccc;stroke-width:0.1024542;stroke-linecap:square;stroke-linejoin:round;stroke-miterlimit:4;stroke-opacity:1"
         inkscape:connector-curvature="0" />
    </g>
  </g>
</svg>
