<?xml version="1.0" encoding="UTF-8" standalone="no"?>
<!-- Created with Inkscape (http://www.inkscape.org/) -->

<svg
   xmlns:dc="http://purl.org/dc/elements/1.1/"
   xmlns:cc="http://creativecommons.org/ns#"
   xmlns:rdf="http://www.w3.org/1999/02/22-rdf-syntax-ns#"
   xmlns:svg="http://www.w3.org/2000/svg"
   xmlns="http://www.w3.org/2000/svg"
   xmlns:xlink="http://www.w3.org/1999/xlink"
   xmlns:sodipodi="http://sodipodi.sourceforge.net/DTD/sodipodi-0.dtd"
   xmlns:inkscape="http://www.inkscape.org/namespaces/inkscape"
   width="48"
   height="48"
   id="svg2"
   version="1.1"
   inkscape:version="0.48+devel r11521"
   sodipodi:docname="applications-accessories.svg">
  <defs
     id="defs4">
    <linearGradient
       id="linearGradient1179"
       inkscape:collect="always">
      <stop
         id="stop1181"
         offset="0"
         style="stop-color:#a1a1a1;stop-opacity:1" />
      <stop
         id="stop1183"
         offset="1"
         style="stop-color:#b9b9b9;stop-opacity:1" />
    </linearGradient>
    <linearGradient
       id="linearGradient1108"
       inkscape:collect="always">
      <stop
         id="stop1110"
         offset="0"
         style="stop-color:#ababab;stop-opacity:1" />
      <stop
         id="stop1112"
         offset="1"
         style="stop-color:#c9c9c9;stop-opacity:1" />
    </linearGradient>
    <linearGradient
       id="linearGradient1102"
       inkscape:collect="always">
      <stop
         id="stop1104"
         offset="0"
         style="stop-color:#b9b9b9;stop-opacity:1" />
      <stop
         id="stop1106"
         offset="1"
         style="stop-color:#aaaaaa;stop-opacity:1" />
    </linearGradient>
    <linearGradient
       inkscape:collect="always"
       id="linearGradient1068">
      <stop
         style="stop-color:#b9b9b9;stop-opacity:1"
         offset="0"
         id="stop1070" />
      <stop
         style="stop-color:#dadada;stop-opacity:1"
         offset="1"
         id="stop1072" />
    </linearGradient>
    <linearGradient
       inkscape:collect="always"
       id="linearGradient1041">
      <stop
         style="stop-color:#e3e3d6;stop-opacity:1"
         offset="0"
         id="stop1043" />
      <stop
         style="stop-color:#ecece2;stop-opacity:1"
         offset="1"
         id="stop1045" />
    </linearGradient>
    <linearGradient
       id="linearGradient3795">
      <stop
         style="stop-color:#6891b8;stop-opacity:1;"
         offset="0"
         id="stop3797" />
      <stop
         style="stop-color:#304a97;stop-opacity:1;"
         offset="1"
         id="stop3799" />
    </linearGradient>
    <linearGradient
       id="linearGradient3698">
      <stop
         id="stop3700"
         offset="0"
         style="stop-color:#96d0e1;stop-opacity:1" />
      <stop
         style="stop-color:#89b7e1;stop-opacity:1"
         offset="0.67819428"
         id="stop3706" />
      <stop
         id="stop3702"
         offset="1"
         style="stop-color:#699dd3;stop-opacity:1" />
    </linearGradient>
    <linearGradient
       id="linearGradient3708">
      <stop
         id="stop3710"
         offset="0"
         style="stop-color:#658db6;stop-opacity:1" />
      <stop
         style="stop-color:#527fab;stop-opacity:1;"
         offset="0.76777935"
         id="stop3716" />
      <stop
         id="stop3712"
         offset="1"
         style="stop-color:#4071a0;stop-opacity:1" />
    </linearGradient>
    <linearGradient
       id="linearGradient3750">
      <stop
         style="stop-color:#d0e2f1;stop-opacity:1"
         offset="0"
         id="stop3752" />
      <stop
         id="stop3756"
         offset="0.85580856"
         style="stop-color:#cadef0;stop-opacity:1" />
      <stop
         style="stop-color:#95bee3;stop-opacity:1"
         offset="1"
         id="stop3754" />
    </linearGradient>
    <linearGradient
       id="linearGradient3803">
      <stop
         id="stop3805"
         offset="0"
         style="stop-color:#d7def0;stop-opacity:1;" />
      <stop
         style="stop-color:#ffffff;stop-opacity:1"
         offset="0.5"
         id="stop3811" />
      <stop
         id="stop3807"
         offset="1"
         style="stop-color:#d5def0;stop-opacity:1" />
    </linearGradient>
    <linearGradient
       inkscape:collect="always"
       xlink:href="#linearGradient3795"
       id="linearGradient3859"
       x1="26.192217"
       y1="1024.0002"
       x2="28.641211"
       y2="1024.0002"
       gradientUnits="userSpaceOnUse" />
    <linearGradient
       inkscape:collect="always"
       xlink:href="#linearGradient3795"
       id="linearGradient3867"
       gradientUnits="userSpaceOnUse"
       x1="26.192217"
       y1="1024.0002"
       x2="28.641211"
       y2="1024.0002" />
    <linearGradient
       inkscape:collect="always"
       xlink:href="#linearGradient3795"
       id="linearGradient3869"
       gradientUnits="userSpaceOnUse"
       x1="26.192217"
       y1="1024.0002"
       x2="28.641211"
       y2="1024.0002" />
    <linearGradient
       inkscape:collect="always"
       xlink:href="#linearGradient3795"
       id="linearGradient3871"
       gradientUnits="userSpaceOnUse"
       x1="26.192217"
       y1="1024.0002"
       x2="28.641211"
       y2="1024.0002" />
    <linearGradient
       inkscape:collect="always"
       xlink:href="#linearGradient3795"
       id="linearGradient3877"
       gradientUnits="userSpaceOnUse"
       x1="29.718235"
       y1="1027.8575"
       x2="22.811094"
       y2="1015.5485" />
    <linearGradient
       inkscape:collect="always"
       xlink:href="#linearGradient3795"
       id="linearGradient3879"
       gradientUnits="userSpaceOnUse"
       x1="17.196316"
       y1="1006.2238"
       x2="31.448042"
       y2="1030.9086" />
    <linearGradient
       inkscape:collect="always"
       xlink:href="#linearGradient3795"
       id="linearGradient3895"
       x1="21.973417"
       y1="34.43922"
       x2="42.475323"
       y2="24.798252"
       gradientUnits="userSpaceOnUse" />
    <linearGradient
       gradientUnits="userSpaceOnUse"
       y2="1005.3623"
       x2="25"
       y1="1050.3623"
       x1="25"
       id="linearGradient944"
       xlink:href="#linearGradient938"
       inkscape:collect="always" />
    <linearGradient
       id="linearGradient3795-8">
      <stop
         style="stop-color:#68b8d8;stop-opacity:1;"
         offset="0"
         id="stop3797-7" />
      <stop
         style="stop-color:#3097bd;stop-opacity:1;"
         offset="1"
         id="stop3799-1" />
    </linearGradient>
    <linearGradient
       id="linearGradient3698-2">
      <stop
         id="stop3700-6"
         offset="0"
         style="stop-color:#96d0e1;stop-opacity:1" />
      <stop
         style="stop-color:#89b7e1;stop-opacity:1"
         offset="0.67819428"
         id="stop3706-1" />
      <stop
         id="stop3702-6"
         offset="1"
         style="stop-color:#699dd3;stop-opacity:1" />
    </linearGradient>
    <linearGradient
       id="linearGradient3708-1">
      <stop
         id="stop3710-0"
         offset="0"
         style="stop-color:#69acef;stop-opacity:1" />
      <stop
         id="stop3712-7"
         offset="1"
         style="stop-color:#2b4c6b;stop-opacity:1" />
    </linearGradient>
    <linearGradient
       id="linearGradient3750-8">
      <stop
         style="stop-color:#d0e2f1;stop-opacity:1"
         offset="0"
         id="stop3752-0" />
      <stop
         id="stop3756-3"
         offset="0.85580856"
         style="stop-color:#cadef0;stop-opacity:1" />
      <stop
         style="stop-color:#95bee3;stop-opacity:1"
         offset="1"
         id="stop3754-3" />
    </linearGradient>
    <linearGradient
       id="linearGradient3803-6">
      <stop
         id="stop3805-4"
         offset="0"
         style="stop-color:#d7def0;stop-opacity:1;" />
      <stop
         style="stop-color:#ffffff;stop-opacity:1"
         offset="0.5"
         id="stop3811-0" />
      <stop
         id="stop3807-5"
         offset="1"
         style="stop-color:#d5def0;stop-opacity:1" />
    </linearGradient>
    <linearGradient
       inkscape:collect="always"
       xlink:href="#linearGradient3795-8"
       id="linearGradient3801-4"
       x1="23.204165"
       y1="1053.158"
       x2="23.204165"
       y2="1004.8474"
       gradientUnits="userSpaceOnUse"
       gradientTransform="translate(0,-2056.7244)" />
    <linearGradient
       inkscape:collect="always"
       xlink:href="#linearGradient3795-8"
       id="linearGradient3859-3"
       x1="26.192217"
       y1="1024.0002"
       x2="28.641211"
       y2="1024.0002"
       gradientUnits="userSpaceOnUse" />
    <linearGradient
       inkscape:collect="always"
       xlink:href="#linearGradient3795-8"
       id="linearGradient3867-7"
       gradientUnits="userSpaceOnUse"
       x1="26.192217"
       y1="1024.0002"
       x2="28.641211"
       y2="1024.0002" />
    <linearGradient
       inkscape:collect="always"
       xlink:href="#linearGradient3795-8"
       id="linearGradient3869-1"
       gradientUnits="userSpaceOnUse"
       x1="26.192217"
       y1="1024.0002"
       x2="28.641211"
       y2="1024.0002" />
    <linearGradient
       inkscape:collect="always"
       xlink:href="#linearGradient3795-8"
       id="linearGradient3871-8"
       gradientUnits="userSpaceOnUse"
       x1="26.192217"
       y1="1024.0002"
       x2="28.641211"
       y2="1024.0002" />
    <linearGradient
       inkscape:collect="always"
       xlink:href="#linearGradient3795-8"
       id="linearGradient3877-9"
       gradientUnits="userSpaceOnUse"
       x1="29.718235"
       y1="1027.8575"
       x2="22.811094"
       y2="1015.5485" />
    <linearGradient
       inkscape:collect="always"
       xlink:href="#linearGradient3795-8"
       id="linearGradient3879-3"
       gradientUnits="userSpaceOnUse"
       x1="17.196316"
       y1="1006.2238"
       x2="31.448042"
       y2="1030.9086" />
    <linearGradient
       inkscape:collect="always"
       xlink:href="#linearGradient3795-8"
       id="linearGradient3895-0"
       x1="21.973417"
       y1="34.43922"
       x2="42.475323"
       y2="24.798252"
       gradientUnits="userSpaceOnUse" />
    <linearGradient
       inkscape:collect="always"
       xlink:href="#linearGradient3895-8"
       id="linearGradient3857"
       gradientUnits="userSpaceOnUse"
       gradientTransform="matrix(0.96799712,0,0,1.0252613,604.84439,-419.13965)"
       x1="24.113745"
       y1="1049.2139"
       x2="24.113745"
       y2="1007.5135" />
    <linearGradient
       id="linearGradient3895-8">
      <stop
         id="stop3897"
         offset="0"
         style="stop-color:#e0880b;stop-opacity:1;" />
      <stop
         id="stop3899"
         offset="1"
         style="stop-color:#f7ce50;stop-opacity:1;" />
    </linearGradient>
    <linearGradient
       gradientUnits="userSpaceOnUse"
       y2="24.798252"
       x2="42.475323"
       y1="34.43922"
       x1="21.973417"
       id="linearGradient3895-83"
       xlink:href="#linearGradient3795-81"
       inkscape:collect="always" />
    <linearGradient
       y2="1030.9086"
       x2="31.448042"
       y1="1006.2238"
       x1="17.196316"
       gradientUnits="userSpaceOnUse"
       id="linearGradient3879-6"
       xlink:href="#linearGradient3795-81"
       inkscape:collect="always" />
    <linearGradient
       y2="1015.5485"
       x2="22.811094"
       y1="1027.8575"
       x1="29.718235"
       gradientUnits="userSpaceOnUse"
       id="linearGradient3877-5"
       xlink:href="#linearGradient3795-81"
       inkscape:collect="always" />
    <linearGradient
       y2="1024.0002"
       x2="28.641211"
       y1="1024.0002"
       x1="26.192217"
       gradientUnits="userSpaceOnUse"
       id="linearGradient3871-2"
       xlink:href="#linearGradient3795-81"
       inkscape:collect="always" />
    <linearGradient
       y2="1024.0002"
       x2="28.641211"
       y1="1024.0002"
       x1="26.192217"
       gradientUnits="userSpaceOnUse"
       id="linearGradient3869-3"
       xlink:href="#linearGradient3795-81"
       inkscape:collect="always" />
    <linearGradient
       y2="1024.0002"
       x2="28.641211"
       y1="1024.0002"
       x1="26.192217"
       gradientUnits="userSpaceOnUse"
       id="linearGradient3867-4"
       xlink:href="#linearGradient3795-81"
       inkscape:collect="always" />
    <linearGradient
       gradientUnits="userSpaceOnUse"
       y2="1024.0002"
       x2="28.641211"
       y1="1024.0002"
       x1="26.192217"
       id="linearGradient3859-1"
       xlink:href="#linearGradient3795-81"
       inkscape:collect="always" />
    <linearGradient
       id="linearGradient3803-1">
      <stop
         style="stop-color:#b0b0b0;stop-opacity:1"
         offset="0"
         id="stop3805-2" />
      <stop
         style="stop-color:#fbfbfb;stop-opacity:1"
         offset="1"
         id="stop3807-4" />
    </linearGradient>
    <linearGradient
       id="linearGradient3750-1">
      <stop
         id="stop3752-3"
         offset="0"
         style="stop-color:#d0e2f1;stop-opacity:1" />
      <stop
         style="stop-color:#cadef0;stop-opacity:1"
         offset="0.85580856"
         id="stop3756-5" />
      <stop
         id="stop3754-6"
         offset="1"
         style="stop-color:#95bee3;stop-opacity:1" />
    </linearGradient>
    <linearGradient
       id="linearGradient3708-6">
      <stop
         style="stop-color:#658db6;stop-opacity:1"
         offset="0"
         id="stop3710-5" />
      <stop
         id="stop3716-5"
         offset="0.76777935"
         style="stop-color:#527fab;stop-opacity:1;" />
      <stop
         style="stop-color:#4071a0;stop-opacity:1"
         offset="1"
         id="stop3712-0" />
    </linearGradient>
    <linearGradient
       id="linearGradient3698-0">
      <stop
         style="stop-color:#96d0e1;stop-opacity:1"
         offset="0"
         id="stop3700-3" />
      <stop
         id="stop3706-9"
         offset="0.67819428"
         style="stop-color:#89b7e1;stop-opacity:1" />
      <stop
         style="stop-color:#699dd3;stop-opacity:1"
         offset="1"
         id="stop3702-8" />
    </linearGradient>
    <linearGradient
       id="linearGradient3795-81">
      <stop
         id="stop3797-6"
         offset="0"
         style="stop-color:#68b89c;stop-opacity:1;" />
      <stop
         id="stop3799-9"
         offset="1"
         style="stop-color:#309784;stop-opacity:1;" />
    </linearGradient>
    <linearGradient
       id="linearGradient938"
       inkscape:collect="always">
      <stop
         id="stop940"
         offset="0"
         style="stop-color:#000000;stop-opacity:1;" />
      <stop
         id="stop942"
         offset="1"
         style="stop-color:#7e7e7e;stop-opacity:1" />
    </linearGradient>
    <linearGradient
       inkscape:collect="always"
       xlink:href="#linearGradient1041"
       id="linearGradient1025"
       gradientUnits="userSpaceOnUse"
       x1="25"
       y1="1050.3623"
       x2="25"
       y2="1012.6596" />
    <linearGradient
       inkscape:collect="always"
       xlink:href="#linearGradient3895-8"
       id="linearGradient1054"
       gradientUnits="userSpaceOnUse"
       x1="25.544573"
       y1="1006.3608"
       x2="25.544573"
       y2="1016.2538"
       gradientTransform="translate(0,-1004.3623)" />
    <linearGradient
       inkscape:collect="always"
       xlink:href="#linearGradient1068"
       id="linearGradient1074"
       x1="24.863525"
       y1="1049.9988"
       x2="24.863525"
       y2="1008.7891"
       gradientUnits="userSpaceOnUse" />
    <linearGradient
       inkscape:collect="always"
       xlink:href="#linearGradient1068"
       id="linearGradient1076"
       gradientUnits="userSpaceOnUse"
       x1="24.863525"
       y1="1049.9988"
       x2="24.863525"
       y2="1008.7891" />
    <linearGradient
       inkscape:collect="always"
       xlink:href="#linearGradient1068"
       id="linearGradient1082"
       gradientUnits="userSpaceOnUse"
       x1="24.863525"
       y1="1049.9988"
       x2="24.863525"
       y2="1008.7891" />
    <linearGradient
       inkscape:collect="always"
       xlink:href="#linearGradient1068"
       id="linearGradient1084"
       gradientUnits="userSpaceOnUse"
       x1="47.106495"
       y1="1038.8773"
       x2="15.595621"
       y2="1014.3499" />
    <linearGradient
       inkscape:collect="always"
       xlink:href="#linearGradient1108"
       id="linearGradient1098"
       gradientUnits="userSpaceOnUse"
       x1="24.863525"
       y1="1049.9988"
       x2="24.863525"
       y2="1008.7891" />
    <linearGradient
       inkscape:collect="always"
       xlink:href="#linearGradient1102"
       id="linearGradient1100"
       gradientUnits="userSpaceOnUse"
       x1="24.863525"
       y1="1049.9988"
       x2="24.863525"
       y2="1008.7891" />
    <linearGradient
       inkscape:collect="always"
       xlink:href="#linearGradient1108"
       id="linearGradient1118"
       gradientUnits="userSpaceOnUse"
       x1="24.863525"
       y1="1049.9988"
       x2="24.863525"
       y2="1008.7891" />
    <linearGradient
       inkscape:collect="always"
       xlink:href="#linearGradient1102"
       id="linearGradient1120"
       gradientUnits="userSpaceOnUse"
       x1="24.863525"
       y1="1049.9988"
       x2="24.863525"
       y2="1008.7891" />
    <linearGradient
       inkscape:collect="always"
       xlink:href="#linearGradient1179"
       id="linearGradient1177"
       x1="15.648608"
       y1="1019.6636"
       x2="15.648608"
       y2="1024.8539"
       gradientUnits="userSpaceOnUse" />
    <linearGradient
       inkscape:collect="always"
       xlink:href="#linearGradient1179"
       id="linearGradient1187"
       gradientUnits="userSpaceOnUse"
       x1="15.648608"
       y1="1019.6636"
       x2="15.648608"
       y2="1024.8539"
       gradientTransform="matrix(1.1762428,0,0,1.1762428,14.035016,-181.41094)" />
    <linearGradient
       inkscape:collect="always"
       xlink:href="#linearGradient1179"
       id="linearGradient1191"
       gradientUnits="userSpaceOnUse"
       x1="15.648608"
       y1="1019.6636"
       x2="15.648608"
       y2="1024.8539"
       gradientTransform="translate(-0.00480628,15.103632)" />
    <linearGradient
       inkscape:collect="always"
       xlink:href="#linearGradient1179"
       id="linearGradient1195"
       gradientUnits="userSpaceOnUse"
       gradientTransform="translate(16.786056,15.103632)"
       x1="15.648608"
       y1="1019.6636"
       x2="15.648608"
       y2="1024.8539" />
    <linearGradient
       inkscape:collect="always"
       xlink:href="#linearGradient1041"
       id="linearGradient1211"
       x1="1.6992435"
       y1="1028.3623"
       x2="46.300755"
       y2="1028.3623"
       gradientUnits="userSpaceOnUse" />
  </defs>
  <sodipodi:namedview
     id="base"
     pagecolor="#ffffff"
     bordercolor="#666666"
     borderopacity="1.0"
     inkscape:pageopacity="0.0"
     inkscape:pageshadow="2"
     inkscape:zoom="6.811874"
     inkscape:cx="15.595603"
     inkscape:cy="54.942188"
     inkscape:document-units="px"
     inkscape:current-layer="layer1"
     showgrid="false"
     inkscape:window-width="1920"
     inkscape:window-height="1035"
     inkscape:window-x="0"
     inkscape:window-y="26"
     inkscape:window-maximized="1"
     showguides="false">
    <inkscape:grid
       type="xygrid"
       id="grid3850" />
  </sodipodi:namedview>
  <metadata
     id="metadata7">
    <rdf:RDF>
      <cc:Work
         rdf:about="">
        <dc:format>image/svg+xml</dc:format>
        <dc:type
           rdf:resource="http://purl.org/dc/dcmitype/StillImage" />
        <dc:title />
      </cc:Work>
    </rdf:RDF>
  </metadata>
  <g
     inkscape:label="Capa 1"
     inkscape:groupmode="layer"
     id="layer1"
     transform="translate(0,-1004.3622)">
    <g
       id="layer1-4"
       inkscape:label="Capa 1"
       transform="translate(0,-7.9891968e-5)"
       style="fill:url(#linearGradient944);fill-opacity:1">
      <rect
         style="fill:url(#linearGradient1025);fill-opacity:1;stroke:#7d7d7d;stroke-width:0.39848712;stroke-miterlimit:4;stroke-opacity:1;stroke-dasharray:none"
         id="rect2992"
         width="44.601513"
         height="44.601513"
         x="1.6992435"
         y="1006.0615"
         ry="5.6755357" />
    </g>
    <path
       style="fill:url(#linearGradient1054);fill-opacity:1;stroke:#7d7d7d;stroke-width:0.39848712;stroke-miterlimit:4;stroke-opacity:1"
       d="M 7.375 1.6875 C 4.2307533 1.6875 1.6875 4.2307 1.6875 7.375 L 1.6875 8.125 L 46.3125 8.125 L 46.3125 7.375 C 46.3125 4.2307 43.769247 1.6875 40.625 1.6875 L 7.375 1.6875 z "
       transform="translate(0,1004.3622)"
       id="rect1049" />
    <g
       style="fill:url(#linearGradient1074);fill-opacity:1;stroke:none"
       transform="matrix(0.23759818,0,0,0.23759818,9.9022124,779.6841)"
       inkscape:label="Capa 1"
       id="g1060">
      <rect
         ry="5.6755357"
         y="1006.0615"
         x="1.6992435"
         height="44.601513"
         width="44.601513"
         id="rect1062"
         style="fill:url(#linearGradient1076);fill-opacity:1;stroke:none" />
    </g>
    <g
       id="g1078"
       inkscape:label="Capa 1"
       transform="matrix(0.27947314,0,0,0.27947314,25.688076,735.68941)"
       style="fill:url(#linearGradient1084);fill-opacity:1;stroke:none">
      <rect
         style="fill:url(#linearGradient1082);fill-opacity:1;stroke:none"
         id="rect1080"
         width="44.601513"
         height="44.601513"
         x="1.6992435"
         y="1006.0615"
         ry="5.6755357" />
    </g>
    <g
       id="g1094"
       inkscape:label="Capa 1"
       transform="matrix(0.23759818,0,0,0.23759818,9.9022124,794.78989)"
       style="fill:url(#linearGradient1100);fill-opacity:1;stroke:none">
      <rect
         style="fill:url(#linearGradient1098);fill-opacity:1;stroke:none"
         id="rect1096"
         width="44.601513"
         height="44.601513"
         x="1.6992435"
         y="1006.0615"
         ry="5.6755357" />
    </g>
    <g
       style="fill:url(#linearGradient1120);fill-opacity:1;stroke:none"
       transform="matrix(0.23759818,0,0,0.23759818,26.693075,794.78989)"
       inkscape:label="Capa 1"
       id="g1114">
      <rect
         ry="5.6755357"
         y="1006.0615"
         x="1.6992435"
         height="44.601513"
         width="44.601513"
         id="rect1116"
         style="fill:url(#linearGradient1118);fill-opacity:1;stroke:none" />
    </g>
    <path
       style="opacity:1;fill:url(#linearGradient1177);fill-opacity:1;stroke:none"
       d="m 11.375,1018.7304 c -0.615594,0.1254 -1.0625,0.6901 -1.0625,1.3438 l 0,7.9062 c 0,0.7471 0.596682,1.3438 1.34375,1.3438 l 0.28125,0 c -0.695842,0 -1.28125,-0.5782 -1.28125,-1.2813 l 0,-7.4375 c 0,-0.7032 0.585408,-1.25 1.28125,-1.25 l 7.34375,0 c 0.695842,0 1.25,0.5468 1.25,1.25 l 0,7.4375 c 0,0.7031 -0.554158,1.2813 -1.25,1.2813 l 0.28125,0 c 0.747067,0 1.34375,-0.5967 1.34375,-1.3438 l 0,-7.9062 c 0,-0.7471 -0.596683,-1.3438 -1.34375,-1.3438 l -7.90625,0 c -0.09338,0 -0.193308,-0.018 -0.28125,0 z"
       id="rect1154"
       inkscape:connector-curvature="0" />
    <path
       inkscape:connector-curvature="0"
       id="path1185"
       d="m 27.414778,1016.8633 c -0.724088,0.1475 -1.249758,0.8117 -1.249758,1.5807 l 0,9.2996 c 0,0.8787 0.701843,1.5806 1.580576,1.5806 l 0.330818,0 c -0.818479,0 -1.507061,-0.6801 -1.507061,-1.5071 l 0,-8.7483 c 0,-0.8272 0.688582,-1.4703 1.507061,-1.4703 l 8.638033,0 c 0.818479,0 1.470304,0.6431 1.470304,1.4703 l 0,8.7483 c 0,0.827 -0.651825,1.5071 -1.470304,1.5071 l 0.330818,0 c 0.878732,0 1.580577,-0.7019 1.580577,-1.5806 l 0,-9.2996 c 0,-0.8788 -0.701845,-1.5807 -1.580577,-1.5807 l -9.299669,0 c -0.109838,0 -0.227377,-0.021 -0.330818,0 z"
       style="fill:url(#linearGradient1187);fill-opacity:1;stroke:none" />
    <path
       inkscape:connector-curvature="0"
       id="path1189"
       d="m 11.370194,1033.834 c -0.615594,0.1254 -1.0625,0.6901 -1.0625,1.3438 l 0,7.9062 c 0,0.7471 0.596682,1.3438 1.34375,1.3438 l 0.28125,0 c -0.695842,0 -1.28125,-0.5782 -1.28125,-1.2813 l 0,-7.4375 c 0,-0.7032 0.585408,-1.25 1.28125,-1.25 l 7.34375,0 c 0.695842,0 1.25,0.5468 1.25,1.25 l 0,7.4375 c 0,0.7031 -0.554158,1.2813 -1.25,1.2813 l 0.28125,0 c 0.747067,0 1.34375,-0.5967 1.34375,-1.3438 l 0,-7.9062 c 0,-0.7471 -0.596683,-1.3438 -1.34375,-1.3438 l -7.90625,0 c -0.09338,0 -0.193308,-0.018 -0.28125,0 z"
       style="fill:url(#linearGradient1191);fill-opacity:1;stroke:none" />
    <path
       style="fill:url(#linearGradient1195);fill-opacity:1;stroke:none"
       d="m 28.161056,1033.834 c -0.615594,0.1254 -1.0625,0.6901 -1.0625,1.3438 l 0,7.9062 c 0,0.7471 0.596682,1.3438 1.34375,1.3438 l 0.28125,0 c -0.695842,0 -1.28125,-0.5782 -1.28125,-1.2813 l 0,-7.4375 c 0,-0.7032 0.585408,-1.25 1.28125,-1.25 l 7.34375,0 c 0.695842,0 1.25,0.5468 1.25,1.25 l 0,7.4375 c 0,0.7031 -0.554158,1.2813 -1.25,1.2813 l 0.28125,0 c 0.747067,0 1.34375,-0.5967 1.34375,-1.3438 l 0,-7.9062 c 0,-0.7471 -0.596683,-1.3438 -1.34375,-1.3438 l -7.90625,0 c -0.09338,0 -0.193308,-0.018 -0.28125,0 z"
       id="path1193"
       inkscape:connector-curvature="0" />
    <g
       style="fill:url(#linearGradient1211);fill-opacity:1.0;stroke:none"
       transform="matrix(0.18637762,0,0,0.18637762,27.922368,831.42533)"
       inkscape:label="Capa 1"
       id="g1197">
      <rect
         ry="5.6755357"
         y="1006.0615"
         x="1.6992435"
         height="44.601513"
         width="44.601513"
         id="rect1199"
         style="fill:url(#linearGradient1211);fill-opacity:1.0;stroke:none" />
    </g>
  </g>
</svg>
