<?xml version="1.0" encoding="UTF-8" standalone="no"?>
<!-- Created with Inkscape (http://www.inkscape.org/) -->

<svg
   xmlns:dc="http://purl.org/dc/elements/1.1/"
   xmlns:cc="http://creativecommons.org/ns#"
   xmlns:rdf="http://www.w3.org/1999/02/22-rdf-syntax-ns#"
   xmlns:svg="http://www.w3.org/2000/svg"
   xmlns="http://www.w3.org/2000/svg"
   xmlns:xlink="http://www.w3.org/1999/xlink"
   xmlns:sodipodi="http://sodipodi.sourceforge.net/DTD/sodipodi-0.dtd"
   xmlns:inkscape="http://www.inkscape.org/namespaces/inkscape"
   width="48"
   height="48"
   id="svg2"
   version="1.1"
   inkscape:version="0.48+devel r11521"
   sodipodi:docname="applications-games.svg">
  <defs
     id="defs4">
    <linearGradient
       x1="45.447727"
       y1="92.539597"
       x2="45.447727"
       y2="7.0165396"
       id="linearGradient1481"
       gradientUnits="userSpaceOnUse"
       gradientTransform="scale(1.0058652,0.994169)">
      <stop
         id="stop1483"
         style="stop-color:#000000;stop-opacity:1"
         offset="0" />
      <stop
         id="stop1485"
         style="stop-color:#929292;stop-opacity:1"
         offset="1" />
    </linearGradient>
    <linearGradient
       inkscape:collect="always"
       id="linearGradient1465">
      <stop
         style="stop-color:#ff1c1c;stop-opacity:1"
         offset="0"
         id="stop1467" />
      <stop
         style="stop-color:#540000;stop-opacity:1"
         offset="1"
         id="stop1469" />
    </linearGradient>
    <linearGradient
       id="linearGradient1459"
       inkscape:collect="always">
      <stop
         id="stop1461"
         offset="0"
         style="stop-color:#d4c600;stop-opacity:1" />
      <stop
         id="stop1463"
         offset="1"
         style="stop-color:#d69d00;stop-opacity:1" />
    </linearGradient>
    <linearGradient
       id="linearGradient1445"
       inkscape:collect="always">
      <stop
         id="stop1447"
         offset="0"
         style="stop-color:#1c98ff;stop-opacity:1" />
      <stop
         id="stop1449"
         offset="1"
         style="stop-color:#0041e3;stop-opacity:1" />
    </linearGradient>
    <linearGradient
       inkscape:collect="always"
       id="linearGradient1433">
      <stop
         style="stop-color:#55d400;stop-opacity:1"
         offset="0"
         id="stop1435" />
      <stop
         style="stop-color:#3f9d00;stop-opacity:1"
         offset="1"
         id="stop1437" />
    </linearGradient>
    <linearGradient
       gradientTransform="scale(1.0058652,0.994169)"
       gradientUnits="userSpaceOnUse"
       id="linearGradient1415"
       y2="7.0165396"
       x2="45.447727"
       y1="92.539597"
       x1="45.447727">
      <stop
         offset="0"
         style="stop-color:#000000;stop-opacity:1"
         id="stop1417" />
      <stop
         offset="1"
         style="stop-color:#929292;stop-opacity:1"
         id="stop1419" />
    </linearGradient>
    <linearGradient
       id="linearGradient1390">
      <stop
         offset="0"
         style="stop-color:#e7e7e7;stop-opacity:1"
         id="stop1392" />
      <stop
         offset="1"
         style="stop-color:#979797;stop-opacity:1"
         id="stop1394" />
    </linearGradient>
    <linearGradient
       id="linearGradient3795">
      <stop
         style="stop-color:#4c7686;stop-opacity:1;"
         offset="0"
         id="stop3797" />
      <stop
         style="stop-color:#206781;stop-opacity:1;"
         offset="1"
         id="stop3799" />
    </linearGradient>
    <linearGradient
       id="linearGradient3698">
      <stop
         id="stop3700"
         offset="0"
         style="stop-color:#96d0e1;stop-opacity:1" />
      <stop
         style="stop-color:#89b7e1;stop-opacity:1"
         offset="0.67819428"
         id="stop3706" />
      <stop
         id="stop3702"
         offset="1"
         style="stop-color:#699dd3;stop-opacity:1" />
    </linearGradient>
    <linearGradient
       id="linearGradient3708">
      <stop
         id="stop3710"
         offset="0"
         style="stop-color:#658db6;stop-opacity:1" />
      <stop
         style="stop-color:#527fab;stop-opacity:1;"
         offset="0.76777935"
         id="stop3716" />
      <stop
         id="stop3712"
         offset="1"
         style="stop-color:#4071a0;stop-opacity:1" />
    </linearGradient>
    <linearGradient
       id="linearGradient3750">
      <stop
         style="stop-color:#d0e2f1;stop-opacity:1"
         offset="0"
         id="stop3752" />
      <stop
         id="stop3756"
         offset="0.85580856"
         style="stop-color:#cadef0;stop-opacity:1" />
      <stop
         style="stop-color:#95bee3;stop-opacity:1"
         offset="1"
         id="stop3754" />
    </linearGradient>
    <linearGradient
       id="linearGradient3803">
      <stop
         id="stop3805"
         offset="0"
         style="stop-color:#d7def0;stop-opacity:1;" />
      <stop
         style="stop-color:#ffffff;stop-opacity:1"
         offset="0.5"
         id="stop3811" />
      <stop
         id="stop3807"
         offset="1"
         style="stop-color:#d5def0;stop-opacity:1" />
    </linearGradient>
    <linearGradient
       inkscape:collect="always"
       xlink:href="#linearGradient3795"
       id="linearGradient3859"
       x1="26.192217"
       y1="1024.0002"
       x2="28.641211"
       y2="1024.0002"
       gradientUnits="userSpaceOnUse" />
    <linearGradient
       inkscape:collect="always"
       xlink:href="#linearGradient3795"
       id="linearGradient3867"
       gradientUnits="userSpaceOnUse"
       x1="26.192217"
       y1="1024.0002"
       x2="28.641211"
       y2="1024.0002" />
    <linearGradient
       inkscape:collect="always"
       xlink:href="#linearGradient3795"
       id="linearGradient3869"
       gradientUnits="userSpaceOnUse"
       x1="26.192217"
       y1="1024.0002"
       x2="28.641211"
       y2="1024.0002" />
    <linearGradient
       inkscape:collect="always"
       xlink:href="#linearGradient3795"
       id="linearGradient3871"
       gradientUnits="userSpaceOnUse"
       x1="26.192217"
       y1="1024.0002"
       x2="28.641211"
       y2="1024.0002" />
    <linearGradient
       inkscape:collect="always"
       xlink:href="#linearGradient3795"
       id="linearGradient3877"
       gradientUnits="userSpaceOnUse"
       x1="29.718235"
       y1="1027.8575"
       x2="22.811094"
       y2="1015.5485" />
    <linearGradient
       inkscape:collect="always"
       xlink:href="#linearGradient3795"
       id="linearGradient3879"
       gradientUnits="userSpaceOnUse"
       x1="17.196316"
       y1="1006.2238"
       x2="31.448042"
       y2="1030.9086" />
    <linearGradient
       inkscape:collect="always"
       xlink:href="#linearGradient3795"
       id="linearGradient3895"
       x1="21.973417"
       y1="34.43922"
       x2="42.475323"
       y2="24.798252"
       gradientUnits="userSpaceOnUse" />
    <linearGradient
       id="linearGradient3801">
      <stop
         id="stop3803"
         style="stop-color:#ffffff;stop-opacity:1"
         offset="0" />
      <stop
         id="stop3805-86"
         style="stop-color:#ffffff;stop-opacity:0"
         offset="1" />
    </linearGradient>
    <linearGradient
       id="linearGradient3741">
      <stop
         id="stop3743"
         style="stop-color:#d45500;stop-opacity:1"
         offset="0" />
      <stop
         id="stop3745"
         style="stop-color:#d45500;stop-opacity:0"
         offset="1" />
    </linearGradient>
    <linearGradient
       id="linearGradient3718">
      <stop
         id="stop3720"
         style="stop-color:#f4de23;stop-opacity:1"
         offset="0" />
      <stop
         id="stop3722"
         style="stop-color:#e49600;stop-opacity:0.97647059"
         offset="1" />
    </linearGradient>
    <linearGradient
       id="linearGradient5226">
      <stop
         id="stop5228"
         style="stop-color:#ccda0b;stop-opacity:1"
         offset="0" />
      <stop
         id="stop5230"
         style="stop-color:#327c12;stop-opacity:1"
         offset="1" />
    </linearGradient>
    <linearGradient
       x1="45.447727"
       y1="92.539597"
       x2="45.447727"
       y2="7.0165396"
       id="ButtonShadow"
       gradientUnits="userSpaceOnUse"
       gradientTransform="scale(1.0058652,0.994169)">
      <stop
         id="stop3750"
         style="stop-color:#000000;stop-opacity:1"
         offset="0" />
      <stop
         id="stop3752-8"
         style="stop-color:#000000;stop-opacity:0.58823532"
         offset="1" />
    </linearGradient>
    <linearGradient
       id="linearGradient3737">
      <stop
         id="stop3739"
         style="stop-color:#ffffff;stop-opacity:1"
         offset="0" />
      <stop
         id="stop3741"
         style="stop-color:#ffffff;stop-opacity:0"
         offset="1" />
    </linearGradient>
    <linearGradient
       id="linearGradient3700">
      <stop
         id="stop3702-6"
         style="stop-color:#307b8e;stop-opacity:1"
         offset="0" />
      <stop
         id="stop3862"
         style="stop-color:#286776;stop-opacity:1"
         offset="0.5" />
      <stop
         id="stop3704"
         style="stop-color:#14333b;stop-opacity:1"
         offset="1" />
    </linearGradient>
    <filter
       color-interpolation-filters="sRGB"
       id="filter3174">
      <feGaussianBlur
         id="feGaussianBlur3176"
         stdDeviation="1.71" />
    </filter>
    <linearGradient
       gradientTransform="translate(-35.61665,1015.4349)"
       x1="36.357143"
       y1="6"
       x2="36.357143"
       y2="63.893143"
       id="linearGradient3188"
       xlink:href="#linearGradient3737"
       gradientUnits="userSpaceOnUse" />
    <linearGradient
       id="linearGradient3737-1">
      <stop
         id="stop3739-7"
         style="stop-color:#ffffff;stop-opacity:1"
         offset="0" />
      <stop
         id="stop3741-2"
         style="stop-color:#ffffff;stop-opacity:0"
         offset="1" />
    </linearGradient>
    <radialGradient
       cx="48"
       cy="90.171875"
       r="42"
       fx="48"
       fy="90.171875"
       id="radialGradient2855"
       xlink:href="#linearGradient3737-1"
       gradientUnits="userSpaceOnUse"
       gradientTransform="matrix(1.1573129,0,0,0.99590774,-7.551021,0.1971319)" />
    <linearGradient
       id="linearGradient3737-6">
      <stop
         id="stop3739-73"
         style="stop-color:#ffffff;stop-opacity:1"
         offset="0" />
      <stop
         id="stop3741-6"
         style="stop-color:#ffffff;stop-opacity:0"
         offset="1" />
    </linearGradient>
    <clipPath
       id="clipPath3613">
      <rect
         width="84"
         height="84"
         rx="6"
         ry="6"
         x="6"
         y="6"
         id="rect3615"
         style="fill:#ffffff;fill-opacity:1;fill-rule:nonzero;stroke:none" />
    </clipPath>
    <filter
       x="-0.192"
       y="-0.192"
       width="1.3839999"
       height="1.3839999"
       color-interpolation-filters="sRGB"
       id="filter3794">
      <feGaussianBlur
         id="feGaussianBlur3796"
         stdDeviation="5.28" />
    </filter>
    <linearGradient
       x1="48"
       y1="20.220806"
       x2="48"
       y2="138.66119"
       id="linearGradient2885"
       xlink:href="#linearGradient3737-6"
       gradientUnits="userSpaceOnUse" />
    <linearGradient
       x1="45.447727"
       y1="92.539597"
       x2="45.447727"
       y2="7.0165396"
       id="ButtonShadow-0"
       gradientUnits="userSpaceOnUse"
       gradientTransform="matrix(1.0058652,0,0,0.994169,100,0)">
      <stop
         id="stop3750-8"
         style="stop-color:#000000;stop-opacity:1"
         offset="0" />
      <stop
         id="stop3752-5"
         style="stop-color:#000000;stop-opacity:0.58823532"
         offset="1" />
    </linearGradient>
    <linearGradient
       x1="32.251034"
       y1="6.1317081"
       x2="32.251034"
       y2="90.238609"
       id="linearGradient3780"
       xlink:href="#ButtonShadow-0"
       gradientUnits="userSpaceOnUse"
       gradientTransform="matrix(1.0238095,0,0,1.0119048,-1.1428571,-98.071429)" />
    <linearGradient
       x1="32.251034"
       y1="6.1317081"
       x2="32.251034"
       y2="90.238609"
       id="linearGradient3772"
       xlink:href="#ButtonShadow-0"
       gradientUnits="userSpaceOnUse"
       gradientTransform="matrix(1.0238095,0,0,1.0119048,-1.1428571,-98.071429)" />
    <linearGradient
       x1="32.251034"
       y1="6.1317081"
       x2="32.251034"
       y2="90.238609"
       id="linearGradient3725"
       xlink:href="#ButtonShadow-0"
       gradientUnits="userSpaceOnUse"
       gradientTransform="matrix(1.0238095,0,0,1.0119048,-1.1428571,-98.071429)" />
    <linearGradient
       x1="32.251034"
       y1="6.1317081"
       x2="32.251034"
       y2="90.238609"
       id="linearGradient3721"
       xlink:href="#ButtonShadow-0"
       gradientUnits="userSpaceOnUse"
       gradientTransform="translate(0,-97)" />
    <linearGradient
       x1="32.251034"
       y1="6.1317081"
       x2="32.251034"
       y2="90.238609"
       id="linearGradient3059"
       xlink:href="#ButtonShadow-0"
       gradientUnits="userSpaceOnUse"
       gradientTransform="matrix(1.0238095,0,0,1.0119048,-1.1428571,-98.071429)" />
    <radialGradient
       cx="48"
       cy="40.64753"
       r="42"
       fx="48"
       fy="40.64753"
       id="radialGradient3736"
       xlink:href="#linearGradient5226"
       gradientUnits="userSpaceOnUse"
       gradientTransform="matrix(1.1433554,3.8336408e-8,-3.7188011e-8,1.1091053,22.448271,1036.0464)" />
    <clipPath
       id="clipPath3759">
      <path
         d="m 36.273888,6.0817019 c 1.650116,2.216692 0.112581,5.9183371 2.601472,5.8815911 1.2119,1.714016 -2.415455,0.511296 0.203594,1.832342 1.506106,1.186578 -1.593388,1.86454 0.27179,2.929374 -2.149689,1.109666 0.348443,5.803987 1.945116,6.978848 2.62796,2.213161 1.16221,-4.685722 4.0945,-5.044597 1.59336,-1.819699 4.39184,-2.987811 6.37927,-4.818381 -1.9423,-0.15774 -3.07646,-1.367135 -1.23703,-2.116304 3.38546,3.470394 0.84891,-1.643528 -1.02513,-2.4532401 1.81337,-0.577046 3.57698,-0.154481 3.32537,-1.65137 1.91632,-1.402516 -1.84226,-1.855344 -3.18394,-1.538263 -4.45834,0 -8.91668,0 -13.375012,0 z M 8.472036,7.5294789 C 6.022275,8.2276739 5.851392,14.084357 8.313685,10.832218 8.918028,9.4968519 11.710763,7.8875459 8.472036,7.5294789 z m 11.446491,0.203593 c -1.412257,2.2153416 0.204915,3.9914991 1.379912,1.289427 0.831709,-1.128343 -0.617926,-1.248085 -1.379912,-1.289427 z m 3.528956,0.497674 c -2.72875,1.265212 -0.672602,4.2155641 -0.605059,4.8717381 2.87456,0.994829 4.473227,-0.650437 5.560693,2.161488 2.73516,1.576935 -0.05382,4.317061 -1.080544,5.030674 1.849342,-1.611189 5.404158,4.380481 4.472249,1.214924 -1.11178,-0.812076 2.985161,1.304563 0.859619,-1.334669 -1.956059,-3.152657 0.155272,-1.411414 0.979953,-0.675608 2.804888,-2.516097 -3.173595,-2.820214 -1.681217,-5.409578 -1.307758,-1.059583 -3.02289,-4.2694931 -5.33868,-3.642063 -1.550241,2.005564 -0.214153,-4.3699601 -2.488605,-1.1795631 -0.117891,1.7834151 -0.04285,4.0464551 -0.705711,0.9568241 -0.444071,-0.5408721 0.764001,-1.7982981 0.0273,-1.9941671 z m -5.564894,0.022621 c -1.8316,0.610853 -1.733228,3.0865051 0.518957,3.3519111 0.771435,-0.879633 0.306491,-3.1853381 -0.518957,-3.3519111 z m -7.148401,0.791753 c -2.379079,0.563878 -1.407992,2.4828651 -0.679573,3.0233211 -2.944918,0.737923 4.495691,0.943126 0.792681,1.410494 -3.080791,1.230835 2.966663,2.680942 3.958766,1.221561 3.804391,0.930735 0.136908,-3.046545 -0.19704,-5.2025321 -1.612752,-1.731481 -0.06366,3.9915331 -1.521869,0.184408 -0.508786,1.1305431 -2.126527,0.166598 -2.352965,-0.637252 z m 75.601132,0.248837 c -3.19245,1.2498621 1.98418,5.9664341 0.69764,1.6754941 -0.12817,-0.518125 0.2882,-1.8871051 -0.69764,-1.6754941 z M 19.669689,11.194162 c -2.29408,2.156707 2.915989,3.940201 -0.658895,5.546906 -0.536018,-2.002938 -1.458273,1.002105 -3.503464,-0.615417 -3.515899,1.464466 -5.313868,-0.762828 -8.257536,-2.28957 -1.768029,-0.220164 -1.10378,1.680533 -1.220883,3.460193 0,4.918306 0,9.836614 0,14.75492 1.733489,1.82448 0.676329,0.804976 0,0.301752 0.951467,3.241642 -0.419572,7.980231 3.330851,9.86583 0.637564,1.183033 3.312883,6.223076 3.436221,4.715046 -1.341215,-1.405066 -2.717353,-5.617387 -0.447896,-1.863024 2.032755,3.568795 4.774749,5.883507 8.780477,6.73276 2.190057,0.745225 3.991169,3.306965 5.917116,2.743325 1.089051,2.871967 -3.227416,5.629887 0.144912,8.308597 1.760515,2.7118 4.716185,4.4904 3.11596,8.29758 -1.119073,3.71826 -0.639926,7.76974 -1.607786,11.23409 -0.300394,2.10873 2.938037,7.46101 2.65747,3.17511 0.945569,-2.9784 0.92064,-6.25562 3.147579,-8.36483 3.047115,0.02413 0.582377,-3.27775 3.60701,-2.84642 1.845644,-2.42007 2.380235,-5.30712 5.494915,-6.26809 0.37204,-2.9376 5.17882,-7.43659 0.21313,-8.580318 -1.3496,-0.665451 -4.8245,-0.904732 -4.558946,-1.233078 0.538034,-2.914877 -4.493466,-3.744701 -6.634228,-4.937269 -2.810759,-1.995848 -7.034237,3.315594 -8.024515,-1.261025 -0.590876,-1.439948 -2.751326,-1.463301 -1.758429,-3.68521 -1.789388,1.780326 -5.289343,1.23924 -4.373033,-2.198916 1.39157,-2.895595 6.735639,-3.032599 7.64626,0.450282 -1.264352,-3.841203 2.443938,-6.83143 4.502527,-9.564217 0.419165,-1.3062 2.909742,-2.428425 2.052679,-0.692421 1.460154,-0.05269 3.673291,-2.688637 1.079407,-1.472012 -0.03668,-2.403896 -2.272976,-1.720272 -2.997994,-1.378934 1.34377,-2.133574 8.24499,-0.967127 5.355098,-4.454587 -2.239305,-0.907679 -2.053024,-6.204449 -4.317999,-3.253597 0.190595,-1.818146 -4.610012,-5.377145 -4.505255,-2.328319 0.585986,2.728128 0.107133,5.870869 -1.139926,7.659113 -0.260245,-3.99762 -7.075678,-3.114085 -6.199423,-7.373995 1.26944,-2.030291 2.752851,-4.83791 2.894179,-4.585337 2.275048,-0.868941 4.104591,-3.396512 1.46783,-5.058122 -0.140917,1.448202 -1.98303,4.436139 -1.72366,0.822325 -1.705794,2.02318 -1.316199,-3.219407 -2.913753,-3.763121 z m 54.450001,1.402533 c -3.99594,0.977838 -5.58006,4.795836 -7.55681,7.958163 -2.91386,1.314237 -2.80294,6.958318 0.45241,5.155674 0.87128,1.522277 -0.60951,3.921673 1.92831,1.931216 2.047,-2.709901 0.35794,-7.092756 3.84142,-8.801515 0.25373,1.32865 -3.21333,6.289871 0.837,5.474405 3.66156,0.138209 -2.66186,0.364969 -0.88101,2.704729 -1.85026,-1.098211 -0.88882,2.999333 -3.30397,2.045788 -2.09233,1.138533 -3.46434,-0.528629 -2.98503,-2.35496 -1.64596,0.960573 0.51769,3.67045 -2.33959,3.83331 -0.64004,2.273659 -5.90338,1.930962 -2.91021,4.246159 1.3289,3.445358 -4.95153,0.215986 -3.16853,4.35053 1.52545,4.088438 4.7224,-1.354722 6.01944,-2.406348 2.50247,-1.941872 6.21066,3.311089 3.95876,3.506335 2.52508,-0.338912 2.00619,-2.74125 -0.017,-3.671301 -1.09268,-2.834933 3.45903,1.390324 3.2066,2.811683 1.60594,3.008346 0.94461,-3.080088 2.57885,-0.384565 -0.1908,2.843378 6.57418,0.668556 3.34439,4.292415 -2.77687,0.559513 -5.51013,-0.716143 -7.90083,0.100926 -2.22511,-0.01969 -2.11347,-2.397964 -2.92358,-2.993542 -2.83037,0.23004 -6.32794,0.204027 -8.22277,2.491404 -2.04902,2.812343 -5.00383,6.743795 -2.77053,10.334807 2.23488,5.321462 7.77719,0.276028 10.96298,3.418767 0.94693,1.310381 -0.8206,2.868035 1.29671,4.287425 0.7967,3.02353 -0.90449,5.89433 1.05226,8.78464 1.01184,2.7182 1.63978,6.78664 5.40576,4.30281 3.98577,-2.39945 2.92416,-6.8227 6.21294,-9.27265 -2.60227,-5.038063 3.18363,-7.247103 4.62722,-11.337101 -3.15394,0.461909 -5.96377,-2.68376 -6.72579,-5.84994 -1.32493,-1.537885 -0.98367,-3.805502 0.49633,-0.916468 2.03426,1.971905 2.07822,7.823061 5.84127,4.813019 1.72035,-0.719835 6.41861,-3.465723 2.67511,-4.71532 -2.41304,1.748397 -5.07525,-5.224262 -1.53182,-1.179972 2.57604,1.093303 4.37998,1.744706 4.37998,-1.880149 0,-9.766125 0,-19.664578 0,-29.496868 -0.8024,0.82028 -2.8638,2.335242 -3.90428,1.328569 -1.79037,0.249406 -4.15389,3.734285 -3.59125,0.365539 -1.55624,-0.103093 -0.27859,3.020534 -2.41664,3.107891 -0.21529,1.605887 -2.15987,0.297377 -1.42943,1.822369 -1.50065,-1.064875 -2.77067,-4.427041 0.18614,-2.316729 4.39102,-1.317844 -2.8956,-4.290405 -3.45804,-5.008905 0.94545,-0.226615 -1.02861,-1.212248 -1.26681,-0.88224 z m -36.239673,0.88224 c -1.461507,1.2182 2.778533,1.447612 0,0 z m -19.522376,0.656023 c -1.634652,1.710504 2.603281,1.572448 0,0 z m 9.478418,1.696613 c -1.237867,2.028578 1.829027,0.748943 0,0 z m 27.100581,2.39788 c -1.44923,1.669078 -3.36205,-0.439263 -3.39323,0.995347 0.26265,0.433474 1.31468,3.527292 3.61944,1.244183 1.23699,-0.52171 0.74997,-1.836879 -0.22621,-2.23953 z m -30.855754,0.995347 c -2.748806,2.401478 4.668304,2.622741 0.582324,0.275426 l -0.582324,-0.275426 z m 36.262294,6.650724 c -1.97908,1.291041 0.94944,4.032808 -0.0431,5.320723 -1.2401,2.161465 4.60833,-0.152255 1.48462,-1.87676 -0.22257,-1.481616 -1.83002,-3.289356 -1.44154,-3.443963 z m -1.33466,2.601473 c -2.7574,0.779858 -0.62597,4.806237 0.35065,1.013998 0.055,-0.219858 0.12936,-1.021351 -0.35065,-1.013998 z M 36.929913,31.39517 c -2.565224,1.749832 -0.39843,3.496444 1.481561,2.709121 -0.385959,-1.055763 -1.46417,-1.720956 -1.481561,-2.709121 z m 48.455297,2.940797 c 1.27995,0.646198 -2.34553,1.750082 -0.0498,2.887358 1.33598,1.571671 0.83231,4.945457 -1.3392,2.557643 0.40344,-2.665992 -2.94356,-4.656978 1.38903,-5.445001 z m -6.58287,0.02262 c -0.17366,1.712793 3.69395,4.375139 -0.47504,3.506334 -2.20475,0.258725 -5.50697,-0.06739 -2.72943,-2.815681 0.87765,-0.527085 3.18206,1.818498 1.98292,-0.373952 0.42514,-0.02713 0.82107,-0.187672 1.22155,-0.316701 z m -12.73591,3.709927 c -1.60811,1.036413 1.11198,1.831121 0,0 z M 25.687014,47.7279 c -0.271103,0.904805 5.085991,1.821755 1.389301,0.372149 L 26.525247,47.906003 25.687014,47.7279 z m 4.16236,1.289426 c -1.624915,1.650213 3.347807,0.493017 0,0 z M 84.18627,64.15112 c -3.53072,0.09113 -3.06133,9.20159 -0.60013,3.81083 0.2334,-1.16979 1.1689,-2.71377 0.60013,-3.81083 z"
         inkscape:connector-curvature="0"
         id="path3761"
         style="fill:#ff0000;fill-opacity:1;stroke:none;display:inline" />
    </clipPath>
    <clipPath
       id="clipPath3775">
      <rect
         width="84"
         height="84"
         rx="6"
         ry="6"
         x="56"
         y="6"
         id="rect3777"
         style="fill:#ff00ff;fill-opacity:1;fill-rule:nonzero;stroke:none" />
    </clipPath>
    <filter
       color-interpolation-filters="sRGB"
       id="filter3824">
      <feGaussianBlur
         id="feGaussianBlur3826"
         stdDeviation="2.2341589" />
    </filter>
    <radialGradient
       cx="48"
       cy="48"
       r="42"
       fx="48"
       fy="48"
       id="radialGradient3687"
       xlink:href="#linearGradient3700"
       gradientUnits="userSpaceOnUse" />
    <filter
       color-interpolation-filters="sRGB"
       id="filter3693">
      <feGaussianBlur
         id="feGaussianBlur3695"
         stdDeviation="3.2976812" />
    </filter>
    <linearGradient
       x1="59.98632"
       y1="46.666485"
       x2="66.577553"
       y2="43.787991"
       id="linearGradient3724"
       xlink:href="#linearGradient3718"
       gradientUnits="userSpaceOnUse" />
    <linearGradient
       x1="55.785435"
       y1="51.332993"
       x2="63.043865"
       y2="54.817482"
       id="linearGradient3732"
       xlink:href="#linearGradient3718"
       gradientUnits="userSpaceOnUse" />
    <linearGradient
       x1="40.02948"
       y1="90.848793"
       x2="65.460114"
       y2="46.801643"
       id="linearGradient3747"
       xlink:href="#linearGradient3741"
       gradientUnits="userSpaceOnUse" />
    <linearGradient
       x1="74.245033"
       y1="5.5680094"
       x2="74.314751"
       y2="7.688374"
       id="linearGradient3807"
       xlink:href="#linearGradient3801"
       gradientUnits="userSpaceOnUse" />
    <linearGradient
       x1="38.622047"
       y1="90.722885"
       x2="73.238274"
       y2="9.5494032"
       id="linearGradient3822"
       xlink:href="#linearGradient3741"
       gradientUnits="userSpaceOnUse" />
    <linearGradient
       x1="40.974636"
       y1="5.0116715"
       x2="40.974636"
       y2="9.20753"
       id="linearGradient3831"
       xlink:href="#linearGradient3801"
       gradientUnits="userSpaceOnUse" />
    <linearGradient
       x1="85.931198"
       y1="83.196152"
       x2="37.785179"
       y2="41.831745"
       id="linearGradient3846"
       xlink:href="#linearGradient3741"
       gradientUnits="userSpaceOnUse" />
    <linearGradient
       x1="48.846497"
       y1="16.161333"
       x2="74.012764"
       y2="71.307182"
       id="linearGradient3860"
       xlink:href="#linearGradient3801"
       gradientUnits="userSpaceOnUse" />
    <linearGradient
       id="linearGradient3795-4">
      <stop
         style="stop-color:#57cc52;stop-opacity:1;"
         offset="0"
         id="stop3797-0" />
      <stop
         style="stop-color:#59e160;stop-opacity:1;"
         offset="1"
         id="stop3799-5" />
    </linearGradient>
    <linearGradient
       inkscape:collect="always"
       id="linearGradient3914">
      <stop
         style="stop-color:#59b3e1;stop-opacity:1;"
         offset="0"
         id="stop3916" />
      <stop
         style="stop-color:#59b3e1;stop-opacity:0;"
         offset="1"
         id="stop3918" />
    </linearGradient>
    <linearGradient
       id="linearGradient3698-6">
      <stop
         id="stop3700-0"
         offset="0"
         style="stop-color:#96d0e1;stop-opacity:1" />
      <stop
         style="stop-color:#89b7e1;stop-opacity:1"
         offset="0.67819428"
         id="stop3706-32" />
      <stop
         id="stop3702-4"
         offset="1"
         style="stop-color:#699dd3;stop-opacity:1" />
    </linearGradient>
    <linearGradient
       id="linearGradient3708-91">
      <stop
         id="stop3710-05"
         offset="0"
         style="stop-color:#658db6;stop-opacity:1" />
      <stop
         style="stop-color:#527fab;stop-opacity:1;"
         offset="0.76777935"
         id="stop3716-09" />
      <stop
         id="stop3712-6"
         offset="1"
         style="stop-color:#4071a0;stop-opacity:1" />
    </linearGradient>
    <linearGradient
       id="linearGradient3750-07">
      <stop
         style="stop-color:#d0e2f1;stop-opacity:1"
         offset="0"
         id="stop3752-9" />
      <stop
         id="stop3756-7"
         offset="0.85580856"
         style="stop-color:#cadef0;stop-opacity:1" />
      <stop
         style="stop-color:#95bee3;stop-opacity:1"
         offset="1"
         id="stop3754-78" />
    </linearGradient>
    <linearGradient
       id="linearGradient3803-2">
      <stop
         id="stop3805-0"
         offset="0"
         style="stop-color:#d7def0;stop-opacity:1;" />
      <stop
         style="stop-color:#ffffff;stop-opacity:1"
         offset="0.5"
         id="stop3811-1" />
      <stop
         id="stop3807-9"
         offset="1"
         style="stop-color:#d5def0;stop-opacity:1" />
    </linearGradient>
    <linearGradient
       inkscape:collect="always"
       xlink:href="#linearGradient3914"
       id="linearGradient3920"
       x1="6.8000002"
       y1="25.0625"
       x2="45.325001"
       y2="25.0625"
       gradientUnits="userSpaceOnUse" />
    <linearGradient
       x1="59"
       y1="40"
       x2="69"
       y2="40"
       id="linearGradient4578"
       xlink:href="#linearGradient5932-3-2-4"
       gradientUnits="userSpaceOnUse" />
    <linearGradient
       id="linearGradient5932-3-2-4">
      <stop
         id="stop5934-3-2-9"
         style="stop-color:#ff7c53;stop-opacity:1"
         offset="0" />
      <stop
         id="stop5940-1-4-5"
         style="stop-color:#f21919;stop-opacity:1"
         offset="0.5" />
      <stop
         id="stop5942-5-4-7"
         style="stop-color:#db1414;stop-opacity:1"
         offset="0.5" />
      <stop
         id="stop5936-2-5-0"
         style="stop-color:#9b1818;stop-opacity:1"
         offset="1" />
    </linearGradient>
    <linearGradient
       x1="59"
       y1="88"
       x2="69"
       y2="88"
       id="linearGradient4580"
       xlink:href="#linearGradient5944-6-9-3"
       gradientUnits="userSpaceOnUse" />
    <linearGradient
       id="linearGradient5944-6-9-3">
      <stop
         id="stop5946-9-5-0"
         style="stop-color:#f0f0f0;stop-opacity:1"
         offset="0" />
      <stop
         id="stop5952-4-9-7"
         style="stop-color:#e6e6e6;stop-opacity:1"
         offset="0.5" />
      <stop
         id="stop5954-4-7-2"
         style="stop-color:#d2d2d2;stop-opacity:1"
         offset="0.5" />
      <stop
         id="stop5948-6-2-1"
         style="stop-color:#bebebe;stop-opacity:1"
         offset="1" />
    </linearGradient>
    <radialGradient
       cx="63.335083"
       cy="63.279507"
       r="1.7404202"
       fx="63.335083"
       fy="63.279507"
       id="radialGradient4582"
       xlink:href="#linearGradient5960-0-4-4"
       gradientUnits="userSpaceOnUse"
       gradientTransform="matrix(0.644005,-1.4508695e-6,1.4508659e-6,0.6440034,22.699101,22.755712)" />
    <linearGradient
       id="linearGradient5960-0-4-4">
      <stop
         id="stop5962-7-7-5"
         style="stop-color:#c1c1c1;stop-opacity:1"
         offset="0" />
      <stop
         id="stop5964-4-1-8"
         style="stop-color:#3f3f3f;stop-opacity:1"
         offset="1" />
    </linearGradient>
    <linearGradient
       id="linearGradient3795-1">
      <stop
         style="stop-color:#48af7a;stop-opacity:1;"
         offset="0"
         id="stop3797-4" />
      <stop
         style="stop-color:#67e7d2;stop-opacity:1;"
         offset="1"
         id="stop3799-1" />
    </linearGradient>
    <linearGradient
       id="linearGradient3698-5">
      <stop
         id="stop3700-4"
         offset="0"
         style="stop-color:#96d0e1;stop-opacity:1" />
      <stop
         style="stop-color:#89b7e1;stop-opacity:1"
         offset="0.67819428"
         id="stop3706-9" />
      <stop
         id="stop3702-8"
         offset="1"
         style="stop-color:#699dd3;stop-opacity:1" />
    </linearGradient>
    <linearGradient
       id="linearGradient3708-9">
      <stop
         id="stop3710-0"
         offset="0"
         style="stop-color:#658db6;stop-opacity:1" />
      <stop
         style="stop-color:#527fab;stop-opacity:1;"
         offset="0.76777935"
         id="stop3716-0" />
      <stop
         id="stop3712-0"
         offset="1"
         style="stop-color:#4071a0;stop-opacity:1" />
    </linearGradient>
    <linearGradient
       id="linearGradient3750-0">
      <stop
         style="stop-color:#d0e2f1;stop-opacity:1"
         offset="0"
         id="stop3752-1" />
      <stop
         id="stop3756-3"
         offset="0.85580856"
         style="stop-color:#cadef0;stop-opacity:1" />
      <stop
         style="stop-color:#95bee3;stop-opacity:1"
         offset="1"
         id="stop3754-7" />
    </linearGradient>
    <linearGradient
       id="linearGradient3803-3">
      <stop
         id="stop3805-8"
         offset="0"
         style="stop-color:#d7def0;stop-opacity:1;" />
      <stop
         style="stop-color:#ffffff;stop-opacity:1"
         offset="0.5"
         id="stop3811-4" />
      <stop
         id="stop3807-0"
         offset="1"
         style="stop-color:#d5def0;stop-opacity:1" />
    </linearGradient>
    <linearGradient
       inkscape:collect="always"
       xlink:href="#linearGradient3795-1"
       id="linearGradient3801-9"
       x1="23.204165"
       y1="1053.158"
       x2="23.204165"
       y2="1004.8474"
       gradientUnits="userSpaceOnUse" />
    <linearGradient
       inkscape:collect="always"
       xlink:href="#linearGradient3919"
       id="linearGradient4038"
       x1="260.03125"
       y1="92.121216"
       x2="260.03125"
       y2="419.87878"
       gradientUnits="userSpaceOnUse" />
    <linearGradient
       id="linearGradient3919">
      <stop
         id="stop3921"
         offset="0"
         style="stop-color:#00a070;stop-opacity:1;" />
      <stop
         id="stop3923"
         offset="1"
         style="stop-color:#11ffeb;stop-opacity:1;" />
    </linearGradient>
    <clipPath
       clipPathUnits="userSpaceOnUse"
       id="clipPath4063">
      <path
         style="fill:url(#linearGradient4067);fill-opacity:1;stroke:none"
         d="M 240,92.121216 240,129 c -52.45501,6.5377 -95.05053,44.80985 -107.96875,95 l 33.1875,0 c 13.61057,-36.22794 49.64746,-64.48252 89.03125,-64.21875 0.95497,-0.0253 1.92176,-0.0369 2.875,-0.0312 14.29865,0.0853 28.35374,3.63533 41.09375,10 22.94737,10.32987 39.98645,30.74431 48.3125,54.25 l 33.4375,0 C 367.05053,173.80985 324.45501,135.5377 272,129 l 0,-36.878784 z M 132.03125,288 C 144.94947,338.19015 187.54499,376.4623 240,383 l 0,36.87878 32,0 L 272,383 c 52.45501,-6.5377 95.05053,-44.80985 107.96875,-95 L 347,288 c -12.9362,38.16182 -52.91943,65.60507 -93.34375,64.1875 -39.35846,0.19888 -75.06281,-27.91764 -88.375,-64.1875 z"
         id="path4065"
         clip-path="url(#clipPath4127-2)"
         inkscape:connector-curvature="0"
         sodipodi:nodetypes="cccccccccccccccccccccc" />
    </clipPath>
    <linearGradient
       y2="419.87878"
       x2="260.03125"
       y1="92.121216"
       x1="260.03125"
       gradientUnits="userSpaceOnUse"
       id="linearGradient3202-6"
       xlink:href="#linearGradient3919"
       inkscape:collect="always" />
    <clipPath
       clipPathUnits="userSpaceOnUse"
       id="clipPath4254">
      <path
         style="fill:url(#linearGradient4258);fill-opacity:1;stroke:none;display:inline"
         d="m 256,176 c -44.18278,0 -80,35.64044 -80,80 0,0 -0.53033,7.51472 1.76777,16 l 122.85723,0 c -3.3167,9.26456 -9.26562,17.57666 -17.34375,23.125 -18.58481,14.67263 -46.73117,9.33733 -62.5625,-7.125 l -38.03125,0 c 12.35038,28.24167 40.51668,48 73.3125,48 44.18278,0 80,-35.81722 80,-80 0,0 0,-8.22183 -1.59099,-16 L 211.5,240 c 6.91612,-17.48162 23.43148,-31.64803 42.625,-31.8125 0.96047,-0.0463 1.91732,-0.0507 2.875,-0.0312 12.86627,0.2609 25.35078,6.36236 34.03125,15.84375 l 38.28125,0 C 316.96212,195.75833 288.79582,176 256,176 z"
         id="path4256"
         inkscape:connector-curvature="0"
         sodipodi:nodetypes="sscccccsscccsccs"
         clip-path="url(#clipPath4174-8)"
         transform="translate(0,-1.7889608)" />
    </clipPath>
    <linearGradient
       y2="1049.5842"
       x2="24.113745"
       y1="1007.2183"
       x1="24.113745"
       gradientTransform="matrix(0.96799712,0,0,1.0252613,0.76812014,-25.977808)"
       gradientUnits="userSpaceOnUse"
       id="linearGradient3030"
       xlink:href="#linearGradient3795-5"
       inkscape:collect="always" />
    <linearGradient
       id="linearGradient3795-5">
      <stop
         style="stop-color:#68b8d8;stop-opacity:1;"
         offset="0"
         id="stop3797-2" />
      <stop
         style="stop-color:#3097bd;stop-opacity:1;"
         offset="1"
         id="stop3799-7" />
    </linearGradient>
    <linearGradient
       y2="1042.373"
       x2="24.113745"
       y1="1007.2183"
       x1="24.113745"
       gradientTransform="matrix(0.96799712,0,0,1.0252613,0.768119,-25.978171)"
       gradientUnits="userSpaceOnUse"
       id="linearGradient3202-8"
       xlink:href="#linearGradient1390"
       inkscape:collect="always" />
    <linearGradient
       id="linearGradient3899-9">
      <stop
         offset="0"
         style="stop-color:#fafafa;stop-opacity:1"
         id="stop3901-3" />
      <stop
         offset="1"
         style="stop-color:#e1e1e1;stop-opacity:1"
         id="stop3903-0" />
    </linearGradient>
    <linearGradient
       y2="989.64728"
       x2="251.56421"
       y1="625.38135"
       x1="251.56421"
       gradientTransform="matrix(0.0658217,0,0,0.0658217,13.852962,977.04244)"
       gradientUnits="userSpaceOnUse"
       id="linearGradient3075"
       xlink:href="#linearGradient3899-9"
       inkscape:collect="always" />
    <linearGradient
       id="linearGradient3202">
      <stop
         offset="0"
         style="stop-color:#ffffff;stop-opacity:1"
         id="stop3204" />
      <stop
         offset="1"
         style="stop-color:#ced3d6;stop-opacity:1"
         id="stop3206" />
    </linearGradient>
    <linearGradient
       gradientTransform="matrix(0.32811093,0,0,0.34059034,6.3606404,3.973393)"
       gradientUnits="userSpaceOnUse"
       xlink:href="#linearGradient3202"
       id="linearGradient2928"
       y2="226.17993"
       x2="116.29638"
       y1="32.374962"
       x1="116.29638" />
    <linearGradient
       id="linearGradient3028">
      <stop
         id="stop3030"
         offset="0"
         style="stop-color:#60b5cc;stop-opacity:1;" />
      <stop
         id="stop3032"
         offset="1"
         style="stop-color:#ffffff;stop-opacity:1;" />
    </linearGradient>
    <linearGradient
       y2="165.946"
       x2="175.71454"
       y1="89.953423"
       x1="136.74812"
       gradientTransform="matrix(1.001916,0,0,1,-927.00055,142.24199)"
       gradientUnits="userSpaceOnUse"
       id="linearGradient6004"
       xlink:href="#linearGradient3013-3"
       inkscape:collect="always" />
    <linearGradient
       id="linearGradient3021">
      <stop
         id="stop3023"
         offset="0"
         style="stop-color:#60b5cc;stop-opacity:1;" />
      <stop
         id="stop3025"
         offset="1"
         style="stop-color:#ffffff;stop-opacity:1;" />
    </linearGradient>
    <linearGradient
       y2="165.946"
       x2="175.71454"
       y1="89.953423"
       x1="136.74812"
       gradientTransform="matrix(-1.001916,0,0,1,-560.92501,142.24199)"
       gradientUnits="userSpaceOnUse"
       id="linearGradient6002"
       xlink:href="#linearGradient3013-3"
       inkscape:collect="always" />
    <linearGradient
       id="linearGradient3013-3">
      <stop
         id="stop3015-0"
         offset="0"
         style="stop-color:#414141;stop-opacity:0;" />
      <stop
         id="stop3017-7"
         offset="1"
         style="stop-color:#ffffff;stop-opacity:1;" />
    </linearGradient>
    <linearGradient
       id="linearGradient3013">
      <stop
         id="stop3015"
         offset="0"
         style="stop-color:#60b5cc;stop-opacity:1;" />
      <stop
         id="stop3017"
         offset="1"
         style="stop-color:#ffffff;stop-opacity:1;" />
    </linearGradient>
    <linearGradient
       gradientUnits="userSpaceOnUse"
       y2="24.798252"
       x2="42.475323"
       y1="34.43922"
       x1="21.973417"
       id="linearGradient3895-9"
       xlink:href="#linearGradient3795-17"
       inkscape:collect="always" />
    <linearGradient
       y2="1030.9086"
       x2="31.448042"
       y1="1006.2238"
       x1="17.196316"
       gradientUnits="userSpaceOnUse"
       id="linearGradient3879-6"
       xlink:href="#linearGradient3795-17"
       inkscape:collect="always" />
    <linearGradient
       y2="1015.5485"
       x2="22.811094"
       y1="1027.8575"
       x1="29.718235"
       gradientUnits="userSpaceOnUse"
       id="linearGradient3877-0"
       xlink:href="#linearGradient3795-17"
       inkscape:collect="always" />
    <linearGradient
       y2="1024.0002"
       x2="28.641211"
       y1="1024.0002"
       x1="26.192217"
       gradientUnits="userSpaceOnUse"
       id="linearGradient3871-7"
       xlink:href="#linearGradient3795-17"
       inkscape:collect="always" />
    <linearGradient
       y2="1024.0002"
       x2="28.641211"
       y1="1024.0002"
       x1="26.192217"
       gradientUnits="userSpaceOnUse"
       id="linearGradient3869-7"
       xlink:href="#linearGradient3795-17"
       inkscape:collect="always" />
    <linearGradient
       y2="1024.0002"
       x2="28.641211"
       y1="1024.0002"
       x1="26.192217"
       gradientUnits="userSpaceOnUse"
       id="linearGradient3867-6"
       xlink:href="#linearGradient3795-17"
       inkscape:collect="always" />
    <linearGradient
       gradientUnits="userSpaceOnUse"
       y2="1024.0002"
       x2="28.641211"
       y1="1024.0002"
       x1="26.192217"
       id="linearGradient3859-1"
       xlink:href="#linearGradient3795-17"
       inkscape:collect="always" />
    <linearGradient
       id="linearGradient3803-8">
      <stop
         style="stop-color:#d7def0;stop-opacity:1;"
         offset="0"
         id="stop3805-1" />
      <stop
         id="stop3811-3"
         offset="0.5"
         style="stop-color:#ffffff;stop-opacity:1" />
      <stop
         style="stop-color:#d5def0;stop-opacity:1"
         offset="1"
         id="stop3807-8" />
    </linearGradient>
    <linearGradient
       id="linearGradient3750-6">
      <stop
         id="stop3752-0"
         offset="0"
         style="stop-color:#d0e2f1;stop-opacity:1" />
      <stop
         style="stop-color:#cadef0;stop-opacity:1"
         offset="0.85580856"
         id="stop3756-39" />
      <stop
         id="stop3754-4"
         offset="1"
         style="stop-color:#95bee3;stop-opacity:1" />
    </linearGradient>
    <linearGradient
       id="linearGradient3708-2">
      <stop
         style="stop-color:#658db6;stop-opacity:1"
         offset="0"
         id="stop3710-1" />
      <stop
         id="stop3716-7"
         offset="0.76777935"
         style="stop-color:#527fab;stop-opacity:1;" />
      <stop
         style="stop-color:#4071a0;stop-opacity:1"
         offset="1"
         id="stop3712-07" />
    </linearGradient>
    <linearGradient
       id="linearGradient3698-7">
      <stop
         style="stop-color:#96d0e1;stop-opacity:1"
         offset="0"
         id="stop3700-44" />
      <stop
         id="stop3706-3"
         offset="0.67819428"
         style="stop-color:#89b7e1;stop-opacity:1" />
      <stop
         style="stop-color:#699dd3;stop-opacity:1"
         offset="1"
         id="stop3702-2" />
    </linearGradient>
    <linearGradient
       id="linearGradient3795-17">
      <stop
         id="stop3797-46"
         offset="0"
         style="stop-color:#74bef2;stop-opacity:1;" />
      <stop
         id="stop3799-73"
         offset="1"
         style="stop-color:#1482cf;stop-opacity:1;" />
    </linearGradient>
    <linearGradient
       gradientUnits="userSpaceOnUse"
       y2="24.798252"
       x2="42.475323"
       y1="34.43922"
       x1="21.973417"
       id="linearGradient3895-90"
       xlink:href="#linearGradient3795-6"
       inkscape:collect="always" />
    <linearGradient
       y2="1030.9086"
       x2="31.448042"
       y1="1006.2238"
       x1="17.196316"
       gradientUnits="userSpaceOnUse"
       id="linearGradient3879-8"
       xlink:href="#linearGradient3795-6"
       inkscape:collect="always" />
    <linearGradient
       y2="1015.5485"
       x2="22.811094"
       y1="1027.8575"
       x1="29.718235"
       gradientUnits="userSpaceOnUse"
       id="linearGradient3877-5"
       xlink:href="#linearGradient3795-6"
       inkscape:collect="always" />
    <linearGradient
       y2="1024.0002"
       x2="28.641211"
       y1="1024.0002"
       x1="26.192217"
       gradientUnits="userSpaceOnUse"
       id="linearGradient3871-3"
       xlink:href="#linearGradient3795-6"
       inkscape:collect="always" />
    <linearGradient
       y2="1024.0002"
       x2="28.641211"
       y1="1024.0002"
       x1="26.192217"
       gradientUnits="userSpaceOnUse"
       id="linearGradient3869-3"
       xlink:href="#linearGradient3795-6"
       inkscape:collect="always" />
    <linearGradient
       y2="1024.0002"
       x2="28.641211"
       y1="1024.0002"
       x1="26.192217"
       gradientUnits="userSpaceOnUse"
       id="linearGradient3867-4"
       xlink:href="#linearGradient3795-6"
       inkscape:collect="always" />
    <linearGradient
       gradientUnits="userSpaceOnUse"
       y2="1024.0002"
       x2="28.641211"
       y1="1024.0002"
       x1="26.192217"
       id="linearGradient3859-5"
       xlink:href="#linearGradient3795-6"
       inkscape:collect="always" />
    <linearGradient
       id="linearGradient3803-1">
      <stop
         style="stop-color:#d7def0;stop-opacity:1;"
         offset="0"
         id="stop3805-3" />
      <stop
         id="stop3811-5"
         offset="0.5"
         style="stop-color:#ffffff;stop-opacity:1" />
      <stop
         style="stop-color:#d5def0;stop-opacity:1"
         offset="1"
         id="stop3807-1" />
    </linearGradient>
    <linearGradient
       id="linearGradient3750-5">
      <stop
         id="stop3752-2"
         offset="0"
         style="stop-color:#d0e2f1;stop-opacity:1" />
      <stop
         style="stop-color:#cadef0;stop-opacity:1"
         offset="0.85580856"
         id="stop3756-38" />
      <stop
         id="stop3754-8"
         offset="1"
         style="stop-color:#95bee3;stop-opacity:1" />
    </linearGradient>
    <linearGradient
       id="linearGradient3708-1">
      <stop
         style="stop-color:#658db6;stop-opacity:1"
         offset="0"
         id="stop3710-06" />
      <stop
         id="stop3716-07"
         offset="0.76777935"
         style="stop-color:#527fab;stop-opacity:1;" />
      <stop
         style="stop-color:#4071a0;stop-opacity:1"
         offset="1"
         id="stop3712-1" />
    </linearGradient>
    <linearGradient
       id="linearGradient3698-8">
      <stop
         style="stop-color:#96d0e1;stop-opacity:1"
         offset="0"
         id="stop3700-3" />
      <stop
         id="stop3706-2"
         offset="0.67819428"
         style="stop-color:#89b7e1;stop-opacity:1" />
      <stop
         style="stop-color:#699dd3;stop-opacity:1"
         offset="1"
         id="stop3702-7" />
    </linearGradient>
    <linearGradient
       id="linearGradient3795-6">
      <stop
         id="stop3797-9"
         offset="0"
         style="stop-color:#68b2b8;stop-opacity:1;" />
      <stop
         id="stop3799-6"
         offset="1"
         style="stop-color:#308b97;stop-opacity:1;" />
    </linearGradient>
    <radialGradient
       inkscape:collect="always"
       xlink:href="#linearGradient1415"
       id="radialGradient1413"
       cx="12.171875"
       cy="23.8125"
       fx="12.171875"
       fy="23.8125"
       r="6.7735186"
       gradientTransform="matrix(1,0,0,0.99769322,0,0.05493014)"
       gradientUnits="userSpaceOnUse" />
    <radialGradient
       inkscape:collect="always"
       xlink:href="#linearGradient1433"
       id="radialGradient1439"
       cx="28.071682"
       cy="24.703199"
       fx="28.071682"
       fy="24.703199"
       r="2.2719195"
       gradientUnits="userSpaceOnUse"
       gradientTransform="matrix(1.4112147,4.5311957e-7,-3.9910535e-7,1.2429905,-11.543478,-6.0026565)" />
    <radialGradient
       inkscape:collect="always"
       xlink:href="#linearGradient1445"
       id="radialGradient1443"
       gradientUnits="userSpaceOnUse"
       gradientTransform="matrix(1.4112147,4.5311957e-7,-3.9910535e-7,1.2429905,-11.543478,-6.0026565)"
       cx="28.071682"
       cy="24.703199"
       fx="28.071682"
       fy="24.703199"
       r="2.2719195" />
    <radialGradient
       inkscape:collect="always"
       xlink:href="#linearGradient1459"
       id="radialGradient1455"
       gradientUnits="userSpaceOnUse"
       gradientTransform="matrix(1.4112147,4.5311957e-7,-3.9910535e-7,1.2429905,-11.543478,-6.0026565)"
       cx="28.071682"
       cy="24.703199"
       fx="28.071682"
       fy="24.703199"
       r="2.2719195" />
    <radialGradient
       inkscape:collect="always"
       xlink:href="#linearGradient1465"
       id="radialGradient1457"
       gradientUnits="userSpaceOnUse"
       gradientTransform="matrix(1.4112147,4.5311957e-7,-3.9910535e-7,1.2429905,-11.543478,-6.0026565)"
       cx="28.071682"
       cy="24.703199"
       fx="28.071682"
       fy="24.703199"
       r="2.2719195" />
    <linearGradient
       inkscape:collect="always"
       xlink:href="#linearGradient1481"
       id="linearGradient1479"
       x1="18.297644"
       y1="33.704964"
       x2="18.297644"
       y2="35.175312"
       gradientUnits="userSpaceOnUse"
       gradientTransform="matrix(0.87854251,0,0,1,-740.93184,714.25791)" />
    <linearGradient
       inkscape:collect="always"
       xlink:href="#linearGradient1481"
       id="linearGradient1489"
       gradientUnits="userSpaceOnUse"
       gradientTransform="matrix(0.87854251,0,0,1,-736.62792,718.56185)"
       x1="18.297644"
       y1="33.704964"
       x2="18.297644"
       y2="35.175312" />
  </defs>
  <sodipodi:namedview
     id="base"
     pagecolor="#ffffff"
     bordercolor="#666666"
     borderopacity="1.0"
     inkscape:pageopacity="0.0"
     inkscape:pageshadow="2"
     inkscape:zoom="6.4923077"
     inkscape:cx="6.5570481"
     inkscape:cy="29.40067"
     inkscape:document-units="px"
     inkscape:current-layer="layer1"
     showgrid="false"
     inkscape:window-width="1920"
     inkscape:window-height="1035"
     inkscape:window-x="0"
     inkscape:window-y="26"
     inkscape:window-maximized="1">
    <inkscape:grid
       type="xygrid"
       id="grid3850" />
  </sodipodi:namedview>
  <metadata
     id="metadata7">
    <rdf:RDF>
      <cc:Work
         rdf:about="">
        <dc:format>image/svg+xml</dc:format>
        <dc:type
           rdf:resource="http://purl.org/dc/dcmitype/StillImage" />
        <dc:title />
      </cc:Work>
    </rdf:RDF>
  </metadata>
  <g
     inkscape:label="Capa 1"
     inkscape:groupmode="layer"
     id="layer1"
     transform="translate(0,-1004.3622)">
    <g
       id="layer2"
       style="display:none"
       transform="translate(-114.90644,924.81798)">
      <rect
         width="86"
         height="85"
         rx="6"
         ry="6"
         x="5"
         y="7"
         id="rect3745"
         style="opacity:0.9;fill:url(#ButtonShadow);fill-opacity:1;fill-rule:nonzero;stroke:none;filter:url(#filter3174)" />
    </g>
    <g
       id="layer4"
       style="display:none"
       transform="translate(-114.90644,924.81798)">
      <rect
         width="66"
         height="66"
         rx="12"
         ry="12"
         x="15"
         y="15"
         clip-path="url(#clipPath3613)"
         id="rect3171"
         style="opacity:0.15;fill:url(#linearGradient2885);fill-opacity:1;fill-rule:nonzero;stroke:#ffffff;stroke-width:0.5;stroke-linecap:round;stroke-linejoin:miter;stroke-miterlimit:4;stroke-opacity:1;stroke-dasharray:none;stroke-dashoffset:0;filter:url(#filter3794)" />
    </g>
    <path
       inkscape:connector-curvature="0"
       style="fill:url(#linearGradient3202-8);fill-opacity:1;stroke:#7d7d7d;stroke-width:0.39848712;stroke-miterlimit:4;stroke-opacity:1"
       d="m 7.374779,1006.0614 33.250442,0 c 3.144247,0 5.675536,2.5313 5.675536,5.6755 l 0,33.2506 c 0,3.1442 -2.531289,5.6755 -5.675536,5.6755 l -33.250442,0 c -3.144247,0 -5.675536,-2.5313 -5.675536,-5.6755 l 0,-33.2506 c 0,-3.1441 2.531289,-5.6755 5.675536,-5.6755 z"
       id="rect2992" />
    <rect
       style="fill:#e6e6e6;fill-opacity:1;stroke:#4d4d4d;stroke-width:1;stroke-linecap:round;stroke-linejoin:round;stroke-miterlimit:4;stroke-opacity:1;stroke-dasharray:none"
       id="rect1402"
       width="0.43565804"
       height="0"
       x="15.248037"
       y="17.503925"
       transform="translate(0,1004.3622)"
       ry="0" />
    <g
       id="g1491"
       transform="translate(0,0.41352535)">
      <path
         transform="translate(3.6966825,1007.5968)"
         d="m 16.943129,20.582939 c 0,4.678716 -3.792849,8.471564 -8.4715647,8.471564 C 3.7928485,29.054503 0,25.261655 0,20.582939 c 0,-4.678716 3.7928485,-8.471564 8.4715643,-8.471564 4.6787157,0 8.4715647,3.792848 8.4715647,8.471564 z"
         sodipodi:ry="8.4715643"
         sodipodi:rx="8.4715643"
         sodipodi:cy="20.582939"
         sodipodi:cx="8.4715643"
         id="path1396"
         style="fill:#cccccc;fill-opacity:1;stroke:#4d4d4d;stroke-width:0.5;stroke-miterlimit:4;stroke-dasharray:none"
         sodipodi:type="arc" />
      <path
         sodipodi:type="arc"
         style="fill:#666666;fill-opacity:1;stroke:#4d4d4d"
         id="path1398"
         sodipodi:cx="8.4715643"
         sodipodi:cy="20.582939"
         sodipodi:rx="8.4715643"
         sodipodi:ry="8.4715643"
         d="m 16.943129,20.582939 c 0,4.678716 -3.792849,8.471564 -8.4715647,8.471564 C 3.7928485,29.054503 0,25.261655 0,20.582939 c 0,-4.678716 3.7928485,-8.471564 8.4715643,-8.471564 4.6787157,0 8.4715647,3.792848 8.4715647,8.471564 z"
         transform="matrix(1.1727273,0,0,1.1727273,24.028436,1003.8105)" />
      <path
         id="rect1400"
         transform="translate(0,1004.3622)"
         d="m 10.0625,17.46875 0,4.25 -4.25,0 0,4.1875 4.25,0 0,4.25 4.21875,0 0,-4.25 4.25,0 0,-4.1875 -4.25,0 0,-4.25 -4.21875,0 z"
         style="fill:url(#radialGradient1413);fill-opacity:1;stroke:#4d4d4d;stroke-width:0.528;stroke-linecap:round;stroke-linejoin:round;stroke-miterlimit:4;stroke-opacity:1;stroke-dasharray:none"
         inkscape:connector-curvature="0" />
      <g
         transform="matrix(0.94639766,0.05360234,0.05360234,0.94639766,-53.855305,51.653926)"
         id="g1427">
        <rect
           style="fill:#cccccc;fill-opacity:1;stroke:#cccccc;stroke-width:0.48992825;stroke-linecap:round;stroke-linejoin:round;stroke-miterlimit:4;stroke-opacity:1;stroke-dasharray:none"
           id="rect1421"
           width="12.717418"
           height="3.7837687"
           x="-710.0567"
           y="747.65735"
           ry="1.8918843"
           transform="matrix(0.70710678,-0.70710678,0.70710678,0.70710678,0,0)" />
        <rect
           ry="1.8918843"
           y="753.43347"
           x="-710.0567"
           height="3.7837687"
           width="12.717418"
           id="rect1425"
           style="fill:#cccccc;fill-opacity:1;stroke:#cccccc;stroke-width:0.48992825;stroke-linecap:round;stroke-linejoin:round;stroke-miterlimit:4;stroke-opacity:1;stroke-dasharray:none"
           transform="matrix(0.70710678,-0.70710678,0.70710678,0.70710678,0,0)" />
      </g>
      <path
         transform="matrix(0.90677966,0,0,0.90677966,3.725373,1006.2048)"
         d="m 30.343601,24.703199 c 0,1.254747 -1.017173,2.27192 -2.271919,2.27192 -1.254747,0 -2.27192,-1.017173 -2.27192,-2.27192 0,-1.254746 1.017173,-2.271919 2.27192,-2.271919 1.254746,0 2.271919,1.017173 2.271919,2.271919 z"
         sodipodi:ry="2.2719195"
         sodipodi:rx="2.2719195"
         sodipodi:cy="24.703199"
         sodipodi:cx="28.071682"
         id="path1431"
         style="fill:url(#radialGradient1439);fill-opacity:1;stroke:none"
         sodipodi:type="arc" />
      <path
         sodipodi:type="arc"
         style="fill:url(#radialGradient1443);fill-opacity:1;stroke:none"
         id="path1441"
         sodipodi:cx="28.071682"
         sodipodi:cy="24.703199"
         sodipodi:rx="2.2719195"
         sodipodi:ry="2.2719195"
         d="m 30.343601,24.703199 c 0,1.254747 -1.017173,2.27192 -2.271919,2.27192 -1.254747,0 -2.27192,-1.017173 -2.27192,-2.27192 0,-1.254746 1.017173,-2.271919 2.27192,-2.271919 1.254746,0 2.271919,1.017173 2.271919,2.271919 z"
         transform="matrix(0.90677966,0,0,0.90677966,9.1497277,1000.7805)" />
      <path
         sodipodi:type="arc"
         style="fill:url(#radialGradient1455);fill-opacity:1;stroke:none"
         id="path1451"
         sodipodi:cx="28.071682"
         sodipodi:cy="24.703199"
         sodipodi:rx="2.2719195"
         sodipodi:ry="2.2719195"
         d="m 30.343601,24.703199 c 0,1.254747 -1.017173,2.27192 -2.271919,2.27192 -1.254747,0 -2.27192,-1.017173 -2.27192,-2.27192 0,-1.254746 1.017173,-2.271919 2.27192,-2.271919 1.254746,0 2.271919,1.017173 2.271919,2.271919 z"
         transform="matrix(0.90677966,0,0,0.90677966,7.9034337,1010.3829)" />
      <path
         transform="matrix(0.90677966,0,0,0.90677966,13.327788,1004.9585)"
         d="m 30.343601,24.703199 c 0,1.254747 -1.017173,2.27192 -2.271919,2.27192 -1.254747,0 -2.27192,-1.017173 -2.27192,-2.27192 0,-1.254746 1.017173,-2.271919 2.27192,-2.271919 1.254746,0 2.271919,1.017173 2.271919,2.271919 z"
         sodipodi:ry="2.2719195"
         sodipodi:rx="2.2719195"
         sodipodi:cy="24.703199"
         sodipodi:cx="28.071682"
         id="path1453"
         style="fill:url(#radialGradient1457);fill-opacity:1;stroke:none"
         sodipodi:type="arc" />
    </g>
    <rect
       style="fill:url(#linearGradient1479);fill-opacity:1;stroke:#4d4d4d;stroke-width:0.4;stroke-miterlimit:4;stroke-dasharray:none"
       id="rect1471"
       width="11.817228"
       height="1.5792609"
       x="-730.93262"
       y="748.42572"
       ry="0.78963047"
       transform="matrix(0.70710678,-0.70710678,0.70710678,0.70710678,0,0)" />
    <rect
       ry="0.78963047"
       y="752.72961"
       x="-726.62872"
       height="1.5792609"
       width="11.817228"
       id="rect1487"
       style="fill:url(#linearGradient1489);fill-opacity:1;stroke:#4d4d4d;stroke-width:0.4;stroke-miterlimit:4;stroke-dasharray:none"
       transform="matrix(0.70710678,-0.70710678,0.70710678,0.70710678,0,0)" />
  </g>
</svg>
