<?xml version="1.0" encoding="UTF-8" standalone="no"?>
<!-- Created with Inkscape (http://www.inkscape.org/) -->

<svg
   xmlns:dc="http://purl.org/dc/elements/1.1/"
   xmlns:cc="http://creativecommons.org/ns#"
   xmlns:rdf="http://www.w3.org/1999/02/22-rdf-syntax-ns#"
   xmlns:svg="http://www.w3.org/2000/svg"
   xmlns="http://www.w3.org/2000/svg"
   xmlns:sodipodi="http://sodipodi.sourceforge.net/DTD/sodipodi-0.dtd"
   xmlns:inkscape="http://www.inkscape.org/namespaces/inkscape"
   width="48"
   height="48"
   id="svg2"
   version="1.1"
   inkscape:version="0.48+devel r11731"
   sodipodi:docname="network-idle.svg">
  <defs
     id="defs4" />
  <sodipodi:namedview
     id="base"
     pagecolor="#ffffff"
     bordercolor="#666666"
     borderopacity="1.0"
     inkscape:pageopacity="0.0"
     inkscape:pageshadow="2"
     inkscape:zoom="5.6568542"
     inkscape:cx="-41.926134"
     inkscape:cy="31.756076"
     inkscape:document-units="px"
     inkscape:current-layer="layer1"
     showgrid="false"
     inkscape:window-width="1366"
     inkscape:window-height="746"
     inkscape:window-x="0"
     inkscape:window-y="0"
     inkscape:window-maximized="1">
    <inkscape:grid
       type="xygrid"
       id="grid3013"
       empspacing="5"
       visible="true"
       enabled="true"
       snapvisiblegridlinesonly="true" />
  </sodipodi:namedview>
  <metadata
     id="metadata7">
    <rdf:RDF>
      <cc:Work
         rdf:about="">
        <dc:format>image/svg+xml</dc:format>
        <dc:type
           rdf:resource="http://purl.org/dc/dcmitype/StillImage" />
        <dc:title />
      </cc:Work>
    </rdf:RDF>
  </metadata>
  <g
     inkscape:label="Capa 1"
     inkscape:groupmode="layer"
     id="layer1"
     transform="translate(0,-1004.3622)">
    <g
       id="g3820"
       transform="matrix(0,-2.7494229,2.7494229,0,-2853.7386,1077.4416)"
       style="stroke:#b3b3b3">
      <g
         id="g3816"
         style="stroke:#b3b3b3">
        <path
           style="fill:none;stroke:#b3b3b3;stroke-width:0.7986111px;stroke-linecap:butt;stroke-linejoin:miter;stroke-opacity:1"
           d="m 24.436487,22.467956 0,0.595044 -9.350695,0 0,-3.6936"
           id="path3806"
           transform="translate(0,1004.3622)"
           inkscape:connector-curvature="0" />
        <path
           style="fill:none;stroke:#b3b3b3;stroke-width:0.7986111px;stroke-linecap:butt;stroke-linejoin:miter;stroke-opacity:1"
           d="m 10.788377,1024.3805 4.297415,0 0,-3.3442 9.350695,0 0,0.595"
           id="path3031"
           inkscape:connector-curvature="0"
           sodipodi:nodetypes="ccccc" />
      </g>
      <g
         transform="translate(0,0.2748)"
         id="g3812"
         style="stroke:#b3b3b3">
        <path
           style="fill:none;stroke:#b3b3b3;stroke-width:1px;stroke-linecap:butt;stroke-linejoin:miter;stroke-opacity:1"
           d="m 20.3125,18.3125 4.5,0"
           id="path3808"
           inkscape:connector-curvature="0"
           transform="translate(0,1004.3622)" />
        <path
           inkscape:connector-curvature="0"
           id="path3810"
           d="m 20.3125,1025.2372 4.5,0"
           style="fill:none;stroke:#b3b3b3;stroke-width:1px;stroke-linecap:butt;stroke-linejoin:miter;stroke-opacity:1" />
      </g>
    </g>
    <rect
       style="fill:none;stroke:none;stroke-width:0.29508588000000002;stroke-linecap:butt;stroke-linejoin:miter;stroke-miterlimit:4;stroke-opacity:1;stroke-dasharray:none"
       id="rect3841"
       width="47.704914"
       height="47.704914"
       x="0.14754294"
       y="1004.5098" />
    <path
       style="fill:#4d4d4d;fill-opacity:1;fill-rule:nonzero;stroke:none"
       d="m 24.019183,1006.1908 c -8.930112,0 -16.1910523,7.2225 -16.1910523,16.1527 0,8.9301 7.2609403,16.1911 16.1910523,16.1911 8.930115,0 16.152686,-7.261 16.152686,-16.1911 C 40.171869,1013.4133 32.949298,1006.1908 24.019183,1006.1908 z m 0,3.6834 c 6.8959,0 12.469415,5.5734 12.469415,12.4693 0,6.8958 -5.573515,12.5077 -12.469415,12.5077 -6.895897,0 -12.507781,-5.6119 -12.507781,-12.5077 C 11.511402,1015.4476 17.123286,1009.8742 24.019183,1009.8742 Z"
       id="path816"
       inkscape:connector-curvature="0" />
    <path
       sodipodi:type="arc"
       style="fill:#b3b3b3;fill-opacity:1;fill-rule:nonzero;stroke:none"
       id="path821"
       sodipodi:cx="23.599689"
       sodipodi:cy="19.273787"
       sodipodi:rx="8.2201166"
       sodipodi:ry="8.2201166"
       d="m 31.819806,19.273787 c 0,4.539845 -3.680271,8.220116 -8.220117,8.220116 -4.539845,0 -8.220116,-3.680271 -8.220116,-8.220116 0,-4.539846 3.680271,-8.220117 8.220116,-8.220117 C 28.139535,11.05367 31.819806,14.733941 31.819806,19.273787 Z"
       transform="matrix(1.3771178,0,0,1.3771178,-8.4995499,995.82038)" />
    <path
       style="fill:#4d4d4d;fill-opacity:1;fill-rule:nonzero;stroke:none"
       d="m 21.34375,1035.5336 0,5.4688 -3.1875,0 c -1.175211,0 -2.125,0.9497 -2.125,2.125 l 0,0.5312 -12.8125,0 c -0.4896714,0 -0.875,0.3853 -0.875,0.875 l 0,2.4688 c 0,0.4896 0.3853286,0.9062 0.875,0.9062 l 12.8125,0 0,0.5313 c 0,1.1752 0.949789,2.0937 2.125,2.0937 l 11.6875,0 c 1.175211,0 2.125,-0.9185 2.125,-2.0937 l 0,-0.5313 12.8125,0 c 0.489671,0 0.875,-0.4166 0.875,-0.9062 l 0,-2.4688 c 0,-0.4897 -0.385329,-0.875 -0.875,-0.875 l -12.8125,0 0,-0.5312 c 0,-1.1753 -0.949789,-2.125 -2.125,-2.125 l -3.1875,0 0,-5.4688 L 21.34375,1035.5336 Z"
       id="rect3981"
       inkscape:connector-curvature="0" />
  </g>
</svg>
