<?xml version="1.0" encoding="UTF-8" standalone="no"?>
<!-- Created with Inkscape (http://www.inkscape.org/) -->

<svg
   xmlns:dc="http://purl.org/dc/elements/1.1/"
   xmlns:cc="http://creativecommons.org/ns#"
   xmlns:rdf="http://www.w3.org/1999/02/22-rdf-syntax-ns#"
   xmlns:svg="http://www.w3.org/2000/svg"
   xmlns="http://www.w3.org/2000/svg"
   xmlns:sodipodi="http://sodipodi.sourceforge.net/DTD/sodipodi-0.dtd"
   xmlns:inkscape="http://www.inkscape.org/namespaces/inkscape"
   version="1.0"
   width="48"
   height="48"
   id="svg3229"
   inkscape:version="0.48+devel r11556"
   sodipodi:docname="gnome-netstatus-75-100.svg">
  <sodipodi:namedview
     pagecolor="#ffffff"
     bordercolor="#666666"
     borderopacity="1"
     objecttolerance="10"
     gridtolerance="10"
     guidetolerance="10"
     inkscape:pageopacity="0"
     inkscape:pageshadow="2"
     inkscape:window-width="1366"
     inkscape:window-height="748"
     id="namedview13"
     showgrid="false"
     showborder="true"
     inkscape:zoom="7.896026"
     inkscape:cx="34.468688"
     inkscape:cy="12.488583"
     inkscape:window-x="0"
     inkscape:window-y="0"
     inkscape:window-maximized="1"
     inkscape:current-layer="svg3229"
     width="0px"
     height="0px"
     fit-margin-top="0"
     fit-margin-left="0"
     fit-margin-right="0"
     fit-margin-bottom="0">
    <inkscape:grid
       type="xygrid"
       id="grid2990"
       empspacing="5"
       visible="true"
       enabled="true"
       snapvisiblegridlinesonly="true" />
  </sodipodi:namedview>
  <metadata
     id="metadata9">
    <rdf:RDF>
      <cc:Work
         rdf:about="">
        <dc:format>image/svg+xml</dc:format>
        <dc:type
           rdf:resource="http://purl.org/dc/dcmitype/StillImage" />
        <dc:title></dc:title>
      </cc:Work>
    </rdf:RDF>
  </metadata>
  <defs
     id="defs3231" />
  <g
     id="g810">
    <path
       inkscape:connector-curvature="0"
       style="fill:none;stroke:#4d4d4d;stroke-width:4.39200878;stroke-linecap:square;stroke-linejoin:miter;stroke-miterlimit:4;stroke-opacity:1;stroke-dasharray:none;stroke-dashoffset:0;marker:none;visibility:visible;display:inline;overflow:visible;enable-background:accumulate"
       id="path3683-3"
       d="m 3.8091179,16.686018 c 0,0 6.3933511,-9.9664146 20.1479591,-9.9664146 13.68699,0 20.227572,9.9833276 20.227572,9.9833276" />
    <path
       inkscape:connector-curvature="0"
       style="fill:none;stroke:#4d4d4d;stroke-width:4.39200878;stroke-linecap:square;stroke-linejoin:miter;stroke-miterlimit:4;stroke-opacity:1;stroke-dasharray:none;stroke-dashoffset:0;marker:none;visibility:visible;display:inline;overflow:visible;enable-background:accumulate"
       id="path3681-5"
       d="m 9.3248999,24.576473 c 0,0 4.7367161,-6.703263 14.6719851,-6.46477 10.017677,0.240477 14.671981,6.572436 14.671981,6.572436" />
    <path
       inkscape:connector-curvature="0"
       style="fill:none;stroke:#4d4d4d;stroke-width:4.39200878;stroke-linecap:square;stroke-linejoin:miter;stroke-miterlimit:4;stroke-opacity:1;stroke-dasharray:none;stroke-dashoffset:0;marker:none;visibility:visible;display:inline;overflow:visible;enable-background:accumulate"
       id="path3209-6"
       d="m 15.94384,31.95336 c 0,0 2.13328,-3.243018 7.939817,-3.304203 5.734155,-0.06042 8.166269,3.304203 8.166269,3.304203" />
    <path
       inkscape:connector-curvature="0"
       style="fill:#4d4d4d;fill-opacity:1;fill-rule:evenodd;stroke:none;stroke-width:1.70000005;marker:none;visibility:visible;display:inline;overflow:visible;enable-background:accumulate"
       id="path3196-5-8"
       d="m 22.110718,37.4259 c -1.041164,0 -1.886167,0.903542 -1.886167,2.016834 0,0.413727 0.116714,0.798488 0.316798,1.118671 0,0 2.223086,2.424551 2.223086,2.424551 0.330638,0.30556 0.761476,0.490445 1.23245,0.490445 0.558866,0 1.061221,-0.260323 1.406701,-0.673702 0,0 1.987688,-2.149129 1.987688,-2.149129 0.237269,-0.33728 0.377942,-0.756598 0.377942,-1.210836 0,-1.113292 -0.845003,-2.016834 -1.886167,-2.016834 0,0 -3.772331,0 -3.772331,0 z" />
  </g>
</svg>
