<?xml version="1.0" encoding="UTF-8" standalone="no"?>
<!-- Created with Inkscape (http://www.inkscape.org/) -->

<svg
   xmlns:dc="http://purl.org/dc/elements/1.1/"
   xmlns:cc="http://creativecommons.org/ns#"
   xmlns:rdf="http://www.w3.org/1999/02/22-rdf-syntax-ns#"
   xmlns:svg="http://www.w3.org/2000/svg"
   xmlns="http://www.w3.org/2000/svg"
   xmlns:sodipodi="http://sodipodi.sourceforge.net/DTD/sodipodi-0.dtd"
   xmlns:inkscape="http://www.inkscape.org/namespaces/inkscape"
   width="48"
   height="48"
   id="svg2"
   version="1.1"
   inkscape:version="0.48+devel r11731"
   sodipodi:docname="gpm-battery-020.svg">
  <defs
     id="defs4" />
  <sodipodi:namedview
     id="base"
     pagecolor="#ffffff"
     bordercolor="#666666"
     borderopacity="1.0"
     inkscape:pageopacity="0.0"
     inkscape:pageshadow="2"
     inkscape:zoom="5.6"
     inkscape:cx="12.475723"
     inkscape:cy="28.247733"
     inkscape:document-units="px"
     inkscape:current-layer="layer1"
     showgrid="false"
     inkscape:window-width="1366"
     inkscape:window-height="746"
     inkscape:window-x="0"
     inkscape:window-y="0"
     inkscape:window-maximized="1">
    <inkscape:grid
       type="xygrid"
       id="grid3775"
       empspacing="5"
       visible="true"
       enabled="true"
       snapvisiblegridlinesonly="true" />
  </sodipodi:namedview>
  <metadata
     id="metadata7">
    <rdf:RDF>
      <cc:Work
         rdf:about="">
        <dc:format>image/svg+xml</dc:format>
        <dc:type
           rdf:resource="http://purl.org/dc/dcmitype/StillImage" />
        <dc:title></dc:title>
      </cc:Work>
    </rdf:RDF>
  </metadata>
  <g
     inkscape:label="Capa 1"
     inkscape:groupmode="layer"
     id="layer1"
     transform="translate(0,-1004.3622)">
    <g
       id="g848"
       transform="translate(6.879701,0.91065)">
      <path
         inkscape:connector-curvature="0"
         id="rect2080"
         d="m 20.442159,1007.4337 0,3.4514 -6.557574,0 0,36.5843 6.557574,0 8.283251,0 6.557574,0 0,-36.5843 -6.557574,0 0,-3.4514 L 20.442159,1007.4337 Z"
         style="fill:#4d4d4d;fill-opacity:1;stroke:none" />
      <path
         inkscape:connector-curvature="0"
         id="path2102"
         d="M -1.042386,1039.5274 5.824981,1026.7185 0.42374902,1025.754 8.216908,1015.3757 5.863637,1022.8991 12.113626,1023.9792 Z"
         style="fill:#4d4d4d;stroke:none" />
    </g>
    <g
       id="g3758"
       transform="translate(-53.571429,-0.02173428)">
      <rect
         transform="matrix(0,-1,1,0,0,0)"
         ry="0"
         y="13.634018"
         x="-1047.9371"
         height="20.731964"
         width="35.183037"
         id="rect2985"
         style="fill:#5fd424;fill-opacity:1;stroke:none" />
      <path
         inkscape:connector-curvature="0"
         id="path2993"
         d="m 19.374302,1012.7876 9.2513,0 0,-3.9569 L 19.374302,1008.8307 Z"
         style="fill:#5fd424;fill-opacity:1;stroke:none" />
    </g>
    <rect
       style="fill:none;stroke:none"
       id="rect2995"
       width="48"
       height="48"
       x="0"
       y="1004.3622"
       ry="1.8835796" />
    <rect
       y="1037.526"
       x="22.677771"
       height="2.8675587"
       width="17.57143"
       id="rect2104"
       style="fill:#ff0000;fill-opacity:1;stroke:none" />
    <rect
       style="fill:#ff0000;fill-opacity:1;stroke:none"
       id="rect2106"
       width="17.57143"
       height="2.8675587"
       x="22.677771"
       y="1042.0337" />
    <rect
       style="fill:#ffffff;fill-opacity:1;stroke:none"
       id="rect4131"
       width="17.57143"
       height="2.8675587"
       x="55.534912"
       y="1028.5105" />
    <rect
       y="1033.0183"
       x="52.677773"
       height="2.8675587"
       width="17.57143"
       id="rect4133"
       style="fill:#ffffff;fill-opacity:1;stroke:none" />
    <rect
       y="1019.4951"
       x="52.677773"
       height="2.8675587"
       width="17.57143"
       id="rect852"
       style="fill:#ffffff;fill-opacity:1;stroke:none" />
    <rect
       style="fill:#ffffff;fill-opacity:1;stroke:none"
       id="rect854"
       width="17.57143"
       height="2.8675587"
       x="51.249199"
       y="1024.0028" />
    <rect
       style="fill:#ffffff;fill-opacity:1;stroke:none"
       id="rect856"
       width="17.57143"
       height="2.8675587"
       x="49.463486"
       y="1014.9874" />
  </g>
</svg>
