<?xml version="1.0" encoding="UTF-8" standalone="no"?>
<!-- Created with Inkscape (http://www.inkscape.org/) -->

<svg
   xmlns:dc="http://purl.org/dc/elements/1.1/"
   xmlns:cc="http://creativecommons.org/ns#"
   xmlns:rdf="http://www.w3.org/1999/02/22-rdf-syntax-ns#"
   xmlns:svg="http://www.w3.org/2000/svg"
   xmlns="http://www.w3.org/2000/svg"
   xmlns:xlink="http://www.w3.org/1999/xlink"
   xmlns:sodipodi="http://sodipodi.sourceforge.net/DTD/sodipodi-0.dtd"
   xmlns:inkscape="http://www.inkscape.org/namespaces/inkscape"
   width="48.000011"
   height="48.000011"
   id="svg1546"
   version="1.1"
   inkscape:version="0.48+devel r11772"
   sodipodi:docname="desktop.svg">
  <defs
     id="defs1548">
    <linearGradient
       inkscape:collect="always"
       xlink:href="#linearGradient3700-46-1"
       id="linearGradient1205"
       x1="290.28574"
       y1="747.18365"
       x2="290.28574"
       y2="699.50507"
       gradientUnits="userSpaceOnUse" />
    <linearGradient
       id="linearGradient3700-46-1">
      <stop
         offset="0"
         style="stop-color:#2276c5;stop-opacity:1"
         id="stop3702-4-1" />
      <stop
         offset="1"
         style="stop-color:#68baf4;stop-opacity:1"
         id="stop3704-2-4" />
    </linearGradient>
    <linearGradient
       inkscape:collect="always"
       xlink:href="#linearGradient1217"
       id="linearGradient1215"
       gradientUnits="userSpaceOnUse"
       x1="290.28574"
       y1="747.18365"
       x2="290.28574"
       y2="699.50507"
       gradientTransform="matrix(1,0,0,-0.17410715,155.89568,794.13979)" />
    <linearGradient
       id="linearGradient1217">
      <stop
         id="stop1219"
         style="stop-color:#b3b3b3;stop-opacity:0"
         offset="0" />
      <stop
         id="stop1221"
         style="stop-color:#1a1a1a;stop-opacity:1"
         offset="1" />
    </linearGradient>
    <linearGradient
       inkscape:collect="always"
       xlink:href="#linearGradient1233"
       id="linearGradient1231"
       x1="7.3660717"
       y1="45.053574"
       x2="7.3660717"
       y2="39.785717"
       gradientUnits="userSpaceOnUse" />
    <linearGradient
       id="linearGradient1233">
      <stop
         style="stop-color:#e38141;stop-opacity:1"
         offset="0"
         id="stop1235" />
      <stop
         style="stop-color:#ffcf00;stop-opacity:1"
         offset="1"
         id="stop1237" />
    </linearGradient>
    <linearGradient
       inkscape:collect="always"
       xlink:href="#linearGradient1271"
       id="linearGradient1265"
       gradientUnits="userSpaceOnUse"
       x1="7.3660717"
       y1="45.053574"
       x2="7.3660717"
       y2="39.785717"
       gradientTransform="translate(275.17805,699.79076)" />
    <linearGradient
       id="linearGradient1271">
      <stop
         id="stop1273"
         offset="0"
         style="stop-color:#88aa00;stop-opacity:1" />
      <stop
         id="stop1275"
         offset="1"
         style="stop-color:#66ff00;stop-opacity:1" />
    </linearGradient>
    <linearGradient
       inkscape:collect="always"
       xlink:href="#linearGradient1293"
       id="linearGradient1285"
       gradientUnits="userSpaceOnUse"
       gradientTransform="translate(284.82091,699.79076)"
       x1="7.3660717"
       y1="45.053574"
       x2="7.3660717"
       y2="39.785717" />
    <linearGradient
       id="linearGradient1293">
      <stop
         style="stop-color:#0088aa;stop-opacity:1"
         offset="0"
         id="stop1295" />
      <stop
         style="stop-color:#00ccff;stop-opacity:1"
         offset="1"
         id="stop1297" />
    </linearGradient>
    <linearGradient
       inkscape:collect="always"
       xlink:href="#linearGradient1299"
       id="linearGradient1291"
       gradientUnits="userSpaceOnUse"
       gradientTransform="translate(296.7852,699.79076)"
       x1="7.3660717"
       y1="45.053574"
       x2="7.3660717"
       y2="39.785717" />
    <linearGradient
       id="linearGradient1299">
      <stop
         style="stop-color:#aa00d4;stop-opacity:1"
         offset="0"
         id="stop1301" />
      <stop
         style="stop-color:#bc5fd3;stop-opacity:1"
         offset="1"
         id="stop1303" />
    </linearGradient>
    <linearGradient
       gradientTransform="translate(155.89568,-75.489606)"
       inkscape:collect="always"
       xlink:href="#linearGradient1367"
       id="linearGradient1365"
       x1="274.54669"
       y1="698.57471"
       x2="302.72244"
       y2="728.87933"
       gradientUnits="userSpaceOnUse" />
    <linearGradient
       id="linearGradient1367">
      <stop
         offset="0"
         style="stop-color:#b3b3b3;stop-opacity:0"
         id="stop1369" />
      <stop
         offset="1"
         style="stop-color:#1a1a1a;stop-opacity:0.22872341"
         id="stop1371" />
    </linearGradient>
    <linearGradient
       inkscape:collect="always"
       xlink:href="#linearGradient1378"
       id="linearGradient1384"
       x1="310.04129"
       y1="733.65088"
       x2="260.49445"
       y2="695.97229"
       gradientUnits="userSpaceOnUse"
       gradientTransform="matrix(1.0624126,0,0,1.0624126,140.43483,-118.75252)" />
    <linearGradient
       inkscape:collect="always"
       id="linearGradient1378">
      <stop
         style="stop-color:#ffffff;stop-opacity:0.26595744"
         offset="0"
         id="stop1380" />
      <stop
         style="stop-color:#ffffff;stop-opacity:0;"
         offset="1"
         id="stop1382" />
    </linearGradient>
    <linearGradient
       inkscape:collect="always"
       xlink:href="#linearGradient1181"
       id="linearGradient1179"
       x1="288.14285"
       y1="699.52289"
       x2="288.14285"
       y2="705.23718"
       gradientUnits="userSpaceOnUse"
       gradientTransform="matrix(0.55081967,0,0,0.65714286,285.16218,164.43865)" />
    <linearGradient
       id="linearGradient1181">
      <stop
         id="stop1183"
         style="stop-color:#ffffff;stop-opacity:1"
         offset="0" />
      <stop
         id="stop1185"
         style="stop-color:#aaaaaa;stop-opacity:1"
         offset="1" />
    </linearGradient>
    <linearGradient
       inkscape:collect="always"
       xlink:href="#linearGradient1191"
       id="linearGradient1189"
       gradientUnits="userSpaceOnUse"
       gradientTransform="matrix(0.1055047,0,0,0.65714286,394.55064,164.43865)"
       x1="288.14285"
       y1="699.52289"
       x2="288.14285"
       y2="705.23718" />
    <linearGradient
       id="linearGradient1191">
      <stop
         offset="0"
         style="stop-color:#b3b3b3;stop-opacity:1"
         id="stop1193" />
      <stop
         offset="1"
         style="stop-color:#1a1a1a;stop-opacity:1"
         id="stop1195" />
    </linearGradient>
    <linearGradient
       gradientTransform="translate(155.89568,-75.489606)"
       y2="699.50507"
       x2="290.28574"
       y1="747.18365"
       x1="290.28574"
       gradientUnits="userSpaceOnUse"
       id="linearGradient2168"
       xlink:href="#linearGradient3700-46-1"
       inkscape:collect="always" />
  </defs>
  <sodipodi:namedview
     id="base"
     pagecolor="#ffffff"
     bordercolor="#666666"
     borderopacity="1.0"
     inkscape:pageopacity="0.0"
     inkscape:pageshadow="2"
     inkscape:zoom="15.839192"
     inkscape:cx="26.95436"
     inkscape:cy="8.1567863"
     inkscape:document-units="px"
     inkscape:current-layer="layer1"
     showgrid="false"
     width="0px"
     height="0px"
     fit-margin-top="0"
     fit-margin-left="0"
     fit-margin-right="0"
     fit-margin-bottom="0"
     inkscape:window-width="1366"
     inkscape:window-height="712"
     inkscape:window-x="0"
     inkscape:window-y="0"
     inkscape:window-maximized="1" />
  <metadata
     id="metadata1551">
    <rdf:RDF>
      <cc:Work
         rdf:about="">
        <dc:format>image/svg+xml</dc:format>
        <dc:type
           rdf:resource="http://purl.org/dc/dcmitype/StillImage" />
        <dc:title></dc:title>
      </cc:Work>
    </rdf:RDF>
  </metadata>
  <g
     inkscape:label="Capa 1"
     inkscape:groupmode="layer"
     id="layer1"
     transform="translate(-420.46712,-624.30115)">
    <rect
       style="fill:url(#linearGradient2168);fill-opacity:1;stroke:none"
       id="rect1197"
       width="48"
       height="48"
       x="420.46713"
       y="624.30115"
       ry="6.0609336"
       rx="6.0609336" />
    <path
       inkscape:connector-curvature="0"
       style="fill:url(#linearGradient1215);fill-opacity:1;stroke:none"
       d="m 420.46712,663.95741 0,2.28125 c 0,3.35776 2.70474,6.0625 6.0625,6.0625 l 35.875,0 c 3.35776,0 6.0625,-2.70474 6.0625,-6.0625 l 0,-2.28125 L 420.46712,663.95741 Z"
       id="rect1213" />
    <rect
       y="663.26544"
       x="424.28857"
       height="7"
       width="7"
       id="rect1267"
       style="opacity:0.28300003;fill:#ffffff;fill-opacity:1;stroke:none" />
    <g
       transform="translate(155.89568,-75.489606)"
       id="g1317">
      <rect
         transform="translate(264.57144,699.79077)"
         y="39.964287"
         x="4.8214288"
         height="5"
         width="5"
         id="rect1223"
         style="fill:url(#linearGradient1231);fill-opacity:1;stroke:none" />
      <path
         transform="matrix(0.65306123,0,0,0.65306123,265.19288,714.35088)"
         d="m 11.806157,42.728268 c 0,0.854272 -0.692524,1.546796 -1.546796,1.546796 -0.8542716,0 -1.5467958,-0.692524 -1.5467958,-1.546796 0,-0.854272 0.6925242,-1.546796 1.5467958,-1.546796 C 11.113633,41.181472 11.806157,41.873996 11.806157,42.728268 Z"
         sodipodi:ry="1.5467961"
         sodipodi:rx="1.5467961"
         sodipodi:cy="42.728268"
         sodipodi:cx="10.259361"
         id="path1277"
         style="fill:#ffffff;fill-opacity:1;stroke:none"
         sodipodi:type="arc" />
    </g>
    <g
       id="g1313"
       transform="translate(156.02699,-75.489606)">
      <rect
         style="fill:url(#linearGradient1265);fill-opacity:1;stroke:none"
         id="rect1255"
         width="5"
         height="5"
         x="279.99948"
         y="739.75507" />
      <path
         sodipodi:type="arc"
         style="fill:#ffffff;fill-opacity:1;stroke:none"
         id="path1279"
         sodipodi:cx="10.259361"
         sodipodi:cy="42.728268"
         sodipodi:rx="1.5467961"
         sodipodi:ry="1.5467961"
         d="m 11.806157,42.728268 c 0,0.854272 -0.692524,1.546796 -1.546796,1.546796 -0.8542716,0 -1.5467958,-0.692524 -1.5467958,-1.546796 0,-0.854272 0.6925242,-1.546796 1.5467958,-1.546796 C 11.113633,41.181472 11.806157,41.873996 11.806157,42.728268 Z"
         transform="matrix(0.65306123,0,0,0.65306123,275.79948,714.35088)" />
    </g>
    <g
       id="g1309"
       transform="translate(157.12206,-75.489606)">
      <rect
         y="739.75507"
         x="289.64233"
         height="5"
         width="5"
         id="rect1281"
         style="fill:url(#linearGradient1285);fill-opacity:1;stroke:none" />
      <path
         transform="matrix(0.65306123,0,0,0.65306123,285.44234,714.35088)"
         d="m 11.806157,42.728268 c 0,0.854272 -0.692524,1.546796 -1.546796,1.546796 -0.8542716,0 -1.5467958,-0.692524 -1.5467958,-1.546796 0,-0.854272 0.6925242,-1.546796 1.5467958,-1.546796 C 11.113633,41.181472 11.806157,41.873996 11.806157,42.728268 Z"
         sodipodi:ry="1.5467961"
         sodipodi:rx="1.5467961"
         sodipodi:cy="42.728268"
         sodipodi:cx="10.259361"
         id="path1283"
         style="fill:#ffffff;fill-opacity:1;stroke:none"
         sodipodi:type="arc" />
    </g>
    <g
       id="g1305"
       transform="translate(155.89568,-75.489606)">
      <rect
         style="fill:url(#linearGradient1291);fill-opacity:1;stroke:none"
         id="rect1287"
         width="5"
         height="5"
         x="301.60663"
         y="739.75507" />
      <path
         sodipodi:type="arc"
         style="fill:#ffffff;fill-opacity:1;stroke:none"
         id="path1289"
         sodipodi:cx="10.259361"
         sodipodi:cy="42.728268"
         sodipodi:rx="1.5467961"
         sodipodi:ry="1.5467961"
         d="m 11.806157,42.728268 c 0,0.854272 -0.692524,1.546796 -1.546796,1.546796 -0.8542716,0 -1.5467958,-0.692524 -1.5467958,-1.546796 0,-0.854272 0.6925242,-1.546796 1.5467958,-1.546796 C 11.113633,41.181472 11.806157,41.873996 11.806157,42.728268 Z"
         transform="matrix(0.65306123,0,0,0.65306123,297.40663,714.35088)" />
    </g>
    <path
       inkscape:connector-curvature="0"
       style="opacity:0.5;fill:url(#linearGradient1365);fill-opacity:1;stroke:none"
       d="m 420.46712,636.33241 0,23.53125 c 10.23522,-7.21017 24.38697,-12.21829 35.375,-15.34375 C 444.50786,640.88974 431.33507,638.1879 420.46712,636.33241 Z"
       id="path1357" />
    <path
       inkscape:connector-curvature="0"
       style="fill:#ffffff;fill-opacity:0.15204677;stroke:none"
       d="m 426.52962,624.30116 c -3.35776,0 -6.0625,2.70475 -6.0625,6.0625 l 0,22.0625 c 15.02583,-10.58491 38.51335,-16.47778 48,-18.53125 l 0,-3.53125 c 0,-3.35775 -2.70474,-6.0625 -6.0625,-6.0625 L 426.52962,624.30116 Z"
       id="rect1340" />
    <path
       inkscape:connector-curvature="0"
       style="fill:url(#linearGradient1384);fill-opacity:1;stroke:none"
       d="m 420.46712,624.30116 0,25.34375 c 18.84397,1.40639 37.99865,6.71274 48,9.84375 l 0,-15.03125 -34.9375,-20.15625 L 420.46712,624.30116 Z"
       id="path1376" />
    <path
       inkscape:connector-curvature="0"
       style="fill:url(#linearGradient1179);fill-opacity:1;stroke:none"
       d="m 426.52962,624.30116 c -2.66872,0 -4.90555,1.70712 -5.71875,4.09375 l 47.3125,0 c -0.8132,-2.38663 -3.05003,-4.09375 -5.71875,-4.09375 L 426.52962,624.30116 Z"
       id="rect1171" />
    <path
       inkscape:connector-curvature="0"
       style="fill:url(#linearGradient1189);fill-opacity:1;stroke:none"
       d="m 426.52962,624.30116 c -2.66872,0 -4.90555,1.70712 -5.71875,4.09375 l 8.84375,0 0,-4.09375 L 426.52962,624.30116 Z"
       id="rect1187" />
    <g
       id="g1250"
       transform="matrix(0.69852942,0,0,0.69852942,237.48183,147.70979)">
      <path
         transform="translate(264.57144,699.79077)"
         d="m 5.8928572,39.785713 c 0,0.83829 -0.6795678,1.517857 -1.5178572,1.517857 -0.8382894,0 -1.5178572,-0.679567 -1.5178572,-1.517857 0,-0.838289 0.6795678,-1.517857 1.5178572,-1.517857 C 5.2132894,38.267856 5.8928572,38.947424 5.8928572,39.785713 Z"
         sodipodi:ry="1.5178572"
         sodipodi:rx="1.5178572"
         sodipodi:cy="39.785713"
         sodipodi:cx="4.375"
         id="path1239"
         style="fill:#ffffff;fill-opacity:1;stroke:none"
         sodipodi:type="arc" />
      <path
         sodipodi:type="arc"
         style="fill:#000000;fill-opacity:1;stroke:none"
         id="path1241"
         sodipodi:cx="4.375"
         sodipodi:cy="39.785713"
         sodipodi:rx="1.5178572"
         sodipodi:ry="1.5178572"
         d="m 5.8928572,39.785713 c 0,0.83829 -0.6795678,1.517857 -1.5178572,1.517857 -0.8382894,0 -1.5178572,-0.679567 -1.5178572,-1.517857 0,-0.838289 0.6795678,-1.517857 1.5178572,-1.517857 C 5.2132894,38.267856 5.8928572,38.947424 5.8928572,39.785713 Z"
         transform="matrix(0.85294118,0,0,0.85294118,265.21482,705.64161)" />
      <path
         inkscape:connector-curvature="0"
         id="rect1243"
         d="m 268.66519,738.88898 -0.40625,0.40625 0.28125,0.28125 -0.28125,0.28125 0.40625,0.40625 0.28125,-0.28125 0.28125,0.28125 0.40625,-0.40625 -0.28125,-0.28125 0.28125,-0.28125 -0.40625,-0.40625 -0.28125,0.28125 L 268.66519,738.88898 Z"
         style="fill:#ffffff;fill-opacity:1;stroke:none" />
    </g>
  </g>
</svg>
