<?xml version="1.0" encoding="UTF-8" standalone="no"?>
<!-- Created with Inkscape (http://www.inkscape.org/) -->

<svg
   xmlns:dc="http://purl.org/dc/elements/1.1/"
   xmlns:cc="http://creativecommons.org/ns#"
   xmlns:rdf="http://www.w3.org/1999/02/22-rdf-syntax-ns#"
   xmlns:svg="http://www.w3.org/2000/svg"
   xmlns="http://www.w3.org/2000/svg"
   xmlns:xlink="http://www.w3.org/1999/xlink"
   xmlns:sodipodi="http://sodipodi.sourceforge.net/DTD/sodipodi-0.dtd"
   xmlns:inkscape="http://www.inkscape.org/namespaces/inkscape"
   width="22"
   height="22"
   id="svg2"
   version="1.1"
   inkscape:version="0.48+devel r11698"
   sodipodi:docname="transmission-tray-icon.svg">
  <defs
     id="defs4">
    <linearGradient
       id="linearGradient3795">
      <stop
         style="stop-color:#8cd528;stop-opacity:1;"
         offset="0"
         id="stop3797" />
      <stop
         style="stop-color:#7f9f2f;stop-opacity:1;"
         offset="1"
         id="stop3799" />
    </linearGradient>
    <linearGradient
       id="linearGradient3698">
      <stop
         id="stop3700"
         offset="0"
         style="stop-color:#96d0e1;stop-opacity:1" />
      <stop
         style="stop-color:#89b7e1;stop-opacity:1"
         offset="0.67819428"
         id="stop3706" />
      <stop
         id="stop3702"
         offset="1"
         style="stop-color:#699dd3;stop-opacity:1" />
    </linearGradient>
    <linearGradient
       id="linearGradient3708">
      <stop
         id="stop3710"
         offset="0"
         style="stop-color:#658db6;stop-opacity:1" />
      <stop
         style="stop-color:#527fab;stop-opacity:1;"
         offset="0.76777935"
         id="stop3716" />
      <stop
         id="stop3712"
         offset="1"
         style="stop-color:#4071a0;stop-opacity:1" />
    </linearGradient>
    <linearGradient
       id="linearGradient3750">
      <stop
         style="stop-color:#d0e2f1;stop-opacity:1"
         offset="0"
         id="stop3752" />
      <stop
         id="stop3756"
         offset="0.85580856"
         style="stop-color:#cadef0;stop-opacity:1" />
      <stop
         style="stop-color:#95bee3;stop-opacity:1"
         offset="1"
         id="stop3754" />
    </linearGradient>
    <linearGradient
       id="linearGradient3803">
      <stop
         id="stop3805"
         offset="0"
         style="stop-color:#d7def0;stop-opacity:1;" />
      <stop
         style="stop-color:#ffffff;stop-opacity:1"
         offset="0.5"
         id="stop3811" />
      <stop
         id="stop3807"
         offset="1"
         style="stop-color:#d5def0;stop-opacity:1" />
    </linearGradient>
    <linearGradient
       inkscape:collect="always"
       xlink:href="#linearGradient3795"
       id="linearGradient3859"
       x1="26.192217"
       y1="1024.0002"
       x2="28.641211"
       y2="1024.0002"
       gradientUnits="userSpaceOnUse" />
    <linearGradient
       inkscape:collect="always"
       xlink:href="#linearGradient3795"
       id="linearGradient3867"
       gradientUnits="userSpaceOnUse"
       x1="26.192217"
       y1="1024.0002"
       x2="28.641211"
       y2="1024.0002" />
    <linearGradient
       inkscape:collect="always"
       xlink:href="#linearGradient3795"
       id="linearGradient3869"
       gradientUnits="userSpaceOnUse"
       x1="26.192217"
       y1="1024.0002"
       x2="28.641211"
       y2="1024.0002" />
    <linearGradient
       inkscape:collect="always"
       xlink:href="#linearGradient3795"
       id="linearGradient3871"
       gradientUnits="userSpaceOnUse"
       x1="26.192217"
       y1="1024.0002"
       x2="28.641211"
       y2="1024.0002" />
    <linearGradient
       inkscape:collect="always"
       xlink:href="#linearGradient3795"
       id="linearGradient3877"
       gradientUnits="userSpaceOnUse"
       x1="29.718235"
       y1="1027.8575"
       x2="22.811094"
       y2="1015.5485" />
    <linearGradient
       inkscape:collect="always"
       xlink:href="#linearGradient3795"
       id="linearGradient3879"
       gradientUnits="userSpaceOnUse"
       x1="17.196316"
       y1="1006.2238"
       x2="31.448042"
       y2="1030.9086" />
    <linearGradient
       inkscape:collect="always"
       xlink:href="#linearGradient3795"
       id="linearGradient3895"
       x1="21.973417"
       y1="34.43922"
       x2="42.475323"
       y2="24.798252"
       gradientUnits="userSpaceOnUse" />
    <linearGradient
       id="linearGradient3795-5">
      <stop
         id="stop3797-2"
         offset="0"
         style="stop-color:#68b8d8;stop-opacity:1;" />
      <stop
         id="stop3799-4"
         offset="1"
         style="stop-color:#3097bd;stop-opacity:1;" />
    </linearGradient>
    <linearGradient
       inkscape:collect="always"
       xlink:href="#linearGradient3795-5"
       id="linearGradient3030"
       gradientUnits="userSpaceOnUse"
       gradientTransform="matrix(0.96799712,0,0,1.0252613,0.76812014,-25.977808)"
       x1="24.113745"
       y1="1007.2183"
       x2="24.113745"
       y2="1049.5842" />
    <linearGradient
       id="linearGradient3017">
      <stop
         id="stop3019"
         offset="0"
         style="stop-color:#2d2d2d;stop-opacity:1" />
      <stop
         id="stop3021"
         offset="1"
         style="stop-color:#a7a7a7;stop-opacity:1" />
    </linearGradient>
    <linearGradient
       id="linearGradient3761">
      <stop
         id="stop3763"
         offset="0"
         style="stop-color:#2d2d2d;stop-opacity:1" />
      <stop
         id="stop3765"
         offset="1"
         style="stop-color:#a7a7a7;stop-opacity:1" />
    </linearGradient>
    <inkscape:perspective
       sodipodi:type="inkscape:persp3d"
       inkscape:vp_x="0 : 526.18109 : 1"
       inkscape:vp_y="0 : 1000 : 0"
       inkscape:vp_z="744.09448 : 526.18109 : 1"
       inkscape:persp3d-origin="372.04724 : 350.78739 : 1"
       id="perspective8732" />
    <radialGradient
       r="60.276276"
       fy="73.199226"
       fx="70.458"
       cy="73.199226"
       cx="70.458"
       gradientTransform="matrix(1.8914286,0,0,1.7898877,-62.808273,-57.81917)"
       gradientUnits="userSpaceOnUse"
       id="radialGradient8705"
       xlink:href="#linearGradient8636"
       inkscape:collect="always" />
    <linearGradient
       y2="60.825073"
       x2="70.205498"
       y1="-7.918128"
       x1="70.205498"
       gradientUnits="userSpaceOnUse"
       id="linearGradient8703"
       xlink:href="#linearGradient8666"
       inkscape:collect="always" />
    <linearGradient
       y2="87.977859"
       x2="70.458"
       y1="14.799726"
       x1="70.458"
       gradientUnits="userSpaceOnUse"
       id="linearGradient8701"
       xlink:href="#linearGradient8645"
       inkscape:collect="always" />
    <radialGradient
       r="55.811367"
       fy="73.199226"
       fx="70.458"
       cy="73.199226"
       cx="70.458"
       gradientTransform="matrix(1,0,0,1.0000025,0,-1.8169358e-4)"
       gradientUnits="userSpaceOnUse"
       id="radialGradient8699"
       xlink:href="#linearGradient8657"
       inkscape:collect="always" />
    <radialGradient
       gradientUnits="userSpaceOnUse"
       gradientTransform="matrix(1.8914286,0,0,1.7898877,-62.808273,-57.81917)"
       r="60.276276"
       fy="73.199226"
       fx="70.458"
       cy="73.199226"
       cx="70.458"
       id="radialGradient8689"
       xlink:href="#linearGradient8636"
       inkscape:collect="always" />
    <linearGradient
       gradientUnits="userSpaceOnUse"
       y2="60.825073"
       x2="70.205498"
       y1="14.045123"
       x1="70.205498"
       id="linearGradient8672"
       xlink:href="#linearGradient8666"
       inkscape:collect="always" />
    <linearGradient
       gradientUnits="userSpaceOnUse"
       y2="87.977859"
       x2="70.458"
       y1="14.799726"
       x1="70.458"
       id="linearGradient8664"
       xlink:href="#linearGradient8645"
       inkscape:collect="always" />
    <linearGradient
       gradientUnits="userSpaceOnUse"
       y2="34.237083"
       x2="70.205498"
       y1="7.3844137"
       x1="70.205498"
       id="linearGradient8651"
       xlink:href="#linearGradient8645"
       inkscape:collect="always" />
    <radialGradient
       gradientUnits="userSpaceOnUse"
       gradientTransform="matrix(1,0,0,1.0000025,0,-1.8169358e-4)"
       r="55.811367"
       fy="73.199226"
       fx="70.458"
       cy="73.199226"
       cx="70.458"
       id="radialGradient8665"
       xlink:href="#linearGradient8657"
       inkscape:collect="always" />
    <radialGradient
       gradientUnits="userSpaceOnUse"
       gradientTransform="matrix(2.1073751,0,0,2.1073803,-78.023434,-81.059384)"
       r="55.811367"
       fy="73.199226"
       fx="70.458"
       cy="73.199226"
       cx="70.458"
       id="radialGradient8642"
       xlink:href="#linearGradient8636"
       inkscape:collect="always" />
    <inkscape:perspective
       sodipodi:type="inkscape:persp3d"
       inkscape:vp_x="0 : 526.18109 : 1"
       inkscape:vp_y="0 : 1000 : 0"
       inkscape:vp_z="744.09448 : 526.18109 : 1"
       inkscape:persp3d-origin="372.04724 : 350.78739 : 1"
       id="perspective7856" />
    <inkscape:perspective
       id="perspective10"
       inkscape:persp3d-origin="372.04724 : 350.78739 : 1"
       inkscape:vp_z="744.09448 : 526.18109 : 1"
       inkscape:vp_y="0 : 1000 : 0"
       inkscape:vp_x="0 : 526.18109 : 1"
       sodipodi:type="inkscape:persp3d" />
    <linearGradient
       id="linearGradient8636">
      <stop
         id="stop8638"
         offset="0"
         style="stop-color:#646464;stop-opacity:1;" />
      <stop
         id="stop8640"
         offset="1"
         style="stop-color:#333333;stop-opacity:1;" />
    </linearGradient>
    <linearGradient
       id="linearGradient8649">
      <stop
         id="stop8651"
         offset="0"
         style="stop-color:#8c8c8c;stop-opacity:1;" />
      <stop
         id="stop8653"
         offset="1"
         style="stop-color:#f0f0f0;stop-opacity:0;" />
    </linearGradient>
    <linearGradient
       id="linearGradient8657">
      <stop
         id="stop8659"
         offset="0"
         style="stop-color:#ffffff;stop-opacity:1;" />
      <stop
         id="stop8661"
         offset="1"
         style="stop-color:#dce1e5;stop-opacity:1;" />
    </linearGradient>
    <linearGradient
       id="linearGradient8635">
      <stop
         style="stop-color:#333333;stop-opacity:1;"
         offset="0"
         id="stop8637" />
      <stop
         style="stop-color:#f0f0f0;stop-opacity:0;"
         offset="1"
         id="stop8639" />
    </linearGradient>
    <linearGradient
       id="linearGradient8645">
      <stop
         id="stop8647"
         offset="0"
         style="stop-color:#333333;stop-opacity:1;" />
      <stop
         id="stop8649"
         offset="1"
         style="stop-color:#333333;stop-opacity:0;" />
    </linearGradient>
    <linearGradient
       id="linearGradient8658">
      <stop
         id="stop8660"
         offset="0"
         style="stop-color:#000000;stop-opacity:1;" />
      <stop
         id="stop8662"
         offset="1"
         style="stop-color:#000000;stop-opacity:0;" />
    </linearGradient>
    <linearGradient
       id="linearGradient8666">
      <stop
         id="stop8668"
         offset="0"
         style="stop-color:#f5f5f5;stop-opacity:1;" />
      <stop
         id="stop8670"
         offset="1"
         style="stop-color:#f5f5f5;stop-opacity:0;" />
    </linearGradient>
    <linearGradient
       id="linearGradient2316">
      <stop
         style="stop-color:#000000;stop-opacity:1;"
         offset="0"
         id="stop2318" />
      <stop
         style="stop-color:#ffffff;stop-opacity:0.65979379;"
         offset="1"
         id="stop2320" />
    </linearGradient>
    <linearGradient
       id="linearGradient2679"
       inkscape:collect="always">
      <stop
         id="stop2681"
         offset="0"
         style="stop-color:#ffffff;stop-opacity:1" />
      <stop
         id="stop2683"
         offset="1"
         style="stop-color:#d3d7cf" />
    </linearGradient>
    <linearGradient
       inkscape:collect="always"
       xlink:href="#linearGradient5075"
       id="linearGradient1401"
       gradientUnits="userSpaceOnUse"
       gradientTransform="translate(-47.9996,-121)"
       x1="54.988514"
       y1="156"
       x2="54.896976"
       y2="142.18799" />
    <linearGradient
       inkscape:collect="always"
       xlink:href="#linearGradient2584"
       id="linearGradient1426"
       gradientUnits="userSpaceOnUse"
       gradientTransform="translate(-44.99051,-97.26213)"
       x1="49.430401"
       y1="112.94963"
       x2="49.667324"
       y2="115.13713" />
    <radialGradient
       inkscape:collect="always"
       xlink:href="#linearGradient2679"
       id="radialGradient1436"
       gradientUnits="userSpaceOnUse"
       gradientTransform="matrix(0.222659,-0.996273,2.129992,0.476041,-290.946,20.8517)"
       cx="64.227074"
       cy="147.99352"
       fx="64.227074"
       fy="147.99352"
       r="8.75" />
    <radialGradient
       inkscape:collect="always"
       xlink:href="#linearGradient2679"
       id="radialGradient1439"
       gradientUnits="userSpaceOnUse"
       gradientTransform="matrix(0.222659,-0.996273,2.129992,0.476041,-308.946,20.8517)"
       cx="64.227074"
       cy="147.99352"
       fx="64.227074"
       fy="147.99352"
       r="8.75" />
    <linearGradient
       inkscape:collect="always"
       xlink:href="#linearGradient2316"
       id="linearGradient2322"
       x1="24.476166"
       y1="13.658564"
       x2="23.750401"
       y2="36"
       gradientUnits="userSpaceOnUse" />
    <linearGradient
       id="linearGradient5075">
      <stop
         id="stop5077"
         offset="0"
         style="stop-color:#adb0a8;stop-opacity:1;" />
      <stop
         id="stop5079"
         offset="1"
         style="stop-color:#464744;stop-opacity:1" />
    </linearGradient>
    <linearGradient
       id="linearGradient2584">
      <stop
         id="stop2586"
         offset="0"
         style="stop-color:#000000;stop-opacity:1;" />
      <stop
         id="stop2588"
         offset="1"
         style="stop-color:#ffffff;stop-opacity:0;" />
    </linearGradient>
    <linearGradient
       id="linearGradient2684">
      <stop
         style="stop-color:#ffffff;stop-opacity:1;"
         offset="0"
         id="stop2686" />
      <stop
         style="stop-color:#000000;stop-opacity:1;"
         offset="1"
         id="stop2688" />
    </linearGradient>
    <linearGradient
       id="linearGradient3881">
      <stop
         id="stop3883"
         offset="0"
         style="stop-color:#474845;stop-opacity:1;" />
      <stop
         id="stop3885"
         offset="1"
         style="stop-color:#838681;stop-opacity:1" />
    </linearGradient>
    <linearGradient
       id="linearGradient4061">
      <stop
         style="stop-color:#474845;stop-opacity:1;"
         offset="0"
         id="stop4063" />
      <stop
         style="stop-color:#838681;stop-opacity:1"
         offset="1"
         id="stop4065" />
    </linearGradient>
    <inkscape:perspective
       id="perspective68"
       inkscape:persp3d-origin="24 : 16 : 1"
       inkscape:vp_z="48 : 24 : 1"
       inkscape:vp_y="0 : 1000 : 0"
       inkscape:vp_x="0 : 24 : 1"
       sodipodi:type="inkscape:persp3d" />
    <radialGradient
       inkscape:collect="always"
       xlink:href="#linearGradient2679"
       id="radialGradient4019"
       cx="24"
       cy="1040.3323"
       fx="24"
       fy="1040.3323"
       r="15.678572"
       gradientTransform="matrix(1,0,0,0.22551253,0,805.72436)"
       gradientUnits="userSpaceOnUse" />
    <radialGradient
       inkscape:collect="always"
       xlink:href="#linearGradient2679"
       id="radialGradient4021"
       cx="18.737123"
       cy="12.12002"
       fx="18.737123"
       fy="12.12002"
       r="18.885624"
       gradientUnits="userSpaceOnUse" />
    <radialGradient
       inkscape:collect="always"
       xlink:href="#linearGradient2679"
       id="radialGradient3821"
       gradientUnits="userSpaceOnUse"
       cx="18.737123"
       cy="12.12002"
       fx="18.737123"
       fy="12.12002"
       r="18.885624" />
    <radialGradient
       inkscape:collect="always"
       xlink:href="#linearGradient2679"
       id="radialGradient3823"
       gradientUnits="userSpaceOnUse"
       gradientTransform="matrix(1,0,0,0.22551253,0,805.72436)"
       cx="24"
       cy="1040.3323"
       fx="24"
       fy="1040.3323"
       r="15.678572" />
    <clipPath
       id="clipPath3983"
       clipPathUnits="userSpaceOnUse">
      <path
         id="path3985"
         style="color:#000000;fill:#eeeeec;fill-rule:evenodd;enable-background:new"
         d="m 184.12,701.5 a 2.2363,2.2363 0 0 0 -1.4688,0.90625 c 0,0 -3.328,4.7671 -4.0312,11.156 -5.0181,-4.0229 -10.75,-5.0625 -10.75,-5.0625 a 2.2363,2.2363 0 0 0 -2.5938,2.5625 c 0,0 1.034,5.7649 5.0625,10.781 -6.3978,0.70283 -11.188,4.0312 -11.188,4.0312 a 2.2363,2.2363 0 0 0 0,3.625 c 0,0 4.7948,3.3031 11.188,4 -4.0285,5.0164 -5.0625,10.781 -5.0625,10.781 a 2.2363,2.2363 0 0 0 2.5938,2.5625 c 0,0 5.7319,-1.0396 10.75,-5.0625 0.70267,6.3934 4.0312,11.188 4.0312,11.188 a 2.2363,2.2363 0 0 0 3.625,0 c 0,0 3.3111,-4.8145 4,-11.219 5.0262,4.0467 10.781,5.0938 10.781,5.0938 a 2.2363,2.2363 0 0 0 2.5938,-2.5938 c 0,0 -1.0624,-5.7373 -5.0938,-10.75 6.397,-0.69632 11.219,-4 11.219,-4 a 2.2363,2.2363 0 0 0 0,-3.625 c 0,0 -4.8167,-3.329 -11.219,-4.0312 4.0313,-5.0127 5.0938,-10.75 5.0938,-10.75 a 2.2363,2.2363 0 0 0 -2.59,-2.6 c 0,0 -5.755,1.047 -10.781,5.0938 -0.69265,-6.3936 -4,-11.188 -4,-11.188 A 2.2363,2.2363 0 0 0 184.12,701.48905 Z"
         inkscape:connector-curvature="0" />
    </clipPath>
    <filter
       id="filter4123"
       style="color-interpolation-filters:sRGB">
      <feGaussianBlur
         id="feGaussianBlur4125"
         stdDeviation="0.26224718" />
    </filter>
    <clipPath
       id="clipPath4169-3"
       clipPathUnits="userSpaceOnUse">
      <path
         id="path4171-8"
         style="color:#000000;fill:#edd400;fill-rule:evenodd;enable-background:new"
         d="m 471.43,685.93 c 0,22.097 -12.842,40.01 -12.842,40.01 0,0 -12.842,-17.913 -12.842,-40.01 0,-22.097 12.842,-40.01 12.842,-40.01 C 458.588,645.92 471.43,663.833 471.43,685.93 Z"
         inkscape:connector-curvature="0" />
    </clipPath>
    <filter
       id="filter4173-0"
       width="1.4938999"
       y="-0.079258002"
       x="-0.24693"
       height="1.1585"
       style="color-interpolation-filters:sRGB">
      <feGaussianBlur
         id="feGaussianBlur4175-6"
         stdDeviation="2.642588" />
    </filter>
    <clipPath
       id="clipPath4145-6"
       clipPathUnits="userSpaceOnUse">
      <path
         id="path4147-6"
         style="color:#000000;fill:#3465a4;fill-rule:evenodd;enable-background:new"
         d="m 401.43,865.8 c 0,22.097 -12.842,40.01 -12.842,40.01 0,0 -12.842,-17.913 -12.842,-40.01 0,-22.097 12.842,-40.01 12.842,-40.01 C 388.588,825.79 401.43,843.703 401.43,865.8 Z"
         inkscape:connector-curvature="0" />
    </clipPath>
    <filter
       id="filter4149-2"
       width="1.4938999"
       y="-0.079258002"
       x="-0.24693"
       height="1.1585"
       style="color-interpolation-filters:sRGB">
      <feGaussianBlur
         id="feGaussianBlur4151-0"
         stdDeviation="2.642588" />
    </filter>
    <clipPath
       id="clipPath4181-1"
       clipPathUnits="userSpaceOnUse">
      <path
         id="path4183-8"
         style="color:#000000;fill:#ef2929;fill-rule:evenodd;enable-background:new"
         d="m 348.71,698.73 c -22.064,0 -39.951,-12.861 -39.951,-12.861 0,0 17.887,-12.861 39.951,-12.861 22.064,0 39.951,12.861 39.951,12.861 C 388.661,685.869 370.774,698.73 348.71,698.73 Z"
         inkscape:connector-curvature="0" />
    </clipPath>
    <filter
       id="filter4189-0"
       width="1.1586"
       y="-0.24639"
       x="-0.079314999"
       height="1.4928"
       style="color-interpolation-filters:sRGB">
      <feGaussianBlur
         id="feGaussianBlur4191-5"
         stdDeviation="2.6406013" />
    </filter>
    <clipPath
       id="clipPath4197-9"
       clipPathUnits="userSpaceOnUse">
      <path
         id="path4199-2"
         style="color:#000000;fill:#75507b;fill-rule:evenodd;enable-background:new"
         d="m 299.47,763.2 c -15.602,15.625 -37.33,19.197 -37.33,19.197 0,0 3.5672,-21.76 19.169,-37.385 15.6018,-15.625 37.33,-19.197 37.33,-19.197 C 318.639,725.815 315.0718,747.575 299.47,763.2 Z"
         inkscape:connector-curvature="0" />
    </clipPath>
    <filter
       id="filter4201-7"
       width="1.2402"
       y="-0.11991"
       x="-0.12009"
       height="1.2398"
       style="color-interpolation-filters:sRGB">
      <feGaussianBlur
         id="feGaussianBlur4203-3"
         stdDeviation="2.8270453" />
    </filter>
    <clipPath
       id="clipPath4133-7"
       clipPathUnits="userSpaceOnUse">
      <path
         id="path4135-5"
         style="color:#000000;fill:#65c808;fill-rule:evenodd;enable-background:new"
         d="m 538.47,738.73 c -22.064,0 -39.951,-12.861 -39.951,-12.861 0,0 17.887,-12.861 39.951,-12.861 22.064,0 39.951,12.861 39.951,12.861 C 578.421,725.869 560.534,738.73 538.47,738.73 Z"
         inkscape:connector-curvature="0" />
    </clipPath>
    <filter
       id="filter4137-2"
       width="1.1586"
       y="-0.24639"
       x="-0.079314999"
       height="1.4928"
       style="color-interpolation-filters:sRGB">
      <feGaussianBlur
         id="feGaussianBlur4139-6"
         stdDeviation="2.6406015" />
    </filter>
    <clipPath
       id="clipPath4071-8"
       clipPathUnits="userSpaceOnUse">
      <path
         id="path4073-0"
         style="color:#000000;fill:#afea2c;fill-rule:evenodd;enable-background:new"
         d="m 515.87,706.72 c -15.602,15.625 -37.33,19.197 -37.33,19.197 0,0 3.5672,-21.76 19.169,-37.385 15.6018,-15.625 37.33,-19.197 37.33,-19.197 C 535.039,669.335 531.4718,691.095 515.87,706.72 Z"
         inkscape:connector-curvature="0" />
    </clipPath>
    <filter
       id="filter4075-6"
       width="1.2402"
       y="-0.11991"
       x="-0.12009"
       height="1.2398"
       style="color-interpolation-filters:sRGB">
      <feGaussianBlur
         id="feGaussianBlur4077-0"
         stdDeviation="2.8270455" />
    </filter>
    <clipPath
       id="clipPath4083-1"
       clipPathUnits="userSpaceOnUse">
      <path
         id="path4085-9"
         style="color:#000000;fill:#729fcf;fill-rule:evenodd;enable-background:new"
         d="m 515.87,745.01 c 15.602,15.625 19.169,37.385 19.169,37.385 0,0 -21.729,-3.5724 -37.33,-19.197 C 482.107,747.573 478.54,725.813 478.54,725.813 478.54,725.813 500.269,729.3854 515.87,745.01 Z"
         inkscape:connector-curvature="0" />
    </clipPath>
    <filter
       id="filter4087-4"
       width="1.2402"
       y="-0.11991"
       x="-0.12009"
       height="1.2398"
       style="color-interpolation-filters:sRGB">
      <feGaussianBlur
         id="feGaussianBlur4089-4"
         stdDeviation="2.8270455" />
    </filter>
    <clipPath
       id="clipPath4157-4"
       clipPathUnits="userSpaceOnUse">
      <path
         id="path4159-8"
         style="color:#000000;fill:#f57900;fill-rule:evenodd;enable-background:new"
         d="m 269.47,688.53 c 15.602,15.625 19.169,37.385 19.169,37.385 0,0 -21.729,-3.5724 -37.33,-19.197 C 235.707,691.093 232.14,669.333 232.14,669.333 232.14,669.333 253.869,672.9054 269.47,688.53 Z"
         inkscape:connector-curvature="0" />
    </clipPath>
    <filter
       id="filter4161-2"
       width="1.2402"
       y="-0.11991"
       x="-0.12009"
       height="1.2398"
       style="color-interpolation-filters:sRGB">
      <feGaussianBlur
         id="feGaussianBlur4163-7"
         stdDeviation="2.8270453" />
    </filter>
    <linearGradient
       id="linearGradient4042"
       y2="745.96997"
       gradientUnits="userSpaceOnUse"
       x2="190.87"
       y1="715.69"
       x1="177.02">
      <stop
         id="stop4117"
         style="stop-color:#f5f5f5;stop-opacity:1;"
         offset="0" />
      <stop
         id="stop4119"
         style="stop-color:#d1d2cd;stop-opacity:1;"
         offset="1" />
    </linearGradient>
    <filter
       id="filter4144"
       style="color-interpolation-filters:sRGB">
      <feGaussianBlur
         id="feGaussianBlur4146"
         stdDeviation="0.52449438" />
    </filter>
    <radialGradient
       id="radialGradient4036"
       gradientUnits="userSpaceOnUse"
       cx="190.11"
       cy="803.94"
       r="25.774"
       gradientTransform="matrix(-7.1009,-3.7574,0.65284,-1.2338,945.4,1718.8)">
      <stop
         id="stop4012-4"
         style="stop-color:#fff"
         offset="0" />
      <stop
         id="stop4014-5"
         style="stop-color:#fff;stop-opacity:0"
         offset="1" />
    </radialGradient>
    <radialGradient
       id="radialGradient4036-9"
       gradientUnits="userSpaceOnUse"
       cx="196.28999"
       cy="714.44"
       r="25.774"
       gradientTransform="matrix(-0.59883,-1.0815,1.5121,-0.83725,-944.83,910.25)">
      <stop
         id="stop4012-2"
         style="stop-color:#fff"
         offset="0" />
      <stop
         id="stop4014-51"
         style="stop-color:#fff;stop-opacity:0"
         offset="1" />
    </radialGradient>
    <radialGradient
       id="radialGradient4036-6"
       gradientUnits="userSpaceOnUse"
       cx="174.42"
       cy="689.06"
       r="25.774"
       gradientTransform="matrix(0.66762,-1.2556,0.62963,0.33477,-513.52,163.93)">
      <stop
         id="stop4012-3"
         style="stop-color:#fff"
         offset="0" />
      <stop
         id="stop4014-4"
         style="stop-color:#fff;stop-opacity:0"
         offset="1" />
    </radialGradient>
    <radialGradient
       id="radialGradient4036-3-6"
       gradientUnits="userSpaceOnUse"
       cx="213.74001"
       cy="846.39001"
       r="25.774"
       gradientTransform="matrix(2.1446,0.54333,-0.23563,0.93006,-46.185,-798.23)">
      <stop
         id="stop4012-29-2"
         style="stop-color:#fff"
         offset="0" />
      <stop
         id="stop4014-0-5"
         style="stop-color:#fff;stop-opacity:0"
         offset="1" />
    </radialGradient>
    <filter
       height="1.1585"
       x="-0.24693"
       y="-0.079258002"
       width="1.4938999"
       id="filter4173"
       style="color-interpolation-filters:sRGB">
      <feGaussianBlur
         stdDeviation="2.642588"
         id="feGaussianBlur4175" />
    </filter>
    <clipPath
       clipPathUnits="userSpaceOnUse"
       id="clipPath4169">
      <path
         d="m 471.43,685.93 c 0,22.097 -12.842,40.01 -12.842,40.01 0,0 -12.842,-17.913 -12.842,-40.01 0,-22.097 12.842,-40.01 12.842,-40.01 C 458.588,645.92 471.43,663.833 471.43,685.93 Z"
         style="color:#000000;fill:#edd400;fill-rule:evenodd;enable-background:new"
         id="path4171"
         inkscape:connector-curvature="0" />
    </clipPath>
    <filter
       height="1.1585"
       x="-0.24693"
       y="-0.079258002"
       width="1.4938999"
       id="filter4149"
       style="color-interpolation-filters:sRGB">
      <feGaussianBlur
         stdDeviation="2.642588"
         id="feGaussianBlur4151" />
    </filter>
    <clipPath
       clipPathUnits="userSpaceOnUse"
       id="clipPath4145">
      <path
         d="m 401.43,865.8 c 0,22.097 -12.842,40.01 -12.842,40.01 0,0 -12.842,-17.913 -12.842,-40.01 0,-22.097 12.842,-40.01 12.842,-40.01 C 388.588,825.79 401.43,843.703 401.43,865.8 Z"
         style="color:#000000;fill:#3465a4;fill-rule:evenodd;enable-background:new"
         id="path4147"
         inkscape:connector-curvature="0" />
    </clipPath>
    <filter
       height="1.4928"
       x="-0.079314999"
       y="-0.24639"
       width="1.1586"
       id="filter4189"
       style="color-interpolation-filters:sRGB">
      <feGaussianBlur
         stdDeviation="2.6406013"
         id="feGaussianBlur4191" />
    </filter>
    <clipPath
       clipPathUnits="userSpaceOnUse"
       id="clipPath4181">
      <path
         d="m 348.71,698.73 c -22.064,0 -39.951,-12.861 -39.951,-12.861 0,0 17.887,-12.861 39.951,-12.861 22.064,0 39.951,12.861 39.951,12.861 C 388.661,685.869 370.774,698.73 348.71,698.73 Z"
         style="color:#000000;fill:#ef2929;fill-rule:evenodd;enable-background:new"
         id="path4183"
         inkscape:connector-curvature="0" />
    </clipPath>
    <filter
       height="1.2398"
       x="-0.12009"
       y="-0.11991"
       width="1.2402"
       id="filter4201"
       style="color-interpolation-filters:sRGB">
      <feGaussianBlur
         stdDeviation="2.8270453"
         id="feGaussianBlur4203" />
    </filter>
    <clipPath
       clipPathUnits="userSpaceOnUse"
       id="clipPath4197">
      <path
         d="m 299.47,763.2 c -15.602,15.625 -37.33,19.197 -37.33,19.197 0,0 3.5672,-21.76 19.169,-37.385 15.6018,-15.625 37.33,-19.197 37.33,-19.197 C 318.639,725.815 315.0718,747.575 299.47,763.2 Z"
         style="color:#000000;fill:#75507b;fill-rule:evenodd;enable-background:new"
         id="path4199"
         inkscape:connector-curvature="0" />
    </clipPath>
    <filter
       height="1.4928"
       x="-0.079314999"
       y="-0.24639"
       width="1.1586"
       id="filter4137"
       style="color-interpolation-filters:sRGB">
      <feGaussianBlur
         stdDeviation="2.6406015"
         id="feGaussianBlur4139" />
    </filter>
    <clipPath
       clipPathUnits="userSpaceOnUse"
       id="clipPath4133">
      <path
         d="m 538.47,738.73 c -22.064,0 -39.951,-12.861 -39.951,-12.861 0,0 17.887,-12.861 39.951,-12.861 22.064,0 39.951,12.861 39.951,12.861 C 578.421,725.869 560.534,738.73 538.47,738.73 Z"
         style="color:#000000;fill:#65c808;fill-rule:evenodd;enable-background:new"
         id="path4135"
         inkscape:connector-curvature="0" />
    </clipPath>
    <filter
       height="1.2398"
       x="-0.12009"
       y="-0.11991"
       width="1.2402"
       id="filter4075"
       style="color-interpolation-filters:sRGB">
      <feGaussianBlur
         stdDeviation="2.8270455"
         id="feGaussianBlur4077" />
    </filter>
    <clipPath
       clipPathUnits="userSpaceOnUse"
       id="clipPath4071">
      <path
         d="m 515.87,706.72 c -15.602,15.625 -37.33,19.197 -37.33,19.197 0,0 3.5672,-21.76 19.169,-37.385 15.6018,-15.625 37.33,-19.197 37.33,-19.197 C 535.039,669.335 531.4718,691.095 515.87,706.72 Z"
         style="color:#000000;fill:#afea2c;fill-rule:evenodd;enable-background:new"
         id="path4073"
         inkscape:connector-curvature="0" />
    </clipPath>
    <filter
       height="1.2398"
       x="-0.12009"
       y="-0.11991"
       width="1.2402"
       id="filter4087"
       style="color-interpolation-filters:sRGB">
      <feGaussianBlur
         stdDeviation="2.8270455"
         id="feGaussianBlur4089" />
    </filter>
    <clipPath
       clipPathUnits="userSpaceOnUse"
       id="clipPath4083">
      <path
         d="m 515.87,745.01 c 15.602,15.625 19.169,37.385 19.169,37.385 0,0 -21.729,-3.5724 -37.33,-19.197 C 482.107,747.573 478.54,725.813 478.54,725.813 478.54,725.813 500.269,729.3854 515.87,745.01 Z"
         style="color:#000000;fill:#729fcf;fill-rule:evenodd;enable-background:new"
         id="path4085"
         inkscape:connector-curvature="0" />
    </clipPath>
    <filter
       height="1.2398"
       x="-0.12009"
       y="-0.11991"
       width="1.2402"
       id="filter4161"
       style="color-interpolation-filters:sRGB">
      <feGaussianBlur
         stdDeviation="2.8270453"
         id="feGaussianBlur4163" />
    </filter>
    <clipPath
       clipPathUnits="userSpaceOnUse"
       id="clipPath4157">
      <path
         d="m 269.47,688.53 c 15.602,15.625 19.169,37.385 19.169,37.385 0,0 -21.729,-3.5724 -37.33,-19.197 C 235.707,691.093 232.14,669.333 232.14,669.333 232.14,669.333 253.869,672.9054 269.47,688.53 Z"
         style="color:#000000;fill:#f57900;fill-rule:evenodd;enable-background:new"
         id="path4159"
         inkscape:connector-curvature="0" />
    </clipPath>
    <radialGradient
       gradientTransform="matrix(2.1446,0.54333,-0.23563,0.93006,-92.14468,107.95031)"
       r="25.774"
       cy="846.39001"
       cx="213.74001"
       gradientUnits="userSpaceOnUse"
       id="radialGradient4036-3">
      <stop
         offset="0"
         style="stop-color:#fff"
         id="stop4012-29" />
      <stop
         offset="1"
         style="stop-color:#fff;stop-opacity:0"
         id="stop4014-0" />
    </radialGradient>
    <linearGradient
       gradientUnits="userSpaceOnUse"
       y2="24.798252"
       x2="42.475323"
       y1="34.43922"
       x1="21.973417"
       id="linearGradient3895-0"
       xlink:href="#linearGradient3795-2"
       inkscape:collect="always" />
    <linearGradient
       y2="1030.9086"
       x2="31.448042"
       y1="1006.2238"
       x1="17.196316"
       gradientUnits="userSpaceOnUse"
       id="linearGradient3879-5"
       xlink:href="#linearGradient3795-2"
       inkscape:collect="always" />
    <linearGradient
       y2="1015.5485"
       x2="22.811094"
       y1="1027.8575"
       x1="29.718235"
       gradientUnits="userSpaceOnUse"
       id="linearGradient3877-5"
       xlink:href="#linearGradient3795-2"
       inkscape:collect="always" />
    <linearGradient
       y2="1024.0002"
       x2="28.641211"
       y1="1024.0002"
       x1="26.192217"
       gradientUnits="userSpaceOnUse"
       id="linearGradient3871-3"
       xlink:href="#linearGradient3795-2"
       inkscape:collect="always" />
    <linearGradient
       y2="1024.0002"
       x2="28.641211"
       y1="1024.0002"
       x1="26.192217"
       gradientUnits="userSpaceOnUse"
       id="linearGradient3869-8"
       xlink:href="#linearGradient3795-2"
       inkscape:collect="always" />
    <linearGradient
       y2="1024.0002"
       x2="28.641211"
       y1="1024.0002"
       x1="26.192217"
       gradientUnits="userSpaceOnUse"
       id="linearGradient3867-2"
       xlink:href="#linearGradient3795-2"
       inkscape:collect="always" />
    <linearGradient
       gradientUnits="userSpaceOnUse"
       y2="1024.0002"
       x2="28.641211"
       y1="1024.0002"
       x1="26.192217"
       id="linearGradient3859-4"
       xlink:href="#linearGradient3795-2"
       inkscape:collect="always" />
    <linearGradient
       gradientTransform="translate(0,-2056.7244)"
       gradientUnits="userSpaceOnUse"
       y2="1004.8474"
       x2="23.204165"
       y1="1053.158"
       x1="23.204165"
       id="linearGradient3801-5"
       xlink:href="#linearGradient3795-2"
       inkscape:collect="always" />
    <linearGradient
       id="linearGradient3803-8">
      <stop
         style="stop-color:#d7def0;stop-opacity:1;"
         offset="0"
         id="stop3805-8" />
      <stop
         id="stop3811-7"
         offset="0.5"
         style="stop-color:#ffffff;stop-opacity:1" />
      <stop
         style="stop-color:#d5def0;stop-opacity:1"
         offset="1"
         id="stop3807-8" />
    </linearGradient>
    <linearGradient
       id="linearGradient3750-7">
      <stop
         id="stop3752-5"
         offset="0"
         style="stop-color:#d0e2f1;stop-opacity:1" />
      <stop
         style="stop-color:#cadef0;stop-opacity:1"
         offset="0.85580856"
         id="stop3756-5" />
      <stop
         id="stop3754-3"
         offset="1"
         style="stop-color:#95bee3;stop-opacity:1" />
    </linearGradient>
    <linearGradient
       id="linearGradient3708-5">
      <stop
         style="stop-color:#658db6;stop-opacity:1"
         offset="0"
         id="stop3710-7" />
      <stop
         id="stop3716-3"
         offset="0.76777935"
         style="stop-color:#527fab;stop-opacity:1;" />
      <stop
         style="stop-color:#4071a0;stop-opacity:1"
         offset="1"
         id="stop3712-6" />
    </linearGradient>
    <linearGradient
       id="linearGradient3698-3">
      <stop
         style="stop-color:#96d0e1;stop-opacity:1"
         offset="0"
         id="stop3700-8" />
      <stop
         id="stop3706-7"
         offset="0.67819428"
         style="stop-color:#89b7e1;stop-opacity:1" />
      <stop
         style="stop-color:#699dd3;stop-opacity:1"
         offset="1"
         id="stop3702-5" />
    </linearGradient>
    <linearGradient
       id="linearGradient3795-2">
      <stop
         id="stop3797-9"
         offset="0"
         style="stop-color:#e8e8e8;stop-opacity:1;" />
      <stop
         id="stop3799-3"
         offset="1"
         style="stop-color:#cdcdcd;stop-opacity:1;" />
    </linearGradient>
  </defs>
  <sodipodi:namedview
     id="base"
     pagecolor="#ffffff"
     bordercolor="#666666"
     borderopacity="1.0"
     inkscape:pageopacity="0.0"
     inkscape:pageshadow="2"
     inkscape:zoom="12.984616"
     inkscape:cx="-6.6159347"
     inkscape:cy="9.5290821"
     inkscape:document-units="px"
     inkscape:current-layer="layer1"
     showgrid="false"
     inkscape:window-width="1366"
     inkscape:window-height="746"
     inkscape:window-x="0"
     inkscape:window-y="0"
     inkscape:window-maximized="1"
     width="0px"
     height="0px"
     fit-margin-top="0"
     fit-margin-left="0"
     fit-margin-right="0"
     fit-margin-bottom="0">
    <inkscape:grid
       type="xygrid"
       id="grid3850"
       empspacing="5"
       visible="true"
       enabled="true"
       snapvisiblegridlinesonly="true" />
  </sodipodi:namedview>
  <metadata
     id="metadata7">
    <rdf:RDF>
      <cc:Work
         rdf:about="">
        <dc:format>image/svg+xml</dc:format>
        <dc:type
           rdf:resource="http://purl.org/dc/dcmitype/StillImage" />
        <dc:title />
      </cc:Work>
    </rdf:RDF>
  </metadata>
  <g
     inkscape:label="Capa 1"
     inkscape:groupmode="layer"
     id="layer1"
     transform="translate(0,-1030.3622)">
    <path
       style="fill:#4d4d4d;stroke:none;stroke-width:1.10796511;stroke-miterlimit:4;stroke-dasharray:none"
       d="M 8.5625 0.875 C 8.1210389 0.90586026 7.7076101 1.1487821 7.46875 1.5625 L 1.0625 12.65625 C 0.68032378 13.318199 0.90055136 14.149074 1.5625 14.53125 L 12.65625 20.9375 C 13.318199 21.319676 14.149074 21.099449 14.53125 20.4375 L 20.9375 9.34375 C 21.319676 8.6818014 21.099449 7.8509262 20.4375 7.46875 L 9.34375 1.0625 C 9.0955193 0.91918392 8.8273766 0.85648385 8.5625 0.875 z M 9.03125 3.625 L 13.21875 6.84375 L 11.1875 7.34375 L 12.96875 14.03125 L 14.96875 13.53125 L 12.96875 18.375 L 8.78125 15.15625 L 10.8125 14.65625 L 9.03125 7.96875 L 7.03125 8.46875 L 9.03125 3.625 z "
       transform="translate(0,1030.3622)"
       id="rect3806" />
  </g>
</svg>
