<?xml version="1.0" encoding="UTF-8" standalone="no"?>
<!-- Created with Inkscape (http://www.inkscape.org/) -->

<svg
   xmlns:dc="http://purl.org/dc/elements/1.1/"
   xmlns:cc="http://creativecommons.org/ns#"
   xmlns:rdf="http://www.w3.org/1999/02/22-rdf-syntax-ns#"
   xmlns:svg="http://www.w3.org/2000/svg"
   xmlns="http://www.w3.org/2000/svg"
   xmlns:xlink="http://www.w3.org/1999/xlink"
   xmlns:sodipodi="http://sodipodi.sourceforge.net/DTD/sodipodi-0.dtd"
   xmlns:inkscape="http://www.inkscape.org/namespaces/inkscape"
   width="48"
   height="48"
   id="svg2"
   version="1.1"
   inkscape:version="0.48+devel r11772"
   sodipodi:docname="acroread.svg">
  <defs
     id="defs4">
    <linearGradient
       id="linearGradient3795">
      <stop
         style="stop-color:#9f1e25;stop-opacity:1;"
         offset="0"
         id="stop3797" />
      <stop
         style="stop-color:#e16459;stop-opacity:1;"
         offset="1"
         id="stop3799" />
    </linearGradient>
    <linearGradient
       inkscape:collect="always"
       id="linearGradient3914">
      <stop
         style="stop-color:#59b3e1;stop-opacity:1;"
         offset="0"
         id="stop3916" />
      <stop
         style="stop-color:#59b3e1;stop-opacity:0;"
         offset="1"
         id="stop3918" />
    </linearGradient>
    <linearGradient
       id="linearGradient3698">
      <stop
         id="stop3700"
         offset="0"
         style="stop-color:#96d0e1;stop-opacity:1" />
      <stop
         style="stop-color:#89b7e1;stop-opacity:1"
         offset="0.67819428"
         id="stop3706" />
      <stop
         id="stop3702"
         offset="1"
         style="stop-color:#699dd3;stop-opacity:1" />
    </linearGradient>
    <linearGradient
       id="linearGradient3708">
      <stop
         id="stop3710"
         offset="0"
         style="stop-color:#658db6;stop-opacity:1" />
      <stop
         style="stop-color:#527fab;stop-opacity:1;"
         offset="0.76777935"
         id="stop3716" />
      <stop
         id="stop3712"
         offset="1"
         style="stop-color:#4071a0;stop-opacity:1" />
    </linearGradient>
    <linearGradient
       id="linearGradient3750">
      <stop
         style="stop-color:#d0e2f1;stop-opacity:1"
         offset="0"
         id="stop3752" />
      <stop
         id="stop3756"
         offset="0.85580856"
         style="stop-color:#cadef0;stop-opacity:1" />
      <stop
         style="stop-color:#95bee3;stop-opacity:1"
         offset="1"
         id="stop3754" />
    </linearGradient>
    <linearGradient
       id="linearGradient3803">
      <stop
         id="stop3805"
         offset="0"
         style="stop-color:#d7def0;stop-opacity:1;" />
      <stop
         style="stop-color:#ffffff;stop-opacity:1"
         offset="0.5"
         id="stop3811" />
      <stop
         id="stop3807"
         offset="1"
         style="stop-color:#d5def0;stop-opacity:1" />
    </linearGradient>
    <linearGradient
       inkscape:collect="always"
       xlink:href="#linearGradient3914"
       id="linearGradient3920"
       x1="6.8000002"
       y1="25.0625"
       x2="45.325001"
       y2="25.0625"
       gradientUnits="userSpaceOnUse" />
    <linearGradient
       inkscape:collect="always"
       xlink:href="#linearGradient868"
       id="linearGradient3801"
       x1="23.204165"
       y1="1053.158"
       x2="23.204165"
       y2="1004.8474"
       gradientUnits="userSpaceOnUse" />
    <linearGradient
       inkscape:collect="always"
       xlink:href="#linearGradient868"
       id="linearGradient3801-8"
       x1="23.204165"
       y1="1053.158"
       x2="23.204165"
       y2="1004.8474"
       gradientUnits="userSpaceOnUse" />
    <linearGradient
       id="linearGradient868">
      <stop
         style="stop-color:#aa0000;stop-opacity:1"
         offset="0"
         id="stop870" />
      <stop
         style="stop-color:#ff5555;stop-opacity:1"
         offset="1"
         id="stop872" />
    </linearGradient>
  </defs>
  <sodipodi:namedview
     id="base"
     pagecolor="#ffffff"
     bordercolor="#666666"
     borderopacity="1.0"
     inkscape:pageopacity="0.0"
     inkscape:pageshadow="2"
     inkscape:zoom="5.6568545"
     inkscape:cx="19.446813"
     inkscape:cy="15.418706"
     inkscape:document-units="px"
     inkscape:current-layer="layer1"
     showgrid="false"
     inkscape:window-width="1366"
     inkscape:window-height="712"
     inkscape:window-x="0"
     inkscape:window-y="0"
     inkscape:window-maximized="1" />
  <metadata
     id="metadata7">
    <rdf:RDF>
      <cc:Work
         rdf:about="">
        <dc:format>image/svg+xml</dc:format>
        <dc:type
           rdf:resource="http://purl.org/dc/dcmitype/StillImage" />
        <dc:title />
      </cc:Work>
    </rdf:RDF>
  </metadata>
  <g
     inkscape:label="Capa 1"
     inkscape:groupmode="layer"
     id="layer1"
     transform="translate(0,-1004.3622)">
    <rect
       style="fill:url(#linearGradient3801);fill-opacity:1.0;stroke:none"
       id="rect2991"
       width="48"
       height="48"
       x="0"
       y="1004.3622"
       ry="1.9445436" />
    <path
       style="fill:#ffffff;stroke:none;fill-opacity:1;opacity:0.15"
       d="M 0 0 L 0 48 L 16.78125 48 L 29.625 0 L 0 0 z "
       id="rect3790"
       transform="translate(0,1004.3622)" />
    <path
       style="fill:#ffffff;fill-opacity:1;fill-rule:nonzero;stroke:none"
       d="M 10.59375 0.4375 C 10.846074 2.5108756 11.266329 4.6685035 11.90625 7.1875 L 12.625 9.90625 L 11.96875 11.96875 C 9.8792044 18.64605 6.839109 25.6099 2.375 33.9375 C 1.7436373 35.115278 1.1358017 36.176677 0.53125 37.25 L 0.53125 41.8125 C 0.79833814 41.383818 1.0732596 40.979101 1.34375 40.53125 C 2.81138 38.10125 3.281839 37.5 3.65625 37.5 C 3.788182 37.5001 5.167566 37.12375 6.71875 36.65625 C 12.918481 34.78785 20.357912 33.28955 27.65625 32.40625 L 30.09375 32.09375 L 31.3125 32.6875 C 34.510669 34.2919 38.983633 35.8601 42.25 36.5 C 44.459176 36.9328 47.314701 37.0253 48.28125 36.6875 C 48.322845 36.672966 48.390364 36.644233 48.4375 36.625 L 48.4375 35.875 C 46.143043 36.032586 43.368073 35.027695 41.15625 34.375 C 39.302891 33.7911 35.198812 32.19315 34.96875 31.96875 C 38.811418 31.22494 45.290502 30.920795 48.4375 32.4375 L 48.4375 30.96875 C 47.584965 30.548985 46.456561 30.185154 45.125 29.9375 C 43.059005 29.5532 38.171523 29.46715 34.34375 29.71875 L 30.9375 29.9375 L 29.71875 29.1875 C 22.677053 24.9219 18.935812 20.10955 15.5625 10.96875 C 15.056284 9.59705 15.020023 9.39605 15.1875 8.53125 C 15.49168 6.9604653 15.781924 3.4915323 15.9375 0.4375 L 14.78125 0.4375 C 14.471437 1.9172926 14.158792 3.3741161 13.8125 4.75 C 13.671246 4.75 13.278105 2.8078792 12.9375 0.4375 L 10.59375 0.4375 z M 14.09375 14.03125 C 14.1719 14.00625 14.215806 14.1663 14.3125 14.4375 C 14.431534 14.7714 15.097262 16.13325 15.78125 17.46875 C 18.724262 23.21515 21.990681 27.00445 26.6875 30.09375 C 26.925453 30.25035 27.087286 30.41045 27.03125 30.46875 C 26.97521 30.52675 25.999381 30.7428 24.90625 30.9375 C 17.451919 32.2648 8.171018 35.0536 3.65625 37.3125 C 3.58443 37.3485 3.53125 37.27415 3.53125 37.15625 C 3.531251 37.03795 3.966287 36.10435 4.53125 35.09375 C 8.786622 27.48225 11.668173 21.34795 13.28125 16.28125 C 13.79297 14.67395 13.963495 14.07265 14.09375 14.03125 z "
       transform="translate(0,1004.3622)"
       id="rect3364" />
  </g>
</svg>
