<?xml version="1.0" encoding="UTF-8" standalone="no"?>
<!-- Created with Inkscape (http://www.inkscape.org/) -->

<svg
   xmlns:dc="http://purl.org/dc/elements/1.1/"
   xmlns:cc="http://creativecommons.org/ns#"
   xmlns:rdf="http://www.w3.org/1999/02/22-rdf-syntax-ns#"
   xmlns:svg="http://www.w3.org/2000/svg"
   xmlns="http://www.w3.org/2000/svg"
   xmlns:xlink="http://www.w3.org/1999/xlink"
   xmlns:sodipodi="http://sodipodi.sourceforge.net/DTD/sodipodi-0.dtd"
   xmlns:inkscape="http://www.inkscape.org/namespaces/inkscape"
   width="48"
   height="48.000011"
   id="svg1604"
   version="1.1"
   inkscape:version="0.48+devel r11521"
   sodipodi:docname="dc++.svg">
  <defs
     id="defs1606">
    <linearGradient
       id="linearGradient2192">
      <stop
         id="stop2194"
         offset="0"
         style="stop-color:#9dd762;stop-opacity:1" />
      <stop
         id="stop2196"
         offset="1"
         style="stop-color:#5eae28;stop-opacity:1" />
    </linearGradient>
    <linearGradient
       inkscape:collect="always"
       xlink:href="#linearGradient3795"
       id="linearGradient3801"
       x1="23.204165"
       y1="1053.158"
       x2="23.204165"
       y2="1004.8474"
       gradientUnits="userSpaceOnUse"
       gradientTransform="translate(0,-2056.7244)" />
    <linearGradient
       id="linearGradient3795">
      <stop
         style="stop-color:#68b8d8;stop-opacity:1;"
         offset="0"
         id="stop3797" />
      <stop
         style="stop-color:#3097bd;stop-opacity:1;"
         offset="1"
         id="stop3799" />
    </linearGradient>
    <linearGradient
       y2="1004.8474"
       x2="23.204165"
       y1="1053.158"
       x1="23.204165"
       gradientTransform="translate(2273.1429,-1972.1529)"
       gradientUnits="userSpaceOnUse"
       id="linearGradient2169"
       xlink:href="#linearGradient2192"
       inkscape:collect="always" />
  </defs>
  <sodipodi:namedview
     id="base"
     pagecolor="#ffffff"
     bordercolor="#666666"
     borderopacity="1.0"
     inkscape:pageopacity="0.0"
     inkscape:pageshadow="2"
     inkscape:zoom="7"
     inkscape:cx="23.870761"
     inkscape:cy="25.044344"
     inkscape:document-units="px"
     inkscape:current-layer="layer1"
     showgrid="false"
     width="0px"
     height="0px"
     fit-margin-top="0"
     fit-margin-left="0"
     fit-margin-right="0"
     fit-margin-bottom="0"
     inkscape:window-width="910"
     inkscape:window-height="752"
     inkscape:window-x="188"
     inkscape:window-y="308"
     inkscape:window-maximized="0" />
  <metadata
     id="metadata1609">
    <rdf:RDF>
      <cc:Work
         rdf:about="">
        <dc:format>image/svg+xml</dc:format>
        <dc:type
           rdf:resource="http://purl.org/dc/dcmitype/StillImage" />
        <dc:title></dc:title>
        <cc:license
           rdf:resource="" />
      </cc:Work>
    </rdf:RDF>
  </metadata>
  <g
     inkscape:label="Capa 1"
     inkscape:groupmode="layer"
     id="layer1"
     transform="translate(-2273.1428,-919.79076)">
    <rect
       style="fill:url(#linearGradient2169);fill-opacity:1;stroke:none"
       id="rect2991"
       width="48"
       height="48"
       x="2273.1428"
       y="-967.79077"
       ry="1.9445436"
       transform="scale(1,-1)" />
    <g
       id="g2207"
       transform="matrix(0.67878155,0,0,0.67878155,735.9104,301.27364)">
      <path
         id="path2198"
         transform="translate(2273.1428,919.79076)"
         d="m 17.25,7.4375 c -5.634707,0 -10.1875,4.584043 -10.1875,10.21875 0,5.634707 4.552793,10.1875 10.1875,10.1875 5.634707,0 10.21875,-4.552793 10.21875,-10.1875 C 27.46875,12.021543 22.884707,7.4375 17.25,7.4375 z m 0,0.875 c 3.425568,0 6.21875,1.719996 6.21875,3.84375 C 23.46875,14.280004 20.675568,16 17.25,16 c -3.425568,0 -6.1875,-1.719996 -6.1875,-3.84375 0,-2.123754 2.761932,-3.84375 6.1875,-3.84375 z"
         style="fill:#ffffff;fill-opacity:1;stroke:none"
         inkscape:connector-curvature="0" />
      <path
         inkscape:connector-curvature="0"
         style="fill:#ffffff;fill-opacity:1;stroke:none"
         d="m 2297.9643,945.51397 c -5.6347,0 -10.1875,4.58404 -10.1875,10.21875 0,5.63471 4.5528,10.1875 10.1875,10.1875 5.6347,0 10.2188,-4.55279 10.2188,-10.1875 0,-5.63471 -4.5841,-10.21875 -10.2188,-10.21875 z m 0,0.875 c 3.4256,0 6.2188,1.72 6.2188,3.84375 0,2.12376 -2.7932,3.84375 -6.2188,3.84375 -3.4256,0 -6.1875,-1.71999 -6.1875,-3.84375 0,-2.12375 2.7619,-3.84375 6.1875,-3.84375 z"
         id="path2203" />
      <path
         id="path2205"
         d="m 2309.6786,929.65683 c -5.6347,0 -10.1875,4.58404 -10.1875,10.21875 0,5.63471 4.5528,10.1875 10.1875,10.1875 5.6347,0 10.2188,-4.55279 10.2188,-10.1875 0,-5.63471 -4.5841,-10.21875 -10.2188,-10.21875 z m 0,0.875 c 3.4256,0 6.2188,1.72 6.2188,3.84375 0,2.12376 -2.7932,3.84375 -6.2188,3.84375 -3.4256,0 -6.1875,-1.71999 -6.1875,-3.84375 0,-2.12375 2.7619,-3.84375 6.1875,-3.84375 z"
         style="fill:#4d4d4d;fill-opacity:1;stroke:none"
         inkscape:connector-curvature="0" />
    </g>
    <path
       inkscape:connector-curvature="0"
       style="opacity:0.15;fill:#ffffff;fill-opacity:1;stroke:none"
       d="m 2273.1429,919.79076 0,48 16.7812,0 12.8438,-48 -29.625,0 z"
       id="rect3790" />
  </g>
</svg>
