<?xml version="1.0" encoding="UTF-8" standalone="no"?>
<!-- Created with Inkscape (http://www.inkscape.org/) -->

<svg
   xmlns:dc="http://purl.org/dc/elements/1.1/"
   xmlns:cc="http://creativecommons.org/ns#"
   xmlns:rdf="http://www.w3.org/1999/02/22-rdf-syntax-ns#"
   xmlns:svg="http://www.w3.org/2000/svg"
   xmlns="http://www.w3.org/2000/svg"
   xmlns:xlink="http://www.w3.org/1999/xlink"
   xmlns:sodipodi="http://sodipodi.sourceforge.net/DTD/sodipodi-0.dtd"
   xmlns:inkscape="http://www.inkscape.org/namespaces/inkscape"
   width="48"
   height="48"
   id="svg2"
   version="1.1"
   inkscape:version="0.48+devel r11772"
   sodipodi:docname="accessories-text-editor.svg">
  <defs
     id="defs4">
    <linearGradient
       id="linearGradient3795">
      <stop
         style="stop-color:#d8a268;stop-opacity:1;"
         offset="0"
         id="stop3797" />
      <stop
         style="stop-color:#a8a05c;stop-opacity:1;"
         offset="1"
         id="stop3799" />
    </linearGradient>
    <linearGradient
       id="linearGradient3698">
      <stop
         id="stop3700"
         offset="0"
         style="stop-color:#96d0e1;stop-opacity:1" />
      <stop
         style="stop-color:#89b7e1;stop-opacity:1"
         offset="0.67819428"
         id="stop3706" />
      <stop
         id="stop3702"
         offset="1"
         style="stop-color:#699dd3;stop-opacity:1" />
    </linearGradient>
    <linearGradient
       id="linearGradient3708">
      <stop
         id="stop3710"
         offset="0"
         style="stop-color:#658db6;stop-opacity:1" />
      <stop
         style="stop-color:#527fab;stop-opacity:1;"
         offset="0.76777935"
         id="stop3716" />
      <stop
         id="stop3712"
         offset="1"
         style="stop-color:#4071a0;stop-opacity:1" />
    </linearGradient>
    <linearGradient
       id="linearGradient3750">
      <stop
         style="stop-color:#d0e2f1;stop-opacity:1"
         offset="0"
         id="stop3752" />
      <stop
         id="stop3756"
         offset="0.85580856"
         style="stop-color:#cadef0;stop-opacity:1" />
      <stop
         style="stop-color:#95bee3;stop-opacity:1"
         offset="1"
         id="stop3754" />
    </linearGradient>
    <linearGradient
       id="linearGradient3803">
      <stop
         id="stop3805"
         offset="0"
         style="stop-color:#d7def0;stop-opacity:1;" />
      <stop
         style="stop-color:#ffffff;stop-opacity:1"
         offset="0.5"
         id="stop3811" />
      <stop
         id="stop3807"
         offset="1"
         style="stop-color:#d5def0;stop-opacity:1" />
    </linearGradient>
    <linearGradient
       id="linearGradient3795-1">
      <stop
         style="stop-color:#582200;stop-opacity:1"
         offset="0"
         id="stop3797-1" />
      <stop
         style="stop-color:#c87137;stop-opacity:1"
         offset="1"
         id="stop3799-3" />
    </linearGradient>
    <linearGradient
       inkscape:collect="always"
       xlink:href="#linearGradient898"
       id="linearGradient867"
       x1="24.25"
       y1="1049.1123"
       x2="24.25"
       y2="1004.6123"
       gradientUnits="userSpaceOnUse"
       gradientTransform="translate(0,1.4999201)" />
    <linearGradient
       id="linearGradient898"
       inkscape:collect="always">
      <stop
         id="stop900"
         offset="0"
         style="stop-color:#cccccc;stop-opacity:1" />
      <stop
         id="stop902"
         offset="1"
         style="stop-color:#ffffff;stop-opacity:1" />
    </linearGradient>
    <linearGradient
       inkscape:collect="always"
       xlink:href="#linearGradient898"
       id="linearGradient903"
       x1="23.75"
       y1="1052.4872"
       x2="23.75"
       y2="1012.4872"
       gradientUnits="userSpaceOnUse" />
    <linearGradient
       inkscape:collect="always"
       xlink:href="#linearGradient3795-1"
       id="linearGradient925"
       gradientUnits="userSpaceOnUse"
       x1="23.75"
       y1="1013.6122"
       x2="23.75"
       y2="1004.2372"
       gradientTransform="translate(0,-1004.3622)" />
  </defs>
  <sodipodi:namedview
     id="base"
     pagecolor="#ffffff"
     bordercolor="#666666"
     borderopacity="1.0"
     inkscape:pageopacity="0.0"
     inkscape:pageshadow="2"
     inkscape:zoom="4"
     inkscape:cx="-3.7636127"
     inkscape:cy="8.3048412"
     inkscape:document-units="px"
     inkscape:current-layer="layer1"
     showgrid="false"
     inkscape:window-width="1366"
     inkscape:window-height="712"
     inkscape:window-x="0"
     inkscape:window-y="0"
     inkscape:window-maximized="1">
    <inkscape:grid
       type="xygrid"
       id="grid3797" />
  </sodipodi:namedview>
  <metadata
     id="metadata7">
    <rdf:RDF>
      <cc:Work
         rdf:about="">
        <dc:format>image/svg+xml</dc:format>
        <dc:type
           rdf:resource="http://purl.org/dc/dcmitype/StillImage" />
        <dc:title />
      </cc:Work>
    </rdf:RDF>
  </metadata>
  <g
     inkscape:label="Capa 1"
     inkscape:groupmode="layer"
     id="layer1"
     transform="translate(0,-1004.3622)">
    <rect
       ry="1.9445436"
       y="1004.3622"
       x="0"
       height="48"
       width="48"
       id="rect919"
       style="fill:url(#linearGradient903);fill-opacity:1;stroke:none" />
    <path
       style="fill:#ff4a4a;fill-opacity:1;stroke:none"
       d="M 8.125 0 L 8.125 48 L 8.5 48 L 8.5 0 L 8.125 0 z "
       transform="translate(0,1004.3622)"
       id="rect869" />
    <path
       style="fill:#5fbcd3;fill-opacity:1;stroke:none"
       d="M 0 15.5 L 0 15.875 L 48 15.875 L 48 15.5 L 0 15.5 z "
       transform="translate(0,1004.3622)"
       id="rect871" />
    <path
       style="fill:#5fbcd3;fill-opacity:1;stroke:none"
       d="M 0 22.65625 L 0 23.03125 L 48 23.03125 L 48 22.65625 L 0 22.65625 z "
       transform="translate(0,1004.3622)"
       id="rect873" />
    <path
       style="fill:#5fbcd3;fill-opacity:1;stroke:none"
       d="M 0 29.84375 L 0 30.21875 L 48 30.21875 L 48 29.84375 L 0 29.84375 z "
       transform="translate(0,1004.3622)"
       id="rect875" />
    <path
       style="fill:#5fbcd3;fill-opacity:1;stroke:none"
       d="M 0 37 L 0 37.375 L 48 37.375 L 48 37 L 0 37 z "
       transform="translate(0,1004.3622)"
       id="rect877" />
    <path
       style="fill:url(#linearGradient925);fill-opacity:1;stroke:none"
       d="M 1.9375 0 C 0.86022285 0 0 0.86022285 0 1.9375 L 0 9.6875 L 48 9.6875 L 48 1.9375 C 48 0.86022285 47.139777 0 46.0625 0 L 1.9375 0 z "
       transform="translate(0,1004.3622)"
       id="rect2991" />
    <path
       style="fill:#ffffff;stroke:none;fill-opacity:1;opacity:0.15"
       d="M 0 0 L 0 48 L 16.78125 48 L 29.625 0 L 0 0 z "
       id="rect3790"
       transform="translate(0,1004.3622)" />
    <rect
       style="fill:#e6e6e6;fill-opacity:1;stroke:none"
       id="rect904"
       width="5.9432678"
       height="1.4047726"
       x="7.1178226"
       y="1006.8317"
       ry="0.70238632" />
    <rect
       ry="0.70238632"
       y="1006.8317"
       x="21.028366"
       height="1.4047726"
       width="5.9432678"
       id="rect906"
       style="fill:#e6e6e6;fill-opacity:1;stroke:none" />
    <rect
       style="fill:#e6e6e6;fill-opacity:1;stroke:none"
       id="rect916"
       width="5.9432678"
       height="1.4047726"
       x="34.938908"
       y="1006.8317"
       ry="0.70238632" />
  </g>
</svg>
