<?xml version="1.0" encoding="UTF-8" standalone="no"?>
<!-- Created with Inkscape (http://www.inkscape.org/) -->

<svg
   xmlns:dc="http://purl.org/dc/elements/1.1/"
   xmlns:cc="http://creativecommons.org/ns#"
   xmlns:rdf="http://www.w3.org/1999/02/22-rdf-syntax-ns#"
   xmlns:svg="http://www.w3.org/2000/svg"
   xmlns="http://www.w3.org/2000/svg"
   xmlns:xlink="http://www.w3.org/1999/xlink"
   xmlns:sodipodi="http://sodipodi.sourceforge.net/DTD/sodipodi-0.dtd"
   xmlns:inkscape="http://www.inkscape.org/namespaces/inkscape"
   width="48"
   height="48"
   id="svg2"
   version="1.1"
   inkscape:version="0.48+devel r11717"
   sodipodi:docname="goa-account.svg">
  <defs
     id="defs4">
    <linearGradient
       id="linearGradient3795">
      <stop
         style="stop-color:#52a2cc;stop-opacity:1;"
         offset="0"
         id="stop3797" />
      <stop
         style="stop-color:#59b3e1;stop-opacity:1;"
         offset="1"
         id="stop3799" />
    </linearGradient>
    <linearGradient
       inkscape:collect="always"
       id="linearGradient3914">
      <stop
         style="stop-color:#59b3e1;stop-opacity:1;"
         offset="0"
         id="stop3916" />
      <stop
         style="stop-color:#59b3e1;stop-opacity:0;"
         offset="1"
         id="stop3918" />
    </linearGradient>
    <linearGradient
       id="linearGradient3698">
      <stop
         id="stop3700"
         offset="0"
         style="stop-color:#96d0e1;stop-opacity:1" />
      <stop
         style="stop-color:#89b7e1;stop-opacity:1"
         offset="0.67819428"
         id="stop3706" />
      <stop
         id="stop3702"
         offset="1"
         style="stop-color:#699dd3;stop-opacity:1" />
    </linearGradient>
    <linearGradient
       id="linearGradient3708">
      <stop
         id="stop3710"
         offset="0"
         style="stop-color:#658db6;stop-opacity:1" />
      <stop
         style="stop-color:#527fab;stop-opacity:1;"
         offset="0.76777935"
         id="stop3716" />
      <stop
         id="stop3712"
         offset="1"
         style="stop-color:#4071a0;stop-opacity:1" />
    </linearGradient>
    <linearGradient
       id="linearGradient3750">
      <stop
         style="stop-color:#d0e2f1;stop-opacity:1"
         offset="0"
         id="stop3752" />
      <stop
         id="stop3756"
         offset="0.85580856"
         style="stop-color:#cadef0;stop-opacity:1" />
      <stop
         style="stop-color:#95bee3;stop-opacity:1"
         offset="1"
         id="stop3754" />
    </linearGradient>
    <linearGradient
       id="linearGradient3803">
      <stop
         id="stop3805"
         offset="0"
         style="stop-color:#d7def0;stop-opacity:1;" />
      <stop
         style="stop-color:#ffffff;stop-opacity:1"
         offset="0.5"
         id="stop3811" />
      <stop
         id="stop3807"
         offset="1"
         style="stop-color:#d5def0;stop-opacity:1" />
    </linearGradient>
    <linearGradient
       inkscape:collect="always"
       xlink:href="#linearGradient3914"
       id="linearGradient3920"
       x1="6.8000002"
       y1="25.0625"
       x2="45.325001"
       y2="25.0625"
       gradientUnits="userSpaceOnUse" />
    <linearGradient
       inkscape:collect="always"
       xlink:href="#linearGradient3795"
       id="linearGradient3801"
       x1="23.204165"
       y1="1053.158"
       x2="23.204165"
       y2="1004.8474"
       gradientUnits="userSpaceOnUse" />
    <clipPath
       id="clipPath3176">
      <path
         d="m 48,18 c -18.225397,0 -33,12.088312 -33,27 0,9.498438 5.99976,17.843462 15.0625,22.65625 -0.344625,2.508754 -1.914014,8.649817 -9.34375,10.75 9.622915,1.045823 16.013601,-3.646306 19.40625,-7.1875 C 42.648507,71.724251 45.286067,72 48,72 66.225397,72 81,59.911688 81,45 81,30.088312 66.225397,18 48,18 Z"
         inkscape:connector-curvature="0"
         id="path3178"
         style="fill:#ff0000;fill-opacity:1;stroke:none;display:inline" />
    </clipPath>
    <radialGradient
       cx="63.98003"
       cy="61.948856"
       r="58.01997"
       fx="63.98003"
       fy="61.948856"
       id="radialGradient5232-9"
       xlink:href="#linearGradient3875"
       gradientUnits="userSpaceOnUse"
       gradientTransform="matrix(1.090012,0,0,0.84044811,-21.739002,-5.4878171)" />
    <linearGradient
       id="linearGradient3875">
      <stop
         id="stop3877"
         style="stop-color:#ffffff;stop-opacity:1"
         offset="0" />
      <stop
         id="stop3879"
         style="stop-color:#ffffff;stop-opacity:0.42635658"
         offset="1" />
    </linearGradient>
    <radialGradient
       r="58.01997"
       fy="61.948856"
       fx="63.98003"
       cy="61.948856"
       cx="63.98003"
       gradientTransform="matrix(0.4218022,0,0,0.32522841,-2.7341901,5.2274)"
       gradientUnits="userSpaceOnUse"
       id="radialGradient936"
       xlink:href="#linearGradient3875"
       inkscape:collect="always" />
  </defs>
  <sodipodi:namedview
     id="base"
     pagecolor="#ffffff"
     bordercolor="#666666"
     borderopacity="1.0"
     inkscape:pageopacity="0.0"
     inkscape:pageshadow="2"
     inkscape:zoom="8.0000004"
     inkscape:cx="30.162339"
     inkscape:cy="38.232389"
     inkscape:document-units="px"
     inkscape:current-layer="layer1"
     showgrid="false"
     inkscape:window-width="1366"
     inkscape:window-height="746"
     inkscape:window-x="0"
     inkscape:window-y="0"
     inkscape:window-maximized="1"
     showguides="false" />
  <metadata
     id="metadata7">
    <rdf:RDF>
      <cc:Work
         rdf:about="">
        <dc:format>image/svg+xml</dc:format>
        <dc:type
           rdf:resource="http://purl.org/dc/dcmitype/StillImage" />
        <dc:title></dc:title>
      </cc:Work>
    </rdf:RDF>
  </metadata>
  <g
     inkscape:label="Capa 1"
     inkscape:groupmode="layer"
     id="layer1"
     transform="translate(0,-1004.3622)">
    <rect
       style="fill:url(#linearGradient3801);fill-opacity:1;stroke:none"
       id="rect2991"
       width="48"
       height="48"
       x="0"
       y="1004.3622"
       ry="1.9445436" />
    <g
       id="g913"
       transform="matrix(0.77464788,0,0,0.77464788,5.4084508,231.7436)">
      <path
         inkscape:connector-curvature="0"
         id="path884"
         d="m 24,1010.6122 c -9.803054,0 -17.75,7.9469 -17.75,17.75 0,9.803 7.946946,17.75 17.75,17.75 9.803054,0 17.75,-7.947 17.75,-17.75 C 41.75,1018.5591 33.803054,1010.6122 24,1010.6122 z m 0,2 c 8.698485,0 15.75,7.0515 15.75,15.75 0,8.6985 -7.051515,15.75 -15.75,15.75 -8.698485,0 -15.75,-7.0515 -15.75,-15.75 C 8.25,1019.6637 15.301515,1012.6122 24,1012.6122 Z"
         style="fill:#ffffff;fill-opacity:1;stroke:none" />
      <path
         sodipodi:nodetypes="scccccccccccscccccccccccccccccccscccccccccccccccccccccccccccccccccccccccccccccccccccccccccccccccccccccscccccccccccccccccccccccccccccccccccccccccccccccc"
         inkscape:connector-curvature="0"
         id="path3522-9"
         transform="translate(0,1004.3622)"
         d="m 25.40625,9.6875 c -0.19778,-0.00765 -0.370203,6e-4 -0.5,0.03125 l -5.1875,0 c 0.638547,0.8574 0.03687,2.29545 1,2.28125 0.46897,0.6629 -0.919747,0.1765 0.09375,0.6875 0.582816,0.4589 -0.628019,0.7132 0.09375,1.125 -0.831862,0.4292 0.132132,2.26435 0.75,2.71875 1.016938,0.856 0.459038,-1.82995 1.59375,-1.96875 0.616583,-0.7038 1.699674,-1.13575 2.46875,-1.84375 -0.751612,-0.061 -1.211812,-0.5227 -0.5,-0.8125 1.310069,1.3423 0.350198,-0.65555 -0.375,-0.96875 0.701717,-0.2232 1.378615,-0.0463 1.28125,-0.625 C 26.681169,9.905625 25.999589,9.7104547 25.40625,9.6875 z m -9.875,1.03125 c -0.182161,0.116374 -0.354298,0.25144 -0.53125,0.375 -0.03238,0.644315 -0.0156,1.310855 -0.25,0.21875 -0.0064,-0.0079 0.0047,-0.02265 0,-0.03125 -0.162995,0.118669 -0.341818,0.219062 -0.5,0.34375 0.08033,0.35082 0.268986,0.693362 0.28125,0.8125 1.112373,0.3847 1.704185,-0.2751 2.125,0.8125 1.058426,0.6099 -0.0089,1.69275 -0.40625,1.96875 0.71564,-0.6231 2.079367,1.69315 1.71875,0.46875 -0.43023,-0.3141 1.166267,0.48955 0.34375,-0.53125 -0.756941,-1.2194 0.05588,-0.5346 0.375,-0.25 C 19.772905,13.93305 17.453747,13.814 18.03125,12.8125 17.525189,12.4027 16.864888,11.16355 15.96875,11.40625 15.577354,11.912347 15.669985,11.044551 15.53125,10.71875 z m -1.90625,1.4375 c -0.150568,0.131918 -0.292086,0.268768 -0.4375,0.40625 0.252348,0.460352 0.708358,0.892813 -0.15625,1.28125 -0.174236,-0.650748 -0.445875,0.03133 -1,-0.09375 -2.0492635,2.392623 -3.3703652,5.40458 -3.6875,8.71875 0.00255,0.0095 -0.00264,0.02183 0,0.03125 0.1387489,0.495121 0.4245106,0.914013 0.96875,1.1875 0.246716,0.4576 1.264771,2.3958 1.3125,1.8125 -0.519012,-0.5435 -1.0344631,-2.17085 -0.15625,-0.71875 0.786618,1.3803 1.824905,2.2965 3.375,2.625 0.847489,0.2882 1.567215,1.2805 2.3125,1.0625 0.42143,1.1108 -1.273741,2.1515 0.03125,3.1875 0.681269,1.0489 1.837987,1.74625 1.21875,3.21875 -0.312503,1.037858 -0.326291,2.149241 -0.4375,3.1875 0.42977,0.215426 0.861392,0.417608 1.3125,0.59375 0.149998,-0.536812 0.336479,-1.046035 0.75,-1.4375 1.179141,0.01 0.235809,-1.26055 1.40625,-1.09375 0.714212,-0.936 0.919712,-2.0658 2.125,-2.4375 0.143972,-1.1362 1.984069,-2.8701 0.0625,-3.3125 -0.522259,-0.2574 -1.852764,-0.34175 -1.75,-0.46875 C 21.083202,28.77875 19.140915,28.4612 18.3125,28 c -1.087676,-0.772 -2.741791,1.2701 -3.125,-0.5 -0.228653,-0.5569 -1.040473,-0.5782 -0.65625,-1.4375 -0.692441,0.6885 -2.073339,0.48605 -1.71875,-0.84375 0.538492,-1.12 2.616367,-1.1596 2.96875,0.1875 -0.489266,-1.4857 0.953387,-2.66175 1.75,-3.71875 0.162203,-0.5052 1.112907,-0.9215 0.78125,-0.25 0.565035,-0.021 1.441251,-1.033 0.4375,-0.5625 -0.0142,-0.9297 -0.875689,-0.6945 -1.15625,-0.5625 0.519999,-0.8252 3.180801,-0.36995 2.0625,-1.71875 -0.866543,-0.3511 -0.81102,-2.3913 -1.6875,-1.25 0.07376,-0.7032 -1.759289,-2.08545 -1.71875,-0.90625 0.22676,1.0552 0.01383,2.27705 -0.46875,2.96875 -0.100709,-1.5462 -2.714083,-1.19615 -2.375,-2.84375 0.491239,-0.7853 1.070309,-1.87895 1.125,-1.78125 0.880377,-0.3361 1.582848,-1.32605 0.5625,-1.96875 -0.05453,0.5601 -0.787868,1.74145 -0.6875,0.34375 C 13.91825,13.73378 13.864993,12.779827 13.625,12.15625 z m 20.75,0.0625 c -1.54631,0.3782 -2.172561,1.87065 -2.9375,3.09375 -1.127577,0.5083 -1.072224,2.6972 0.1875,2 0.337159,0.5888 -0.26331,1.5199 0.71875,0.75 0.792128,-1.0481 0.151997,-2.74535 1.5,-3.40625 0.09819,0.5139 -1.254857,2.40915 0.3125,2.09375 1.416915,0.053 -1.03289,0.1575 -0.34375,1.0625 -0.715999,-0.4248 -0.315409,1.15005 -1.25,0.78125 -0.809665,0.4403 -1.341724,-0.19985 -1.15625,-0.90625 -0.636937,0.3715 0.199432,1.437 -0.90625,1.5 -0.247681,0.8794 -2.283272,0.7295 -1.125,1.625 0.514244,1.3326 -1.939968,0.0878 -1.25,1.6875 0.590304,1.5813 1.841838,-0.5307 2.34375,-0.9375 0.968386,-0.751 2.402664,1.2995 1.53125,1.375 0.97713,-0.1311 0.782835,-1.0777 0,-1.4375 -0.422835,-1.0964 1.316433,0.54405 1.21875,1.09375 0.621455,1.1636 0.367602,-1.19885 1,-0.15625 -0.07383,1.0998 2.562333,0.25465 1.3125,1.65625 -1.07457,0.2164 -2.13737,-0.2535 -3.0625,0.0625 -0.861052,-0.01 -0.811511,-0.9571 -1.125,-1.1875 -1.095269,0.089 -2.454257,0.08415 -3.1875,0.96875 -0.79291,1.0878 -1.92672,2.6111 -1.0625,4 0.864829,2.0582 2.985941,0.12825 4.21875,1.34375 0.366434,0.5068 -0.319332,1.10725 0.5,1.65625 0.308307,1.1694 -0.350954,2.2571 0.40625,3.375 0.369045,0.990964 0.628782,2.421652 1.875,1.78125 0.415691,-0.347001 0.778514,-0.737583 1.15625,-1.125 0.492656,-0.882761 0.575081,-1.89709 1.46875,-2.5625 -1.007001,-1.9486 1.253873,-2.82435 1.8125,-4.40625 -1.220485,0.1787 -2.330121,-1.0254 -2.625,-2.25 -0.512712,-0.5948 -0.38522,-1.46115 0.1875,-0.34375 0.787198,0.7627 0.825058,3.00795 2.28125,1.84375 0.291254,-0.1218 0.793912,-0.379786 1.15625,-0.6875 0.05405,-0.331457 0.09199,-0.661935 0.125,-1 -0.07413,-0.04262 -0.140357,-0.08842 -0.25,-0.125 -0.933775,0.6763 -1.964952,-2.03295 -0.59375,-0.46875 0.331304,0.140552 0.624359,0.264164 0.875,0.3125 C 39.721067,24.861454 39.75,24.428432 39.75,24 c 0,-3.485661 -1.145649,-6.703536 -3.0625,-9.3125 -0.01049,8.53e-4 -0.0203,-4.47e-4 -0.03125,0 -0.08331,0.6211 -0.813909,0.12895 -0.53125,0.71875 C 35.544293,14.99445 35.043302,13.6838 36.1875,14.5 36.2937,14.46814 36.396116,14.44274 36.46875,14.40625 35.857305,13.612059 35.186743,12.882656 34.4375,12.21875 34.416649,12.222143 34.384218,12.20598 34.375,12.21875 Z M 20.34375,12.5625 C 19.778193,13.0325 21.418962,13.1224 20.34375,12.5625 Z M 12.875,12.875 c -0.07329,0.07329 -0.146912,0.144037 -0.21875,0.21875 C 12.665763,13.418971 13.496299,13.31446 12.875,12.875 z m 3.5625,0.59375 C 15.958485,14.25215 17.14528,13.75845 16.4375,13.46875 z m 10.5,0.9375 c -0.560809,0.6455 -1.300435,-0.1799 -1.3125,0.375 0.101637,0.1677 0.514369,1.383 1.40625,0.5 C 27.509925,15.07815 27.315249,14.56195 26.9375,14.40625 Z M 15,14.78125 C 13.936291,15.71015 16.799903,15.81415 15.21875,14.90625 z m 14,2.625 c -0.686629,0.509808 0.377222,1.542045 0,2.03125 -0.479882,0.836 1.802532,-0.0831 0.59375,-0.75 C 29.518389,18.184988 29.01953,17.587994 29,17.40625 Z M 28.5,18.375 c -1.067028,0.3016 -0.221673,1.8417 0.15625,0.375 C 28.677495,18.6637 28.685758,18.3722 28.5,18.375 Z M 19.96875,19.5 c -0.992664,0.6768 -0.165,1.367 0.5625,1.0625 C 20.381895,20.1529 19.97548,19.8822 19.96875,19.5 z m 18.75,1.125 c 0.495303,0.2499 -0.919634,0.6851 -0.03125,1.125 0.516985,0.6078 0.340309,1.9235 -0.5,1 C 38.343618,21.7176 37.042167,20.9298 38.71875,20.625 Z M 36.1875,20.65625 C 36.1203,21.31875 37.613275,22.336 36,22 c -0.853173,0.1 -2.137325,-0.03065 -1.0625,-1.09375 0.339624,-0.2038 1.214032,0.723 0.75,-0.125 C 35.852013,20.76825 36.032526,20.70615 36.1875,20.65625 Z M 31.25,22.09375 C 30.62771,22.49215 31.680307,22.80195 31.25,22.09375 Z M 15.625,25.8125 c -0.104911,0.3499 1.961759,0.71695 0.53125,0.15625 L 15.9375,25.875 z m 1.59375,0.5 C 16.589958,26.9483 18.514256,26.5031 17.21875,26.3125 Z"
         style="opacity:0.7;fill:url(#radialGradient936);fill-opacity:1;stroke:none;display:inline" />
      <g
         style="fill:#4d4d4d;stroke:#4d4d4d"
         id="g16922"
         transform="matrix(0.74146217,0,0,0.74146217,-49.475596,605.16143)">
        <rect
           ry="0"
           y="574.11597"
           x="92.722931"
           height="1.6280142"
           width="12.463829"
           id="rect6352"
           style="fill:#4d4d4d;fill-rule:evenodd;stroke:#4d4d4d;stroke-width:0.82801652" />
        <rect
           style="fill:#4d4d4d;fill-rule:evenodd;stroke:#4d4d4d;stroke-width:0.84536654"
           id="rect6350"
           width="13.454902"
           height="3.8828545"
           x="92.31221"
           y="575.78973"
           ry="0" />
        <g
           style="fill:#4d4d4d;stroke:#4d4d4d"
           id="g6336"
           transform="translate(4.956167,-1.8594717)">
          <path
             style="fill:#4d4d4d;stroke:#4d4d4d;stroke-width:1.11787236px;stroke-linecap:round;stroke-linejoin:miter;stroke-opacity:1"
             d="m 87.399681,581.53149 13.524989,0"
             id="path6338"
             inkscape:connector-curvature="0" />
          <path
             style="fill:#4d4d4d;stroke:#4d4d4d;stroke-width:1px;stroke-linecap:round;stroke-linejoin:miter;stroke-opacity:1"
             d="m 91.037015,574.02637 c -5.050763,-0.25254 -3.788072,7.57615 -3.788072,7.57615"
             id="path6340"
             inkscape:connector-curvature="0" />
          <path
             inkscape:connector-curvature="0"
             id="path6342"
             d="m 97.241732,574.02637 c 5.050768,-0.25254 3.788078,7.57615 3.788078,7.57615"
             style="fill:#4d4d4d;stroke:#4d4d4d;stroke-width:1px;stroke-linecap:round;stroke-linejoin:miter;stroke-opacity:1" />
          <path
             style="fill:#4d4d4d;stroke:#4d4d4d;stroke-width:1px;stroke-linecap:round;stroke-linejoin:miter;stroke-opacity:1"
             d="m 90.711003,574.02446 c 2.525382,0 1.578364,-2.11501 1.578364,-2.11501"
             id="path6344"
             inkscape:connector-curvature="0" />
          <path
             inkscape:connector-curvature="0"
             id="path6346"
             d="m 97.465706,574.01888 c -2.525382,0 -1.578364,-2.11501 -1.578364,-2.11501"
             style="fill:#4d4d4d;stroke:#4d4d4d;stroke-width:1px;stroke-linecap:round;stroke-linejoin:miter;stroke-opacity:1" />
          <path
             sodipodi:type="arc"
             style="fill:#4d4d4d;stroke:#4d4d4d;stroke-width:0.89999998;stroke-linecap:round;stroke-linejoin:round;stroke-miterlimit:4;stroke-opacity:1;stroke-dasharray:none"
             id="path6348"
             sodipodi:cx="17.472483"
             sodipodi:cy="21.720249"
             sodipodi:rx="4.4983354"
             sodipodi:ry="4.4983354"
             d="m 21.970818,21.720249 c 0,2.484362 -2.013973,4.498336 -4.498335,4.498336 -2.484362,0 -4.498336,-2.013974 -4.498336,-4.498336 0,-2.484362 2.013974,-4.498335 4.498336,-4.498335 C 19.956845,17.221914 21.970818,19.235887 21.970818,21.720249 Z"
             transform="translate(76.705476,546.00845)" />
        </g>
        <rect
           style="fill:#4d4d4d;fill-rule:evenodd;stroke:#4d4d4d"
           id="rect6354"
           width="7.2406054"
           height="3.1334729"
           x="570.54584"
           y="-100.13096"
           ry="0"
           transform="matrix(0,1,-1,0,0,0)" />
        <rect
           transform="matrix(0,1,-1,0,0,0)"
           ry="0"
           y="-100.99033"
           x="570.54584"
           height="3.1334729"
           width="7.2406054"
           id="rect6356"
           style="fill:#4d4d4d;fill-rule:evenodd;stroke:#4d4d4d" />
        <path
           style="fill:#4d4d4d;stroke:#4d4d4d;stroke-width:1px;stroke-linecap:butt;stroke-linejoin:miter;stroke-opacity:1"
           d="m 94.468236,572.65947 -1.09375,0.66964 0,0.66965 11.138394,0 0,-1.02679 L 103.6306,572.46258 Z"
           id="path6358"
           inkscape:connector-curvature="0" />
      </g>
      <path
         inkscape:connector-curvature="0"
         id="path854"
         d="m 32.824898,1020.279 -0.02316,2.3864 c -2.259796,0.5421 -3.939017,2.5553 -3.939017,4.9816 0,0.3474 0.05025,0.6915 0.115852,1.0195 0.639024,-1.5909 2.058023,-2.7654 3.776824,-3.1045 l -0.02316,1.1352 5.607308,-3.1514 L 32.824898,1020.279 Z"
         style="fill:#4d4d4d;fill-opacity:1;stroke:none" />
      <path
         inkscape:connector-curvature="0"
         style="fill:#4d4d4d;fill-opacity:1;stroke:none"
         d="m 15.175104,1020.279 0.02316,2.3864 c 2.259796,0.5422 3.939019,2.5553 3.939019,4.9816 0,0.3475 -0.05026,0.6916 -0.115854,1.0195 -0.639022,-1.5908 -2.058022,-2.7653 -3.776823,-3.1045 l 0.02316,1.1353 -5.6073014,-3.1515 L 15.175104,1020.279 Z"
         id="path865" />
    </g>
    <path
       style="fill:#ffffff;stroke:none;fill-opacity:1;opacity:0.15"
       d="M 0 0 L 0 48 L 16.78125 48 L 29.625 0 L 0 0 z "
       id="rect3790"
       transform="translate(0,1004.3622)" />
  </g>
</svg>
