<?xml version="1.0" encoding="UTF-8" standalone="no"?>
<!-- Created with Inkscape (http://www.inkscape.org/) -->

<svg
   xmlns:dc="http://purl.org/dc/elements/1.1/"
   xmlns:cc="http://creativecommons.org/ns#"
   xmlns:rdf="http://www.w3.org/1999/02/22-rdf-syntax-ns#"
   xmlns:svg="http://www.w3.org/2000/svg"
   xmlns="http://www.w3.org/2000/svg"
   xmlns:xlink="http://www.w3.org/1999/xlink"
   xmlns:sodipodi="http://sodipodi.sourceforge.net/DTD/sodipodi-0.dtd"
   xmlns:inkscape="http://www.inkscape.org/namespaces/inkscape"
   width="48"
   height="48"
   id="svg2"
   version="1.1"
   inkscape:version="0.48.2 r9819"
   sodipodi:docname="eog.svg">
  <defs
     id="defs4">
    <linearGradient
       id="linearGradient3839">
      <stop
         id="stop3841"
         offset="0"
         style="stop-color:#d4d4d4;stop-opacity:1;" />
      <stop
         id="stop3843"
         offset="1"
         style="stop-color:#e9e9e9;stop-opacity:1;" />
    </linearGradient>
    <linearGradient
       id="linearGradient3795">
      <stop
         style="stop-color:#0f63b6;stop-opacity:1;"
         offset="0"
         id="stop3797" />
      <stop
         style="stop-color:#65b7d9;stop-opacity:1;"
         offset="1"
         id="stop3799" />
    </linearGradient>
    <linearGradient
       id="linearGradient3698">
      <stop
         id="stop3700"
         offset="0"
         style="stop-color:#96d0e1;stop-opacity:1" />
      <stop
         style="stop-color:#89b7e1;stop-opacity:1"
         offset="0.67819428"
         id="stop3706" />
      <stop
         id="stop3702"
         offset="1"
         style="stop-color:#699dd3;stop-opacity:1" />
    </linearGradient>
    <linearGradient
       id="linearGradient3708">
      <stop
         id="stop3710"
         offset="0"
         style="stop-color:#658d45;stop-opacity:1;" />
      <stop
         style="stop-color:#294056;stop-opacity:1;"
         offset="0.76777935"
         id="stop3716" />
      <stop
         id="stop3712"
         offset="1"
         style="stop-color:#7471a0;stop-opacity:1;" />
    </linearGradient>
    <linearGradient
       id="linearGradient3750">
      <stop
         style="stop-color:#d0e2f1;stop-opacity:1"
         offset="0"
         id="stop3752" />
      <stop
         id="stop3756"
         offset="0.85580856"
         style="stop-color:#cadef0;stop-opacity:1" />
      <stop
         style="stop-color:#95bee3;stop-opacity:1"
         offset="1"
         id="stop3754" />
    </linearGradient>
    <linearGradient
       id="linearGradient3803">
      <stop
         id="stop3805"
         offset="0"
         style="stop-color:#5870f0;stop-opacity:1;" />
      <stop
         style="stop-color:#60ffff;stop-opacity:1;"
         offset="0.5"
         id="stop3811" />
      <stop
         id="stop3807"
         offset="1"
         style="stop-color:#d5def0;stop-opacity:1" />
    </linearGradient>
    <linearGradient
       inkscape:collect="always"
       xlink:href="#linearGradient3839"
       id="linearGradient3801"
       x1="23.204165"
       y1="1053.158"
       x2="23.204165"
       y2="1004.8474"
       gradientUnits="userSpaceOnUse" />
    <linearGradient
       id="linearGradient3786">
      <stop
         id="stop3788"
         offset="0"
         style="stop-color:#bd792b;stop-opacity:1;" />
      <stop
         id="stop3790"
         offset="1"
         style="stop-color:#eba93a;stop-opacity:1;" />
    </linearGradient>
    <linearGradient
       id="linearGradient3054">
      <stop
         id="stop3056"
         offset="0"
         style="stop-color:#bd792b;stop-opacity:1;" />
      <stop
         id="stop3058"
         offset="1"
         style="stop-color:#eba93a;stop-opacity:1;" />
    </linearGradient>
    <linearGradient
       inkscape:collect="always"
       xlink:href="#linearGradient3795"
       id="linearGradient3833"
       x1="53.625"
       y1="1073.3622"
       x2="53.625"
       y2="1024.9846"
       gradientUnits="userSpaceOnUse" />
    <linearGradient
       inkscape:collect="always"
       xlink:href="#linearGradient3795"
       id="linearGradient3835"
       gradientUnits="userSpaceOnUse"
       x1="41.988213"
       y1="1069.5234"
       x2="41.988213"
       y2="1036.8947" />
    <linearGradient
       inkscape:collect="always"
       xlink:href="#linearGradient3795"
       id="linearGradient3837"
       gradientUnits="userSpaceOnUse"
       x1="54.875"
       y1="1061.9408"
       x2="54.875"
       y2="1031.3898" />
    <filter
       inkscape:collect="always"
       id="filter3999">
      <feGaussianBlur
         inkscape:collect="always"
         stdDeviation="0.48485506"
         id="feGaussianBlur4001" />
    </filter>
    <linearGradient
       inkscape:collect="always"
       xlink:href="#linearGradient3786"
       id="linearGradient3816"
       x1="13.200194"
       y1="21.470451"
       x2="44.080379"
       y2="21.470451"
       gradientUnits="userSpaceOnUse" />
    <linearGradient
       inkscape:collect="always"
       xlink:href="#linearGradient3708"
       id="linearGradient3828"
       gradientUnits="userSpaceOnUse"
       x1="13.200194"
       y1="21.470451"
       x2="44.080379"
       y2="21.470451"
       gradientTransform="matrix(0.96592583,-0.25881905,0.25881905,0.96592583,-10.33232,1012.0188)" />
    <linearGradient
       inkscape:collect="always"
       xlink:href="#linearGradient3795"
       id="linearGradient3840"
       gradientUnits="userSpaceOnUse"
       x1="54.875"
       y1="1061.9408"
       x2="54.875"
       y2="1031.3898"
       gradientTransform="matrix(1,0,0,0.75260417,-29.125,244.63938)" />
    <linearGradient
       inkscape:collect="always"
       xlink:href="#linearGradient3795"
       id="linearGradient3843"
       gradientUnits="userSpaceOnUse"
       x1="41.988213"
       y1="1069.5234"
       x2="41.988213"
       y2="1036.8947"
       gradientTransform="matrix(1,0,0,0.75260417,-29.125,244.63938)" />
    <linearGradient
       inkscape:collect="always"
       xlink:href="#linearGradient3786"
       id="linearGradient3880"
       gradientUnits="userSpaceOnUse"
       x1="13.200194"
       y1="21.470451"
       x2="44.080379"
       y2="21.470451" />
    <linearGradient
       inkscape:collect="always"
       xlink:href="#linearGradient3786"
       id="linearGradient3887"
       gradientUnits="userSpaceOnUse"
       x1="13.200194"
       y1="21.470451"
       x2="44.080379"
       y2="21.470451"
       gradientTransform="matrix(1.023388,0,0,1,-0.66570467,1003.8319)" />
    <linearGradient
       inkscape:collect="always"
       xlink:href="#linearGradient3803"
       id="linearGradient3893"
       gradientUnits="userSpaceOnUse"
       gradientTransform="matrix(0.92156173,-0.51155593,0.53206393,0.88604085,-18.645312,1023.1434)"
       x1="13.200194"
       y1="21.470451"
       x2="44.080379"
       y2="21.470451" />
    <linearGradient
       inkscape:collect="always"
       xlink:href="#linearGradient3795"
       id="linearGradient3931"
       gradientUnits="userSpaceOnUse"
       gradientTransform="matrix(1,0,0,0.75260417,-29.125,-759.72282)"
       x1="41.988213"
       y1="1069.5234"
       x2="41.988213"
       y2="1040.2729" />
  </defs>
  <sodipodi:namedview
     id="base"
     pagecolor="#ffffff"
     bordercolor="#666666"
     borderopacity="1.0"
     inkscape:pageopacity="0.0"
     inkscape:pageshadow="2"
     inkscape:zoom="4"
     inkscape:cx="32.963265"
     inkscape:cy="41.503996"
     inkscape:document-units="px"
     inkscape:current-layer="layer1"
     showgrid="false"
     inkscape:window-width="1278"
     inkscape:window-height="655"
     inkscape:window-x="0"
     inkscape:window-y="0"
     inkscape:window-maximized="1" />
  <metadata
     id="metadata7">
    <rdf:RDF>
      <cc:Work
         rdf:about="">
        <dc:format>image/svg+xml</dc:format>
        <dc:type
           rdf:resource="http://purl.org/dc/dcmitype/StillImage" />
        <dc:title />
      </cc:Work>
    </rdf:RDF>
  </metadata>
  <g
     inkscape:label="Capa 1"
     inkscape:groupmode="layer"
     id="layer1"
     transform="translate(0,-1004.3622)">
    <rect
       style="fill:url(#linearGradient3801);fill-opacity:1.0;stroke:none"
       id="rect2991"
       width="48"
       height="48"
       x="0"
       y="1004.3622"
       ry="1.9445436" />
    <rect
       ry="1.7015615"
       y="1031.2351"
       x="29.125"
       height="42.002117"
       width="48"
       id="rect3981"
       style="opacity:0.3;fill:#000000;fill-opacity:1;stroke:none;filter:url(#filter3999)"
       transform="matrix(0.95588656,0,0,0.75260417,-26.781474,243.55359)" />
    <g
       id="g3936">
      <rect
         transform="matrix(0.70710678,-0.70710678,0.70710678,0.70710678,0,0)"
         style="opacity:0.37000002;fill:#000000;fill-opacity:1;stroke:none"
         id="rect3926"
         width="32.089752"
         height="23.785826"
         x="-728.90985"
         y="729.56586"
         ry="0.96359533" />
      <rect
         transform="matrix(0.70710678,-0.70710678,0.70710678,0.70710678,0,0)"
         ry="0.93913859"
         y="729.86774"
         x="-728.5824"
         height="23.182125"
         width="31.43486"
         id="rect3928"
         style="fill:#ffffff;fill-opacity:1;stroke:none" />
      <rect
         transform="matrix(0.8660254,-0.5,0.5,0.8660254,0,0)"
         ry="0.96359533"
         y="889.82001"
         x="-509.16531"
         height="23.785826"
         width="32.089752"
         id="rect3920"
         style="opacity:0.37000002;fill:#000000;fill-opacity:1;stroke:none" />
      <rect
         transform="matrix(0.96592583,-0.25881904,0.25881904,0.96592583,0,0)"
         style="opacity:0.37000002;fill:#000000;fill-opacity:1;stroke:none"
         id="rect3922"
         width="32.089752"
         height="23.785826"
         x="-254.09839"
         y="987.72333"
         ry="0.96359533" />
      <path
         sodipodi:nodetypes="ccccc"
         inkscape:connector-curvature="0"
         id="path3891"
         d="m 2.9217058,1031.7485 11.8828542,11.4688 20.384621,-19.599 -11.830521,-11.7031 z"
         style="fill:url(#linearGradient3893);fill-opacity:1.0;stroke:none" />
      <g
         id="g3903">
        <rect
           ry="0.93913853"
           y="890.12183"
           x="-508.83789"
           height="23.182125"
           width="31.43486"
           id="rect3873"
           style="fill:#ffffff;fill-opacity:1;stroke:none"
           transform="matrix(0.8660254,-0.5,0.5,0.8660254,0,0)" />
        <path
           sodipodi:nodetypes="ccccc"
           inkscape:connector-curvature="0"
           id="path3826"
           d="m 7.0675515,1025.3885 7.8849755,13.7179 23.461467,-13.5456 -7.778194,-13.9264 z"
           style="fill:url(#linearGradient3828);fill-opacity:1;stroke:none" />
      </g>
      <g
         id="g3895">
        <rect
           style="fill:#ffffff;fill-opacity:1;stroke:none"
           id="rect3924"
           width="31.43486"
           height="23.182125"
           x="-253.77094"
           y="988.02521"
           ry="0.93913859"
           transform="matrix(0.96592583,-0.25881904,0.25881904,0.96592583,0,0)" />
        <path
           style="fill:url(#linearGradient3887);fill-opacity:1;stroke:none"
           d="m 12.993088,1021.2495 4.160955,15.2912 26.779892,-7.0116 -4.000134,-15.4651 z"
           id="path3039"
           inkscape:connector-curvature="0"
           sodipodi:nodetypes="ccccc" />
        <path
           sodipodi:type="star"
           style="fill:#4d4d4d;fill-opacity:1;stroke:none"
           id="path3818"
           sodipodi:sides="5"
           sodipodi:cx="19.887379"
           sodipodi:cy="21.571884"
           sodipodi:r1="3.9970691"
           sodipodi:r2="1.9985346"
           sodipodi:arg1="1.0471976"
           sodipodi:arg2="1.6755161"
           inkscape:flatsided="false"
           inkscape:rounded="0"
           inkscape:randomized="0"
           d="m 21.885913,25.033448 -2.207438,-1.473977 -2.465658,0.982814 0.7197,-2.554882 -1.696643,-2.041273 2.652237,-0.105028 1.417075,-2.244391 0.919473,2.489973 2.572443,0.654163 -2.083971,1.643914 z"
           transform="translate(0,1004.3622)"
           inkscape:transform-center-x="0.9992673" />
        <path
           inkscape:transform-center-x="0.9992673"
           transform="translate(6.1871843,1007.1906)"
           d="m 21.885913,25.033448 -2.207438,-1.473977 -2.465658,0.982814 0.7197,-2.554882 -1.696643,-2.041273 2.652237,-0.105028 1.417075,-2.244391 0.919473,2.489973 2.572443,0.654163 -2.083971,1.643914 z"
           inkscape:randomized="0"
           inkscape:rounded="0"
           inkscape:flatsided="false"
           sodipodi:arg2="1.6755161"
           sodipodi:arg1="1.0471976"
           sodipodi:r2="1.9985346"
           sodipodi:r1="3.9970691"
           sodipodi:cy="21.571884"
           sodipodi:cx="19.887379"
           sodipodi:sides="5"
           id="path3820"
           style="fill:#800000;fill-opacity:1;stroke:none"
           sodipodi:type="star" />
        <path
           sodipodi:type="star"
           style="fill:#483737;fill-opacity:1;stroke:none"
           id="path3822"
           sodipodi:sides="5"
           sodipodi:cx="19.887379"
           sodipodi:cy="21.571884"
           sodipodi:r1="3.9970691"
           sodipodi:r2="1.9985346"
           sodipodi:arg1="1.0471976"
           sodipodi:arg2="1.6755161"
           inkscape:flatsided="false"
           inkscape:rounded="0"
           inkscape:randomized="0"
           d="m 21.885913,25.033448 -2.207438,-1.473977 -2.465658,0.982814 0.7197,-2.554882 -1.696643,-2.041273 2.652237,-0.105028 1.417075,-2.244391 0.919473,2.489973 2.572443,0.654163 -2.083971,1.643914 z"
           transform="translate(9.6343298,1000.5615)"
           inkscape:transform-center-x="0.9992673" />
        <path
           inkscape:transform-center-x="0.9992673"
           transform="translate(17.324116,1005.5112)"
           d="m 21.885913,25.033448 -2.207438,-1.473977 -2.465658,0.982814 0.7197,-2.554882 -1.696643,-2.041273 2.652237,-0.105028 1.417075,-2.244391 0.919473,2.489973 2.572443,0.654163 -2.083971,1.643914 z"
           inkscape:randomized="0"
           inkscape:rounded="0"
           inkscape:flatsided="false"
           sodipodi:arg2="1.6755161"
           sodipodi:arg1="1.0471976"
           sodipodi:r2="1.9985346"
           sodipodi:r1="3.9970691"
           sodipodi:cy="21.571884"
           sodipodi:cx="19.887379"
           sodipodi:sides="5"
           id="path3824"
           style="fill:#ff6600;fill-opacity:1;stroke:none"
           sodipodi:type="star" />
      </g>
      <rect
         transform="matrix(0.95588656,0,0,0.75260417,-26.781474,243.55359)"
         ry="2.3700824"
         y="1025.2372"
         x="29.125"
         height="9.547451"
         width="28.377787"
         id="rect3979"
         style="opacity:0.3;fill:#000000;fill-opacity:1;stroke:none;filter:url(#filter3999)" />
    </g>
    <path
       style="opacity:0.90000000000000002;fill:url(#linearGradient3931);fill-opacity:1;stroke:none"
       d="M 1.78125 11.875 C 0.79306149 11.875 0 12.66805 0 13.65625 L 0 17.28125 C 0 17.360225 0.021395614 17.423794 0.03125 17.5 C 0.024360827 17.554006 0 17.600312 0 17.65625 L 0 46.71875 C 0 47.428204 0.57179637 48 1.28125 48 L 46.71875 48 C 47.428204 48 48 47.428204 48 46.71875 L 48 17.65625 C 48 16.946796 47.428204 16.375 46.71875 16.375 L 28.375 16.375 L 28.375 13.65625 C 28.375 12.66805 27.581938 11.875 26.59375 11.875 L 1.78125 11.875 z "
       transform="translate(0,1004.3622)"
       id="rect3014" />
    <path
       style="fill:#ffffff;stroke:none;fill-opacity:1;opacity:0.15"
       d="M 0 0 L 0 48 L 16.78125 48 L 29.625 0 L 0 0 z "
       transform="translate(0,1004.3622)"
       id="rect3790" />
  </g>
</svg>
