<?xml version="1.0" encoding="UTF-8" standalone="no"?>
<!-- Created with Inkscape (http://www.inkscape.org/) -->

<svg
   xmlns:dc="http://purl.org/dc/elements/1.1/"
   xmlns:cc="http://creativecommons.org/ns#"
   xmlns:rdf="http://www.w3.org/1999/02/22-rdf-syntax-ns#"
   xmlns:svg="http://www.w3.org/2000/svg"
   xmlns="http://www.w3.org/2000/svg"
   xmlns:xlink="http://www.w3.org/1999/xlink"
   xmlns:sodipodi="http://sodipodi.sourceforge.net/DTD/sodipodi-0.dtd"
   xmlns:inkscape="http://www.inkscape.org/namespaces/inkscape"
   width="48"
   height="48"
   id="svg2"
   version="1.1"
   inkscape:version="0.48+devel r11752"
   sodipodi:docname="calligrastage.svg">
  <defs
     id="defs4"><linearGradient
   id="linearGradient3795">
  <stop
     style="stop-color:#ff00cc;stop-opacity:1"
     offset="0"
     id="stop3797" />
  <stop
     style="stop-color:#ff80e5;stop-opacity:1"
     offset="1"
     id="stop3799" />
</linearGradient>
<linearGradient
   inkscape:collect="always"
   id="linearGradient3914">
  <stop
     style="stop-color:#59b3e1;stop-opacity:1;"
     offset="0"
     id="stop3916" />
  <stop
     style="stop-color:#59b3e1;stop-opacity:0;"
     offset="1"
     id="stop3918" />
</linearGradient>
<linearGradient
   id="linearGradient3698">
  <stop
     id="stop3700"
     offset="0"
     style="stop-color:#96d0e1;stop-opacity:1" />
  <stop
     style="stop-color:#89b7e1;stop-opacity:1"
     offset="0.67819428"
     id="stop3706" />
  <stop
     id="stop3702"
     offset="1"
     style="stop-color:#699dd3;stop-opacity:1" />
</linearGradient>
<linearGradient
   id="linearGradient3708">
  <stop
     id="stop3710"
     offset="0"
     style="stop-color:#658db6;stop-opacity:1" />
  <stop
     style="stop-color:#527fab;stop-opacity:1;"
     offset="0.76777935"
     id="stop3716" />
  <stop
     id="stop3712"
     offset="1"
     style="stop-color:#4071a0;stop-opacity:1" />
</linearGradient>
<linearGradient
   id="linearGradient3750">
  <stop
     style="stop-color:#d0e2f1;stop-opacity:1"
     offset="0"
     id="stop3752" />
  <stop
     id="stop3756"
     offset="0.85580856"
     style="stop-color:#cadef0;stop-opacity:1" />
  <stop
     style="stop-color:#95bee3;stop-opacity:1"
     offset="1"
     id="stop3754" />
</linearGradient>
<linearGradient
   id="linearGradient3803">
  <stop
     id="stop3805"
     offset="0"
     style="stop-color:#d7def0;stop-opacity:1;" />
  <stop
     style="stop-color:#ffffff;stop-opacity:1"
     offset="0.5"
     id="stop3811" />
  <stop
     id="stop3807"
     offset="1"
     style="stop-color:#d5def0;stop-opacity:1" />
</linearGradient>
<linearGradient
   inkscape:collect="always"
   xlink:href="#linearGradient3914"
   id="linearGradient3920"
   x1="6.8000002"
   y1="25.0625"
   x2="45.325001"
   y2="25.0625"
   gradientUnits="userSpaceOnUse" />
<linearGradient
   inkscape:collect="always"
   xlink:href="#linearGradient3314"
   id="linearGradient3801"
   x1="23.204165"
   y1="1053.158"
   x2="23.204165"
   y2="1004.8474"
   gradientUnits="userSpaceOnUse" />
<inkscape:perspective
   id="perspective28"
   inkscape:persp3d-origin="291.56201 : 218.47933 : 1"
   inkscape:vp_z="583.12402 : 327.71899 : 1"
   inkscape:vp_y="0 : 1000 : 0"
   inkscape:vp_x="0 : 327.71899 : 1"
   sodipodi:type="inkscape:persp3d" />
<linearGradient
   inkscape:collect="always"
   xlink:href="#linearGradient3292"
   id="linearGradient2438"
   x1="237.37856"
   y1="-0.18070547"
   x2="237.37856"
   y2="419.44904"
   gradientUnits="userSpaceOnUse" />
<inkscape:perspective
   id="perspective2705"
   inkscape:persp3d-origin="372.04724 : 350.78739 : 1"
   inkscape:vp_z="744.09448 : 526.18109 : 1"
   inkscape:vp_y="0 : 1000 : 0"
   inkscape:vp_x="0 : 526.18109 : 1"
   sodipodi:type="inkscape:persp3d" />
<linearGradient
   inkscape:collect="always"
   xlink:href="#linearGradient3353"
   id="linearGradient2611"
   x1="197.11394"
   y1="654.73938"
   x2="197.11394"
   y2="535.23602"
   gradientUnits="userSpaceOnUse" />

	
	
	
	
	
	
	
	
	
<linearGradient
   inkscape:collect="always"
   xlink:href="#linearGradient3353"
   id="linearGradient2585"
   gradientUnits="userSpaceOnUse"
   x1="232.97664"
   y1="656.388"
   x2="232.97664"
   y2="534.97424"
   gradientTransform="translate(-99.179799,-0.4262079)" />
<linearGradient
   id="linearGradient3367">
  <stop
     style="stop-color:#fe7100;stop-opacity:1;"
     offset="0"
     id="stop3369" />
  <stop
     id="stop3371"
     offset="0.5"
     style="stop-color:#fe7100;stop-opacity:1;" />
  <stop
     id="stop3373"
     offset="0.50999999"
     style="stop-color:#fe801b;stop-opacity:1;" />
  <stop
     style="stop-color:#feaa66;stop-opacity:1;"
     offset="1"
     id="stop3375" />
</linearGradient>
<linearGradient
   id="linearGradient3353">
  <stop
     id="stop3355"
     offset="0"
     style="stop-color:#20292b;stop-opacity:1" />
  <stop
     style="stop-color:#20292b;stop-opacity:1"
     offset="0.5"
     id="stop3363" />
  <stop
     style="stop-color:#31393b;stop-opacity:1"
     offset="0.50999999"
     id="stop3361" />
  <stop
     id="stop3357"
     offset="1"
     style="stop-color:#787d7f;stop-opacity:1" />
</linearGradient>
<linearGradient
   id="linearGradient3314">
  <stop
     id="stop3316"
     offset="0"
     style="stop-color:#ff7b18;stop-opacity:1;" />
  <stop
     id="stop3318"
     offset="1"
     style="stop-color:#ff9743;stop-opacity:1;" />
</linearGradient>
<linearGradient
   id="linearGradient3292">
  <stop
     id="stop3294"
     offset="0"
     style="stop-color:#8f9495;stop-opacity:1" />
  <stop
     id="stop3296"
     offset="1"
     style="stop-color:#222b2d;stop-opacity:1" />
</linearGradient>
<inkscape:perspective
   id="perspective32"
   inkscape:persp3d-origin="292.73651 : 218.796 : 1"
   inkscape:vp_z="585.47302 : 328.194 : 1"
   inkscape:vp_y="0 : 1000 : 0"
   inkscape:vp_x="0 : 328.194 : 1"
   sodipodi:type="inkscape:persp3d" />
<inkscape:perspective
   sodipodi:type="inkscape:persp3d"
   inkscape:vp_x="0 : 526.18109 : 1"
   inkscape:vp_y="0 : 1000 : 0"
   inkscape:vp_z="744.09448 : 526.18109 : 1"
   inkscape:persp3d-origin="372.04724 : 350.78739 : 1"
   id="perspective2469" />

	
	
	
	
	
	
	
	
	
	
	
<linearGradient
   gradientUnits="userSpaceOnUse"
   y2="421.22168"
   x2="294.96109"
   y1="-0.0057355352"
   x1="294.96109"
   id="linearGradient3312"
   xlink:href="#linearGradient3292"
   inkscape:collect="always" />
<linearGradient
   gradientUnits="userSpaceOnUse"
   y2="125.0482"
   x2="317.72427"
   y1="353.60373"
   x1="317.72427"
   id="linearGradient3320"
   xlink:href="#linearGradient3314"
   inkscape:collect="always" />
<linearGradient
   gradientUnits="userSpaceOnUse"
   y2="534.97424"
   x2="232.97664"
   y1="656.388"
   x1="232.97664"
   id="linearGradient3359"
   xlink:href="#linearGradient3353"
   inkscape:collect="always" />
<linearGradient
   gradientTransform="translate(-7.895,34.834)"
   gradientUnits="userSpaceOnUse"
   y2="535.18597"
   x2="68.389832"
   y1="653.48999"
   x1="68.389832"
   id="linearGradient3365"
   xlink:href="#linearGradient3367"
   inkscape:collect="always" />
<linearGradient
   y2="534.97424"
   x2="232.97664"
   y1="656.388"
   x1="232.97664"
   gradientUnits="userSpaceOnUse"
   id="linearGradient2414"
   xlink:href="#linearGradient3353"
   inkscape:collect="always" />
<linearGradient
   y2="534.97424"
   x2="232.97664"
   y1="656.388"
   x1="232.97664"
   gradientUnits="userSpaceOnUse"
   id="linearGradient2416"
   xlink:href="#linearGradient3353"
   inkscape:collect="always" />
<linearGradient
   y2="534.97424"
   x2="232.97664"
   y1="656.388"
   x1="232.97664"
   gradientUnits="userSpaceOnUse"
   id="linearGradient2418"
   xlink:href="#linearGradient3353"
   inkscape:collect="always" />
<linearGradient
   y2="534.97424"
   x2="232.97664"
   y1="656.388"
   x1="232.97664"
   gradientUnits="userSpaceOnUse"
   id="linearGradient2420"
   xlink:href="#linearGradient3353"
   inkscape:collect="always" />
<linearGradient
   y2="534.97424"
   x2="232.97664"
   y1="656.388"
   x1="232.97664"
   gradientUnits="userSpaceOnUse"
   id="linearGradient2422"
   xlink:href="#linearGradient3353"
   inkscape:collect="always" />
<linearGradient
   y2="534.97424"
   x2="232.97664"
   y1="656.388"
   x1="232.97664"
   gradientUnits="userSpaceOnUse"
   id="linearGradient2424"
   xlink:href="#linearGradient3353"
   inkscape:collect="always" />
<linearGradient
   y2="534.97424"
   x2="232.97664"
   y1="656.388"
   x1="232.97664"
   gradientUnits="userSpaceOnUse"
   id="linearGradient2426"
   xlink:href="#linearGradient3353"
   inkscape:collect="always" />
<linearGradient
   y2="534.97424"
   x2="232.97664"
   y1="656.388"
   x1="232.97664"
   gradientUnits="userSpaceOnUse"
   id="linearGradient2428"
   xlink:href="#linearGradient3353"
   inkscape:collect="always" />
<linearGradient
   y2="534.97424"
   x2="232.97664"
   y1="656.388"
   x1="232.97664"
   gradientUnits="userSpaceOnUse"
   id="linearGradient2431"
   xlink:href="#linearGradient3353"
   inkscape:collect="always" />
<linearGradient
   y2="534.97424"
   x2="232.97664"
   y1="656.388"
   x1="232.97664"
   gradientUnits="userSpaceOnUse"
   id="linearGradient2434"
   xlink:href="#linearGradient3353"
   inkscape:collect="always" />
<linearGradient
   y2="534.97424"
   x2="232.97664"
   y1="656.388"
   x1="232.97664"
   gradientUnits="userSpaceOnUse"
   id="linearGradient2437"
   xlink:href="#linearGradient3353"
   inkscape:collect="always" />
<linearGradient
   y2="534.97424"
   x2="232.97664"
   y1="656.388"
   x1="232.97664"
   gradientUnits="userSpaceOnUse"
   id="linearGradient2440"
   xlink:href="#linearGradient3353"
   inkscape:collect="always" />
<linearGradient
   y2="534.97424"
   x2="232.97664"
   y1="656.388"
   x1="232.97664"
   gradientUnits="userSpaceOnUse"
   id="linearGradient2443"
   xlink:href="#linearGradient3353"
   inkscape:collect="always" />
<linearGradient
   y2="534.97424"
   x2="232.97664"
   y1="656.388"
   x1="232.97664"
   gradientUnits="userSpaceOnUse"
   id="linearGradient2446"
   xlink:href="#linearGradient3353"
   inkscape:collect="always" />
<inkscape:perspective
   sodipodi:type="inkscape:persp3d"
   inkscape:vp_x="0 : 327.37051 : 1"
   inkscape:vp_y="0 : 1000 : 0"
   inkscape:vp_z="479.80899 : 327.37051 : 1"
   inkscape:persp3d-origin="239.9045 : 218.24701 : 1"
   id="perspective2611" />
<linearGradient
   gradientTransform="translate(30.71596,673.27061)"
   y2="535.21124"
   x2="133.54099"
   y1="653.49103"
   x1="133.54099"
   gradientUnits="userSpaceOnUse"
   id="linearGradient2701"
   xlink:href="#linearGradient3367"
   inkscape:collect="always" />

	
	
	
	
	
	
	
	
	
<linearGradient
   gradientUnits="userSpaceOnUse"
   y2="533.54047"
   x2="265.40463"
   y1="655.44"
   x1="265.40463"
   id="linearGradient2729"
   xlink:href="#linearGradient3353"
   inkscape:collect="always" />
<inkscape:perspective
   sodipodi:type="inkscape:persp3d"
   inkscape:vp_x="0 : 526.18109 : 1"
   inkscape:vp_y="0 : 1000 : 0"
   inkscape:vp_z="744.09448 : 526.18109 : 1"
   inkscape:persp3d-origin="372.04724 : 350.78739 : 1"
   id="perspective2893" />
<linearGradient
   inkscape:collect="always"
   xlink:href="#linearGradient3353"
   id="linearGradient986"
   gradientUnits="userSpaceOnUse"
   x1="265.40463"
   y1="655.44"
   x2="265.40463"
   y2="533.54047" />
<linearGradient
   inkscape:collect="always"
   xlink:href="#linearGradient3353"
   id="linearGradient988"
   gradientUnits="userSpaceOnUse"
   x1="265.40463"
   y1="655.44"
   x2="265.40463"
   y2="533.54047" />
<linearGradient
   inkscape:collect="always"
   xlink:href="#linearGradient3353"
   id="linearGradient990"
   gradientUnits="userSpaceOnUse"
   x1="265.40463"
   y1="655.44"
   x2="265.40463"
   y2="533.54047" />
<linearGradient
   inkscape:collect="always"
   xlink:href="#linearGradient3353"
   id="linearGradient992"
   gradientUnits="userSpaceOnUse"
   x1="265.40463"
   y1="655.44"
   x2="265.40463"
   y2="533.54047" />
<linearGradient
   inkscape:collect="always"
   xlink:href="#linearGradient3353"
   id="linearGradient994"
   gradientUnits="userSpaceOnUse"
   x1="265.40463"
   y1="655.44"
   x2="265.40463"
   y2="533.54047" />
</defs>
  <sodipodi:namedview
     id="base"
     pagecolor="#ffffff"
     bordercolor="#666666"
     borderopacity="1.0"
     inkscape:pageopacity="0.0"
     inkscape:pageshadow="2"
     inkscape:zoom="5.12"
     inkscape:cx="43.892457"
     inkscape:cy="36.465076"
     inkscape:document-units="px"
     inkscape:current-layer="layer1"
     showgrid="false"
     inkscape:window-width="1366"
     inkscape:window-height="711"
     inkscape:window-x="0"
     inkscape:window-y="0"
     inkscape:window-maximized="1" />
  <metadata
     id="metadata7">
    <rdf:RDF>
      <cc:Work
         rdf:about="">
        <dc:format>image/svg+xml</dc:format>
        <dc:type
           rdf:resource="http://purl.org/dc/dcmitype/StillImage" />
        <dc:title></dc:title>
      </cc:Work>
    </rdf:RDF>
  </metadata>
  <g
     inkscape:label="Capa 1"
     inkscape:groupmode="layer"
     id="layer1"
     transform="translate(0,-1004.3622)">
    <rect
       style="fill:url(#linearGradient3801);fill-opacity:1.0;stroke:none"
       id="rect2991"
       width="48"
       height="48"
       x="0"
       y="1004.3622"
       ry="1.9445436" />
    <g
       transform="matrix(-0.25881905,-0.96592583,0.96592583,-0.25881905,-53.171116,0)"
       style="font-size:7.67604971px;font-style:normal;font-variant:normal;font-weight:bold;font-stretch:normal;line-height:125%;letter-spacing:0px;word-spacing:0px;fill:#ffffff;fill-opacity:1;stroke:none;font-family:Split splat splodge;-inkscape-font-specification:Split splat splodge Bold"
       id="text833">
      <path
         d="m -986.64777,-227.19084 c 0.30192,-1.09673 -0.12589,-3.00027 -1.21403,-4.88698 -0.41554,-0.71986 -0.78334,-1.16489 -1.26011,-1.69644 l -3.48287,2.01083 c 0.22175,0.67887 0.42347,1.21962 0.83911,1.93951 1.45268,2.51611 3.50189,4.05082 4.58149,3.42757 C -986.91428,-226.55216 -986.74841,-226.82526 -986.64777,-227.19084 z m -0.77615,-0.7256 c -0.0524,0.19563 -0.16761,0.37746 -0.35688,0.48671 -0.37865,0.21848 -0.86828,0.0873 -1.08667,-0.29117 -0.21848,-0.37848 -0.0873,-0.86814 0.29117,-1.08666 0.37836,-0.21856 0.86799,-0.0874 1.08667,0.29117 C -987.38034,-228.32714 -987.37153,-228.11207 -987.42392,-227.91644 z m -2.01977,-6.10581 c -0.35127,-0.3539 -0.56265,-0.57655 -0.8241,-1.02962 l -2.2539,-3.90388 c -1.3546,-2.34588 -0.91878,-5.23793 0.89217,-7.07258 -0.022,-0.034 -0.0253,-0.0427 -0.0442,-0.0765 l -0.41985,-0.72719 -10.33373,5.96622 0.4198,0.72719 c 0.021,0.0342 0.025,0.0423 0.044,0.0765 2.49465,-0.65086 5.21699,0.4179 6.57111,2.76365 l 2.22371,3.89579 c 0.26183,0.45318 0.37898,0.75548 0.50982,1.23659 L -989.44369,-234.02225 z m -2.80455,-13.07773 -0.61872,-1.07165 -0.59662,-1.03338 -5.16689,2.98311 -5.16683,2.9831 0.5966,1.03338 0.6187,1.07165 5.16687,-2.9831 L -992.24824,-247.09998 z m -1.37002,-2.37294 -1.87825,-3.25323 -1.87016,-3.28342 -0.22964,0.13259 c -0.13782,0.0797 -0.2251,0.0963 -0.26575,0.0258 -0.0514,-0.0864 -0.17307,-0.0532 -0.67866,0.23873 -0.50561,0.29201 -0.62892,0.32471 -0.67867,0.23873 -0.052,-0.0917 -0.4317,0.12164 -2.86831,1.52846 -0.6599,0.38101 -0.8456,0.50939 -1.2328,0.73729 -0.085,-0.0398 -0.18,-0.0551 -0.2798,-0.0426 -0.095,0.05 -0.153,0.13419 -0.1854,0.20913 0,0.0446 -3e-4,0.0632 0.01,0.0986 -0.1714,0.1028 -0.5115,0.31432 -0.6205,0.38374 -0.061,-0.0304 -0.1402,-0.0752 -0.2415,-0.0647 -0.075,0.045 -0.1264,0.098 -0.1913,0.11048 -0.087,0.15029 -0.2029,0.27043 -0.3245,0.36598 -0.085,0.0665 -0.1664,0.11469 -0.268,0.15468 -0.01,0.004 -0.023,-0.012 -0.03,-0.008 -0.1308,-0.0403 -0.2523,-0.10656 -0.338,-0.18761 l -0.06,-0.0162 -0.068,0.014 c -0.145,0.04 -0.2651,0.0595 -0.3725,0.062 0.02,0.13742 0.035,0.25483 0.07,0.34229 0.1843,-0.0302 0.3201,-0.0242 0.4167,0.0146 -0.1916,0.12323 -0.2856,0.18047 -0.2237,0.23123 0.069,0.0563 0.082,0.1056 -0.01,0.15901 -0.073,0.0437 -0.1858,0.0318 -0.2194,-0.0264 -0.033,-0.0579 -0.094,-0.0731 -0.1509,-0.0404 -0.056,0.033 -0.081,0.12336 -0.048,0.18111 0.051,0.0864 -0.072,0.16788 -0.5763,0.46028 -0.1519,0.0877 -0.1898,0.12871 -0.276,0.18487 0.022,-0.0651 0.021,-0.13333 0.018,-0.1892 0.05,-0.12993 0.082,-0.23708 0.089,-0.33204 l 0.046,-0.0523 0.016,-0.0604 0.062,-0.11265 0.016,-0.0604 0.079,-0.17303 c 0.037,-0.1949 0.1022,-0.35184 0.1898,-0.46678 l 0.068,-0.014 0.4027,-0.0539 c -0.01,-0.0225 0.01,-0.0404 0.016,-0.0604 l -0.096,-0.12291 c -0.1424,-0.085 -0.2166,-0.21262 -0.2291,-0.35255 l 0.01,-0.0302 0.046,-0.0523 c 0,-0.035 0.012,-0.0681 0.024,-0.0906 l 0.016,-0.0604 c 0.013,-0.025 0.032,-0.0473 0.046,-0.0523 l 0.04,-0.15093 0.016,-0.0604 0.016,-0.0604 0.071,-0.14284 c 0.01,-0.0825 0.029,-0.16902 0.065,-0.24148 l 0.016,-0.0604 0.024,-0.0906 c -0.015,-0.18741 10e-5,-0.35461 0.031,-0.47705 l 0.04,-0.15092 c 0.053,-0.11244 0.079,-0.2019 0.081,-0.30185 -0.085,-0.1874 -0.1378,-0.37565 -0.1503,-0.52557 -0.017,-0.015 -0.024,-0.0258 -0.022,-0.0383 -0.053,-0.0625 -0.1109,-0.13448 -0.1407,-0.19945 l 0.016,-0.0604 -0.01,-0.0986 -0.014,-0.0685 -0.014,-0.0685 c -0.047,-0.2149 -0.056,-0.39407 -0.052,-0.53149 l -0.06,-0.0162 c -0.1,-0.0899 -0.187,-0.15165 -0.2695,-0.20162 l -0.05,-0.17519 c -0.053,-0.12744 -0.06,-0.26004 -0.062,-0.37248 -0.097,-0.035 -0.1678,-0.0776 -0.2253,-0.12508 -0.2973,-0.39479 -0.6674,-0.63097 -1.1022,-0.71593 l -0.2599,0.1245 c -0.077,0.0175 -0.1581,0.0364 -0.2355,0.0339 -0.013,0.015 -0.024,0.0246 -0.038,0.0221 -0.1025,0.015 -0.1787,0.0367 -0.2436,0.0641 l -0.091,-0.0243 -0.038,0.0221 c -0.2224,-0.01 -0.4042,0.006 -0.5616,0.0436 -0.015,0.0175 -0.026,0.0246 -0.038,0.0221 -0.015,0.015 -0.023,0.0246 -0.038,0.0221 l -0.016,0.0604 c -0.065,0.0425 -0.1259,0.0786 -0.1612,0.11857 -0.2049,0.13744 -0.3505,0.30524 -0.4555,0.49264 -0.037,0.38481 0.1153,0.5224 0.4625,0.44744 l 0.022,0.0383 0.1126,0.0625 0.01,0.0986 c 0.035,0.13244 0.04,0.25695 0.032,0.36439 l 0.014,0.0685 c 0.037,0.10245 0.059,0.17868 0.064,0.24365 l 0.066,0.11482 c 0.065,0.085 0.1124,0.15968 0.1326,0.22964 l 0.088,0.15309 c 0.077,0.0375 0.1396,0.0872 0.187,0.14717 l 0.022,0.0383 c 0.085,0.1849 0.1391,0.34026 0.1666,0.4652 0.1674,0.13243 0.2611,0.28285 0.3336,0.44527 l 0.096,0.1229 c 0.072,0.08 0.1146,0.18046 0.1546,0.26792 0.033,0.28485 0.014,0.52632 -0.1035,0.74871 l -0.016,0.0604 c 0.025,0.10494 0.053,0.19637 0.056,0.27383 0.165,0.42479 0.087,0.83938 -0.2329,1.23167 0.017,0.29985 -0.1001,0.52967 -0.3149,0.69209 -0.1099,0.66216 -0.5959,1.06047 -1.483,1.18791 l -0.046,0.0523 -0.1774,0.17894 -0.016,0.0604 -0.046,0.0523 c -0.027,0.0775 -0.057,0.15322 -0.087,0.2032 -0.045,0.16492 -0.076,0.31206 -0.1434,0.41451 l -0.024,0.0906 -0.032,0.12074 c -0.015,0.0675 -0.018,0.14423 -0.018,0.1892 l -0.016,0.0604 c -0.01,0.0975 -0.044,0.17153 -0.065,0.24149 -0.015,0.1849 -0.036,0.33593 -0.091,0.46086 0.013,0.72213 0.3286,1.11505 0.9206,1.15253 0.015,-0.0175 0.026,-0.0246 0.038,-0.0221 0.165,-0.0575 0.2884,-0.15371 0.3908,-0.25116 0.072,-0.30735 0.1966,-0.55139 0.3914,-0.73629 l 0.1671,-0.0199 c 0.072,-0.003 0.1272,-0.0101 0.1672,-0.0199 l 0.4247,-0.0156 0.046,-0.0523 0.038,-0.0221 0.2297,-0.13258 0.046,-0.0523 0.085,-0.0744 c 0.077,-0.22239 0.1849,-0.39506 0.3348,-0.52499 l 0.062,-0.11266 c 0.025,-0.1949 0.054,-0.35303 0.1294,-0.48296 l 0.046,-0.0523 0.038,-0.0221 c 0.015,-0.025 0.023,-0.0196 0.038,-0.0221 0.087,-0.0425 0.1852,-0.10778 0.2377,-0.16276 l -0.014,-0.0685 0.041,-0.15093 -0.014,-0.0685 0.024,-0.0906 c -0.044,-0.20876 -0.052,-0.37434 -0.052,-0.53149 0.1948,0.39451 0.6569,1.18201 1.6713,2.93895 l 1.8702,3.28341 5.17495,-3.01329 L -993.61826,-249.47292 z m -15.32814,2.75152 c -0.077,-0.03 -0.1489,-0.0566 -0.2113,-0.0566 l -0.046,0.0523 C -1009.1091,-246.61328 -1009.0338,-246.60895 -1008.9464,-246.7214 z m 1.8832,-11.01283 -0.091,-0.0243 C -1007.1471,-257.65854 -1007.1112,-257.64674 -1007.0632,-257.73423 z m -1.6886,4.85331 c -0.2174,-0.16991 -0.4539,-0.2312 -0.6862,-0.21621 -0.235,-0.20239 -0.5022,-0.33182 -0.7746,-0.3693 -0.3098,-0.22239 -0.6264,-0.35766 -0.9637,-0.38765 -0.095,-0.0375 -0.1679,-0.0626 -0.2253,-0.12507 l -0.1127,-0.0625 -0.091,-0.0243 -0.082,-0.0545 -0.091,-0.0243 -0.06,-0.0162 c -0.095,-0.0425 -0.1654,-0.0851 -0.2254,-0.12507 l -0.099,0.006 -0.022,-0.0383 c -0.1249,-0.0675 -0.2542,-0.10976 -0.3541,-0.12725 l -0.2113,-0.0566 -0.06,-0.0162 c -0.158,-0.0424 -0.3164,-0.0654 -0.4388,-0.0529 -0.2324,0.0425 -0.3579,0.18257 -0.3929,0.37998 0.047,0.0575 0.074,0.0829 0.096,0.12291 l 0.1731,0.0787 0.022,0.0383 c 0.027,0.007 0.022,0.0183 0.022,0.0383 0.1624,0.0575 0.3059,0.13382 0.3984,0.20379 l 0.5433,0.14559 c 0.3823,0.23238 0.7547,0.32983 1.147,0.30734 0.16,0.065 0.306,0.12637 0.3984,0.20379 l 0.06,0.0162 c 0.057,0.02 0.104,0.0178 0.1591,0.0103 l 0.06,0.0162 0.06,0.0162 0.06,0.0162 0.09,0.0243 0.099,-0.006 c 0.2723,0.0325 0.5013,0.0541 0.6662,0.0491 0.1299,0.16242 0.2776,0.24536 0.4425,0.28034 C -1008.9228,-252.65223 -1008.7843,-252.73597 -1008.7518,-252.88092 z m -0.199,-5.2944 c 0,-0.0319 0,-0.0376 -0.052,-0.0464 -0.11,0.0575 -0.2327,0.0958 -0.3202,0.10832 0.01,0.1799 0.1288,0.21141 0.332,0.089 C -1008.95,-258.07936 -1008.9477,-258.14346 -1008.9508,-258.17532 z m -2.0582,7.43956 c 0.014,-0.10869 -0.022,-0.20525 -0.1083,-0.32019 l -0.1509,-0.0404 -0.06,-0.0162 c -0.1624,0.0725 -0.3423,0.12825 -0.4873,0.12825 -0.1249,-0.005 -0.2225,-0.026 -0.3099,-0.0507 l -0.2614,-0.2318 -0.091,-0.0243 -0.099,0.006 -0.022,-0.0383 -0.3563,0.002 -0.06,-0.0162 -0.06,-0.0162 -0.06,-0.0162 -0.06,-0.0162 -0.068,0.014 c -0.08,-0.007 -0.1665,-0.0297 -0.2414,-0.0647 l -0.1973,0.0118 c -0.047,0.12243 -0.035,0.21676 0.04,0.3342 l 0.06,0.0162 0.2938,0.11106 0.06,0.0162 c 0.13,0.007 0.2231,5.1e-4 0.3181,0.0205 l 0.1207,0.0324 0.1207,0.0324 0.052,0.0464 0.1509,0.0404 0.091,0.0243 0.091,0.0243 0.06,0.0162 0.091,0.0243 0.06,0.0162 0.091,0.0243 0.1509,0.0404 c 0.1924,0.0475 0.3494,0.11231 0.4668,0.18978 l 0.1892,0.0183 C -1011.0829,-250.50025 -1011.0226,-250.62706 -1011.009,-250.73576 Z"
         id="path1649"
         inkscape:connector-curvature="0" />
    </g>
    <g
       id="g2722"
       style="fill:url(#linearGradient2729)"
       transform="translate(112.12496,674.22061)">
      <path
         inkscape:connector-curvature="0"
         d="m 15.401,534.286 c -4.248,0 -7.897,1.5 -10.896,4.549 -2.349,2.348 -3.849,5.047 -4.499,8.195 l 0,90.115 c -0.05,1.398 0.15,2.748 0.5,4.049 0.1,0.398 0.2,0.799 0.35,1.199 0.75,2.098 1.949,3.998 3.648,5.697 2.999,2.998 6.647,4.498 10.896,4.498 4.249,0 7.897,-1.5 10.946,-4.498 2.999,-3.049 4.498,-6.697 4.498,-10.945 l 0,-90.115 c -0.65,-3.148 -2.149,-5.848 -4.498,-8.195 -3.048,-3.049 -6.697,-4.549 -10.945,-4.549 L 15.401,534.286 Z"
         id="path13"
         style="fill:url(#linearGradient986)" />
      <path
         inkscape:connector-curvature="0"
         d="m 579.575,572.972 c -2.349,-6.748 -5.848,-12.746 -10.445,-18.094 -4.599,-5.348 -10.196,-9.547 -16.844,-12.596 -6.697,-3.098 -14.344,-4.697 -22.94,-4.748 l -31.388,0 c -3.548,0 -6.547,1.15 -9.096,3.4 -2.549,2.248 -3.898,5.496 -3.999,9.746 l 0,89.014 c 0.101,4.248 1.45,7.496 3.999,9.746 2.549,2.248 5.548,3.398 9.096,3.398 l 31.388,0 c 7.247,0 14.044,-1.25 20.492,-3.799 6.447,-2.549 12.145,-6.348 17.093,-11.295 4.998,-4.949 8.896,-11.045 11.745,-18.293 2.899,-7.248 4.398,-15.594 4.448,-25.039 0,-7.497 -1.199,-14.643 -3.549,-21.44 L 579.575,572.972 z m -37.484,-7.049 c 4.248,2.699 7.497,6.498 9.646,11.396 2.148,4.848 3.248,10.545 3.248,17.094 0,6.746 -1.1,12.645 -3.248,17.791 -2.149,5.1 -5.448,9.098 -9.896,11.945 -4.448,2.9 -10.046,4.35 -16.844,4.398 l -13.895,0 0,-66.723 14.994,0 c 6.398,0.052 11.747,1.45 15.995,4.099 L 542.091,565.923 Z"
         id="path15"
         style="fill:url(#linearGradient988)" />
      <path
         inkscape:connector-curvature="0"
         d="m 470.319,554.478 c -3.148,-5.348 -7.597,-9.445 -13.345,-12.395 -5.748,-2.95 -12.595,-4.498 -20.441,-4.549 l -31.538,0 c -3.548,0 -6.547,1.15 -9.096,3.398 -2.549,2.25 -3.898,5.498 -3.999,9.746 l 0,89.215 c 0.05,4.549 1.25,8.047 3.699,10.396 2.349,2.35 5.497,3.498 9.396,3.498 3.899,0 7.048,-1.148 9.396,-3.498 2.449,-2.35 3.698,-5.848 3.749,-10.396 l 0,-33.236 0.3,0 32.287,40.635 c 1.449,2.049 3.049,3.648 4.798,4.748 1.799,1.148 4.349,1.748 7.597,1.748 3.349,-0.1 5.998,-0.85 7.997,-2.299 1.949,-1.449 3.349,-3.148 4.198,-5.049 0.899,-1.898 1.3,-3.498 1.249,-4.848 0,-2.098 -0.499,-4.049 -1.449,-5.848 -0.85,-1.748 -2.199,-3.549 -3.998,-5.447 l -22.841,-24.59 c 8.347,-1.65 14.844,-5.299 19.592,-10.996 4.748,-5.648 7.147,-12.744 7.247,-21.342 -0.05,-7.245 -1.649,-13.544 -4.798,-18.891 L 470.319,554.478 z m -34.885,7.347 c 3.849,0.051 7.047,1.199 9.496,3.35 2.549,2.148 3.849,5.197 3.948,9.145 0,3.699 -1.149,6.748 -3.448,9.197 -2.35,2.35 -5.648,3.598 -9.996,3.699 l -17.293,0 0,-25.391 17.293,0 L 435.434,561.825 Z"
         id="path17"
         style="fill:url(#linearGradient990)" />
      <path
         inkscape:connector-curvature="0"
         d="m 355.315,542.433 c -8.446,-4.947 -18.393,-7.447 -29.838,-7.496 -11.496,0.049 -21.441,2.549 -29.889,7.496 -8.446,4.949 -15.043,11.896 -19.692,20.893 -4.648,8.945 -7.047,19.592 -7.097,31.887 0.05,12.244 2.449,22.891 7.097,31.838 4.648,9.045 11.246,15.992 19.692,20.891 8.447,4.949 18.393,7.447 29.889,7.498 11.445,-0.051 21.392,-2.549 29.838,-7.498 8.446,-4.898 15.044,-11.846 19.692,-20.891 4.647,-8.947 7.047,-19.594 7.097,-31.838 -0.05,-12.295 -2.449,-22.941 -7.097,-31.887 -4.648,-8.997 -11.245,-15.944 -19.692,-20.893 L 355.315,542.433 z m -13.444,21.992 c 4.148,3.447 7.196,7.846 9.146,13.295 2,5.447 2.999,11.244 2.949,17.492 0.05,6.197 -0.949,11.996 -2.949,17.443 -1.949,5.447 -4.997,9.846 -9.146,13.295 -4.249,3.348 -9.696,5.098 -16.394,5.248 -6.747,-0.15 -12.195,-1.9 -16.443,-5.248 -4.148,-3.449 -7.197,-7.848 -9.146,-13.295 -1.949,-5.447 -2.949,-11.246 -2.949,-17.443 0,-6.248 1,-12.045 2.949,-17.492 1.949,-5.449 4.998,-9.848 9.146,-13.295 4.248,-3.35 9.696,-5.098 16.443,-5.199 6.698,0.101 12.145,1.849 16.394,5.199 L 341.871,564.425 Z"
         id="path19"
         style="fill:url(#linearGradient992)" />
      <path
         inkscape:connector-curvature="0"
         d="m 252.957,536.585 c -4.249,0.15 -7.397,1.25 -9.497,3.398 -2.049,2.15 -3.448,4.898 -4.098,8.248 l -13.445,62.125 -0.35,0 -18.942,-60.326 c -1.6,-4.949 -3.599,-8.447 -5.948,-10.496 -2.349,-2 -5.298,-2.998 -8.796,-2.949 -3.449,-0.049 -6.397,0.949 -8.747,2.949 -2.399,2.049 -4.398,5.547 -5.948,10.496 l -18.992,60.326 -0.3,0 -13.445,-62.125 c -0.65,-3.35 -2.049,-6.098 -4.098,-8.248 -2.099,-2.148 -5.248,-3.248 -9.497,-3.398 -3.998,0.15 -7.197,1.4 -9.546,3.799 -2.349,2.449 -3.549,5.447 -3.599,9.047 0.05,2.248 0.4,4.598 1.049,7.047 0.55,2.449 1.1,4.598 1.6,6.396 l 17.443,71.322 c 0.95,4.199 2.099,7.746 3.349,10.646 1.25,2.947 3.099,5.197 5.448,6.646 2.299,1.549 5.498,2.299 9.646,2.299 4.998,0 8.996,-1.25 11.945,-3.697 2.999,-2.449 5.248,-5.998 6.697,-10.697 l 16.843,-52.729 0.3,0 16.843,52.729 c 1.5,4.699 3.749,8.248 6.747,10.697 2.949,2.447 6.897,3.697 11.945,3.697 4.099,0 7.297,-0.75 9.646,-2.299 2.349,-1.449 4.199,-3.699 5.448,-6.646 1.25,-2.9 2.349,-6.447 3.298,-10.646 l 17.493,-71.322 c 0.45,-1.799 1,-3.947 1.599,-6.396 0.65,-2.449 0.95,-4.799 1,-7.047 -0.05,-3.6 -1.2,-6.598 -3.549,-9.047 -2.346,-2.399 -5.544,-3.649 -9.542,-3.799 L 252.957,536.585 Z"
         id="path21"
         style="fill:url(#linearGradient994)" />
    </g>
    <path
       inkscape:connector-curvature="0"
       style="fill:url(#linearGradient2701)"
       id="path2666"
       d="m 220.03996,1232.9976 c 1.7,-2.699 2.549,-5.698 2.599,-8.997 -0.05,-4.248 -1.549,-7.896 -4.548,-10.896 -2.999,-3.049 -6.647,-4.548 -10.896,-4.548 -3.349,0 -6.347,0.85 -8.996,2.599 l -45.532,45.532 0.05,0 -0.05,0 c -1.049,0.999 -1.899,2.099 -2.549,3.248 -0.2,0.351 -0.4,0.7 -0.55,1.1 -0.95,1.999 -1.449,4.198 -1.449,6.598 0,0.25 0,0.55 0,0.85 0.05,0.8 0.15,1.6 0.3,2.349 0.3,1.55 0.85,2.999 1.649,4.349 0.25,0.45 0.5,0.899 0.8,1.35 l 0.05,0 45.332,45.682 0,-0.05 0,0.05 c 1,1 2.099,1.85 3.249,2.549 0.35,0.2 0.7,0.4 1.1,0.55 1.999,0.95 4.198,1.449 6.597,1.449 4.249,0 7.847,-1.499 10.896,-4.498 2.999,-3.049 4.499,-6.647 4.548,-10.896 -0.05,-4.248 -1.549,-7.896 -4.548,-10.945 l -0.05,-0.05 -32.687,-32.737 34.685,-34.638 L 220.03996,1232.9976 Z" />
    <g
       transform="matrix(0.0565893,0,0,-0.05659001,-1.1330058,1041.9412)"
       id="g884"
       style="fill:#ffffff">
      <path
         inkscape:connector-curvature="0"
         d="m 573.428,233.856 c -0.6,-3.049 -1.649,-5.848 -3.198,-8.446 -0.45,-0.9 -1,-1.75 -1.6,-2.599 l -0.05,0 -88.115,-88.814 0,0.05 c -0.05,-0.05 -0.05,-0.05 -0.05,-0.05 -1.949,-2 -4.048,-3.648 -6.247,-4.948 -0.75,-0.45 -1.449,-0.799 -2.149,-1.1 -3.948,-1.899 -8.196,-2.849 -12.845,-2.849 -8.297,0 -15.344,2.949 -21.191,8.846 -5.848,5.848 -8.797,12.895 -8.797,21.142 0,8.297 2.949,15.394 8.797,21.242 0.05,0.05 0.05,0.05 0.1,0.1 l 63.575,63.625 -67.423,67.373 -0.05,0 c -3.349,5.198 -4.998,11.045 -4.998,17.493 0,8.247 2.949,15.344 8.797,21.191 5.848,5.847 12.895,8.797 21.191,8.797 6.447,-0.05 12.245,-1.699 17.443,-5.048 l 0.05,0 88.464,-88.465 -0.05,-0.05 c 0,0 0,0 0.05,-0.05 1.949,-1.949 3.599,-3.998 4.948,-6.248 0.4,-0.7 0.75,-1.399 1.1,-2.149 1.85,-3.898 2.799,-8.197 2.849,-12.845 -0.05,-0.55 -0.05,-1.1 -0.05,-1.649 -0.101,-1.55 -0.301,-3.099 -0.551,-4.549 L 573.428,233.856 Z"
         id="path7-0"
         style="fill:#ffffff" />
      <path
         inkscape:connector-curvature="0"
         d="m 389.152,124.95 c -8.297,0 -15.344,2.949 -21.191,8.796 -4.598,4.548 -7.547,9.896 -8.797,15.994 l 0,-0.05 0,175.08 c 0,0.05 0,0.05 0,0.1 0,2.749 0.3,5.397 0.95,7.896 0.2,0.75 0.45,1.55 0.75,2.3 1.449,4.048 3.798,7.746 7.097,11.095 5.848,5.848 12.895,8.747 21.191,8.747 8.247,0 15.344,-2.899 21.191,-8.747 5.848,-5.897 8.796,-12.994 8.796,-21.291 0,-0.05 0,-0.05 0,-0.1 l 0,-175.08 c -1.299,-6.048 -4.248,-11.396 -8.796,-15.944 -5.847,-5.847 -12.945,-8.796 -21.191,-8.796 L 389.152,124.95 Z"
         id="path9-6"
         style="fill:#ffffff" />
      <path
         d="m 684.034,239.954 c 0,-66.273 -23.441,-122.851 -70.272,-169.681999 C 566.931,23.441001 510.353,1e-6 444.13,1e-6 c -66.274,0 -122.851,23.441 -169.682,70.272 C 227.616,117.103 204.226,173.681 204.226,239.954 c 0,66.224 23.391,122.801 70.222,169.632 46.831,46.832 103.409,70.272 169.682,70.322 66.223,-0.05 122.8,-23.491 169.631,-70.322 46.831,-46.831 70.273,-103.408 70.273,-169.632 L 684.034,239.954 Z M 444.13,59.976001 c 49.629,0 92.063,17.543 127.199,52.678999 35.136,35.136 52.729,77.569 52.729,127.249 0,49.68 -17.593,92.113 -52.729,127.249 -35.136,35.136 -77.569,52.729 -127.199,52.729 -49.68,0 -92.113,-17.593 -127.249,-52.729 -35.136,-35.136 -52.729,-77.569 -52.679,-127.249 -0.05,-49.68 17.543,-92.113 52.679,-127.249 C 352.016,77.519001 394.45,59.976001 444.13,59.976001 L 444.13,59.976001 Z"
         id="path2574"
         style="fill:#ffffff;fill-opacity:1"
         inkscape:connector-curvature="0" />
    </g>
    <path
       style="fill:#ffffff;stroke:none;fill-opacity:1;opacity:0.15"
       d="M 0 0 L 0 48 L 16.78125 48 L 29.625 0 L 0 0 z "
       id="rect3790"
       transform="translate(0,1004.3622)" />
  </g>
</svg>
