<?xml version="1.0" encoding="UTF-8" standalone="no"?>
<!-- Created with Inkscape (http://www.inkscape.org/) -->

<svg
   xmlns:dc="http://purl.org/dc/elements/1.1/"
   xmlns:cc="http://creativecommons.org/ns#"
   xmlns:rdf="http://www.w3.org/1999/02/22-rdf-syntax-ns#"
   xmlns:svg="http://www.w3.org/2000/svg"
   xmlns="http://www.w3.org/2000/svg"
   xmlns:xlink="http://www.w3.org/1999/xlink"
   xmlns:sodipodi="http://sodipodi.sourceforge.net/DTD/sodipodi-0.dtd"
   xmlns:inkscape="http://www.inkscape.org/namespaces/inkscape"
   width="48"
   height="48"
   id="svg2"
   version="1.1"
   inkscape:version="0.48+devel r11556"
   sodipodi:docname="minitube.svg">
  <defs
     id="defs4">
    <linearGradient
       id="linearGradient3795">
      <stop
         style="stop-color:#a6a6a6;stop-opacity:1;"
         offset="0"
         id="stop3797" />
      <stop
         style="stop-color:#ffffff;stop-opacity:1;"
         offset="1"
         id="stop3799" />
    </linearGradient>
    <linearGradient
       inkscape:collect="always"
       id="linearGradient3914">
      <stop
         style="stop-color:#59b3e1;stop-opacity:1;"
         offset="0"
         id="stop3916" />
      <stop
         style="stop-color:#59b3e1;stop-opacity:0;"
         offset="1"
         id="stop3918" />
    </linearGradient>
    <linearGradient
       id="linearGradient3698">
      <stop
         id="stop3700"
         offset="0"
         style="stop-color:#96d0e1;stop-opacity:1" />
      <stop
         style="stop-color:#89b7e1;stop-opacity:1"
         offset="0.67819428"
         id="stop3706" />
      <stop
         id="stop3702"
         offset="1"
         style="stop-color:#699dd3;stop-opacity:1" />
    </linearGradient>
    <linearGradient
       id="linearGradient3708">
      <stop
         id="stop3710"
         offset="0"
         style="stop-color:#658db6;stop-opacity:1" />
      <stop
         style="stop-color:#527fab;stop-opacity:1;"
         offset="0.76777935"
         id="stop3716" />
      <stop
         id="stop3712"
         offset="1"
         style="stop-color:#4071a0;stop-opacity:1" />
    </linearGradient>
    <linearGradient
       id="linearGradient3750">
      <stop
         style="stop-color:#d0e2f1;stop-opacity:1"
         offset="0"
         id="stop3752" />
      <stop
         id="stop3756"
         offset="0.85580856"
         style="stop-color:#cadef0;stop-opacity:1" />
      <stop
         style="stop-color:#95bee3;stop-opacity:1"
         offset="1"
         id="stop3754" />
    </linearGradient>
    <linearGradient
       id="linearGradient3803">
      <stop
         id="stop3805"
         offset="0"
         style="stop-color:#d7def0;stop-opacity:1;" />
      <stop
         style="stop-color:#ffffff;stop-opacity:1"
         offset="0.5"
         id="stop3811" />
      <stop
         id="stop3807"
         offset="1"
         style="stop-color:#d5def0;stop-opacity:1" />
    </linearGradient>
    <linearGradient
       inkscape:collect="always"
       xlink:href="#linearGradient3914"
       id="linearGradient3920"
       x1="6.8000002"
       y1="25.0625"
       x2="45.325001"
       y2="25.0625"
       gradientUnits="userSpaceOnUse" />
    <linearGradient
       inkscape:collect="always"
       xlink:href="#linearGradient3795"
       id="linearGradient3801"
       x1="23.204165"
       y1="1053.158"
       x2="23.204165"
       y2="1004.8474"
       gradientUnits="userSpaceOnUse" />
  </defs>
  <sodipodi:namedview
     id="base"
     pagecolor="#ffffff"
     bordercolor="#666666"
     borderopacity="1.0"
     inkscape:pageopacity="0.0"
     inkscape:pageshadow="2"
     inkscape:zoom="12.506951"
     inkscape:cx="35.450788"
     inkscape:cy="26.850847"
     inkscape:document-units="px"
     inkscape:current-layer="layer1"
     showgrid="false"
     inkscape:window-width="1366"
     inkscape:window-height="750"
     inkscape:window-x="0"
     inkscape:window-y="0"
     inkscape:window-maximized="1" />
  <metadata
     id="metadata7">
    <rdf:RDF>
      <cc:Work
         rdf:about="">
        <dc:format>image/svg+xml</dc:format>
        <dc:type
           rdf:resource="http://purl.org/dc/dcmitype/StillImage" />
        <dc:title />
      </cc:Work>
    </rdf:RDF>
  </metadata>
  <g
     inkscape:label="Capa 1"
     inkscape:groupmode="layer"
     id="layer1"
     transform="translate(0,-1004.3622)">
    <path
       style="fill:url(#linearGradient3801);fill-opacity:1;stroke:none"
       d="m 1.9445436,1004.3622 44.1109124,0 c 1.077278,0 1.944544,0.8672 1.944544,1.9445 l 0,44.1109 c 0,1.0773 -0.867266,1.9446 -1.944544,1.9446 l -44.1109124,0 C 0.86726645,1052.3622 0,1051.4949 0,1050.4176 l 0,-44.1109 c 0,-1.0773 0.86726645,-1.9445 1.9445436,-1.9445 z"
       id="rect2991" />
    <g
       id="g3792"
       transform="translate(0.1717205,-2.5063446)">
      <path
         style="fill:#ff0000;fill-opacity:1;stroke:none"
         d="m 11.984241,1031.3258 23.688077,0 c 1.077277,0 1.944543,0.8673 1.944543,1.9445 l 0,9.8995 c 0,1.0773 -0.867266,1.9446 -1.944543,1.9446 l -23.688077,0 c -1.077277,0 -1.944543,-0.8673 -1.944543,-1.9446 l 0,-9.8995 c 0,-1.0772 0.867266,-1.9445 1.944543,-1.9445 z"
         id="rect3782" />
      <g
         style="font-size:16.70159912px;font-style:normal;font-variant:normal;font-weight:normal;font-stretch:normal;line-height:125%;letter-spacing:0px;word-spacing:0px;fill:#000000;fill-opacity:1;stroke:none;font-family:Decker;-inkscape-font-specification:Decker"
         id="text3784">
        <path
           d="m 15.310301,1024.1335 0,4.363 -1.149866,0 0,-4.3793 -3.792111,-7.4945 1.337432,0 3.033689,6.1652 3.074465,-6.1652 1.304812,0 -3.808421,7.5108 z"
           style=""
           id="path42" />
        <path
           d="m 20.399069,1024.003 q 0,1.5495 0.986765,2.6015 0.986764,1.0438 2.454678,1.0438 1.443449,0 2.422058,-1.0438 0.978609,-1.052 0.978609,-2.6178 0,-1.5902 -0.994919,-2.6096 -0.986764,-1.0276 -2.511764,-1.0276 -1.370053,0 -2.356817,1.052 -0.97861,1.052 -0.97861,2.6015 z m -1.206951,0.016 q 0,-1.9735 1.353743,-3.3762 1.353743,-1.4027 3.204945,-1.4027 1.949064,0 3.319117,1.3783 1.378208,1.3782 1.378208,3.2865 0,2.0061 -1.345588,3.4251 -1.345588,1.419 -3.262031,1.419 -1.949064,0 -3.302806,-1.3864 -1.345588,-1.3945 -1.345588,-3.3436 z"
           style=""
           id="path44" />
        <path
           d="m 29.761099,1019.5259 1.133556,0 0,4.7625 q 0,1.8349 0.59532,2.6015 0.595321,0.7584 1.957219,0.7584 0.774732,0 1.361898,-0.3099 0.587165,-0.318 0.945989,-0.9133 0.203877,-0.3507 0.293583,-0.8237 0.0897,-0.4811 0.0897,-1.6636 l 0,-4.4119 1.149866,0 0,8.9706 -1.149866,0 0,-0.9705 q -0.521925,0.6361 -1.166176,0.9215 -0.644251,0.2855 -1.557619,0.2855 -1.940909,0 -2.797192,-1.0439 -0.856283,-1.052 -0.856283,-3.4822 l 0,-4.681 z"
           style=""
           id="path46" />
      </g>
      <g
         style="font-size:11.83221531px;font-style:normal;font-variant:normal;font-weight:normal;font-stretch:normal;line-height:125%;letter-spacing:0px;word-spacing:0px;fill:#ffffff;fill-opacity:1;stroke:none;font-family:Decker;-inkscape-font-specification:Decker"
         id="text3788">
        <path
           d="m 13.717744,1042.3365 -0.826175,0 0,-7.5857 -1.681238,0 0,-0.8262 4.188651,0 0,0.8262 -1.681238,0 0,7.5857 z"
           style=""
           id="path49" />
        <path
           d="m 16.115385,1035.9814 0.803066,0 0,3.374 q 0,1.2999 0.421753,1.843 0.421754,0.5373 1.386588,0.5373 0.548858,0 0.964834,-0.2195 0.415976,-0.2254 0.670184,-0.6471 0.144436,-0.2485 0.207988,-0.5835 0.06355,-0.3409 0.06355,-1.1786 l 0,-3.1256 0.814621,0 0,6.3551 -0.814621,0 0,-0.6875 q -0.369756,0.4507 -0.826175,0.6529 -0.456418,0.2022 -1.103493,0.2022 -1.375032,0 -1.981665,-0.7395 -0.606632,-0.7453 -0.606632,-2.467 l 0,-3.3162 z"
           style=""
           id="path51" />
        <path
           d="m 23.527852,1033.9246 0,2.6518 0,0.4738 q 0.514193,-0.6182 1.126603,-0.9129 0.61241,-0.2946 1.369255,-0.2946 1.340368,0 2.26476,0.9648 0.93017,0.9649 0.93017,2.3457 0,1.427 -0.947502,2.3918 -0.947502,0.9591 -2.380309,0.9591 -0.704849,0 -1.294149,-0.2773 -0.583522,-0.2831 -1.068828,-0.8493 l 0,0.959 -0.803065,0 0,-8.4119 0.803065,0 z m 0,5.2979 q 0,1.0168 0.716404,1.7737 0.722181,0.751 1.658128,0.751 1.022608,0 1.739012,-0.7568 0.722181,-0.7568 0.722181,-1.8719 0,-1.0573 -0.716404,-1.7852 -0.716403,-0.7338 -1.715902,-0.7338 -0.999499,0 -1.704347,0.7627 -0.699072,0.7626 -0.699072,1.8603 z"
           style=""
           id="path53" />
        <path
           d="m 36.446227,1039.4132 -5.737006,0 q 0.07511,1.0399 0.751068,1.6812 0.675962,0.6413 1.687015,0.6413 0.716404,0 1.288371,-0.3698 0.571968,-0.3755 0.88395,-1.0399 l 0.924392,0 q -0.439086,1.0573 -1.236374,1.6235 -0.791511,0.5661 -1.837229,0.5661 -1.386588,0 -2.345644,-0.9879 -0.959057,-0.9879 -0.959057,-2.3745 0,-1.4502 0.935947,-2.3977 0.941724,-0.9475 2.403419,-0.9475 1.432807,0 2.334089,0.988 0.907059,0.9821 0.907059,2.5594 l 0,0.058 z m -0.901282,-0.6876 q -0.231098,-1.0688 -0.849285,-1.6061 -0.618187,-0.5431 -1.611908,-0.5431 -0.924392,0 -1.565689,0.5836 -0.641296,0.5777 -0.785733,1.5656 l 4.812615,0 z"
           style=""
           id="path55" />
      </g>
    </g>
    <path
       style="fill:#ffffff;stroke:none;fill-opacity:1;opacity:0.15"
       d="M 0 0 L 0 48 L 16.78125 48 L 29.625 0 L 0 0 z "
       transform="translate(0,1004.3622)"
       id="rect3790" />
  </g>
</svg>
