<?xml version="1.0" encoding="UTF-8" standalone="no"?>
<!-- Created with Inkscape (http://www.inkscape.org/) -->

<svg
   xmlns:dc="http://purl.org/dc/elements/1.1/"
   xmlns:cc="http://creativecommons.org/ns#"
   xmlns:rdf="http://www.w3.org/1999/02/22-rdf-syntax-ns#"
   xmlns:svg="http://www.w3.org/2000/svg"
   xmlns="http://www.w3.org/2000/svg"
   xmlns:xlink="http://www.w3.org/1999/xlink"
   xmlns:sodipodi="http://sodipodi.sourceforge.net/DTD/sodipodi-0.dtd"
   xmlns:inkscape="http://www.inkscape.org/namespaces/inkscape"
   width="48"
   height="48"
   id="svg2"
   version="1.1"
   inkscape:version="0.48+devel r11701"
   sodipodi:docname="omgubuntu.svg">
  <defs
     id="defs4">
    <linearGradient
       id="linearGradient3771">
      <stop
         id="stop3773"
         offset="0"
         style="stop-color:#f15d22;stop-opacity:1;" />
      <stop
         id="stop3775"
         offset="1"
         style="stop-color:#592041;stop-opacity:1;" />
    </linearGradient>
    <linearGradient
       id="linearGradient3755">
      <stop
         style="stop-color:#8ebedf;stop-opacity:1;"
         offset="0"
         id="stop3757" />
      <stop
         style="stop-color:#5aade5;stop-opacity:1;"
         offset="1"
         id="stop3759" />
    </linearGradient>
    <linearGradient
       inkscape:collect="always"
       xlink:href="#linearGradient3755"
       id="linearGradient3761"
       x1="1.4285715"
       y1="16.080357"
       x2="37.500004"
       y2="16.080357"
       gradientUnits="userSpaceOnUse"
       gradientTransform="matrix(0.91335293,0,0,0.91335293,3.3401952,1007.607)" />
    <linearGradient
       inkscape:collect="always"
       xlink:href="#linearGradient3771"
       id="linearGradient3769"
       gradientUnits="userSpaceOnUse"
       gradientTransform="matrix(0.91335293,0,0,0.91335293,9.9456947,1021.8781)"
       x1="1.4285715"
       y1="16.080357"
       x2="37.500004"
       y2="16.080357" />
    <linearGradient
       inkscape:collect="always"
       xlink:href="#linearGradient3755"
       id="linearGradient3785"
       gradientUnits="userSpaceOnUse"
       gradientTransform="matrix(0.91335293,0,0,0.91335293,3.3401952,1007.607)"
       x1="1.4285715"
       y1="16.080357"
       x2="37.500004"
       y2="16.080357" />
    <linearGradient
       inkscape:collect="always"
       xlink:href="#linearGradient3771"
       id="linearGradient3787"
       gradientUnits="userSpaceOnUse"
       gradientTransform="matrix(0.91335293,0,0,0.91335293,9.9456947,1021.8781)"
       x1="1.4285715"
       y1="16.080357"
       x2="37.500004"
       y2="16.080357" />
    <linearGradient
       inkscape:collect="always"
       xlink:href="#linearGradient3771"
       id="linearGradient3000"
       gradientUnits="userSpaceOnUse"
       gradientTransform="matrix(1.0138316,0,0,1.0138316,7.8691744,1019.98)"
       x1="1.4285715"
       y1="16.080357"
       x2="37.500004"
       y2="16.080357" />
    <filter
       color-interpolation-filters="sRGB"
       id="filter3680">
      <feGaussianBlur
         id="feGaussianBlur3682"
         stdDeviation="0.71783716" />
    </filter>
    <radialGradient
       cx="28.125"
       cy="74.094757"
       r="12.053572"
       fx="28.125"
       fy="74.094757"
       id="radialGradient3691"
       xlink:href="#linearGradient3663"
       gradientUnits="userSpaceOnUse"
       gradientTransform="matrix(1.4729191,0,0,1.2638196,-13.300848,-19.750136)" />
    <linearGradient
       id="linearGradient3663">
      <stop
         id="stop3665"
         style="stop-color:#f73c00;stop-opacity:1"
         offset="0" />
      <stop
         id="stop3669"
         style="stop-color:#b61100;stop-opacity:1"
         offset="0.71272212" />
      <stop
         id="stop3667"
         style="stop-color:#9c0000;stop-opacity:1"
         offset="1" />
    </linearGradient>
    <linearGradient
       x1="55.939182"
       y1="22.032881"
       x2="55.939182"
       y2="76.053574"
       id="linearGradient3636"
       xlink:href="#linearGradient3630"
       gradientUnits="userSpaceOnUse"
       gradientTransform="translate(100,0)" />
    <linearGradient
       id="linearGradient3630">
      <stop
         id="stop3632"
         style="stop-color:#dedede;stop-opacity:1"
         offset="0" />
      <stop
         id="stop3634"
         style="stop-color:#ffffff;stop-opacity:1"
         offset="1" />
    </linearGradient>
    <filter
       color-interpolation-filters="sRGB"
       id="filter5455">
      <feGaussianBlur
         id="feGaussianBlur5457"
         stdDeviation="0.71783716" />
    </filter>
    <radialGradient
       cx="28.125"
       cy="75.058144"
       r="12.053572"
       fx="28.125"
       fy="75.058144"
       id="radialGradient2871"
       xlink:href="#linearGradient3655"
       gradientUnits="userSpaceOnUse"
       gradientTransform="matrix(1.5148225,-8.9895646e-8,6.7407404e-8,1.1024691,-14.479387,-7.7949104)" />
    <linearGradient
       id="linearGradient3655">
      <stop
         id="stop3657"
         style="stop-color:#f73c00;stop-opacity:1"
         offset="0" />
      <stop
         id="stop3659"
         style="stop-color:#9c0000;stop-opacity:1"
         offset="1" />
    </linearGradient>
    <linearGradient
       x1="16.071428"
       y1="68.053574"
       x2="40.178574"
       y2="68.053574"
       id="linearGradient2873"
       xlink:href="#linearGradient3737"
       gradientUnits="userSpaceOnUse" />
    <linearGradient
       id="linearGradient3737">
      <stop
         id="stop3739"
         style="stop-color:#ffffff;stop-opacity:1"
         offset="0" />
      <stop
         id="stop3741"
         style="stop-color:#ffffff;stop-opacity:0"
         offset="1" />
    </linearGradient>
    <linearGradient
       x1="16.071428"
       y1="68.053574"
       x2="40.178574"
       y2="68.053574"
       id="linearGradient3679"
       xlink:href="#linearGradient3673"
       gradientUnits="userSpaceOnUse" />
    <linearGradient
       id="linearGradient3673">
      <stop
         id="stop3675"
         style="stop-color:#ffeeaa;stop-opacity:1"
         offset="0" />
      <stop
         id="stop3677"
         style="stop-color:#ffeeaa;stop-opacity:0"
         offset="1" />
    </linearGradient>
    <filter
       x="-0.071800567"
       y="-0.15538733"
       width="1.1436011"
       height="1.3107746"
       color-interpolation-filters="sRGB"
       id="filter3985">
      <feGaussianBlur
         stdDeviation="6.7803529"
         id="feGaussianBlur3987" />
    </filter>
    <filter
       color-interpolation-filters="sRGB"
       id="filter3989">
      <feGaussianBlur
         stdDeviation="6.7803529"
         id="feGaussianBlur3991" />
    </filter>
    <filter
       x="-0.1490933"
       y="-0.072374105"
       width="1.2981865"
       height="1.1447482"
       color-interpolation-filters="sRGB"
       id="filter3993">
      <feGaussianBlur
         stdDeviation="6.7803529"
         id="feGaussianBlur3995" />
    </filter>
    <filter
       x="-0.081570871"
       y="-0.11038305"
       width="1.1631417"
       height="1.2207661"
       color-interpolation-filters="sRGB"
       id="filter3997">
      <feGaussianBlur
         stdDeviation="6.7803529"
         id="feGaussianBlur3999" />
    </filter>
    <filter
       x="-0.07492853"
       y="-0.12866202"
       width="1.149857"
       height="1.257324"
       color-interpolation-filters="sRGB"
       id="filter4001">
      <feGaussianBlur
         stdDeviation="6.7803529"
         id="feGaussianBlur4003" />
    </filter>
    <filter
       x="-0.12232576"
       y="-0.076450996"
       width="1.2446516"
       height="1.152902"
       color-interpolation-filters="sRGB"
       id="filter4005">
      <feGaussianBlur
         stdDeviation="6.7803529"
         id="feGaussianBlur4007" />
    </filter>
    <filter
       x="-0.11224329"
       y="-0.079873785"
       width="1.2244866"
       height="1.1597476"
       color-interpolation-filters="sRGB"
       id="filter4009">
      <feGaussianBlur
         stdDeviation="6.7803529"
         id="feGaussianBlur4011" />
    </filter>
    <radialGradient
       cx="353.6283"
       cy="241.04938"
       r="220.11942"
       fx="353.6283"
       fy="241.04938"
       id="radialGradient2607"
       xlink:href="#linearGradient6793"
       gradientUnits="userSpaceOnUse"
       gradientTransform="matrix(-1,0,0,0.9878188,582.03434,46.933265)" />
    <linearGradient
       id="linearGradient6793">
      <stop
         id="stop6795"
         style="stop-color:#44b5e8;stop-opacity:1"
         offset="0" />
      <stop
         id="stop6797"
         style="stop-color:#116b98;stop-opacity:1"
         offset="1" />
    </linearGradient>
    <radialGradient
       cx="353.6283"
       cy="241.04938"
       r="220.11942"
       fx="353.6283"
       fy="241.04938"
       id="radialGradient2609"
       xlink:href="#linearGradient6793"
       gradientUnits="userSpaceOnUse"
       gradientTransform="matrix(-0.999176,-0.04058612,-0.04009174,0.9870049,587.79647,48.361326)" />
    <linearGradient
       id="linearGradient6977">
      <stop
         id="stop6979"
         style="stop-color:#44b5e8;stop-opacity:1"
         offset="0" />
      <stop
         id="stop6981"
         style="stop-color:#116b98;stop-opacity:1"
         offset="1" />
    </linearGradient>
    <radialGradient
       cx="353.6283"
       cy="241.04938"
       r="220.11942"
       fx="353.6283"
       fy="241.04938"
       id="radialGradient2611"
       xlink:href="#linearGradient6793"
       gradientUnits="userSpaceOnUse"
       gradientTransform="matrix(-1,0,0,0.9878188,582.03434,46.933265)" />
    <linearGradient
       id="linearGradient6984">
      <stop
         id="stop6986"
         style="stop-color:#44b5e8;stop-opacity:1"
         offset="0" />
      <stop
         id="stop6988"
         style="stop-color:#116b98;stop-opacity:1"
         offset="1" />
    </linearGradient>
    <radialGradient
       cx="353.6283"
       cy="241.04938"
       r="220.11942"
       fx="353.6283"
       fy="241.04938"
       id="radialGradient2613"
       xlink:href="#linearGradient6793"
       gradientUnits="userSpaceOnUse"
       gradientTransform="matrix(-1,0,0,0.9878188,582.03434,46.933265)" />
    <linearGradient
       id="linearGradient6991">
      <stop
         id="stop6993"
         style="stop-color:#44b5e8;stop-opacity:1"
         offset="0" />
      <stop
         id="stop6995"
         style="stop-color:#116b98;stop-opacity:1"
         offset="1" />
    </linearGradient>
    <radialGradient
       cx="353.6283"
       cy="241.04938"
       r="220.11942"
       fx="353.6283"
       fy="241.04938"
       id="radialGradient2615"
       xlink:href="#linearGradient6793"
       gradientUnits="userSpaceOnUse"
       gradientTransform="matrix(-1,0,0,0.9878188,582.03434,46.933265)" />
    <linearGradient
       id="linearGradient6998">
      <stop
         id="stop7000"
         style="stop-color:#44b5e8;stop-opacity:1"
         offset="0" />
      <stop
         id="stop7002"
         style="stop-color:#116b98;stop-opacity:1"
         offset="1" />
    </linearGradient>
    <filter
       color-interpolation-filters="sRGB"
       id="filter3383">
      <feBlend
         in2="BackgroundImage"
         mode="multiply"
         id="feBlend3385" />
    </filter>
    <radialGradient
       cx="353.6283"
       cy="241.04938"
       r="220.11942"
       fx="353.6283"
       fy="241.04938"
       id="radialGradient2617"
       xlink:href="#linearGradient6793"
       gradientUnits="userSpaceOnUse"
       gradientTransform="matrix(-0.999176,-0.04058612,-0.04009174,0.9870049,587.79647,48.361326)" />
    <linearGradient
       id="linearGradient7007">
      <stop
         id="stop7009"
         style="stop-color:#44b5e8;stop-opacity:1"
         offset="0" />
      <stop
         id="stop7011"
         style="stop-color:#116b98;stop-opacity:1"
         offset="1" />
    </linearGradient>
    <radialGradient
       cx="353.6283"
       cy="241.04938"
       r="220.11942"
       fx="353.6283"
       fy="241.04938"
       id="radialGradient2619"
       xlink:href="#linearGradient6793"
       gradientUnits="userSpaceOnUse"
       gradientTransform="matrix(-1,0,0,0.9878188,582.03434,46.933265)" />
    <linearGradient
       id="linearGradient7014">
      <stop
         id="stop7016"
         style="stop-color:#44b5e8;stop-opacity:1"
         offset="0" />
      <stop
         id="stop7018"
         style="stop-color:#116b98;stop-opacity:1"
         offset="1" />
    </linearGradient>
    <radialGradient
       cx="353.6283"
       cy="241.04938"
       r="220.11942"
       fx="353.6283"
       fy="241.04938"
       id="radialGradient2621"
       xlink:href="#linearGradient6793"
       gradientUnits="userSpaceOnUse"
       gradientTransform="matrix(-1,0,0,0.9878188,582.03434,46.933265)" />
    <linearGradient
       id="linearGradient7021">
      <stop
         id="stop7023"
         style="stop-color:#44b5e8;stop-opacity:1"
         offset="0" />
      <stop
         id="stop7025"
         style="stop-color:#116b98;stop-opacity:1"
         offset="1" />
    </linearGradient>
    <radialGradient
       cx="353.6283"
       cy="241.04938"
       r="220.11942"
       fx="353.6283"
       fy="241.04938"
       id="radialGradient2623"
       xlink:href="#linearGradient6793"
       gradientUnits="userSpaceOnUse"
       gradientTransform="matrix(-1,0,0,0.9878188,582.03434,46.933265)" />
    <linearGradient
       id="linearGradient7028">
      <stop
         id="stop7030"
         style="stop-color:#44b5e8;stop-opacity:1"
         offset="0" />
      <stop
         id="stop7032"
         style="stop-color:#116b98;stop-opacity:1"
         offset="1" />
    </linearGradient>
    <radialGradient
       cx="353.6283"
       cy="241.04938"
       r="220.11942"
       fx="353.6283"
       fy="241.04938"
       id="radialGradient2625"
       xlink:href="#linearGradient6793"
       gradientUnits="userSpaceOnUse"
       gradientTransform="matrix(-1,0,0,0.9878188,582.03434,46.933265)" />
    <linearGradient
       id="linearGradient7035">
      <stop
         id="stop7037"
         style="stop-color:#44b5e8;stop-opacity:1"
         offset="0" />
      <stop
         id="stop7039"
         style="stop-color:#116b98;stop-opacity:1"
         offset="1" />
    </linearGradient>
    <filter
       x="-0.071800567"
       y="-0.15538733"
       width="1.1436011"
       height="1.3107746"
       color-interpolation-filters="sRGB"
       id="filter7041">
      <feGaussianBlur
         stdDeviation="6.7803529"
         id="feGaussianBlur7043" />
    </filter>
    <filter
       color-interpolation-filters="sRGB"
       id="filter7045">
      <feGaussianBlur
         stdDeviation="6.7803529"
         id="feGaussianBlur7047" />
    </filter>
    <filter
       x="-0.1490933"
       y="-0.072374105"
       width="1.2981865"
       height="1.1447482"
       color-interpolation-filters="sRGB"
       id="filter7049">
      <feGaussianBlur
         stdDeviation="6.7803529"
         id="feGaussianBlur7051" />
    </filter>
    <filter
       x="-0.081570871"
       y="-0.11038305"
       width="1.1631417"
       height="1.2207661"
       color-interpolation-filters="sRGB"
       id="filter7053">
      <feGaussianBlur
         stdDeviation="6.7803529"
         id="feGaussianBlur7055" />
    </filter>
    <filter
       x="-0.07492853"
       y="-0.12866202"
       width="1.149857"
       height="1.257324"
       color-interpolation-filters="sRGB"
       id="filter7057">
      <feGaussianBlur
         stdDeviation="6.7803529"
         id="feGaussianBlur7059" />
    </filter>
    <filter
       x="-0.12232576"
       y="-0.076450996"
       width="1.2446516"
       height="1.152902"
       color-interpolation-filters="sRGB"
       id="filter7061">
      <feGaussianBlur
         stdDeviation="6.7803529"
         id="feGaussianBlur7063" />
    </filter>
    <filter
       x="-0.11224329"
       y="-0.079873785"
       width="1.2244866"
       height="1.1597476"
       color-interpolation-filters="sRGB"
       id="filter7065">
      <feGaussianBlur
         stdDeviation="6.7803529"
         id="feGaussianBlur7067" />
    </filter>
    <radialGradient
       cx="353.6283"
       cy="241.04938"
       r="220.11942"
       fx="353.6283"
       fy="241.04938"
       id="radialGradient4089"
       xlink:href="#linearGradient6793"
       gradientUnits="userSpaceOnUse"
       gradientTransform="matrix(-0.14010564,0,0,0.13702439,96.633969,20.542549)" />
    <linearGradient
       id="linearGradient7070">
      <stop
         id="stop7072"
         style="stop-color:#44b5e8;stop-opacity:1"
         offset="0" />
      <stop
         id="stop7074"
         style="stop-color:#116b98;stop-opacity:1"
         offset="1" />
    </linearGradient>
    <radialGradient
       cx="353.6283"
       cy="241.04938"
       r="220.11942"
       fx="353.6283"
       fy="241.04938"
       id="radialGradient4086"
       xlink:href="#linearGradient6793"
       gradientUnits="userSpaceOnUse"
       gradientTransform="matrix(-0.13999019,-0.00562986,-0.00561708,0.1369115,97.441273,20.740641)" />
    <linearGradient
       id="linearGradient7077">
      <stop
         id="stop7079"
         style="stop-color:#44b5e8;stop-opacity:1"
         offset="0" />
      <stop
         id="stop7081"
         style="stop-color:#116b98;stop-opacity:1"
         offset="1" />
    </linearGradient>
    <radialGradient
       cx="353.6283"
       cy="241.04938"
       r="220.11942"
       fx="353.6283"
       fy="241.04938"
       id="radialGradient4081"
       xlink:href="#linearGradient6793"
       gradientUnits="userSpaceOnUse"
       gradientTransform="matrix(-0.14010564,0,0,0.13702439,96.633969,20.542549)" />
    <linearGradient
       id="linearGradient7084">
      <stop
         id="stop7086"
         style="stop-color:#44b5e8;stop-opacity:1"
         offset="0" />
      <stop
         id="stop7088"
         style="stop-color:#116b98;stop-opacity:1"
         offset="1" />
    </linearGradient>
    <radialGradient
       cx="353.6283"
       cy="241.04938"
       r="220.11942"
       fx="353.6283"
       fy="241.04938"
       id="radialGradient4078"
       xlink:href="#linearGradient6793"
       gradientUnits="userSpaceOnUse"
       gradientTransform="matrix(-0.14010564,0,0,0.13702439,96.633969,20.542549)" />
    <linearGradient
       id="linearGradient7091">
      <stop
         id="stop7093"
         style="stop-color:#44b5e8;stop-opacity:1"
         offset="0" />
      <stop
         id="stop7095"
         style="stop-color:#116b98;stop-opacity:1"
         offset="1" />
    </linearGradient>
    <radialGradient
       cx="353.6283"
       cy="241.04938"
       r="220.11942"
       fx="353.6283"
       fy="241.04938"
       id="radialGradient4075"
       xlink:href="#linearGradient6793"
       gradientUnits="userSpaceOnUse"
       gradientTransform="matrix(-0.14010564,0,0,0.13702439,96.633969,20.542549)" />
    <linearGradient
       id="linearGradient7098">
      <stop
         id="stop7100"
         style="stop-color:#44b5e8;stop-opacity:1"
         offset="0" />
      <stop
         id="stop7102"
         style="stop-color:#116b98;stop-opacity:1"
         offset="1" />
    </linearGradient>
    <radialGradient
       cx="353.6283"
       cy="241.04938"
       r="220.11942"
       fx="353.6283"
       fy="241.04938"
       id="radialGradient4105"
       xlink:href="#linearGradient6793"
       gradientUnits="userSpaceOnUse"
       gradientTransform="matrix(-0.14010564,0,0,0.13702439,186.63397,20.542549)" />
    <linearGradient
       id="linearGradient7105">
      <stop
         id="stop7107"
         style="stop-color:#44b5e8;stop-opacity:1"
         offset="0" />
      <stop
         id="stop7109"
         style="stop-color:#116b98;stop-opacity:1"
         offset="1" />
    </linearGradient>
    <radialGradient
       cx="353.6283"
       cy="241.04938"
       r="220.11942"
       fx="353.6283"
       fy="241.04938"
       id="radialGradient4107"
       xlink:href="#linearGradient6793"
       gradientUnits="userSpaceOnUse"
       gradientTransform="matrix(-0.13999019,-0.00562986,-0.00561708,0.1369115,187.44127,20.740641)" />
    <linearGradient
       id="linearGradient7112">
      <stop
         id="stop7114"
         style="stop-color:#44b5e8;stop-opacity:1"
         offset="0" />
      <stop
         id="stop7116"
         style="stop-color:#116b98;stop-opacity:1"
         offset="1" />
    </linearGradient>
    <radialGradient
       cx="353.6283"
       cy="241.04938"
       r="220.11942"
       fx="353.6283"
       fy="241.04938"
       id="radialGradient4109"
       xlink:href="#linearGradient6793"
       gradientUnits="userSpaceOnUse"
       gradientTransform="matrix(-0.14010564,0,0,0.13702439,186.63397,20.542549)" />
    <linearGradient
       id="linearGradient7119">
      <stop
         id="stop7121"
         style="stop-color:#44b5e8;stop-opacity:1"
         offset="0" />
      <stop
         id="stop7123"
         style="stop-color:#116b98;stop-opacity:1"
         offset="1" />
    </linearGradient>
    <radialGradient
       cx="353.6283"
       cy="241.04938"
       r="220.11942"
       fx="353.6283"
       fy="241.04938"
       id="radialGradient4111"
       xlink:href="#linearGradient6793"
       gradientUnits="userSpaceOnUse"
       gradientTransform="matrix(-0.14010564,0,0,0.13702439,186.63397,20.542549)" />
    <linearGradient
       id="linearGradient7126">
      <stop
         id="stop7128"
         style="stop-color:#44b5e8;stop-opacity:1"
         offset="0" />
      <stop
         id="stop7130"
         style="stop-color:#116b98;stop-opacity:1"
         offset="1" />
    </linearGradient>
    <radialGradient
       cx="353.6283"
       cy="241.04938"
       r="220.11942"
       fx="353.6283"
       fy="241.04938"
       id="radialGradient4113"
       xlink:href="#linearGradient6793"
       gradientUnits="userSpaceOnUse"
       gradientTransform="matrix(-0.14010564,0,0,0.13702439,186.63397,20.542549)" />
    <linearGradient
       id="linearGradient7133">
      <stop
         id="stop7135"
         style="stop-color:#44b5e8;stop-opacity:1"
         offset="0" />
      <stop
         id="stop7137"
         style="stop-color:#116b98;stop-opacity:1"
         offset="1" />
    </linearGradient>
    <radialGradient
       cx="353.6283"
       cy="241.04938"
       r="220.11942"
       fx="353.6283"
       fy="241.04938"
       id="radialGradient4128"
       xlink:href="#linearGradient6793"
       gradientUnits="userSpaceOnUse"
       gradientTransform="matrix(-0.14010564,0,0,0.13702439,96.633969,110.54255)" />
    <linearGradient
       id="linearGradient7140">
      <stop
         id="stop7142"
         style="stop-color:#44b5e8;stop-opacity:1"
         offset="0" />
      <stop
         id="stop7144"
         style="stop-color:#116b98;stop-opacity:1"
         offset="1" />
    </linearGradient>
    <clipPath
       id="clipPath4136">
      <path
         d="m 69.59375,-44 c -9.3899,0.107682 -23.87987,2.6857 -28.40625,8.03125 -3.614707,5.19851 -4.058095,25.56562 -3.125,24.3125 7.690474,-10.32808 26.131922,-23.08265 37.125,-28.21875 5.944988,-2.777574 1.709505,-4.208752 -5.59375,-4.125 z m -9.0625,16.84375 c -6.358079,0.45418 -17.54026,11.14799 -15.96875,11.09375 12.998614,-0.44859 21.139031,0.31977 31.28125,3.4375 1.501742,0.46164 -1.635623,-13.48623 -15.3125,-14.53125 z M 53.6875,-16 c -0.335662,0.0171 -0.487336,0.12156 -0.375,0.28125 C 60.745916,-5.15172 64.517184,1.9985 67.375,12.125 67.798153,13.62441 77.940461,3.47276 71.40625,-8.46875 68.050526,-12.87991 56.037137,-16.1197 53.6875,-16 z m 3.84375,8.46875 c -0.07395,-0.0188 -0.13144,0.0309 -0.15625,0.125 -3.283392,12.46026 -6.331882,19.9571 -12.25,28.6875 -0.876283,1.2927 13.514543,2.30156 18.4375,-10.375 1.292639,-5.77676 -4.922018,-18.15493 -6.03125,-18.4375 z m -3.625,7.96875 c -0.03023,-0.007 -0.04942,0.0103 -0.09375,0.0312 -11.733345,5.55657 -19.475906,8.09299 -30.03125,9.25 -1.562909,0.17132 6.916816,11.70602 19.875,7.25 5.467993,-2.84143 11.187041,-16.30416 10.25,-16.53125 z"
         inkscape:connector-curvature="0"
         id="path4138"
         style="fill:#ff0000;fill-opacity:1;fill-rule:nonzero;stroke:none;stroke-width:1;marker-mid:none" />
    </clipPath>
    <filter
       color-interpolation-filters="sRGB"
       id="filter4144">
      <feGaussianBlur
         id="feGaussianBlur4146"
         stdDeviation="1.2041748" />
    </filter>
    <linearGradient
       x1="1743.1025"
       gradientTransform="translate(-1710.0918,-4267.2217)"
       y1="4289.7676"
       x2="1743.1025"
       gradientUnits="userSpaceOnUse"
       y2="4309.5557"
       xlink:type="simple"
       xlink:actuate="onLoad"
       id="SVGID_5_"
       xlink:show="other">
      <stop
         stop-color="#ffffff"
         offset="0"
         id="stop20792" />
      <stop
         stop-color="#b2b2b2"
         offset="1"
         id="stop20794" />
    </linearGradient>
    <linearGradient
       x1="775.02148"
       gradientTransform="matrix(1,0,0,-1,-742.0098,-1730.0156)"
       y1="-1753.2212"
       x2="775.02148"
       gradientUnits="userSpaceOnUse"
       y2="-1762.4575"
       xlink:type="simple"
       xlink:actuate="onLoad"
       id="SVGID_6_"
       xlink:show="other">
      <stop
         stop-color="#ffffff"
         offset="0"
         id="stop20799" />
      <stop
         stop-color="#e5e5e5"
         offset="1"
         id="stop20801" />
    </linearGradient>
    <linearGradient
       x1="564.1875"
       gradientTransform="translate(-534.0059,-1587.0127)"
       y1="1615.6016"
       x2="564.1875"
       gradientUnits="userSpaceOnUse"
       y2="1623.5771"
       xlink:type="simple"
       xlink:actuate="onLoad"
       id="SVGID_7_"
       xlink:show="other">
      <stop
         stop-color="#404040"
         offset="0"
         id="stop20806" />
      <stop
         stop-color="#000000"
         offset="1"
         id="stop20808" />
    </linearGradient>
    <linearGradient
       x1="569.33197"
       gradientTransform="translate(-534.0059,-1587.0127)"
       y1="1616.8271"
       x2="569.33197"
       gradientUnits="userSpaceOnUse"
       y2="1622.3398"
       xlink:type="simple"
       xlink:actuate="onLoad"
       id="SVGID_8_"
       xlink:show="other">
      <stop
         stop-color="#404040"
         offset="0"
         id="stop20813" />
      <stop
         stop-color="#000000"
         offset="1"
         id="stop20815" />
    </linearGradient>
    <linearGradient
       x1="571.61823"
       gradientTransform="translate(-534.0059,-1587.0127)"
       y1="1614.9229"
       x2="571.61823"
       gradientUnits="userSpaceOnUse"
       y2="1624.2451"
       xlink:type="simple"
       xlink:actuate="onLoad"
       id="SVGID_9_"
       xlink:show="other">
      <stop
         stop-color="#404040"
         offset="0"
         id="stop20820" />
      <stop
         stop-color="#000000"
         offset="1"
         id="stop20822" />
    </linearGradient>
    <linearGradient
       xlink:show="other"
       id="linearGradient20860"
       xlink:actuate="onLoad"
       xlink:type="simple"
       y2="4309.5557"
       gradientUnits="userSpaceOnUse"
       x2="1743.1025"
       y1="4289.7676"
       gradientTransform="translate(-1710.0918,-4267.2217)"
       x1="1743.1025">
      <stop
         id="stop20862"
         offset="0"
         stop-color="#ffffff" />
      <stop
         id="stop20864"
         offset="1"
         stop-color="#b2b2b2" />
    </linearGradient>
    <linearGradient
       xlink:show="other"
       id="linearGradient20867"
       xlink:actuate="onLoad"
       xlink:type="simple"
       y2="-1762.4575"
       gradientUnits="userSpaceOnUse"
       x2="775.02148"
       y1="-1753.2212"
       gradientTransform="matrix(1,0,0,-1,-742.0098,-1730.0156)"
       x1="775.02148">
      <stop
         id="stop20869"
         offset="0"
         stop-color="#ffffff" />
      <stop
         id="stop20871"
         offset="1"
         stop-color="#e5e5e5" />
    </linearGradient>
    <linearGradient
       xlink:show="other"
       id="linearGradient20874"
       xlink:actuate="onLoad"
       xlink:type="simple"
       y2="1623.5771"
       gradientUnits="userSpaceOnUse"
       x2="564.1875"
       y1="1615.6016"
       gradientTransform="translate(-534.0059,-1587.0127)"
       x1="564.1875">
      <stop
         id="stop20876"
         offset="0"
         stop-color="#404040" />
      <stop
         id="stop20878"
         offset="1"
         stop-color="#000000" />
    </linearGradient>
    <linearGradient
       xlink:show="other"
       id="linearGradient20881"
       xlink:actuate="onLoad"
       xlink:type="simple"
       y2="1622.3398"
       gradientUnits="userSpaceOnUse"
       x2="569.33197"
       y1="1616.8271"
       gradientTransform="translate(-534.0059,-1587.0127)"
       x1="569.33197">
      <stop
         id="stop20883"
         offset="0"
         stop-color="#404040" />
      <stop
         id="stop20885"
         offset="1"
         stop-color="#000000" />
    </linearGradient>
    <linearGradient
       xlink:show="other"
       id="linearGradient20888"
       xlink:actuate="onLoad"
       xlink:type="simple"
       y2="1624.2451"
       gradientUnits="userSpaceOnUse"
       x2="571.61823"
       y1="1614.9229"
       gradientTransform="translate(-534.0059,-1587.0127)"
       x1="571.61823">
      <stop
         id="stop20890"
         offset="0"
         stop-color="#404040" />
      <stop
         id="stop20892"
         offset="1"
         stop-color="#000000" />
    </linearGradient>
  </defs>
  <sodipodi:namedview
     id="base"
     pagecolor="#ffffff"
     bordercolor="#666666"
     borderopacity="1.0"
     inkscape:pageopacity="0.0"
     inkscape:pageshadow="2"
     inkscape:zoom="5.6568542"
     inkscape:cx="15.052912"
     inkscape:cy="25.600559"
     inkscape:document-units="px"
     inkscape:current-layer="layer1"
     showgrid="false"
     inkscape:window-width="1366"
     inkscape:window-height="746"
     inkscape:window-x="0"
     inkscape:window-y="0"
     inkscape:window-maximized="1" />
  <metadata
     id="metadata7">
    <rdf:RDF>
      <cc:Work
         rdf:about="">
        <dc:format>image/svg+xml</dc:format>
        <dc:type
           rdf:resource="http://purl.org/dc/dcmitype/StillImage" />
        <dc:title />
      </cc:Work>
    </rdf:RDF>
  </metadata>
  <g
     inkscape:label="Capa 1"
     inkscape:groupmode="layer"
     id="layer1"
     transform="translate(0,-1004.3622)">
    <rect
       style="fill:#592041;fill-opacity:1;stroke:none"
       id="rect2985"
       width="48"
       height="48"
       x="0"
       y="1004.3622"
       ry="0" />
    <rect
       style="fill:none;stroke:none"
       id="rect3783"
       width="48"
       height="48"
       x="-0.063405097"
       y="1004.3622" />
    <path
       style="opacity:0.15;fill:#ffffff;fill-opacity:1;stroke:none"
       d="m 0,1004.3622 0,48 16.78125,0 12.84375,-48 -29.625,0 z"
       id="rect3790"
       inkscape:connector-curvature="0" />
    <g
       id="g1007"
       transform="translate(0.84375,-1.75)">
      <path
         id="path3194"
         transform="translate(0,1004.3622)"
         d="m 23.15625,6.75 c -10.530841,0 -19.0625,8.235069 -19.0625,18.40625 0,10.171181 8.531659,18.40625 19.0625,18.40625 3.014698,0 5.871867,-0.671806 8.40625,-1.875 L 39.875,44.75 37,37.8125 C 40.236941,34.51197 42.21875,30.061291 42.21875,25.15625 42.21875,14.985069 33.687091,6.75 23.15625,6.75 Z"
         style="fill:#f15d22;fill-opacity:1;stroke:none"
         inkscape:connector-curvature="0" />
      <g
         id="text3198"
         style="font-size:1.00904107px;font-style:normal;font-weight:normal;fill:#ffffff;fill-opacity:1;stroke:none;font-family:monospace;-inkscape-font-specification:monospace"
         transform="matrix(1.9351586,-0.10390131,0.10757522,1.869067,2.2053573,933.08056)">
        <path
           id="path2848"
           style="font-variant:normal;font-weight:bold;font-stretch:normal;fill:#ffffff;fill-opacity:1;font-family:Arial Black;-inkscape-font-specification:'Arial Black, Bold'"
           d="m -0.71990286,52.193645 c -3.1e-7,-0.795947 0.2217126,-1.415634 0.66513941,-1.859064 0.44342485,-0.443422 1.06089535,-0.665135 1.85241325,-0.66514 0.8114664,5e-6 1.4366968,0.218392 1.8756931,0.655163 0.4389869,0.434561 0.6584827,1.044272 0.658488,1.829133 -5.3e-6,0.569805 -0.09645,1.037619 -0.2893356,1.403444 -0.1906782,0.36361 -0.4678193,0.647403 -0.8314243,0.851379 -0.3613963,0.201759 -0.812582,0.302638 -1.3535587,0.302638 -0.5498509,0 -1.00547091,-0.08758 -1.36686144,-0.26273 -0.35917644,-0.175153 -0.65072892,-0.452294 -0.87465832,-0.831424 -0.22393069,-0.379128 -0.33589571,-0.853594 -0.3358954,-1.423399 m 1.50654075,0.0067 c -1.81e-6,0.492205 0.0909005,0.845837 0.27270721,1.060897 0.1840196,0.215063 0.4334466,0.322594 0.7482818,0.322593 0.323698,10e-7 0.5742336,-0.105313 0.7516075,-0.315942 0.1773668,-0.210625 0.2660519,-0.588646 0.2660558,-1.134062 -3.9e-6,-0.458943 -0.093123,-0.79373 -0.2793586,-1.004361 -0.1840253,-0.212841 -0.4345609,-0.319263 -0.7516075,-0.319267 -0.3037495,4e-6 -0.5476337,0.107535 -0.7316534,0.322593 -0.18402376,0.215065 -0.27603462,0.570914 -0.27603281,1.067549"
           inkscape:connector-curvature="0" />
        <path
           id="path2850"
           style="font-variant:normal;font-weight:bold;font-stretch:normal;fill:#ffffff;fill-opacity:1;font-family:Arial Black;-inkscape-font-specification:'Arial Black, Bold'"
           d="m 4.3765435,49.752584 1.9821154,0 0.7649103,2.966521 0.7615846,-2.966521 1.9754641,0 0,4.875472 -1.2305079,0 0,-3.71813 -0.9544751,3.71813 -1.1141085,0 -0.9511493,-3.71813 0,3.71813 -1.2338336,0 0,-4.875472"
           inkscape:connector-curvature="0" />
        <path
           id="path2852"
           style="font-variant:normal;font-weight:bold;font-stretch:normal;fill:#ffffff;fill-opacity:1;font-family:Arial Black;-inkscape-font-specification:'Arial Black, Bold'"
           d="m 12.638807,52.86211 0,-1.014337 2.327988,0 0,2.07856 c -0.445648,0.303748 -0.840297,0.511049 -1.183948,0.621906 -0.341442,0.108639 -0.747177,0.162959 -1.217205,0.162959 -0.578674,0 -1.050923,-0.09866 -1.416747,-0.295987 -0.363611,-0.197324 -0.646295,-0.491094 -0.848053,-0.88131 -0.199542,-0.390213 -0.299313,-0.838073 -0.299313,-1.343581 0,-0.532109 0.109748,-0.99438 0.329244,-1.386816 0.219495,-0.394645 0.540979,-0.693958 0.964452,-0.897938 0.330351,-0.157412 0.774885,-0.23612 1.333605,-0.236125 0.538759,5e-6 0.941168,0.04878 1.207228,0.146331 0.268268,0.09756 0.489981,0.249432 0.665139,0.45562 0.177366,0.203981 0.310393,0.463385 0.399084,0.778214 l -1.45333,0.259404 c -0.05987,-0.184018 -0.161854,-0.324806 -0.305964,-0.422364 -0.1419,-0.09755 -0.323704,-0.146326 -0.545414,-0.14633 -0.330355,4e-6 -0.594194,0.115294 -0.791516,0.345872 -0.19511,0.228368 -0.292663,0.590869 -0.292661,1.087503 -2e-6,0.527679 0.09866,0.904591 0.295987,1.130737 0.199539,0.226149 0.47668,0.339222 0.831424,0.339221 0.168499,10e-7 0.329241,-0.02439 0.482226,-0.07317 0.152978,-0.04878 0.328132,-0.131918 0.52546,-0.249427 l 0,-0.458947 -1.007686,0"
           inkscape:connector-curvature="0" />
        <path
           id="path2854"
           style="font-variant:normal;font-weight:bold;font-stretch:normal;fill:#ffffff;fill-opacity:1;font-family:Arial Black;-inkscape-font-specification:'Arial Black, Bold'"
           d="m 15.02481,49.752584 1.446678,0 0,1.110783 -0.279359,2.231542 -0.894612,0 -0.272707,-2.231542 0,-1.110783 m 0.04988,3.681546 1.350233,0 0,1.193926 -1.350233,0 0,-1.193926"
           inkscape:connector-curvature="0" />
      </g>
    </g>
    <g
       transform="matrix(1.9350978,-0.10494996,0.10866101,1.8690084,3.2660175,929.54502)"
       style="font-size:2.16666675px;font-style:normal;font-weight:normal;fill:#ffffff;fill-opacity:1;stroke:none;font-family:monospace;-inkscape-font-specification:monospace"
       id="text3204" />
  </g>
</svg>
