<?xml version="1.0" encoding="UTF-8" standalone="no"?>
<!-- Created with Inkscape (http://www.inkscape.org/) -->

<svg
   xmlns:dc="http://purl.org/dc/elements/1.1/"
   xmlns:cc="http://creativecommons.org/ns#"
   xmlns:rdf="http://www.w3.org/1999/02/22-rdf-syntax-ns#"
   xmlns:svg="http://www.w3.org/2000/svg"
   xmlns="http://www.w3.org/2000/svg"
   xmlns:xlink="http://www.w3.org/1999/xlink"
   xmlns:sodipodi="http://sodipodi.sourceforge.net/DTD/sodipodi-0.dtd"
   xmlns:inkscape="http://www.inkscape.org/namespaces/inkscape"
   width="48"
   height="48"
   id="svg2"
   version="1.1"
   inkscape:version="0.48+devel r11772"
   sodipodi:docname="preferences-desktop-accessibility.svg">
  <defs
     id="defs4">
    <linearGradient
       id="linearGradient905">
      <stop
         id="stop907"
         offset="0"
         style="stop-color:#e6e6e6;stop-opacity:1" />
      <stop
         style="stop-color:#ffffff;stop-opacity:1"
         offset="1"
         id="stop909" />
    </linearGradient>
    <linearGradient
       id="linearGradient3795">
      <stop
         style="stop-color:#68b8d8;stop-opacity:1;"
         offset="0"
         id="stop3797" />
      <stop
         style="stop-color:#3097bd;stop-opacity:1;"
         offset="1"
         id="stop3799" />
    </linearGradient>
    <linearGradient
       id="linearGradient3698">
      <stop
         id="stop3700"
         offset="0"
         style="stop-color:#96d0e1;stop-opacity:1" />
      <stop
         style="stop-color:#89b7e1;stop-opacity:1"
         offset="0.67819428"
         id="stop3706" />
      <stop
         id="stop3702"
         offset="1"
         style="stop-color:#699dd3;stop-opacity:1" />
    </linearGradient>
    <linearGradient
       id="linearGradient3708">
      <stop
         style="stop-color:#447fb9;stop-opacity:1"
         offset="0"
         id="stop3716" />
      <stop
         id="stop3712"
         offset="1"
         style="stop-color:#75a9dd;stop-opacity:1" />
    </linearGradient>
    <linearGradient
       id="linearGradient3750">
      <stop
         style="stop-color:#d0e2f1;stop-opacity:1"
         offset="0"
         id="stop3752" />
      <stop
         id="stop3756"
         offset="0.85580856"
         style="stop-color:#cadef0;stop-opacity:1" />
      <stop
         style="stop-color:#95bee3;stop-opacity:1"
         offset="1"
         id="stop3754" />
    </linearGradient>
    <linearGradient
       id="linearGradient3803">
      <stop
         id="stop3805"
         offset="0"
         style="stop-color:#d7def0;stop-opacity:1;" />
      <stop
         style="stop-color:#ffffff;stop-opacity:1"
         offset="0.5"
         id="stop3811" />
      <stop
         id="stop3807"
         offset="1"
         style="stop-color:#d5def0;stop-opacity:1" />
    </linearGradient>
    <linearGradient
       inkscape:collect="always"
       xlink:href="#linearGradient3795"
       id="linearGradient3859"
       x1="26.192217"
       y1="1024.0002"
       x2="28.641211"
       y2="1024.0002"
       gradientUnits="userSpaceOnUse" />
    <linearGradient
       inkscape:collect="always"
       xlink:href="#linearGradient3795"
       id="linearGradient3867"
       gradientUnits="userSpaceOnUse"
       x1="26.192217"
       y1="1024.0002"
       x2="28.641211"
       y2="1024.0002" />
    <linearGradient
       inkscape:collect="always"
       xlink:href="#linearGradient3795"
       id="linearGradient3869"
       gradientUnits="userSpaceOnUse"
       x1="26.192217"
       y1="1024.0002"
       x2="28.641211"
       y2="1024.0002" />
    <linearGradient
       inkscape:collect="always"
       xlink:href="#linearGradient3795"
       id="linearGradient3871"
       gradientUnits="userSpaceOnUse"
       x1="26.192217"
       y1="1024.0002"
       x2="28.641211"
       y2="1024.0002" />
    <linearGradient
       inkscape:collect="always"
       xlink:href="#linearGradient3795"
       id="linearGradient3877"
       gradientUnits="userSpaceOnUse"
       x1="29.718235"
       y1="1027.8575"
       x2="22.811094"
       y2="1015.5485" />
    <linearGradient
       inkscape:collect="always"
       xlink:href="#linearGradient3795"
       id="linearGradient3879"
       gradientUnits="userSpaceOnUse"
       x1="17.196316"
       y1="1006.2238"
       x2="31.448042"
       y2="1030.9086" />
    <linearGradient
       inkscape:collect="always"
       xlink:href="#linearGradient3795"
       id="linearGradient3895"
       x1="21.973417"
       y1="34.43922"
       x2="42.475323"
       y2="24.798252"
       gradientUnits="userSpaceOnUse" />
    <linearGradient
       inkscape:collect="always"
       xlink:href="#linearGradient3708"
       id="linearGradient903"
       gradientUnits="userSpaceOnUse"
       gradientTransform="translate(0,-2056.7244)"
       x1="24.704165"
       y1="1004.3161"
       x2="24.704165"
       y2="1053.0974" />
  </defs>
  <sodipodi:namedview
     id="base"
     pagecolor="#ffffff"
     bordercolor="#666666"
     borderopacity="1.0"
     inkscape:pageopacity="0.0"
     inkscape:pageshadow="2"
     inkscape:zoom="5.6568545"
     inkscape:cx="40.943648"
     inkscape:cy="41.003546"
     inkscape:document-units="px"
     inkscape:current-layer="layer1"
     showgrid="false"
     inkscape:window-width="1366"
     inkscape:window-height="712"
     inkscape:window-x="0"
     inkscape:window-y="0"
     inkscape:window-maximized="1">
    <inkscape:grid
       type="xygrid"
       id="grid3850" />
  </sodipodi:namedview>
  <metadata
     id="metadata7">
    <rdf:RDF>
      <cc:Work
         rdf:about="">
        <dc:format>image/svg+xml</dc:format>
        <dc:type
           rdf:resource="http://purl.org/dc/dcmitype/StillImage" />
        <dc:title />
      </cc:Work>
    </rdf:RDF>
  </metadata>
  <g
     inkscape:label="Capa 1"
     inkscape:groupmode="layer"
     id="layer1"
     transform="translate(0,-1004.3622)">
    <rect
       transform="scale(1,-1)"
       ry="1.9445436"
       y="-1052.3622"
       x="2.4424907e-15"
       height="48"
       width="48"
       id="rect901"
       style="fill:url(#linearGradient903);fill-opacity:1;stroke:none" />
    <path
       style="fill:#ffffff;fill-opacity:1;stroke:none"
       d="M 4.6875 3 C 3.7448824 3 3 3.7448824 3 4.6875 L 3 43.3125 C 3 44.255118 3.7448824 45 4.6875 45 L 43.3125 45 C 44.255118 45 45 44.255118 45 43.3125 L 45 4.6875 C 45 3.7448824 44.255118 3 43.3125 3 L 4.6875 3 z M 7.46875 6 L 40.53125 6 C 41.339208 6 42 6.660792 42 7.46875 L 42 40.53125 C 42 41.339208 41.339208 42 40.53125 42 L 7.46875 42 C 6.660792 42 6 41.339208 6 40.53125 L 6 7.46875 C 6 6.660792 6.660792 6 7.46875 6 z "
       transform="translate(0,1004.3622)"
       id="rect2991" />
    <path
       style="fill:#ffffff;stroke:none;fill-opacity:1;opacity:0.15"
       d="M 0 0 L 0 48 L 16.78125 48 L 29.625 0 L 0 0 z "
       transform="translate(0,1004.3622)"
       id="rect3790" />
    <g
       id="g897"
       transform="matrix(0.56588241,0,0,0.56588241,-27.877289,446.05874)"
       style="fill:#ffffff;fill-opacity:1">
      <path
         id="path861"
         transform="translate(0,1004.3622)"
         d="m 80.75,19.84375 c -4.340924,2.597958 -7.25,7.354376 -7.25,12.78125 0,8.215235 6.659765,14.875 14.875,14.875 6.306803,0 11.71108,-3.928214 13.875,-9.46875 l -2.25,-3 C 98.892701,40.442487 94.113583,44.5 88.375,44.5 81.816619,44.5 76.5,39.183381 76.5,32.625 c 0,-3.657051 1.650266,-6.915417 4.25,-9.09375 L 80.75,19.84375 Z"
         style="fill:#ffffff;fill-opacity:1;stroke:none"
         inkscape:connector-curvature="0" />
      <path
         id="rect869"
         transform="translate(0,1004.3622)"
         d="m 86.0625,1.8125 c -2.278175,0 -4.125,1.8468254 -4.125,4.125 0,2.2781746 1.846825,4.125 4.125,4.125 2.278175,0 4.125,-1.8468254 4.125,-4.125 C 90.1875,3.6593254 88.340675,1.8125 86.0625,1.8125 z m 0.375,9.0625 c -2.319875,0 -4.378054,1.8754 -4.1875,4.1875 l 0.9375,11.375 c 0.190554,2.3121 1.867625,4.1875 4.1875,4.1875 0.200661,0 0.382337,-0.03547 0.5625,-0.0625 0.01058,1.05e-4 0.02064,0 0.03125,0 l 8.625,0 c 0.160151,0 0.315286,-0.008 0.46875,-0.03125 0.113555,0.01677 0.225388,0.03125 0.34375,0.03125 l 2.59375,0 5.4375,9.40625 c 0.65787,1.139473 2.07928,1.532875 3.21875,0.875 1.13947,-0.657875 1.53287,-2.110527 0.875,-3.25 L 102,24.53125 c -0.0351,-0.06077 -0.0856,-0.0998 -0.125,-0.15625 l -1.46875,0 -2.40625,0 -0.59375,0 c -0.118362,0 -0.230195,0.01448 -0.34375,0.03125 C 96.909036,24.383008 96.753901,24.375 96.59375,24.375 l -5.96875,0 0,-2.8125 7.0625,0 c 1.108,0 2,-0.892 2,-2 0,-1.108 -0.892,-2 -2,-2 l -7.0625,0 0,-2.5 C 90.625,12.7426 88.757375,10.875 86.4375,10.875 Z"
         style="fill:#ffffff;fill-opacity:1;stroke:none"
         inkscape:connector-curvature="0" />
    </g>
  </g>
</svg>
