<?xml version="1.0" encoding="UTF-8" standalone="no"?>
<!-- Created with Inkscape (http://www.inkscape.org/) -->

<svg
   xmlns:dc="http://purl.org/dc/elements/1.1/"
   xmlns:cc="http://creativecommons.org/ns#"
   xmlns:rdf="http://www.w3.org/1999/02/22-rdf-syntax-ns#"
   xmlns:svg="http://www.w3.org/2000/svg"
   xmlns="http://www.w3.org/2000/svg"
   xmlns:xlink="http://www.w3.org/1999/xlink"
   xmlns:sodipodi="http://sodipodi.sourceforge.net/DTD/sodipodi-0.dtd"
   xmlns:inkscape="http://www.inkscape.org/namespaces/inkscape"
   width="48"
   height="48"
   id="svg2"
   version="1.1"
   inkscape:version="0.48+devel r11717"
   sodipodi:docname="preferences-system-firewall.svg.svg">
  <defs
     id="defs4">
    <linearGradient
       id="linearGradient1036">
      <stop
         id="stop1038"
         offset="0"
         style="stop-color:#ffffff;stop-opacity:1" />
      <stop
         id="stop1040"
         offset="1"
         style="stop-color:#cccccc;stop-opacity:1" />
    </linearGradient>
    <linearGradient
       id="linearGradient915">
      <stop
         style="stop-color:#c85737;stop-opacity:1"
         offset="0"
         id="stop917" />
      <stop
         style="stop-color:#783421;stop-opacity:1"
         offset="1"
         id="stop919" />
    </linearGradient>
    <linearGradient
       id="linearGradient3795">
      <stop
         style="stop-color:#68b8d8;stop-opacity:1;"
         offset="0"
         id="stop3797" />
      <stop
         style="stop-color:#3097bd;stop-opacity:1;"
         offset="1"
         id="stop3799" />
    </linearGradient>
    <linearGradient
       id="linearGradient3698">
      <stop
         id="stop3700"
         offset="0"
         style="stop-color:#96d0e1;stop-opacity:1" />
      <stop
         style="stop-color:#89b7e1;stop-opacity:1"
         offset="0.67819428"
         id="stop3706" />
      <stop
         id="stop3702"
         offset="1"
         style="stop-color:#699dd3;stop-opacity:1" />
    </linearGradient>
    <linearGradient
       id="linearGradient3708">
      <stop
         id="stop3710"
         offset="0"
         style="stop-color:#658db6;stop-opacity:1" />
      <stop
         style="stop-color:#527fab;stop-opacity:1;"
         offset="0.76777935"
         id="stop3716" />
      <stop
         id="stop3712"
         offset="1"
         style="stop-color:#4071a0;stop-opacity:1" />
    </linearGradient>
    <linearGradient
       id="linearGradient3750">
      <stop
         style="stop-color:#d0e2f1;stop-opacity:1"
         offset="0"
         id="stop3752" />
      <stop
         id="stop3756"
         offset="0.85580856"
         style="stop-color:#cadef0;stop-opacity:1" />
      <stop
         style="stop-color:#95bee3;stop-opacity:1"
         offset="1"
         id="stop3754" />
    </linearGradient>
    <linearGradient
       id="linearGradient3803">
      <stop
         id="stop3805"
         offset="0"
         style="stop-color:#d7def0;stop-opacity:1;" />
      <stop
         style="stop-color:#ffffff;stop-opacity:1"
         offset="0.5"
         id="stop3811" />
      <stop
         id="stop3807"
         offset="1"
         style="stop-color:#d5def0;stop-opacity:1" />
    </linearGradient>
    <linearGradient
       inkscape:collect="always"
       xlink:href="#linearGradient1036"
       id="linearGradient3801"
       x1="23.204165"
       y1="1053.158"
       x2="23.204165"
       y2="1004.8474"
       gradientUnits="userSpaceOnUse"
       gradientTransform="translate(0,-2056.7244)" />
    <linearGradient
       inkscape:collect="always"
       xlink:href="#linearGradient3795"
       id="linearGradient3859"
       x1="26.192217"
       y1="1024.0002"
       x2="28.641211"
       y2="1024.0002"
       gradientUnits="userSpaceOnUse" />
    <linearGradient
       inkscape:collect="always"
       xlink:href="#linearGradient3795"
       id="linearGradient3867"
       gradientUnits="userSpaceOnUse"
       x1="26.192217"
       y1="1024.0002"
       x2="28.641211"
       y2="1024.0002" />
    <linearGradient
       inkscape:collect="always"
       xlink:href="#linearGradient3795"
       id="linearGradient3869"
       gradientUnits="userSpaceOnUse"
       x1="26.192217"
       y1="1024.0002"
       x2="28.641211"
       y2="1024.0002" />
    <linearGradient
       inkscape:collect="always"
       xlink:href="#linearGradient3795"
       id="linearGradient3871"
       gradientUnits="userSpaceOnUse"
       x1="26.192217"
       y1="1024.0002"
       x2="28.641211"
       y2="1024.0002" />
    <linearGradient
       inkscape:collect="always"
       xlink:href="#linearGradient3795"
       id="linearGradient3877"
       gradientUnits="userSpaceOnUse"
       x1="29.718235"
       y1="1027.8575"
       x2="22.811094"
       y2="1015.5485" />
    <linearGradient
       inkscape:collect="always"
       xlink:href="#linearGradient3795"
       id="linearGradient3879"
       gradientUnits="userSpaceOnUse"
       x1="17.196316"
       y1="1006.2238"
       x2="31.448042"
       y2="1030.9086" />
    <linearGradient
       inkscape:collect="always"
       xlink:href="#linearGradient3795"
       id="linearGradient3895"
       x1="21.973417"
       y1="34.43922"
       x2="42.475323"
       y2="24.798252"
       gradientUnits="userSpaceOnUse" />
    <linearGradient
       id="linearGradient861">
      <stop
         style="stop-color:#37c837;stop-opacity:1"
         offset="0"
         id="stop863" />
      <stop
         style="stop-color:#217821;stop-opacity:1"
         offset="1"
         id="stop865" />
    </linearGradient>
    <linearGradient
       id="linearGradient3795-3">
      <stop
         id="stop3797-5"
         offset="0"
         style="stop-color:#68b8d8;stop-opacity:1;" />
      <stop
         id="stop3799-2"
         offset="1"
         style="stop-color:#3097bd;stop-opacity:1;" />
    </linearGradient>
    <linearGradient
       id="linearGradient3698-2">
      <stop
         style="stop-color:#96d0e1;stop-opacity:1"
         offset="0"
         id="stop3700-5" />
      <stop
         id="stop3706-6"
         offset="0.67819428"
         style="stop-color:#89b7e1;stop-opacity:1" />
      <stop
         style="stop-color:#699dd3;stop-opacity:1"
         offset="1"
         id="stop3702-3" />
    </linearGradient>
    <linearGradient
       id="linearGradient3708-5">
      <stop
         style="stop-color:#658db6;stop-opacity:1"
         offset="0"
         id="stop3710-2" />
      <stop
         id="stop3716-0"
         offset="0.76777935"
         style="stop-color:#527fab;stop-opacity:1;" />
      <stop
         style="stop-color:#4071a0;stop-opacity:1"
         offset="1"
         id="stop3712-5" />
    </linearGradient>
    <linearGradient
       id="linearGradient3750-8">
      <stop
         id="stop3752-3"
         offset="0"
         style="stop-color:#d0e2f1;stop-opacity:1" />
      <stop
         style="stop-color:#cadef0;stop-opacity:1"
         offset="0.85580856"
         id="stop3756-4" />
      <stop
         id="stop3754-9"
         offset="1"
         style="stop-color:#95bee3;stop-opacity:1" />
    </linearGradient>
    <linearGradient
       id="linearGradient3803-5">
      <stop
         style="stop-color:#d7def0;stop-opacity:1;"
         offset="0"
         id="stop3805-7" />
      <stop
         id="stop3811-1"
         offset="0.5"
         style="stop-color:#ffffff;stop-opacity:1" />
      <stop
         style="stop-color:#d5def0;stop-opacity:1"
         offset="1"
         id="stop3807-2" />
    </linearGradient>
    <linearGradient
       gradientTransform="translate(0,-2056.7244)"
       gradientUnits="userSpaceOnUse"
       y2="1004.8474"
       x2="23.204165"
       y1="1053.158"
       x1="23.204165"
       id="linearGradient3801-6"
       xlink:href="#linearGradient3795-3"
       inkscape:collect="always" />
    <linearGradient
       gradientUnits="userSpaceOnUse"
       y2="1024.0002"
       x2="28.641211"
       y1="1024.0002"
       x1="26.192217"
       id="linearGradient3859-2"
       xlink:href="#linearGradient3795-3"
       inkscape:collect="always" />
    <linearGradient
       y2="1024.0002"
       x2="28.641211"
       y1="1024.0002"
       x1="26.192217"
       gradientUnits="userSpaceOnUse"
       id="linearGradient3867-0"
       xlink:href="#linearGradient3795-3"
       inkscape:collect="always" />
    <linearGradient
       y2="1024.0002"
       x2="28.641211"
       y1="1024.0002"
       x1="26.192217"
       gradientUnits="userSpaceOnUse"
       id="linearGradient3869-7"
       xlink:href="#linearGradient3795-3"
       inkscape:collect="always" />
    <linearGradient
       y2="1024.0002"
       x2="28.641211"
       y1="1024.0002"
       x1="26.192217"
       gradientUnits="userSpaceOnUse"
       id="linearGradient3871-7"
       xlink:href="#linearGradient3795-3"
       inkscape:collect="always" />
    <linearGradient
       y2="1015.5485"
       x2="22.811094"
       y1="1027.8575"
       x1="29.718235"
       gradientUnits="userSpaceOnUse"
       id="linearGradient3877-1"
       xlink:href="#linearGradient3795-3"
       inkscape:collect="always" />
    <linearGradient
       y2="1030.9086"
       x2="31.448042"
       y1="1006.2238"
       x1="17.196316"
       gradientUnits="userSpaceOnUse"
       id="linearGradient3879-6"
       xlink:href="#linearGradient3795-3"
       inkscape:collect="always" />
    <linearGradient
       gradientUnits="userSpaceOnUse"
       y2="24.798252"
       x2="42.475323"
       y1="34.43922"
       x1="21.973417"
       id="linearGradient3895-9"
       xlink:href="#linearGradient3795-3"
       inkscape:collect="always" />
    <linearGradient
       y2="1007.5135"
       x2="24.113745"
       y1="1049.2139"
       x1="24.113745"
       gradientTransform="matrix(0.96799712,0,0,1.0252613,604.84439,-419.13965)"
       gradientUnits="userSpaceOnUse"
       id="linearGradient3857"
       xlink:href="#linearGradient3895-8"
       inkscape:collect="always" />
    <linearGradient
       id="linearGradient3895-8">
      <stop
         style="stop-color:#e0880b;stop-opacity:1;"
         offset="0"
         id="stop3897" />
      <stop
         style="stop-color:#f7ce50;stop-opacity:1;"
         offset="1"
         id="stop3899" />
    </linearGradient>
    <linearGradient
       x1="48"
       y1="80"
       x2="48"
       y2="15.501938"
       id="linearGradient3915"
       xlink:href="#linearGradient3909"
       gradientUnits="userSpaceOnUse" />
    <linearGradient
       id="linearGradient3909">
      <stop
         id="stop3911"
         style="stop-color:#c6c3c6;stop-opacity:1"
         offset="0" />
      <stop
         id="stop3913"
         style="stop-color:#eae9ea;stop-opacity:1"
         offset="1" />
    </linearGradient>
    <linearGradient
       x1="387.5567"
       y1="527.42371"
       x2="387.5567"
       y2="513.37085"
       id="linearGradient4031"
       xlink:href="#linearGradient3909-6"
       gradientUnits="userSpaceOnUse"
       gradientTransform="matrix(1.7078361,0,0,1.7078361,-625.81554,-817.09227)" />
    <linearGradient
       id="linearGradient3909-6">
      <stop
         id="stop3911-4"
         style="stop-color:#c6c3c6;stop-opacity:1"
         offset="0" />
      <stop
         id="stop3913-5"
         style="stop-color:#eae9ea;stop-opacity:1"
         offset="1" />
    </linearGradient>
    <linearGradient
       y2="1004.8474"
       x2="23.204165"
       y1="1053.158"
       x1="23.204165"
       gradientTransform="matrix(1,0,0,-1,-1.2414551e-7,1052.3622)"
       gradientUnits="userSpaceOnUse"
       id="linearGradient944"
       xlink:href="#linearGradient895"
       inkscape:collect="always" />
    <linearGradient
       id="linearGradient895">
      <stop
         id="stop897"
         offset="0"
         style="stop-color:#6e96d1;stop-opacity:1" />
      <stop
         id="stop899"
         offset="1"
         style="stop-color:#435a7c;stop-opacity:1" />
    </linearGradient>
    <linearGradient
       gradientTransform="translate(-31.206215,999.40815)"
       x1="56"
       y1="64"
       x2="16"
       y2="64"
       id="linearGradient3716"
       xlink:href="#linearGradient3710"
       gradientUnits="userSpaceOnUse" />
    <linearGradient
       id="linearGradient3710">
      <stop
         id="stop3712-8"
         style="stop-color:#d9822e;stop-opacity:1"
         offset="0" />
      <stop
         id="stop3714"
         style="stop-color:#d9822e;stop-opacity:0"
         offset="1" />
    </linearGradient>
    <linearGradient
       inkscape:collect="always"
       xlink:href="#linearGradient915"
       id="linearGradient927"
       gradientUnits="userSpaceOnUse"
       gradientTransform="matrix(0.3174836,0,0,-0.19273422,-0.45502838,201.2354)"
       x1="82.262329"
       y1="1037.5925"
       x2="79.900002"
       y2="797.30774" />
  </defs>
  <sodipodi:namedview
     id="base"
     pagecolor="#ffffff"
     bordercolor="#666666"
     borderopacity="1.0"
     inkscape:pageopacity="0.0"
     inkscape:pageshadow="2"
     inkscape:zoom="4.0000002"
     inkscape:cx="8.2375103"
     inkscape:cy="48.919337"
     inkscape:document-units="px"
     inkscape:current-layer="layer1"
     showgrid="false"
     inkscape:window-width="1366"
     inkscape:window-height="746"
     inkscape:window-x="0"
     inkscape:window-y="0"
     inkscape:window-maximized="1">
    <inkscape:grid
       type="xygrid"
       id="grid3850" />
  </sodipodi:namedview>
  <metadata
     id="metadata7">
    <rdf:RDF>
      <cc:Work
         rdf:about="">
        <dc:format>image/svg+xml</dc:format>
        <dc:type
           rdf:resource="http://purl.org/dc/dcmitype/StillImage" />
        <dc:title></dc:title>
      </cc:Work>
    </rdf:RDF>
  </metadata>
  <g
     inkscape:label="Capa 1"
     inkscape:groupmode="layer"
     id="layer1"
     transform="translate(0,-1004.3622)">
    <rect
       style="fill:url(#linearGradient3801);fill-opacity:1.0;stroke:none"
       id="rect2991"
       width="48"
       height="48"
       x="0"
       y="-1052.3622"
       ry="1.9445436"
       transform="scale(1,-1)" />
    <path
       style="fill:url(#linearGradient927);fill-opacity:1;stroke:none"
       d="M 1.9375 0 C 0.86022285 0 0 0.86022285 0 1.9375 L 0 7.65625 L 14.40625 7.65625 C 14.613878 7.65625 14.78125 7.4888782 14.78125 7.28125 L 14.78125 0 L 1.9375 0 z M 16.25 0 L 16.25 7.28125 C 16.25 7.4888782 16.417372 7.65625 16.625 7.65625 L 31.125 7.65625 C 31.332628 7.65625 31.5 7.4888782 31.5 7.28125 L 31.5 0 L 16.25 0 z M 32.96875 0 L 32.96875 7.28125 C 32.96875 7.4888782 33.136122 7.65625 33.34375 7.65625 L 47.84375 7.65625 C 47.906038 7.65625 47.948418 7.6516671 48 7.625 L 48 1.9375 C 48 0.86022285 47.139777 0 46.0625 0 L 32.96875 0 z M 0 9.375 L 0 18.625 L 5.6875 18.625 C 5.8951282 18.625 6.03125 18.457628 6.03125 18.25 L 6.03125 9.75 C 6.03125 9.5423718 5.8951282 9.375 5.6875 9.375 L 0 9.375 z M 8.65625 9.375 C 8.4486218 9.375 8.28125 9.5423718 8.28125 9.75 L 8.28125 18.25 C 8.28125 18.457628 8.4486218 18.625 8.65625 18.625 L 23.15625 18.625 C 23.363878 18.625 23.53125 18.457628 23.53125 18.25 L 23.53125 9.75 C 23.53125 9.5423718 23.363878 9.375 23.15625 9.375 L 8.65625 9.375 z M 25.375 9.375 C 25.167372 9.375 25 9.5423718 25 9.75 L 25 18.25 C 25 18.457628 25.167372 18.625 25.375 18.625 L 39.84375 18.625 C 40.051378 18.625 40.21875 18.457628 40.21875 18.25 L 40.21875 9.75 C 40.21875 9.5423718 40.051378 9.375 39.84375 9.375 L 25.375 9.375 z M 42.34375 9.375 C 42.136122 9.375 41.96875 9.5423718 41.96875 9.75 L 41.96875 18.25 C 41.96875 18.457628 42.136122 18.625 42.34375 18.625 L 48 18.625 L 48 9.375 L 42.34375 9.375 z M 0 20.5625 L 0 29.8125 L 14.40625 29.8125 C 14.613878 29.8125 14.78125 29.645128 14.78125 29.4375 L 14.78125 20.9375 C 14.78125 20.729872 14.613878 20.5625 14.40625 20.5625 L 0 20.5625 z M 16.625 20.5625 C 16.417372 20.5625 16.25 20.729872 16.25 20.9375 L 16.25 29.4375 C 16.25 29.645128 16.417372 29.8125 16.625 29.8125 L 31.125 29.8125 C 31.332628 29.8125 31.5 29.645128 31.5 29.4375 L 31.5 20.9375 C 31.5 20.729872 31.332628 20.5625 31.125 20.5625 L 16.625 20.5625 z M 33.34375 20.5625 C 33.136122 20.5625 32.96875 20.729872 32.96875 20.9375 L 32.96875 29.4375 C 32.96875 29.645128 33.136122 29.8125 33.34375 29.8125 L 47.84375 29.8125 C 48.051378 29.8125 48.21875 29.645128 48.21875 29.4375 L 48.21875 20.9375 C 48.21875 20.729872 48.051378 20.5625 47.84375 20.5625 L 33.34375 20.5625 z M 0 31.53125 L 0 40.78125 L 5.6875 40.78125 C 5.8951282 40.78125 6.03125 40.613878 6.03125 40.40625 L 6.03125 31.90625 C 6.03125 31.698622 5.8951282 31.53125 5.6875 31.53125 L 0 31.53125 z M 8.65625 31.53125 C 8.4486218 31.53125 8.28125 31.698622 8.28125 31.90625 L 8.28125 40.40625 C 8.28125 40.613878 8.4486218 40.78125 8.65625 40.78125 L 23.15625 40.78125 C 23.363878 40.78125 23.53125 40.613878 23.53125 40.40625 L 23.53125 31.90625 C 23.53125 31.698622 23.363878 31.53125 23.15625 31.53125 L 8.65625 31.53125 z M 25.375 31.53125 C 25.167372 31.53125 25 31.698622 25 31.90625 L 25 40.40625 C 25 40.613878 25.167372 40.78125 25.375 40.78125 L 39.84375 40.78125 C 40.051378 40.78125 40.21875 40.613878 40.21875 40.40625 L 40.21875 31.90625 C 40.21875 31.698622 40.051378 31.53125 39.84375 31.53125 L 25.375 31.53125 z M 42.34375 31.53125 C 42.136122 31.53125 41.96875 31.698622 41.96875 31.90625 L 41.96875 40.40625 C 41.96875 40.613878 42.136122 40.78125 42.34375 40.78125 L 48 40.78125 L 48 31.53125 L 42.34375 31.53125 z M 0 42.09375 L 0 46.0625 C 0 47.139777 0.86022285 48 1.9375 48 L 14.78125 48 L 14.78125 42.46875 C 14.78125 42.261122 14.613878 42.09375 14.40625 42.09375 L 0 42.09375 z M 16.625 42.09375 C 16.417372 42.09375 16.25 42.261122 16.25 42.46875 L 16.25 48 L 31.5 48 L 31.5 42.46875 C 31.5 42.261122 31.332628 42.09375 31.125 42.09375 L 16.625 42.09375 z M 33.34375 42.09375 C 33.136122 42.09375 32.96875 42.261122 32.96875 42.46875 L 32.96875 48 L 46.0625 48 C 47.139777 48 48 47.139777 48 46.0625 L 48 42.15625 C 47.945999 42.126168 47.910191 42.09375 47.84375 42.09375 L 33.34375 42.09375 z "
       transform="translate(0,1004.3622)"
       id="rect925" />
    <path
       style="fill:#ffffff;stroke:none;fill-opacity:1;opacity:0.15"
       d="M 0 0 L 0 48 L 16.78125 48 L 29.625 0 L 0 0 z "
       transform="translate(0,1004.3622)"
       id="rect3790" />
  </g>
</svg>
