<?xml version="1.0" encoding="UTF-8" standalone="no"?>
<!-- Created with Inkscape (http://www.inkscape.org/) -->

<svg
   xmlns:dc="http://purl.org/dc/elements/1.1/"
   xmlns:cc="http://creativecommons.org/ns#"
   xmlns:rdf="http://www.w3.org/1999/02/22-rdf-syntax-ns#"
   xmlns:svg="http://www.w3.org/2000/svg"
   xmlns="http://www.w3.org/2000/svg"
   xmlns:xlink="http://www.w3.org/1999/xlink"
   xmlns:sodipodi="http://sodipodi.sourceforge.net/DTD/sodipodi-0.dtd"
   xmlns:inkscape="http://www.inkscape.org/namespaces/inkscape"
   width="48"
   height="48"
   id="svg2"
   version="1.1"
   inkscape:version="0.48.2 r9819"
   sodipodi:docname="accessories-calculator.svg">
  <defs
     id="defs4">
    <linearGradient
       id="linearGradient3828">
      <stop
         style="stop-color:#000000;stop-opacity:1;"
         offset="0"
         id="stop3830" />
      <stop
         style="stop-color:#ffffff;stop-opacity:1;"
         offset="1"
         id="stop3832" />
    </linearGradient>
    <linearGradient
       id="linearGradient3795">
      <stop
         style="stop-color:#52a2cc;stop-opacity:1;"
         offset="0"
         id="stop3797" />
      <stop
         style="stop-color:#59b3e1;stop-opacity:1;"
         offset="1"
         id="stop3799" />
    </linearGradient>
    <linearGradient
       inkscape:collect="always"
       id="linearGradient3914">
      <stop
         style="stop-color:#59b3e1;stop-opacity:1;"
         offset="0"
         id="stop3916" />
      <stop
         style="stop-color:#59b3e1;stop-opacity:0;"
         offset="1"
         id="stop3918" />
    </linearGradient>
    <linearGradient
       id="linearGradient3698">
      <stop
         id="stop3700"
         offset="0"
         style="stop-color:#96d0e1;stop-opacity:1" />
      <stop
         style="stop-color:#89b7e1;stop-opacity:1"
         offset="0.67819428"
         id="stop3706" />
      <stop
         id="stop3702"
         offset="1"
         style="stop-color:#699dd3;stop-opacity:1" />
    </linearGradient>
    <linearGradient
       id="linearGradient3708">
      <stop
         id="stop3710"
         offset="0"
         style="stop-color:#b5b5b5;stop-opacity:1;" />
      <stop
         id="stop3712"
         offset="1"
         style="stop-color:#ffffff;stop-opacity:1;" />
    </linearGradient>
    <linearGradient
       id="linearGradient3750">
      <stop
         style="stop-color:#d0e2f1;stop-opacity:1"
         offset="0"
         id="stop3752" />
      <stop
         id="stop3756"
         offset="0.85580856"
         style="stop-color:#cadef0;stop-opacity:1" />
      <stop
         style="stop-color:#95bee3;stop-opacity:1"
         offset="1"
         id="stop3754" />
    </linearGradient>
    <linearGradient
       id="linearGradient3803">
      <stop
         id="stop3805"
         offset="0"
         style="stop-color:#d7def0;stop-opacity:1;" />
      <stop
         style="stop-color:#ffffff;stop-opacity:1"
         offset="0.5"
         id="stop3811" />
      <stop
         id="stop3807"
         offset="1"
         style="stop-color:#d5def0;stop-opacity:1" />
    </linearGradient>
    <linearGradient
       inkscape:collect="always"
       xlink:href="#linearGradient3914"
       id="linearGradient3920"
       x1="6.8000002"
       y1="25.0625"
       x2="45.325001"
       y2="25.0625"
       gradientUnits="userSpaceOnUse" />
    <linearGradient
       inkscape:collect="always"
       xlink:href="#linearGradient3708"
       id="linearGradient3801"
       x1="23.204165"
       y1="1053.158"
       x2="23.204165"
       y2="1004.8474"
       gradientUnits="userSpaceOnUse" />
    <linearGradient
       inkscape:collect="always"
       xlink:href="#linearGradient3795"
       id="linearGradient3808"
       x1="14.772043"
       y1="1022.6282"
       x2="22.473551"
       y2="1022.6282"
       gradientUnits="userSpaceOnUse"
       gradientTransform="translate(-0.19126339,-0.01120898)" />
    <linearGradient
       inkscape:collect="always"
       xlink:href="#linearGradient3795"
       id="linearGradient3814"
       gradientUnits="userSpaceOnUse"
       x1="14.772043"
       y1="1022.6282"
       x2="22.473551"
       y2="1022.6282"
       gradientTransform="translate(-720.99931,-278.79005)" />
    <linearGradient
       inkscape:collect="always"
       xlink:href="#linearGradient3795"
       id="linearGradient3820"
       gradientUnits="userSpaceOnUse"
       x1="14.772043"
       y1="1022.6282"
       x2="22.473551"
       y2="1022.6282"
       gradientTransform="translate(3.1805569,11.087074)" />
    <linearGradient
       inkscape:collect="always"
       xlink:href="#linearGradient3795"
       id="linearGradient3826"
       gradientUnits="userSpaceOnUse"
       gradientTransform="translate(13.144228,14.539274)"
       x1="14.772043"
       y1="1022.6282"
       x2="22.473551"
       y2="1022.6282" />
    <linearGradient
       inkscape:collect="always"
       xlink:href="#linearGradient3708"
       id="linearGradient3874"
       gradientUnits="userSpaceOnUse"
       gradientTransform="translate(-0.19126339,-0.01120898)"
       x1="14.772043"
       y1="1022.6282"
       x2="22.473551"
       y2="1022.6282" />
    <linearGradient
       inkscape:collect="always"
       xlink:href="#linearGradient3708"
       id="linearGradient3876"
       gradientUnits="userSpaceOnUse"
       gradientTransform="translate(-720.99931,-278.79005)"
       x1="14.772043"
       y1="1022.6282"
       x2="22.473551"
       y2="1022.6282" />
    <linearGradient
       inkscape:collect="always"
       xlink:href="#linearGradient3708"
       id="linearGradient3878"
       gradientUnits="userSpaceOnUse"
       gradientTransform="translate(3.1805569,11.087074)"
       x1="14.772043"
       y1="1022.6282"
       x2="22.473551"
       y2="1022.6282" />
    <linearGradient
       inkscape:collect="always"
       xlink:href="#linearGradient3708"
       id="linearGradient3880"
       gradientUnits="userSpaceOnUse"
       gradientTransform="translate(13.144228,14.539274)"
       x1="14.772043"
       y1="1022.6282"
       x2="22.473551"
       y2="1022.6282" />
    <linearGradient
       inkscape:collect="always"
       xlink:href="#linearGradient3828"
       id="linearGradient3834"
       x1="24.492996"
       y1="1034.1074"
       x2="34.643936"
       y2="1034.1074"
       gradientUnits="userSpaceOnUse" />
    <linearGradient
       inkscape:collect="always"
       xlink:href="#linearGradient3828"
       id="linearGradient3838"
       gradientUnits="userSpaceOnUse"
       x1="24.492996"
       y1="1034.1074"
       x2="34.643936"
       y2="1034.1074" />
    <linearGradient
       inkscape:collect="always"
       xlink:href="#linearGradient3828"
       id="linearGradient3845"
       gradientUnits="userSpaceOnUse"
       x1="29.638937"
       y1="1041.6244"
       x2="29.638937"
       y2="1018.3306"
       gradientTransform="translate(21.664028,17.330677)" />
    <linearGradient
       inkscape:collect="always"
       xlink:href="#linearGradient3708"
       id="linearGradient3854"
       gradientUnits="userSpaceOnUse"
       gradientTransform="translate(3.1805569,11.087074)"
       x1="14.772043"
       y1="1022.6282"
       x2="22.473551"
       y2="1022.6282" />
    <linearGradient
       inkscape:collect="always"
       xlink:href="#linearGradient3708"
       id="linearGradient3860"
       gradientUnits="userSpaceOnUse"
       gradientTransform="translate(3.1805569,11.087074)"
       x1="14.772043"
       y1="1022.6282"
       x2="22.473551"
       y2="1022.6282" />
    <linearGradient
       inkscape:collect="always"
       xlink:href="#linearGradient3708"
       id="linearGradient3864"
       gradientUnits="userSpaceOnUse"
       gradientTransform="translate(22.594585,21.292751)"
       x1="14.772043"
       y1="1022.6282"
       x2="22.473551"
       y2="1022.6282" />
    <linearGradient
       inkscape:collect="always"
       xlink:href="#linearGradient3828"
       id="linearGradient3873"
       x1="33.07259"
       y1="1044.3131"
       x2="42.61853"
       y2="1044.3131"
       gradientUnits="userSpaceOnUse" />
    <linearGradient
       inkscape:collect="always"
       xlink:href="#linearGradient3828"
       id="linearGradient3877"
       gradientUnits="userSpaceOnUse"
       gradientTransform="translate(21.664028,28.114055)"
       x1="29.638937"
       y1="1041.6244"
       x2="29.638937"
       y2="1018.3306" />
    <linearGradient
       inkscape:collect="always"
       xlink:href="#linearGradient3828"
       id="linearGradient3892"
       gradientUnits="userSpaceOnUse"
       gradientTransform="translate(21.664028,28.114055)"
       x1="29.638937"
       y1="1041.6244"
       x2="29.638937"
       y2="1018.3306" />
    <linearGradient
       inkscape:collect="always"
       xlink:href="#linearGradient3828"
       id="linearGradient3899"
       gradientUnits="userSpaceOnUse"
       gradientTransform="translate(21.664028,17.330677)"
       x1="29.638937"
       y1="1041.6244"
       x2="29.638937"
       y2="1018.3306" />
    <linearGradient
       inkscape:collect="always"
       xlink:href="#linearGradient3828"
       id="linearGradient3909"
       gradientUnits="userSpaceOnUse"
       gradientTransform="translate(21.664028,17.330677)"
       x1="29.638937"
       y1="1041.6244"
       x2="29.638937"
       y2="1018.3306" />
    <linearGradient
       inkscape:collect="always"
       xlink:href="#linearGradient3828"
       id="linearGradient3915"
       gradientUnits="userSpaceOnUse"
       gradientTransform="translate(22.302216,18.515715)"
       x1="29.638937"
       y1="1041.6244"
       x2="29.638937"
       y2="1018.3306" />
    <linearGradient
       inkscape:collect="always"
       xlink:href="#linearGradient3828"
       id="linearGradient3922"
       gradientUnits="userSpaceOnUse"
       gradientTransform="translate(22.302216,18.515715)"
       x1="29.638937"
       y1="1041.6244"
       x2="29.638937"
       y2="1018.3306" />
    <linearGradient
       inkscape:collect="always"
       xlink:href="#linearGradient3828"
       id="linearGradient3932"
       gradientUnits="userSpaceOnUse"
       gradientTransform="translate(21.664028,17.330677)"
       x1="29.638937"
       y1="1041.6244"
       x2="29.638937"
       y2="1018.3306" />
    <linearGradient
       inkscape:collect="always"
       xlink:href="#linearGradient3828"
       id="linearGradient3937"
       gradientUnits="userSpaceOnUse"
       gradientTransform="translate(32.261074,7.5348397)"
       x1="29.638937"
       y1="1041.6244"
       x2="29.638937"
       y2="1018.3306" />
    <linearGradient
       inkscape:collect="always"
       xlink:href="#linearGradient3828"
       id="linearGradient3944"
       gradientUnits="userSpaceOnUse"
       gradientTransform="translate(32.261074,7.5348397)"
       x1="29.638937"
       y1="1041.6244"
       x2="29.638937"
       y2="1018.3306" />
    <linearGradient
       inkscape:collect="always"
       xlink:href="#linearGradient3828"
       id="linearGradient3949"
       gradientUnits="userSpaceOnUse"
       gradientTransform="translate(32.261074,7.5348397)"
       x1="29.638937"
       y1="1041.6244"
       x2="29.638937"
       y2="1018.3306" />
    <linearGradient
       inkscape:collect="always"
       xlink:href="#linearGradient3828"
       id="linearGradient3956"
       gradientUnits="userSpaceOnUse"
       gradientTransform="translate(32.261074,7.5348397)"
       x1="29.638937"
       y1="1041.6244"
       x2="29.638937"
       y2="1018.3306" />
    <linearGradient
       inkscape:collect="always"
       xlink:href="#linearGradient3828"
       id="linearGradient3976"
       gradientUnits="userSpaceOnUse"
       gradientTransform="translate(22.302216,18.515715)"
       x1="29.638937"
       y1="1041.6244"
       x2="29.638937"
       y2="1018.3306" />
    <linearGradient
       inkscape:collect="always"
       xlink:href="#linearGradient3828"
       id="linearGradient3978"
       gradientUnits="userSpaceOnUse"
       gradientTransform="translate(21.664028,28.114055)"
       x1="29.638937"
       y1="1041.6244"
       x2="29.638937"
       y2="1018.3306" />
    <linearGradient
       inkscape:collect="always"
       xlink:href="#linearGradient3828"
       id="linearGradient3980"
       gradientUnits="userSpaceOnUse"
       gradientTransform="translate(21.664028,17.330677)"
       x1="29.638937"
       y1="1041.6244"
       x2="29.638937"
       y2="1018.3306" />
    <linearGradient
       inkscape:collect="always"
       xlink:href="#linearGradient3828"
       id="linearGradient3982"
       gradientUnits="userSpaceOnUse"
       gradientTransform="translate(32.261074,7.5348397)"
       x1="29.638937"
       y1="1041.6244"
       x2="29.638937"
       y2="1018.3306" />
    <linearGradient
       inkscape:collect="always"
       xlink:href="#linearGradient3828"
       id="linearGradient3073"
       gradientUnits="userSpaceOnUse"
       gradientTransform="translate(32.261074,7.5348397)"
       x1="29.638937"
       y1="1041.6244"
       x2="29.638937"
       y2="1018.3306" />
    <linearGradient
       inkscape:collect="always"
       xlink:href="#linearGradient3828"
       id="linearGradient3080"
       gradientUnits="userSpaceOnUse"
       gradientTransform="translate(21.664028,17.330677)"
       x1="29.638937"
       y1="1041.6244"
       x2="29.638937"
       y2="1018.3306" />
    <linearGradient
       inkscape:collect="always"
       xlink:href="#linearGradient3828"
       id="linearGradient3087"
       gradientUnits="userSpaceOnUse"
       gradientTransform="translate(21.664028,28.114055)"
       x1="29.638937"
       y1="1041.6244"
       x2="29.638937"
       y2="1018.3306" />
    <linearGradient
       inkscape:collect="always"
       xlink:href="#linearGradient3828"
       id="linearGradient3094"
       gradientUnits="userSpaceOnUse"
       gradientTransform="translate(22.302216,18.515715)"
       x1="29.638937"
       y1="1041.6244"
       x2="29.638937"
       y2="1018.3306" />
  </defs>
  <sodipodi:namedview
     id="base"
     pagecolor="#ffffff"
     bordercolor="#666666"
     borderopacity="1.0"
     inkscape:pageopacity="0.0"
     inkscape:pageshadow="2"
     inkscape:zoom="5.6568543"
     inkscape:cx="34.855533"
     inkscape:cy="17.615149"
     inkscape:document-units="px"
     inkscape:current-layer="layer1"
     showgrid="false"
     inkscape:window-width="1278"
     inkscape:window-height="655"
     inkscape:window-x="0"
     inkscape:window-y="0"
     inkscape:window-maximized="1" />
  <metadata
     id="metadata7">
    <rdf:RDF>
      <cc:Work
         rdf:about="">
        <dc:format>image/svg+xml</dc:format>
        <dc:type
           rdf:resource="http://purl.org/dc/dcmitype/StillImage" />
        <dc:title />
      </cc:Work>
    </rdf:RDF>
  </metadata>
  <g
     inkscape:label="Capa 1"
     inkscape:groupmode="layer"
     id="layer1"
     transform="translate(0,-1004.3622)">
    <rect
       style="fill:url(#linearGradient3801);fill-opacity:1.0;stroke:none"
       id="rect2991"
       width="48"
       height="48"
       x="0"
       y="1004.3622"
       ry="1.9445436" />
    <g
       id="g3147">
      <rect
         ry="0"
         y="1028.8032"
         x="14.088052"
         height="9.5459414"
         width="9.5459414"
         id="rect3022"
         style="fill:#4d4d4d;fill-opacity:1;stroke:none" />
      <g
         id="g3120">
        <path
           style="fill:none;stroke:#999999;stroke-width:1px;stroke-linecap:butt;stroke-linejoin:miter;stroke-opacity:1"
           d="m 15.546459,1033.5762 6.629126,0"
           id="path3101"
           inkscape:connector-curvature="0" />
        <path
           inkscape:connector-curvature="0"
           id="path3103"
           d="m 18.861022,1036.8907 0,-6.6291"
           style="fill:none;stroke:#999999;stroke-width:1px;stroke-linecap:butt;stroke-linejoin:miter;stroke-opacity:1" />
      </g>
    </g>
    <g
       id="g3143">
      <rect
         style="fill:#4d4d4d;fill-opacity:1;stroke:none"
         id="rect3875"
         width="9.5459414"
         height="9.5459414"
         x="24.366007"
         y="1028.8032"
         ry="0" />
      <path
         style="fill:none;stroke:#999999;stroke-width:1px;stroke-linecap:butt;stroke-linejoin:miter;stroke-opacity:1"
         d="m 25.824415,1033.5762 6.629126,0"
         id="path3105"
         inkscape:connector-curvature="0" />
    </g>
    <g
       id="g3136">
      <rect
         ry="0"
         y="1018.3752"
         x="24.366007"
         height="9.5459414"
         width="9.5459414"
         id="rect3926"
         style="fill:#4d4d4d;fill-opacity:1;stroke:none" />
      <g
         transform="translate(0,0.35185219)"
         id="g3113">
        <path
           style="fill:none;stroke:#999999;stroke-width:1px;stroke-linecap:butt;stroke-linejoin:miter;stroke-opacity:1"
           d="m 25.824415,1023.1464 6.629126,0"
           id="path3107"
           inkscape:connector-curvature="0" />
        <path
           sodipodi:type="arc"
           style="fill:#4d4d4d;fill-opacity:1;stroke:#999999;stroke-width:2;stroke-linecap:round;stroke-linejoin:round;stroke-miterlimit:4;stroke-opacity:1;stroke-dasharray:none"
           id="path3109"
           sodipodi:cx="28.59363"
           sodipodi:cy="16.136002"
           sodipodi:rx="0.044194173"
           sodipodi:ry="0.044194173"
           d="m 28.637824,16.136002 c 0,0.02441 -0.01979,0.04419 -0.04419,0.04419 -0.02441,0 -0.04419,-0.01979 -0.04419,-0.04419 0,-0.02441 0.01979,-0.0442 0.04419,-0.0442 0.02441,0 0.04419,0.01979 0.04419,0.0442 z"
           transform="translate(0.54534769,1004.3622)" />
        <path
           transform="translate(0.54534769,1008.9584)"
           d="m 28.637824,16.136002 c 0,0.02441 -0.01979,0.04419 -0.04419,0.04419 -0.02441,0 -0.04419,-0.01979 -0.04419,-0.04419 0,-0.02441 0.01979,-0.0442 0.04419,-0.0442 0.02441,0 0.04419,0.01979 0.04419,0.0442 z"
           sodipodi:ry="0.044194173"
           sodipodi:rx="0.044194173"
           sodipodi:cy="16.136002"
           sodipodi:cx="28.59363"
           id="path3111"
           style="fill:#4d4d4d;fill-opacity:1;stroke:#999999;stroke-width:2;stroke-linecap:round;stroke-linejoin:round;stroke-miterlimit:4;stroke-opacity:1;stroke-dasharray:none"
           sodipodi:type="arc" />
      </g>
    </g>
    <g
       id="g3130">
      <rect
         style="fill:#4d4d4d;fill-opacity:1;stroke:none"
         id="rect3903"
         width="9.5459414"
         height="9.5459414"
         x="14.088052"
         y="1018.3752"
         ry="0" />
      <g
         transform="matrix(0.70710678,-0.70710678,0.70710678,0.70710678,-725.32446,305.63618)"
         id="g3124">
        <path
           inkscape:connector-curvature="0"
           id="path3126"
           d="m 15.546459,1033.5762 6.629126,0"
           style="fill:none;stroke:#999999;stroke-width:1px;stroke-linecap:butt;stroke-linejoin:miter;stroke-opacity:1" />
        <path
           style="fill:none;stroke:#999999;stroke-width:1px;stroke-linecap:butt;stroke-linejoin:miter;stroke-opacity:1"
           d="m 18.861022,1036.8907 0,-6.6291"
           id="path3128"
           inkscape:connector-curvature="0" />
      </g>
    </g>
    <path
       style="fill:#ffffff;stroke:none;fill-opacity:1;opacity:0.15"
       d="M 0 0 L 0 48 L 16.78125 48 L 29.625 0 L 0 0 z "
       id="rect3790"
       transform="translate(0,1004.3622)" />
  </g>
</svg>
