<?xml version="1.0" encoding="UTF-8" standalone="no"?>
<!-- Created with Inkscape (http://www.inkscape.org/) -->

<svg
   xmlns:dc="http://purl.org/dc/elements/1.1/"
   xmlns:cc="http://creativecommons.org/ns#"
   xmlns:rdf="http://www.w3.org/1999/02/22-rdf-syntax-ns#"
   xmlns:svg="http://www.w3.org/2000/svg"
   xmlns="http://www.w3.org/2000/svg"
   xmlns:xlink="http://www.w3.org/1999/xlink"
   xmlns:sodipodi="http://sodipodi.sourceforge.net/DTD/sodipodi-0.dtd"
   xmlns:inkscape="http://www.inkscape.org/namespaces/inkscape"
   width="48"
   height="48"
   id="svg2"
   version="1.1"
   inkscape:version="0.48+devel r11731"
   sodipodi:docname="library-internet-radio.svg">
  <defs
     id="defs4">
    <linearGradient
       inkscape:collect="always"
       id="linearGradient3994">
      <stop
         style="stop-color:#ffffff;stop-opacity:1;"
         offset="0"
         id="stop3996" />
      <stop
         style="stop-color:#ffffff;stop-opacity:0;"
         offset="1"
         id="stop3998" />
    </linearGradient>
    <linearGradient
       inkscape:collect="always"
       id="linearGradient3986">
      <stop
         style="stop-color:#ffffff;stop-opacity:1;"
         offset="0"
         id="stop3988" />
      <stop
         style="stop-color:#ffffff;stop-opacity:0;"
         offset="1"
         id="stop3990" />
    </linearGradient>
    <linearGradient
       id="linearGradient3913">
      <stop
         style="stop-color:#ffffff;stop-opacity:1;"
         offset="0"
         id="stop3915" />
      <stop
         style="stop-color:#ffffff;stop-opacity:0;"
         offset="1"
         id="stop3917" />
    </linearGradient>
    <linearGradient
       id="linearGradient3810">
      <stop
         id="stop3812"
         offset="0"
         style="stop-color:#a6a6a6;stop-opacity:1;" />
      <stop
         id="stop3815"
         offset="1"
         style="stop-color:#ededed;stop-opacity:1;" />
    </linearGradient>
    <linearGradient
       id="linearGradient3802">
      <stop
         style="stop-color:#78b7e0;stop-opacity:0.18085106;"
         offset="0"
         id="stop3804" />
      <stop
         style="stop-color:#29789d;stop-opacity:1;"
         offset="1"
         id="stop3808" />
    </linearGradient>
    <linearGradient
       id="linearGradient3812">
      <stop
         style="stop-color:#ffffff;stop-opacity:1;"
         offset="0"
         id="stop3814" />
      <stop
         style="stop-color:#ffffff;stop-opacity:0;"
         offset="1"
         id="stop3816" />
    </linearGradient>
    <linearGradient
       id="linearGradient3795">
      <stop
         style="stop-color:#546a74;stop-opacity:1;"
         offset="0"
         id="stop3797" />
      <stop
         style="stop-color:#507081;stop-opacity:1;"
         offset="1"
         id="stop3799" />
    </linearGradient>
    <linearGradient
       id="linearGradient3698">
      <stop
         id="stop3700"
         offset="0"
         style="stop-color:#96d0e1;stop-opacity:1" />
      <stop
         style="stop-color:#89b7e1;stop-opacity:1"
         offset="0.67819428"
         id="stop3706" />
      <stop
         id="stop3702"
         offset="1"
         style="stop-color:#699dd3;stop-opacity:1" />
    </linearGradient>
    <linearGradient
       id="linearGradient3708">
      <stop
         id="stop3710"
         offset="0"
         style="stop-color:#658db6;stop-opacity:1" />
      <stop
         style="stop-color:#527fab;stop-opacity:1;"
         offset="0.76777935"
         id="stop3716" />
      <stop
         id="stop3712"
         offset="1"
         style="stop-color:#4071a0;stop-opacity:1" />
    </linearGradient>
    <linearGradient
       id="linearGradient3750">
      <stop
         style="stop-color:#d0e2f1;stop-opacity:1"
         offset="0"
         id="stop3752" />
      <stop
         id="stop3756"
         offset="0.85580856"
         style="stop-color:#cadef0;stop-opacity:1" />
      <stop
         style="stop-color:#95bee3;stop-opacity:1"
         offset="1"
         id="stop3754" />
    </linearGradient>
    <linearGradient
       id="linearGradient3803">
      <stop
         id="stop3805"
         offset="0"
         style="stop-color:#ff0010;stop-opacity:1;" />
      <stop
         id="stop3807"
         offset="1"
         style="stop-color:#7a0d00;stop-opacity:1;" />
    </linearGradient>
    <linearGradient
       inkscape:collect="always"
       xlink:href="#linearGradient3802"
       id="linearGradient3031"
       gradientUnits="userSpaceOnUse"
       x1="23.204165"
       y1="1067.9232"
       x2="23.204165"
       y2="1016.5837"
       gradientTransform="matrix(0.97916667,0,0,0.69791667,-58.312499,330.18281)" />
    <linearGradient
       inkscape:collect="always"
       xlink:href="#linearGradient3810"
       id="linearGradient3817"
       gradientUnits="userSpaceOnUse"
       gradientTransform="translate(-58.812499,25.749974)"
       x1="23.204165"
       y1="1053.158"
       x2="23.204165"
       y2="1028.1819" />
    <linearGradient
       inkscape:collect="always"
       xlink:href="#linearGradient3913"
       id="linearGradient3919"
       x1="-37.537502"
       y1="1069.4266"
       x2="-37.537502"
       y2="1114.5458"
       gradientUnits="userSpaceOnUse" />
    <linearGradient
       inkscape:collect="always"
       xlink:href="#linearGradient3913"
       id="linearGradient3921"
       gradientUnits="userSpaceOnUse"
       x1="-37.537502"
       y1="1069.4266"
       x2="-37.537502"
       y2="1136.6122" />
    <linearGradient
       inkscape:collect="always"
       xlink:href="#linearGradient3913"
       id="linearGradient3923"
       gradientUnits="userSpaceOnUse"
       x1="-37.537502"
       y1="1069.4266"
       x2="-37.537502"
       y2="1136.6122" />
    <linearGradient
       inkscape:collect="always"
       xlink:href="#linearGradient3913"
       id="linearGradient3925"
       gradientUnits="userSpaceOnUse"
       x1="-37.537502"
       y1="1069.4266"
       x2="-37.537502"
       y2="1136.6122" />
    <linearGradient
       inkscape:collect="always"
       xlink:href="#linearGradient3913"
       id="linearGradient3927"
       gradientUnits="userSpaceOnUse"
       x1="-37.537502"
       y1="1069.4266"
       x2="-37.537502"
       y2="1136.6122" />
    <linearGradient
       inkscape:collect="always"
       xlink:href="#linearGradient3913"
       id="linearGradient3929"
       gradientUnits="userSpaceOnUse"
       x1="-37.537502"
       y1="1069.4266"
       x2="-37.537502"
       y2="1136.6122" />
    <linearGradient
       inkscape:collect="always"
       xlink:href="#linearGradient3913"
       id="linearGradient3931"
       gradientUnits="userSpaceOnUse"
       x1="-37.537502"
       y1="1069.4266"
       x2="-37.537502"
       y2="1136.6122" />
    <linearGradient
       inkscape:collect="always"
       xlink:href="#linearGradient3913"
       id="linearGradient3933"
       gradientUnits="userSpaceOnUse"
       x1="-37.537502"
       y1="1069.4266"
       x2="-37.537502"
       y2="1136.6122" />
    <linearGradient
       inkscape:collect="always"
       xlink:href="#linearGradient3913"
       id="linearGradient3935"
       gradientUnits="userSpaceOnUse"
       x1="-37.537502"
       y1="1069.4266"
       x2="-37.537502"
       y2="1136.6122" />
    <linearGradient
       inkscape:collect="always"
       xlink:href="#linearGradient3913"
       id="linearGradient3937"
       gradientUnits="userSpaceOnUse"
       x1="-37.537502"
       y1="1069.4266"
       x2="-37.537502"
       y2="1136.6122" />
    <linearGradient
       inkscape:collect="always"
       xlink:href="#linearGradient3913"
       id="linearGradient3939"
       gradientUnits="userSpaceOnUse"
       x1="-37.537502"
       y1="1069.4266"
       x2="-37.537502"
       y2="1136.6122" />
    <linearGradient
       inkscape:collect="always"
       xlink:href="#linearGradient3913"
       id="linearGradient3941"
       gradientUnits="userSpaceOnUse"
       x1="-37.537502"
       y1="1069.4266"
       x2="-37.537502"
       y2="1136.6122" />
    <linearGradient
       inkscape:collect="always"
       xlink:href="#linearGradient3913"
       id="linearGradient3943"
       gradientUnits="userSpaceOnUse"
       x1="-37.537502"
       y1="1069.4266"
       x2="-37.537502"
       y2="1136.6122" />
    <linearGradient
       inkscape:collect="always"
       xlink:href="#linearGradient3913"
       id="linearGradient3945"
       gradientUnits="userSpaceOnUse"
       x1="-37.537502"
       y1="1069.4266"
       x2="-37.537502"
       y2="1136.6122" />
    <linearGradient
       inkscape:collect="always"
       xlink:href="#linearGradient3913"
       id="linearGradient3947"
       gradientUnits="userSpaceOnUse"
       x1="-37.537502"
       y1="1069.4266"
       x2="-37.537502"
       y2="1136.6122" />
    <linearGradient
       inkscape:collect="always"
       xlink:href="#linearGradient3913"
       id="linearGradient3949"
       gradientUnits="userSpaceOnUse"
       x1="-37.537502"
       y1="1069.4266"
       x2="-37.537502"
       y2="1136.6122" />
    <linearGradient
       inkscape:collect="always"
       xlink:href="#linearGradient3986"
       id="linearGradient3992"
       x1="-38.221783"
       y1="1091.3234"
       x2="-38.221783"
       y2="1121.6769"
       gradientUnits="userSpaceOnUse" />
    <linearGradient
       inkscape:collect="always"
       xlink:href="#linearGradient3994"
       id="linearGradient4000"
       x1="-35.81879"
       y1="1012.3944"
       x2="-35.81879"
       y2="1125.3542"
       gradientUnits="userSpaceOnUse" />
    <radialGradient
       inkscape:collect="always"
       xlink:href="#linearGradient3812"
       id="radialGradient4004"
       gradientUnits="userSpaceOnUse"
       gradientTransform="matrix(0.90456736,0,0,2.3361402,-56.522116,-1354.504)"
       cx="24"
       cy="1028.3621"
       fx="24"
       fy="1028.3621"
       r="16.179441" />
    <linearGradient
       inkscape:collect="always"
       xlink:href="#linearGradient3986"
       id="linearGradient4047"
       gradientUnits="userSpaceOnUse"
       x1="-38.221783"
       y1="1091.3234"
       x2="-38.221783"
       y2="1121.6769" />
    <linearGradient
       inkscape:collect="always"
       xlink:href="#linearGradient3986"
       id="linearGradient4049"
       gradientUnits="userSpaceOnUse"
       x1="-38.221783"
       y1="1091.3234"
       x2="-38.221783"
       y2="1121.6769" />
    <linearGradient
       inkscape:collect="always"
       xlink:href="#linearGradient3986"
       id="linearGradient4051"
       gradientUnits="userSpaceOnUse"
       x1="-38.221783"
       y1="1091.3234"
       x2="-38.221783"
       y2="1121.6769" />
    <linearGradient
       inkscape:collect="always"
       xlink:href="#linearGradient3986"
       id="linearGradient4053"
       gradientUnits="userSpaceOnUse"
       x1="-38.221783"
       y1="1091.3234"
       x2="-38.221783"
       y2="1121.6769" />
    <linearGradient
       inkscape:collect="always"
       xlink:href="#linearGradient3986"
       id="linearGradient4055"
       gradientUnits="userSpaceOnUse"
       x1="-38.221783"
       y1="1091.3234"
       x2="-38.221783"
       y2="1121.6769" />
    <linearGradient
       inkscape:collect="always"
       xlink:href="#linearGradient3986"
       id="linearGradient4057"
       gradientUnits="userSpaceOnUse"
       x1="-38.221783"
       y1="1091.3234"
       x2="-38.221783"
       y2="1121.6769" />
    <linearGradient
       inkscape:collect="always"
       xlink:href="#linearGradient3986"
       id="linearGradient4059"
       gradientUnits="userSpaceOnUse"
       x1="-38.221783"
       y1="1091.3234"
       x2="-38.221783"
       y2="1121.6769" />
    <linearGradient
       inkscape:collect="always"
       xlink:href="#linearGradient3986"
       id="linearGradient4061"
       gradientUnits="userSpaceOnUse"
       x1="-38.221783"
       y1="1091.3234"
       x2="-38.221783"
       y2="1121.6769" />
    <linearGradient
       inkscape:collect="always"
       xlink:href="#linearGradient991"
       id="linearGradient4078"
       gradientUnits="userSpaceOnUse"
       gradientTransform="translate(1e-6,-2.6e-5)"
       x1="23.204165"
       y1="1053.158"
       x2="23.204165"
       y2="1028.1819" />
    <radialGradient
       inkscape:collect="always"
       xlink:href="#linearGradient3986"
       id="radialGradient4098"
       cx="-38.625"
       cy="1109.3622"
       fx="-38.625"
       fy="1109.3622"
       r="16.15"
       gradientTransform="matrix(1,0,0,0.6749226,0,360.62858)"
       gradientUnits="userSpaceOnUse" />
    <linearGradient
       y2="1039.9172"
       x2="24.113745"
       y1="1007.2183"
       x1="24.113745"
       gradientTransform="matrix(0.96799712,0,0,1.0252613,0.76812065,-2083.1478)"
       gradientUnits="userSpaceOnUse"
       id="linearGradient988"
       xlink:href="#linearGradient991"
       inkscape:collect="always" />
    <linearGradient
       id="linearGradient991">
      <stop
         id="stop993"
         offset="0"
         style="stop-color:#9d9d9d;stop-opacity:1" />
      <stop
         id="stop995"
         offset="1"
         style="stop-color:#ffffff;stop-opacity:1" />
    </linearGradient>
    <linearGradient
       inkscape:collect="always"
       xlink:href="#linearGradient3698-0"
       id="linearGradient989"
       gradientUnits="userSpaceOnUse"
       gradientTransform="matrix(0.84914465,0,0,0.31519327,3.6205727,-1339.6794)"
       x1="24.113745"
       y1="1007.2183"
       x2="24.113745"
       y2="1049.5842" />
    <linearGradient
       id="linearGradient3698-0">
      <stop
         id="stop3700-0"
         offset="0"
         style="stop-color:#1d466a;stop-opacity:1" />
      <stop
         style="stop-color:#06848c;stop-opacity:1"
         offset="0.61084503"
         id="stop3706-7" />
      <stop
         id="stop3702-1"
         offset="1"
         style="stop-color:#247685;stop-opacity:1" />
    </linearGradient>
    <linearGradient
       inkscape:collect="always"
       xlink:href="#linearGradient3803-7"
       id="linearGradient1049"
       gradientUnits="userSpaceOnUse"
       gradientTransform="matrix(0.01708773,0,0,0.27542484,28.749848,-1297.9179)"
       x1="24.113745"
       y1="1030.2795"
       x2="24.113745"
       y2="1049.5842" />
    <linearGradient
       id="linearGradient3803-7">
      <stop
         id="stop3805-0"
         offset="0"
         style="stop-color:#ff0010;stop-opacity:1;" />
      <stop
         id="stop3807-3"
         offset="1"
         style="stop-color:#7a0d00;stop-opacity:1;" />
    </linearGradient>
    <linearGradient
       inkscape:collect="always"
       xlink:href="#linearGradient4158"
       id="linearGradient4179"
       gradientUnits="userSpaceOnUse"
       x1="36.426159"
       y1="5.0235925"
       x2="48.46384"
       y2="8.3785639" />
    <linearGradient
       id="linearGradient4158">
      <stop
         id="stop4160"
         offset="0"
         style="stop-color:#434343;stop-opacity:1;" />
      <stop
         style="stop-color:#ffffff;stop-opacity:1;"
         offset="0.5"
         id="stop4166" />
      <stop
         id="stop4162"
         offset="1"
         style="stop-color:#3c3c3c;stop-opacity:1;" />
    </linearGradient>
    <linearGradient
       inkscape:collect="always"
       xlink:href="#linearGradient3993"
       id="linearGradient4181"
       gradientUnits="userSpaceOnUse"
       gradientTransform="matrix(0.67127663,-1.1275346,1.1275346,0.67127663,-1101.3634,347.8327)"
       x1="8.8905392"
       y1="1026.2065"
       x2="19.3482"
       y2="1026.2065" />
    <linearGradient
       id="linearGradient3993">
      <stop
         style="stop-color:#000000;stop-opacity:0.43617022;"
         offset="0"
         id="stop3995" />
      <stop
         style="stop-color:#ffffff;stop-opacity:0"
         offset="1"
         id="stop3997" />
    </linearGradient>
    <linearGradient
       inkscape:collect="always"
       xlink:href="#linearGradient3993"
       id="linearGradient4183"
       gradientUnits="userSpaceOnUse"
       gradientTransform="matrix(0.67127663,-1.1275346,1.1275346,0.67127663,-1101.3634,347.8327)"
       x1="8.8905392"
       y1="1026.2065"
       x2="19.3482"
       y2="1026.2065" />
    <linearGradient
       id="linearGradient958">
      <stop
         style="stop-color:#000000;stop-opacity:0.43617022;"
         offset="0"
         id="stop960" />
      <stop
         style="stop-color:#ffffff;stop-opacity:0"
         offset="1"
         id="stop962" />
    </linearGradient>
    <linearGradient
       inkscape:collect="always"
       xlink:href="#linearGradient3993"
       id="linearGradient4185"
       gradientUnits="userSpaceOnUse"
       gradientTransform="matrix(0.67127663,-1.1275346,1.1275346,0.67127663,-1101.3634,347.8327)"
       x1="8.8905392"
       y1="1026.2065"
       x2="19.3482"
       y2="1026.2065" />
    <linearGradient
       id="linearGradient965">
      <stop
         style="stop-color:#000000;stop-opacity:0.43617022;"
         offset="0"
         id="stop967" />
      <stop
         style="stop-color:#ffffff;stop-opacity:0"
         offset="1"
         id="stop969" />
    </linearGradient>
    <linearGradient
       inkscape:collect="always"
       xlink:href="#linearGradient991"
       id="linearGradient929"
       gradientUnits="userSpaceOnUse"
       gradientTransform="matrix(0.97959188,0,0,0.9795917,0.48979687,20.987308)"
       x1="23.204165"
       y1="1053.158"
       x2="23.204165"
       y2="1028.1819" />
  </defs>
  <sodipodi:namedview
     id="base"
     pagecolor="#ffffff"
     bordercolor="#666666"
     borderopacity="1.0"
     inkscape:pageopacity="0.0"
     inkscape:pageshadow="2"
     inkscape:zoom="1.4142135"
     inkscape:cx="-69.404988"
     inkscape:cy="29.809674"
     inkscape:document-units="px"
     inkscape:current-layer="layer1"
     showgrid="false"
     inkscape:window-width="1366"
     inkscape:window-height="711"
     inkscape:window-x="0"
     inkscape:window-y="0"
     inkscape:window-maximized="1" />
  <metadata
     id="metadata7">
    <rdf:RDF>
      <cc:Work
         rdf:about="">
        <dc:format>image/svg+xml</dc:format>
        <dc:type
           rdf:resource="http://purl.org/dc/dcmitype/StillImage" />
        <dc:title />
      </cc:Work>
    </rdf:RDF>
  </metadata>
  <g
     inkscape:label="Capa 1"
     inkscape:groupmode="layer"
     id="layer1"
     transform="translate(0,-1004.3622)">
    <path
       style="fill:url(#linearGradient4078);fill-opacity:1.0;stroke:none"
       d="m 1.9375,1004.3622 c -1.077277,0 -1.9375,0.8602 -1.9375,1.9375 l 0,44.125 c 0,1.0773 0.860223,1.9375 1.9375,1.9375 l 44.125,0 c 1.077277,0 1.9375,-0.8602 1.9375,-1.9375 l 0,-44.125 C 48,1005.2224 47.139777,1004.3622 46.0625,1004.3622 Z"
       id="rect3020"
       inkscape:connector-curvature="0"
       sodipodi:nodetypes="sssssssss" />
    <path
       sodipodi:nodetypes="sssssssss"
       inkscape:connector-curvature="0"
       id="path927"
       d="m 2.387755,1004.8524 c -1.0552917,0 -1.89795911,0.8422 -1.89795911,1.8975 l 0,43.225 c 0,1.0553 0.84266741,1.8975 1.89795911,1.8975 l 43.22449,0 c 1.055292,0 1.897959,-0.8422 1.897959,-1.8975 l 0,-43.225 C 47.510204,1005.6946 46.667537,1004.8524 45.612245,1004.8524 Z"
       style="fill:url(#linearGradient929);fill-opacity:1;stroke:#4d4d4d;stroke-width:0.97959179" />
    <rect
       transform="scale(1,-1)"
       style="fill:url(#linearGradient989);fill-opacity:1;stroke:none"
       id="rect986"
       width="39.125259"
       height="14.545787"
       x="4.4373703"
       y="-1023.2363"
       ry="1.7448143" />
    <rect
       ry="0"
       y="-1021.4011"
       x="28.766289"
       height="12.710522"
       width="0.78733587"
       id="rect1047"
       style="fill:url(#linearGradient1049);fill-opacity:1;stroke:none"
       transform="scale(1,-1)" />
    <g
       transform="matrix(0.17447613,0,0,0.17447613,4.2013387,1013.0139)"
       style="font-size:40px;font-style:normal;font-variant:normal;font-weight:bold;font-stretch:normal;line-height:125%;letter-spacing:0px;word-spacing:0px;fill:#ffffff;fill-opacity:1;stroke:none;font-family:Impact;-inkscape-font-specification:Impact Bold"
       id="text1065">
      <path
         d="m 10.035175,-17.430337 13.925782,0 0,6.328125 -5.703125,0 0,5.9960938 5.078125,0 0,6.015625 -5.078125,0 0,13.2812502 -8.222657,0 L 10.035175,-17.430337 Z"
         id="path1070"
         inkscape:connector-curvature="0" />
      <path
         d="m 51.343769,-17.430337 0,31.621094 -7.1875,0 0,-21.3476565 -2.871094,21.3476565 -5.097656,0 -3.027344,-20.8593752 0,20.8593752 -7.1875,0 0,-31.621094 10.644532,0 q 0.46875,2.851563 0.996093,6.71875 l 1.132813,8.046875 1.875,-14.765625 L 51.343769,-17.430337 Z"
         id="path1072"
         inkscape:connector-curvature="0" />
    </g>
    <g
       transform="translate(-18.499999,24.5289)"
       id="g3923">
      <path
         transform="matrix(0.91111111,0,0,0.88888889,3.7777778,1005.2224)"
         d="m 46.517857,7.5535712 c 0,2.2190012 -1.798856,4.0178568 -4.017857,4.0178568 -2.219001,0 -4.017857,-1.7988556 -4.017857,-4.0178568 C 38.482143,5.33457 40.280999,3.5357141 42.5,3.5357141 44.719001,3.5357141 46.517857,5.33457 46.517857,7.5535712 Z"
         sodipodi:ry="4.0178571"
         sodipodi:rx="4.0178571"
         sodipodi:cy="7.5535712"
         sodipodi:cx="42.5"
         id="path4146"
         style="fill:#4d4d4d;fill-opacity:1;stroke:none"
         sodipodi:type="arc" />
      <path
         sodipodi:type="arc"
         style="fill:url(#linearGradient4179);fill-opacity:1;stroke:#ffffff;stroke-width:0.26199999;stroke-linecap:square;stroke-miterlimit:4;stroke-opacity:1;stroke-dasharray:none"
         id="path4148"
         sodipodi:cx="42.5"
         sodipodi:cy="7.5535712"
         sodipodi:rx="4.0178571"
         sodipodi:ry="4.0178571"
         d="m 46.517857,7.5535712 c 0,2.2190012 -1.798856,4.0178568 -4.017857,4.0178568 -2.219001,0 -4.017857,-1.7988556 -4.017857,-4.0178568 C 38.482143,5.33457 40.280999,3.5357141 42.5,3.5357141 44.719001,3.5357141 46.517857,5.33457 46.517857,7.5535712 Z"
         transform="matrix(0.81169512,0,0,0.81169512,8.0029574,1005.8055)" />
      <g
         transform="matrix(0.16006812,-0.00972582,0.00972582,0.16006812,20.936307,850.85429)"
         id="g4193">
        <path
           style="fill:url(#linearGradient4181);fill-opacity:1;stroke:none"
           d="m 71.392453,1017.1713 -6.514004,11.3597 c -2.331434,-1.2014 -4.052438,-2.6222 -5.864455,-4.5754 l 9.24862,-9.3352 C 69.248363,1015.8004 70.324739,1016.5925 71.392453,1017.1713 Z"
           id="path4172"
           inkscape:connector-curvature="0"
           sodipodi:nodetypes="ccccc"
           inkscape:transform-center-x="7.0608935"
           inkscape:transform-center-y="9.6868356" />
        <path
           inkscape:transform-center-y="8.9746856"
           inkscape:transform-center-x="7.9945275"
           sodipodi:nodetypes="ccccc"
           inkscape:connector-curvature="0"
           id="path4174"
           d="m 70.385945,1016.7483 -7.714378,10.5812 c -2.186447,-1.4485 -3.74219,-3.0486 -5.330316,-5.1878 l 10.211807,-8.2705 C 68.404207,1015.1516 69.387739,1016.0565 70.385945,1016.7483 Z"
           style="fill:#454545;fill-opacity:0.61170206;stroke:none" />
        <path
           style="fill:#b3b3b3;fill-opacity:0.47340429;stroke:none"
           d="m 69.042906,1015.6677 -9.46717,9.047 c -1.895178,-1.8131 -3.142799,-3.6635 -4.326759,-6.0503 l 11.515645,-6.3302 C 67.375429,1013.7452 68.183073,1014.81 69.042906,1015.6677 Z"
           id="path4176"
           inkscape:connector-curvature="0"
           sodipodi:nodetypes="ccccc"
           inkscape:transform-center-x="9.3069495"
           inkscape:transform-center-y="7.5890356" />
      </g>
      <g
         id="g4200"
         transform="matrix(-0.13887871,-0.08018166,0.08018166,-0.13887871,-28.352145,1158.1999)">
        <path
           inkscape:transform-center-y="9.6868356"
           inkscape:transform-center-x="7.0608935"
           sodipodi:nodetypes="ccccc"
           inkscape:connector-curvature="0"
           id="path4202"
           d="m 71.392453,1017.1713 -6.514004,11.3597 c -2.331434,-1.2014 -4.052438,-2.6222 -5.864455,-4.5754 l 9.24862,-9.3352 C 69.248363,1015.8004 70.324739,1016.5925 71.392453,1017.1713 Z"
           style="fill:url(#linearGradient4183);fill-opacity:1;stroke:none" />
        <path
           style="fill:#454545;fill-opacity:0.61170206;stroke:none"
           d="m 70.385945,1016.7483 -7.714378,10.5812 c -2.186447,-1.4485 -3.74219,-3.0486 -5.330316,-5.1878 l 10.211807,-8.2705 C 68.404207,1015.1516 69.387739,1016.0565 70.385945,1016.7483 Z"
           id="path4204"
           inkscape:connector-curvature="0"
           sodipodi:nodetypes="ccccc"
           inkscape:transform-center-x="7.9945275"
           inkscape:transform-center-y="8.9746856" />
        <path
           inkscape:transform-center-y="7.5890356"
           inkscape:transform-center-x="9.3069495"
           sodipodi:nodetypes="ccccc"
           inkscape:connector-curvature="0"
           id="path4206"
           d="m 69.042906,1015.6677 -9.46717,9.047 c -1.895178,-1.8131 -3.142799,-3.6635 -4.326759,-6.0503 l 11.515645,-6.3302 C 67.375429,1013.7452 68.183073,1014.81 69.042906,1015.6677 Z"
           style="fill:#b3b3b3;fill-opacity:0.47340429;stroke:none" />
      </g>
      <g
         transform="matrix(-0.02390796,0.15857113,-0.15857113,-0.02390796,204.51682,1024.5119)"
         id="g4210">
        <path
           style="fill:url(#linearGradient4185);fill-opacity:1;stroke:none"
           d="m 71.392453,1017.1713 -6.514004,11.3597 c -2.331434,-1.2014 -4.052438,-2.6222 -5.864455,-4.5754 l 9.24862,-9.3352 C 69.248363,1015.8004 70.324739,1016.5925 71.392453,1017.1713 Z"
           id="path4212"
           inkscape:connector-curvature="0"
           sodipodi:nodetypes="ccccc"
           inkscape:transform-center-x="7.0608935"
           inkscape:transform-center-y="9.6868356" />
        <path
           inkscape:transform-center-y="8.9746856"
           inkscape:transform-center-x="7.9945275"
           sodipodi:nodetypes="ccccc"
           inkscape:connector-curvature="0"
           id="path4214"
           d="m 70.385945,1016.7483 -7.714378,10.5812 c -2.186447,-1.4485 -3.74219,-3.0486 -5.330316,-5.1878 l 10.211807,-8.2705 C 68.404207,1015.1516 69.387739,1016.0565 70.385945,1016.7483 Z"
           style="fill:#454545;fill-opacity:0.61170206;stroke:none" />
        <path
           style="fill:#b3b3b3;fill-opacity:0.47340429;stroke:none"
           d="m 69.042906,1015.6677 -9.46717,9.047 c -1.895178,-1.8131 -3.142799,-3.6635 -4.326759,-6.0503 l 11.515645,-6.3302 C 67.375429,1013.7452 68.183073,1014.81 69.042906,1015.6677 Z"
           id="path4216"
           inkscape:connector-curvature="0"
           sodipodi:nodetypes="ccccc"
           inkscape:transform-center-x="9.3069495"
           inkscape:transform-center-y="7.5890356" />
      </g>
    </g>
    <path
       style="fill:#ffffff;stroke:none;fill-opacity:1;opacity:0.15"
       d="M 0 0 L 0 48 L 16.78125 48 L 29.625 0 L 0 0 z "
       transform="translate(0,1004.3622)"
       id="rect3790" />
  </g>
</svg>
