<?xml version="1.0" encoding="UTF-8" standalone="no"?>
<!-- Created with Inkscape (http://www.inkscape.org/) -->

<svg
   xmlns:dc="http://purl.org/dc/elements/1.1/"
   xmlns:cc="http://creativecommons.org/ns#"
   xmlns:rdf="http://www.w3.org/1999/02/22-rdf-syntax-ns#"
   xmlns:svg="http://www.w3.org/2000/svg"
   xmlns="http://www.w3.org/2000/svg"
   xmlns:xlink="http://www.w3.org/1999/xlink"
   xmlns:sodipodi="http://sodipodi.sourceforge.net/DTD/sodipodi-0.dtd"
   xmlns:inkscape="http://www.inkscape.org/namespaces/inkscape"
   width="48"
   height="48"
   id="svg2"
   version="1.1"
   inkscape:version="0.48.2 r9819"
   sodipodi:docname="softwarecenter-ubuntu.svg">
  <defs
     id="defs4">
    <linearGradient
       id="linearGradient3880">
      <stop
         style="stop-color:#000000;stop-opacity:1;"
         offset="0"
         id="stop3882" />
      <stop
         style="stop-color:#ffffff;stop-opacity:1;"
         offset="1"
         id="stop3884" />
    </linearGradient>
    <linearGradient
       id="linearGradient3870">
      <stop
         style="stop-color:#000000;stop-opacity:0.47340426;"
         offset="0"
         id="stop3872" />
      <stop
         style="stop-color:#000000;stop-opacity:0;"
         offset="1"
         id="stop3874" />
    </linearGradient>
    <linearGradient
       id="linearGradient3795">
      <stop
         style="stop-color:#cd5c24;stop-opacity:1;"
         offset="0"
         id="stop3797" />
      <stop
         style="stop-color:#ff6700;stop-opacity:1;"
         offset="1"
         id="stop3799" />
    </linearGradient>
    <linearGradient
       inkscape:collect="always"
       id="linearGradient3914">
      <stop
         style="stop-color:#59b3e1;stop-opacity:1;"
         offset="0"
         id="stop3916" />
      <stop
         style="stop-color:#59b3e1;stop-opacity:0;"
         offset="1"
         id="stop3918" />
    </linearGradient>
    <linearGradient
       id="linearGradient3698">
      <stop
         id="stop3700"
         offset="0"
         style="stop-color:#96d0e1;stop-opacity:1" />
      <stop
         style="stop-color:#89b7e1;stop-opacity:1"
         offset="0.67819428"
         id="stop3706" />
      <stop
         id="stop3702"
         offset="1"
         style="stop-color:#699dd3;stop-opacity:1" />
    </linearGradient>
    <linearGradient
       id="linearGradient3708">
      <stop
         id="stop3710"
         offset="0"
         style="stop-color:#658db6;stop-opacity:1" />
      <stop
         style="stop-color:#527fab;stop-opacity:1;"
         offset="0.76777935"
         id="stop3716" />
      <stop
         id="stop3712"
         offset="1"
         style="stop-color:#4071a0;stop-opacity:1" />
    </linearGradient>
    <linearGradient
       id="linearGradient3750">
      <stop
         style="stop-color:#d0e2f1;stop-opacity:1"
         offset="0"
         id="stop3752" />
      <stop
         id="stop3756"
         offset="0.85580856"
         style="stop-color:#cadef0;stop-opacity:1" />
      <stop
         style="stop-color:#95bee3;stop-opacity:1"
         offset="1"
         id="stop3754" />
    </linearGradient>
    <linearGradient
       id="linearGradient3803">
      <stop
         id="stop3805"
         offset="0"
         style="stop-color:#d7def0;stop-opacity:1;" />
      <stop
         style="stop-color:#ffffff;stop-opacity:1"
         offset="0.5"
         id="stop3811" />
      <stop
         id="stop3807"
         offset="1"
         style="stop-color:#d5def0;stop-opacity:1" />
    </linearGradient>
    <linearGradient
       inkscape:collect="always"
       xlink:href="#linearGradient3914"
       id="linearGradient3920"
       x1="6.8000002"
       y1="25.0625"
       x2="45.325001"
       y2="25.0625"
       gradientUnits="userSpaceOnUse" />
    <linearGradient
       inkscape:collect="always"
       xlink:href="#linearGradient3795"
       id="linearGradient3801"
       x1="23.204165"
       y1="1053.158"
       x2="23.204165"
       y2="1004.8474"
       gradientUnits="userSpaceOnUse" />
    <linearGradient
       inkscape:collect="always"
       xlink:href="#linearGradient3635"
       id="linearGradient2962"
       gradientUnits="userSpaceOnUse"
       gradientTransform="matrix(0.33911974,0,0,0.33911974,6.3369476,1011.3633)"
       x1="45.382812"
       y1="0.028305121"
       x2="45.382812"
       y2="93.81749" />
    <linearGradient
       id="linearGradient3635">
      <stop
         style="stop-color:#ffffff;stop-opacity:1;"
         offset="0"
         id="stop3637" />
      <stop
         style="stop-color:#dcdcdc;stop-opacity:1;"
         offset="1"
         id="stop3639" />
    </linearGradient>
    <linearGradient
       inkscape:collect="always"
       xlink:href="#linearGradient3635"
       id="linearGradient3856"
       x1="23.663969"
       y1="1026.5491"
       x2="23.663969"
       y2="1016.9882"
       gradientUnits="userSpaceOnUse" />
    <linearGradient
       inkscape:collect="always"
       xlink:href="#linearGradient3635"
       id="linearGradient3864"
       x1="17.4375"
       y1="1035.6594"
       x2="-3.5355842"
       y2="1062.2844"
       gradientUnits="userSpaceOnUse" />
    <linearGradient
       inkscape:collect="always"
       xlink:href="#linearGradient3870"
       id="linearGradient3876"
       x1="23.412399"
       y1="96.141907"
       x2="23.412399"
       y2="-0.22190553"
       gradientUnits="userSpaceOnUse" />
    <linearGradient
       inkscape:collect="always"
       xlink:href="#linearGradient3880"
       id="linearGradient3886"
       x1="23.895184"
       y1="55.435028"
       x2="23.895184"
       y2="30.675968"
       gradientUnits="userSpaceOnUse" />
  </defs>
  <sodipodi:namedview
     id="base"
     pagecolor="#ffffff"
     bordercolor="#666666"
     borderopacity="1.0"
     inkscape:pageopacity="0.0"
     inkscape:pageshadow="2"
     inkscape:zoom="5.6568543"
     inkscape:cx="48.56833"
     inkscape:cy="30.646296"
     inkscape:document-units="px"
     inkscape:current-layer="layer1"
     showgrid="false"
     inkscape:window-width="1280"
     inkscape:window-height="747"
     inkscape:window-x="0"
     inkscape:window-y="0"
     inkscape:window-maximized="1"
     showguides="true"
     inkscape:guide-bbox="true">
    <inkscape:grid
       type="xygrid"
       id="grid3011" />
  </sodipodi:namedview>
  <metadata
     id="metadata7">
    <rdf:RDF>
      <cc:Work
         rdf:about="">
        <dc:format>image/svg+xml</dc:format>
        <dc:type
           rdf:resource="http://purl.org/dc/dcmitype/StillImage" />
        <dc:title></dc:title>
      </cc:Work>
    </rdf:RDF>
  </metadata>
  <g
     inkscape:label="Capa 1"
     inkscape:groupmode="layer"
     id="layer1"
     transform="translate(0,-1004.3622)">
    <rect
       style="fill:url(#linearGradient3801);fill-opacity:1;stroke:none"
       id="rect2991"
       width="48"
       height="48"
       x="0"
       y="1004.3622"
       ry="1.9445436" />
    <path
       sodipodi:type="arc"
       style="fill:#000000;fill-opacity:1;stroke:none;stroke-width:0.20000000000000001;stroke-linecap:square;stroke-linejoin:miter;stroke-miterlimit:4;stroke-opacity:1;stroke-dasharray:none;stroke-dashoffset:0;opacity:0.46568627"
       id="path3846"
       sodipodi:cx="17.8125"
       sodipodi:cy="8.78125"
       sodipodi:rx="1.6875"
       sodipodi:ry="1.59375"
       d="m 19.5,8.78125 a 1.6875,1.59375 0 1 1 -3.375,0 1.6875,1.59375 0 1 1 3.375,0 z"
       transform="translate(0.4375,1004.3622)" />
    <path
       transform="translate(12,1004.3622)"
       d="m 19.5,8.78125 a 1.6875,1.59375 0 1 1 -3.375,0 1.6875,1.59375 0 1 1 3.375,0 z"
       sodipodi:ry="1.59375"
       sodipodi:rx="1.6875"
       sodipodi:cy="8.78125"
       sodipodi:cx="17.8125"
       id="path3848"
       style="fill:#000000;fill-opacity:1;stroke:none;stroke-width:0.20000000000000001;stroke-linecap:square;stroke-linejoin:miter;stroke-miterlimit:4;stroke-opacity:1;stroke-dasharray:none;stroke-dashoffset:0;opacity:0.46568627"
       sodipodi:type="arc" />
    <path
       style="fill:url(#linearGradient3856);stroke:none;fill-opacity:1"
       d="m 16.91141,1013.6211 c 0.89995,-1.3433 1.756035,-1.2536 2.56305,0 0,7.705 8.955874,7.6612 8.955874,-0.3047 0.719648,-0.802 1.650672,-1.4294 2.592804,0 0.487383,3.7431 -1.814982,7.085 -4.648158,8.0884 -1.642981,0.6458 -3.285962,0.4629 -4.928943,0 -4.132671,-1.4652 -4.509408,-3.9294 -4.534627,-7.7837 z"
       id="path3026"
       inkscape:connector-curvature="0"
       sodipodi:nodetypes="ccccccc" />
    <path
       sodipodi:nodetypes="ccccccc"
       inkscape:connector-curvature="0"
       id="path3866"
       d="m 16.91141,1013.6211 c 0.89995,-1.3433 -0.275215,-1.2536 0.5318,0 -0.118658,10.0837 12.762163,10.2802 12.893374,-0.3047 0.719648,-0.802 -0.255578,-1.4294 0.686554,0 0.487383,3.7431 -1.814982,7.085 -4.648158,8.0884 -1.642981,0.6458 -3.285962,0.4629 -4.928943,0 -4.132671,-1.4652 -4.509408,-3.9294 -4.534627,-7.7837 z"
       style="opacity:0.11162791;fill:#000000;fill-opacity:1;stroke:none" />
    <path
       style="fill:url(#linearGradient3876);fill-opacity:1;stroke:none"
       d="m 0.00934343,36.067573 47.99105357,0 0,-33.2340183 C 48.280786,1.0410845 47.406723,0.43991059 46.31793,0.06031996 l -44.1082213,0 C 1.157865,0.24494831 0.37681386,0.71584319 0.05302455,1.6701291 c 0,7.9581665 -0.0436811,28.3248269 -0.04368112,34.3974439 z"
       id="path3868"
       inkscape:connector-curvature="0"
       transform="translate(0,1004.3622)"
       sodipodi:nodetypes="ccccccc" />
    <path
       style="opacity:0.27906979;fill:url(#linearGradient3886);fill-opacity:1;stroke:none"
       d="M 0,36 0,46.248592 C 0.13100666,46.762579 0.2685187,47.595729 1.6795922,48 L 46,48 c 1.375147,-0.0594 1.856328,-0.885052 2,-2 l 0,-10 z"
       id="path3878"
       inkscape:connector-curvature="0"
       transform="translate(0,1004.3622)"
       sodipodi:nodetypes="ccccccc" />
    <path
       style="fill:url(#linearGradient3864);fill-opacity:1"
       d="m 9.3391671,1040.3316 c -0.778471,0 -1.4155824,0.6371 -1.4155824,1.4155 0,0.7785 0.6371114,1.3972 1.4155824,1.3972 0.7784699,0 1.4155819,-0.6187 1.4155819,-1.3972 0,-0.7784 -0.637112,-1.4155 -1.4155819,-1.4155 z m -3.6952217,1.3604 c -0.7639109,0.042 -1.4916929,0.2324 -2.169334,0.5515 l 1.1949721,2.0959 c 0.4015136,-0.1617 0.8467578,-0.2575 1.3052773,-0.2575 1.755134,0 3.2150711,1.307 3.456227,2.9966 l 2.4083282,0 c -0.109685,-1.3277 -0.660757,-2.5539 -1.581039,-3.5297 -0.5893709,0.3002 -1.3147067,0.3003 -1.9303402,-0.055 -0.6160974,-0.3558 -0.9584486,-0.9934 -0.9927461,-1.6546 -0.4373543,-0.1019 -0.9002105,-0.1471 -1.3604299,-0.1471 -0.1101494,0 -0.2217851,-0.01 -0.3309154,0 z m -3.0333908,1.0479 c -0.2834848,0.198 -0.5590982,0.4305 -0.8089043,0.6802 -0.6995203,0.6995 -1.19466622,1.5233 -1.47073493,2.4451 0.55615549,0.3603 0.91920933,0.9977 0.91920933,1.7097 0,0.7118 -0.36305384,1.3313 -0.91920933,1.6913 0.27606871,0.9219 0.77121463,1.7825 1.47073493,2.482 0.249652,0.2497 0.5255742,0.4636 0.8089043,0.6618 l 1.2133563,-2.0958 c -0.811678,-0.6391 -1.3420456,-1.6286 -1.3420456,-2.7393 0,-1.1114 0.5302129,-2.1001 1.3420456,-2.7392 l -1.2133563,-2.0958 z M 0,1046.3983 l 0,2.3716 c 0.38600188,-0.2507 0.64344655,-0.6995 0.64344655,-1.195 0,-0.4953 -0.25765021,-0.9257 -0.64344655,-1.1766 z m 9.4310878,1.673 c -0.2405369,1.6903 -1.7006295,2.9966 -3.456227,2.9966 -0.4588284,0 -0.9037637,-0.095 -1.3052773,-0.2573 l -1.0295144,1.8016 3.8606792,0 c 0.1650518,-0.383 0.4364659,-0.7304 0.8272885,-0.9559 0.6157884,-0.3558 1.3408152,-0.3375 1.9303402,-0.037 0.919509,-0.976 1.471661,-2.2209 1.581039,-3.5481 l -2.4083282,0 z m -0.091921,3.9158 c -0.4865444,0 -0.9054732,0.2507 -1.1582036,0.6251 l 2.3347915,0 c -0.25273,-0.3744 -0.6900443,-0.6251 -1.1765879,-0.6251 z"
       id="circle15"
       inkscape:connector-curvature="0" />
    <text
       xml:space="preserve"
       style="font-size:4px;font-style:normal;font-variant:normal;font-weight:normal;font-stretch:normal;text-align:end;line-height:125%;letter-spacing:-0.03px;word-spacing:0px;text-anchor:end;fill:#ffffff;fill-opacity:1;stroke:none;font-family:Ubuntu;-inkscape-font-specification:Ubuntu"
       x="43.107647"
       y="1027.4366"
       id="text3888"
       sodipodi:linespacing="125%"><tspan
         sodipodi:role="line"
         id="tspan3890"
         x="43.077648"
         y="1027.4366"
         style="text-align:end;text-anchor:end;fill:#4d4d4d">Ubuntu</tspan><tspan
         sodipodi:role="line"
         x="43.077648"
         y="1032.4366"
         id="tspan3892">Software</tspan><tspan
         sodipodi:role="line"
         x="43.077648"
         y="1037.4366"
         id="tspan3894">Center</tspan></text>
    <path
       style="fill:#ffffff;stroke:none;fill-opacity:1;opacity:0.15"
       d="M 0 0 L 0 48 L 16.78125 48 L 29.625 0 L 0 0 z "
       transform="translate(0,1004.3622)"
       id="rect3790" />
  </g>
</svg>
