<?xml version="1.0" encoding="UTF-8" standalone="no"?>
<!-- Created with Inkscape (http://www.inkscape.org/) -->

<svg
   xmlns:dc="http://purl.org/dc/elements/1.1/"
   xmlns:cc="http://creativecommons.org/ns#"
   xmlns:rdf="http://www.w3.org/1999/02/22-rdf-syntax-ns#"
   xmlns:svg="http://www.w3.org/2000/svg"
   xmlns="http://www.w3.org/2000/svg"
   xmlns:xlink="http://www.w3.org/1999/xlink"
   xmlns:sodipodi="http://sodipodi.sourceforge.net/DTD/sodipodi-0.dtd"
   xmlns:inkscape="http://www.inkscape.org/namespaces/inkscape"
   width="48"
   height="48"
   id="svg3840"
   version="1.1"
   inkscape:version="0.48+devel r11717"
   sodipodi:docname="gnome-contacts.svg">
  <defs
     id="defs3842">
    <linearGradient
       inkscape:collect="always"
       id="linearGradient882">
      <stop
         style="stop-color:#ffffff;stop-opacity:1;"
         offset="0"
         id="stop884" />
      <stop
         style="stop-color:#ffffff;stop-opacity:0;"
         offset="1"
         id="stop886" />
    </linearGradient>
    <linearGradient
       id="linearGradient839">
      <stop
         style="stop-color:#00aad4;stop-opacity:1"
         offset="0"
         id="stop841" />
      <stop
         style="stop-color:#00738f;stop-opacity:1"
         offset="1"
         id="stop843" />
    </linearGradient>
    <linearGradient
       inkscape:collect="always"
       xlink:href="#linearGradient3743-6"
       id="linearGradient3811"
       gradientUnits="userSpaceOnUse"
       gradientTransform="matrix(1.011323,0,0,1.0258207,-35.704255,-646.07139)"
       x1="28.595896"
       y1="1009.6199"
       x2="47.013344"
       y2="1029.014" />
    <linearGradient
       id="linearGradient3743-6">
      <stop
         id="stop3745-4"
         offset="0"
         style="stop-color:#ff2c00;stop-opacity:1;" />
      <stop
         id="stop3747-2"
         offset="1"
         style="stop-color:#6c3935;stop-opacity:1;" />
    </linearGradient>
    <linearGradient
       inkscape:collect="always"
       xlink:href="#linearGradient5574"
       id="linearGradient3815"
       gradientUnits="userSpaceOnUse"
       gradientTransform="matrix(0.18648993,0,0,1.0258207,-26.515237,-646.07139)"
       x1="49.387131"
       y1="1030.889"
       x2="-49.016609"
       y2="1013.3749" />
    <linearGradient
       id="linearGradient5574">
      <stop
         style="stop-color:#000000;stop-opacity:1"
         offset="0"
         id="stop5576" />
      <stop
         style="stop-color:#f0f0f0;stop-opacity:1;"
         offset="1"
         id="stop5578" />
    </linearGradient>
    <linearGradient
       inkscape:collect="always"
       xlink:href="#linearGradient3755-9"
       id="linearGradient3819"
       gradientUnits="userSpaceOnUse"
       x1="30.372152"
       y1="7.2212749"
       x2="30.872379"
       y2="25.747164" />
    <linearGradient
       id="linearGradient3755-9">
      <stop
         style="stop-color:#ffdc64;stop-opacity:1;"
         offset="0"
         id="stop3757-1" />
      <stop
         style="stop-color:#c88109;stop-opacity:1;"
         offset="1"
         id="stop3759-4" />
    </linearGradient>
    <linearGradient
       inkscape:collect="always"
       xlink:href="#linearGradient5604"
       id="linearGradient3822"
       gradientUnits="userSpaceOnUse"
       gradientTransform="matrix(1.1368507,0,0,1.1368507,-40.387678,-763.06344)"
       x1="22.982141"
       y1="1011.6926"
       x2="28.76634"
       y2="1023.4783" />
    <linearGradient
       id="linearGradient5604">
      <stop
         id="stop5606"
         offset="0"
         style="stop-color:#ff6664;stop-opacity:1;" />
      <stop
         id="stop5608"
         offset="1"
         style="stop-color:#c84009;stop-opacity:1;" />
    </linearGradient>
    <linearGradient
       inkscape:collect="always"
       xlink:href="#linearGradient5604"
       id="linearGradient3007"
       gradientUnits="userSpaceOnUse"
       gradientTransform="matrix(1.1368507,0,0,1.1368507,142.50193,-691.63486)"
       x1="22.982141"
       y1="1011.6926"
       x2="28.76634"
       y2="1023.4783" />
    <linearGradient
       inkscape:collect="always"
       xlink:href="#linearGradient5574"
       id="linearGradient3011"
       gradientUnits="userSpaceOnUse"
       gradientTransform="matrix(0.18648993,0,0,1.0258207,156.37437,-574.64281)"
       x1="49.387131"
       y1="1030.889"
       x2="-49.016609"
       y2="1013.3749" />
    <linearGradient
       inkscape:collect="always"
       xlink:href="#linearGradient3743-6"
       id="linearGradient3014"
       gradientUnits="userSpaceOnUse"
       gradientTransform="matrix(1.011323,0,0,1.0258207,147.18536,-574.64281)"
       x1="28.595896"
       y1="1009.6199"
       x2="47.013344"
       y2="1029.014" />
    <linearGradient
       inkscape:collect="always"
       xlink:href="#linearGradient3743-6"
       id="linearGradient3818"
       gradientUnits="userSpaceOnUse"
       gradientTransform="matrix(1.011323,0,0,1.0258207,147.18536,-574.64281)"
       x1="28.595896"
       y1="1009.6199"
       x2="47.013344"
       y2="1029.014" />
    <linearGradient
       inkscape:collect="always"
       xlink:href="#linearGradient5574"
       id="linearGradient3820"
       gradientUnits="userSpaceOnUse"
       gradientTransform="matrix(0.18648993,0,0,1.0258207,156.37437,-574.64281)"
       x1="49.387131"
       y1="1030.889"
       x2="-49.016609"
       y2="1013.3749" />
    <linearGradient
       inkscape:collect="always"
       xlink:href="#linearGradient3743-6"
       id="linearGradient3831"
       gradientUnits="userSpaceOnUse"
       gradientTransform="matrix(1.011323,0,0,1.0258207,147.18536,-574.64281)"
       x1="28.595896"
       y1="1009.6199"
       x2="47.013344"
       y2="1029.014" />
    <linearGradient
       inkscape:collect="always"
       xlink:href="#linearGradient5574"
       id="linearGradient3833"
       gradientUnits="userSpaceOnUse"
       gradientTransform="matrix(0.18648993,0,0,1.0258207,156.37437,-574.64281)"
       x1="49.387131"
       y1="1030.889"
       x2="-49.016609"
       y2="1013.3749" />
    <linearGradient
       inkscape:collect="always"
       xlink:href="#linearGradient839"
       id="linearGradient3017"
       gradientUnits="userSpaceOnUse"
       gradientTransform="matrix(1.3800042,0,0,1.1414014,136.26424,-693.58428)"
       x1="28.595896"
       y1="1008.5136"
       x2="28.595896"
       y2="1050.365" />
    <linearGradient
       inkscape:collect="always"
       xlink:href="#linearGradient839"
       id="linearGradient3019"
       gradientUnits="userSpaceOnUse"
       gradientTransform="matrix(0.25447547,0,0,1.1414014,148.80314,-693.58428)"
       x1="26.4048"
       y1="1008.5425"
       x2="26.4048"
       y2="1050.3241" />
    <linearGradient
       inkscape:collect="always"
       xlink:href="#linearGradient882"
       id="linearGradient888"
       x1="153.14285"
       y1="480.93362"
       x2="182.76785"
       y2="480.93362"
       gradientUnits="userSpaceOnUse" />
  </defs>
  <sodipodi:namedview
     id="base"
     pagecolor="#ffffff"
     bordercolor="#666666"
     borderopacity="1.0"
     inkscape:pageopacity="0.0"
     inkscape:pageshadow="2"
     inkscape:zoom="1.979899"
     inkscape:cx="-46.000114"
     inkscape:cy="45.651279"
     inkscape:document-units="px"
     inkscape:current-layer="layer1"
     showgrid="false"
     fit-margin-top="0"
     fit-margin-left="0"
     fit-margin-right="0"
     fit-margin-bottom="0"
     inkscape:window-width="1366"
     inkscape:window-height="746"
     inkscape:window-x="0"
     inkscape:window-y="0"
     inkscape:window-maximized="1" />
  <metadata
     id="metadata3845">
    <rdf:RDF>
      <cc:Work
         rdf:about="">
        <dc:format>image/svg+xml</dc:format>
        <dc:type
           rdf:resource="http://purl.org/dc/dcmitype/StillImage" />
        <dc:title></dc:title>
      </cc:Work>
    </rdf:RDF>
  </metadata>
  <g
     inkscape:label="Capa 1"
     inkscape:groupmode="layer"
     id="layer1"
     transform="translate(-153.14285,-456.93362)">
    <rect
       style="fill:none;stroke:none"
       id="rect3801"
       width="48"
       height="48"
       x="153.14285"
       y="456.93362" />
    <rect
       style="fill:url(#linearGradient3017);fill-opacity:1;stroke:none"
       id="rect5519"
       width="41.344616"
       height="48"
       x="159.79823"
       y="456.93362"
       rx="0"
       ry="0" />
    <g
       style="fill:#ffffff;stroke:#ffffff"
       id="g3060"
       transform="matrix(1.3844417,0,0,1.3844417,41.466077,-309.00872)">
      <rect
         ry="0"
         y="574.11597"
         x="92.722931"
         height="1.6280142"
         width="12.463829"
         id="rect3062"
         style="fill:#ffffff;fill-rule:evenodd;stroke:#ffffff;stroke-width:0.82801652" />
      <rect
         style="fill:#ffffff;fill-rule:evenodd;stroke:#ffffff;stroke-width:0.84536654"
         id="rect3064"
         width="13.454902"
         height="3.8828545"
         x="92.31221"
         y="575.78973"
         ry="0" />
      <g
         style="fill:#ffffff;stroke:#ffffff"
         id="g3066"
         transform="translate(4.956167,-1.8594717)">
        <path
           style="fill:#ffffff;stroke:#ffffff;stroke-width:1.11787236px;stroke-linecap:round;stroke-linejoin:miter;stroke-opacity:1"
           d="m 87.399681,581.53149 13.524989,0"
           id="path3068"
           inkscape:connector-curvature="0" />
        <path
           style="fill:#ffffff;stroke:#ffffff;stroke-width:1px;stroke-linecap:round;stroke-linejoin:miter;stroke-opacity:1"
           d="m 91.037015,574.02637 c -5.050763,-0.25254 -3.788072,7.57615 -3.788072,7.57615"
           id="path3070"
           inkscape:connector-curvature="0" />
        <path
           inkscape:connector-curvature="0"
           id="path3072"
           d="m 97.241732,574.02637 c 5.050768,-0.25254 3.788078,7.57615 3.788078,7.57615"
           style="fill:#ffffff;stroke:#ffffff;stroke-width:1px;stroke-linecap:round;stroke-linejoin:miter;stroke-opacity:1" />
        <path
           style="fill:#ffffff;stroke:#ffffff;stroke-width:1px;stroke-linecap:round;stroke-linejoin:miter;stroke-opacity:1"
           d="m 90.711003,574.02446 c 2.525382,0 1.578364,-2.11501 1.578364,-2.11501"
           id="path3074"
           inkscape:connector-curvature="0" />
        <path
           inkscape:connector-curvature="0"
           id="path3076"
           d="m 97.465706,574.01888 c -2.525382,0 -1.578364,-2.11501 -1.578364,-2.11501"
           style="fill:#ffffff;stroke:#ffffff;stroke-width:1px;stroke-linecap:round;stroke-linejoin:miter;stroke-opacity:1" />
        <path
           sodipodi:type="arc"
           style="fill:#ffffff;stroke:#ffffff;stroke-width:0.89999998;stroke-linecap:round;stroke-linejoin:round;stroke-miterlimit:4;stroke-opacity:1;stroke-dasharray:none"
           id="path3078"
           sodipodi:cx="17.472483"
           sodipodi:cy="21.720249"
           sodipodi:rx="4.4983354"
           sodipodi:ry="4.4983354"
           d="m 21.970818,21.720249 c 0,2.484362 -2.013973,4.498336 -4.498335,4.498336 -2.484362,0 -4.498336,-2.013974 -4.498336,-4.498336 0,-2.484362 2.013974,-4.498335 4.498336,-4.498335 C 19.956845,17.221914 21.970818,19.235887 21.970818,21.720249 Z"
           transform="translate(76.705476,546.00845)" />
      </g>
      <rect
         style="fill:#ffffff;fill-rule:evenodd;stroke:#ffffff"
         id="rect3080"
         width="7.2406054"
         height="3.1334729"
         x="570.54584"
         y="-100.13096"
         ry="0"
         transform="matrix(0,1,-1,0,0,0)" />
      <rect
         transform="matrix(0,1,-1,0,0,0)"
         ry="0"
         y="-100.99033"
         x="570.54584"
         height="3.1334729"
         width="7.2406054"
         id="rect3082"
         style="fill:#ffffff;fill-rule:evenodd;stroke:#ffffff" />
      <path
         style="fill:#ffffff;stroke:#ffffff;stroke-width:1px;stroke-linecap:butt;stroke-linejoin:miter;stroke-opacity:1"
         d="m 94.468236,572.65947 -1.09375,0.66964 0,0.66965 11.138394,0 0,-1.02679 L 103.6306,572.46258 Z"
         id="path3084"
         inkscape:connector-curvature="0" />
    </g>
    <rect
       ry="0"
       rx="0"
       y="456.93362"
       x="153.14285"
       height="48"
       width="7.6240277"
       id="rect5570"
       style="fill:url(#linearGradient3019);fill-opacity:1;stroke:none" />
    <rect
       style="fill:#000000;fill-opacity:1;stroke:none"
       id="rect878"
       width="0.17415266"
       height="48"
       x="160.59273"
       y="456.93362"
       rx="0"
       ry="0" />
    <rect
       style="fill:#ff8880;fill-opacity:1;stroke:none"
       id="rect890"
       width="4.4642859"
       height="8.9285717"
       x="196.67856"
       y="460.46933" />
    <rect
       y="470.23123"
       x="196.67856"
       height="8.9285717"
       width="4.4642859"
       id="rect892"
       style="fill:#ffdf55;fill-opacity:1;stroke:none" />
    <rect
       y="479.99313"
       x="196.67856"
       height="8.9285717"
       width="4.4642859"
       id="rect894"
       style="fill:#00d765;fill-opacity:1;stroke:none" />
    <path
       inkscape:connector-curvature="0"
       style="opacity:0.15;fill:url(#linearGradient888);fill-opacity:1;stroke:none"
       d="m 153.14285,456.93362 0,48 16.78125,0 12.84375,-48 -29.625,0 z"
       id="rect3790" />
  </g>
</svg>
