<?xml version="1.0" encoding="UTF-8" standalone="no"?>
<!-- Created with Inkscape (http://www.inkscape.org/) -->

<svg
   xmlns:dc="http://purl.org/dc/elements/1.1/"
   xmlns:cc="http://creativecommons.org/ns#"
   xmlns:rdf="http://www.w3.org/1999/02/22-rdf-syntax-ns#"
   xmlns:svg="http://www.w3.org/2000/svg"
   xmlns="http://www.w3.org/2000/svg"
   xmlns:xlink="http://www.w3.org/1999/xlink"
   xmlns:sodipodi="http://sodipodi.sourceforge.net/DTD/sodipodi-0.dtd"
   xmlns:inkscape="http://www.inkscape.org/namespaces/inkscape"
   width="48"
   height="48"
   id="svg2"
   version="1.1"
   inkscape:version="0.48+devel r11731"
   sodipodi:docname="vidalia.svg">
  <defs
     id="defs4">
    <linearGradient
       id="linearGradient973">
      <stop
         id="stop975"
         offset="0"
         style="stop-color:#d868d3;stop-opacity:1;" />
      <stop
         id="stop977"
         offset="1"
         style="stop-color:#a02c89;stop-opacity:1" />
    </linearGradient>
    <linearGradient
       id="linearGradient845">
      <stop
         id="stop847"
         offset="0"
         style="stop-color:#1f4172;stop-opacity:1" />
      <stop
         id="stop849"
         offset="1"
         style="stop-color:#162c4e;stop-opacity:1" />
    </linearGradient>
    <linearGradient
       id="linearGradient3795">
      <stop
         style="stop-color:#d868d3;stop-opacity:1;"
         offset="0"
         id="stop3797" />
      <stop
         style="stop-color:#bd3096;stop-opacity:1;"
         offset="1"
         id="stop3799" />
    </linearGradient>
    <linearGradient
       id="linearGradient3698">
      <stop
         id="stop3700"
         offset="0"
         style="stop-color:#96d0e1;stop-opacity:1" />
      <stop
         style="stop-color:#89b7e1;stop-opacity:1"
         offset="0.67819428"
         id="stop3706" />
      <stop
         id="stop3702"
         offset="1"
         style="stop-color:#699dd3;stop-opacity:1" />
    </linearGradient>
    <linearGradient
       id="linearGradient3708">
      <stop
         id="stop3710"
         offset="0"
         style="stop-color:#658db6;stop-opacity:1" />
      <stop
         style="stop-color:#527fab;stop-opacity:1;"
         offset="0.76777935"
         id="stop3716" />
      <stop
         id="stop3712"
         offset="1"
         style="stop-color:#4071a0;stop-opacity:1" />
    </linearGradient>
    <linearGradient
       id="linearGradient3750">
      <stop
         style="stop-color:#d0e2f1;stop-opacity:1"
         offset="0"
         id="stop3752" />
      <stop
         id="stop3756"
         offset="0.85580856"
         style="stop-color:#cadef0;stop-opacity:1" />
      <stop
         style="stop-color:#95bee3;stop-opacity:1"
         offset="1"
         id="stop3754" />
    </linearGradient>
    <linearGradient
       id="linearGradient3803">
      <stop
         id="stop3805"
         offset="0"
         style="stop-color:#d7def0;stop-opacity:1;" />
      <stop
         style="stop-color:#ffffff;stop-opacity:1"
         offset="0.5"
         id="stop3811" />
      <stop
         id="stop3807"
         offset="1"
         style="stop-color:#d5def0;stop-opacity:1" />
    </linearGradient>
    <linearGradient
       inkscape:collect="always"
       xlink:href="#linearGradient973"
       id="linearGradient3801"
       x1="23.204165"
       y1="1053.158"
       x2="23.204165"
       y2="1004.8474"
       gradientUnits="userSpaceOnUse"
       gradientTransform="translate(0,-2056.7244)" />
    <linearGradient
       inkscape:collect="always"
       xlink:href="#linearGradient3795"
       id="linearGradient3859"
       x1="26.192217"
       y1="1024.0002"
       x2="28.641211"
       y2="1024.0002"
       gradientUnits="userSpaceOnUse" />
    <linearGradient
       inkscape:collect="always"
       xlink:href="#linearGradient3795"
       id="linearGradient3867"
       gradientUnits="userSpaceOnUse"
       x1="26.192217"
       y1="1024.0002"
       x2="28.641211"
       y2="1024.0002" />
    <linearGradient
       inkscape:collect="always"
       xlink:href="#linearGradient3795"
       id="linearGradient3869"
       gradientUnits="userSpaceOnUse"
       x1="26.192217"
       y1="1024.0002"
       x2="28.641211"
       y2="1024.0002" />
    <linearGradient
       inkscape:collect="always"
       xlink:href="#linearGradient3795"
       id="linearGradient3871"
       gradientUnits="userSpaceOnUse"
       x1="26.192217"
       y1="1024.0002"
       x2="28.641211"
       y2="1024.0002" />
    <linearGradient
       inkscape:collect="always"
       xlink:href="#linearGradient3795"
       id="linearGradient3877"
       gradientUnits="userSpaceOnUse"
       x1="29.718235"
       y1="1027.8575"
       x2="22.811094"
       y2="1015.5485" />
    <linearGradient
       inkscape:collect="always"
       xlink:href="#linearGradient3795"
       id="linearGradient3879"
       gradientUnits="userSpaceOnUse"
       x1="17.196316"
       y1="1006.2238"
       x2="31.448042"
       y2="1030.9086" />
    <linearGradient
       inkscape:collect="always"
       xlink:href="#linearGradient3795"
       id="linearGradient3895"
       x1="21.973417"
       y1="34.43922"
       x2="42.475323"
       y2="24.798252"
       gradientUnits="userSpaceOnUse" />
  </defs>
  <sodipodi:namedview
     id="base"
     pagecolor="#ffffff"
     bordercolor="#666666"
     borderopacity="1.0"
     inkscape:pageopacity="0.0"
     inkscape:pageshadow="2"
     inkscape:zoom="8.0000004"
     inkscape:cx="21.712391"
     inkscape:cy="30.100477"
     inkscape:document-units="px"
     inkscape:current-layer="layer1"
     showgrid="false"
     inkscape:window-width="1366"
     inkscape:window-height="711"
     inkscape:window-x="0"
     inkscape:window-y="0"
     inkscape:window-maximized="1">
    <inkscape:grid
       type="xygrid"
       id="grid3850" />
  </sodipodi:namedview>
  <metadata
     id="metadata7">
    <rdf:RDF>
      <cc:Work
         rdf:about="">
        <dc:format>image/svg+xml</dc:format>
        <dc:type
           rdf:resource="http://purl.org/dc/dcmitype/StillImage" />
        <dc:title></dc:title>
      </cc:Work>
    </rdf:RDF>
  </metadata>
  <g
     inkscape:label="Capa 1"
     inkscape:groupmode="layer"
     id="layer1"
     transform="translate(0,-1004.3622)">
    <rect
       style="fill:url(#linearGradient3801);fill-opacity:1.0;stroke:none"
       id="rect2991"
       width="48"
       height="48"
       x="0"
       y="-1052.3622"
       ry="1.9445436"
       transform="scale(1,-1)" />
    <path
       style="fill:#ffffff;stroke:none;fill-opacity:1;opacity:0.15"
       d="M 0 0 L 0 48 L 16.78125 48 L 29.625 0 L 0 0 z "
       id="rect3790"
       transform="translate(0,1004.3622)" />
    <g
       id="g932"
       style="fill:#ffffff"
       transform="matrix(1.1416156,0,0,1.1416156,-3.0488995,-146.63369)">
      <path
         inkscape:connector-curvature="0"
         id="path887"
         d="m 23.278107,1015.6669 c -2.787225,1.3284 -3.97137,4.6689 -2.643007,7.4562 0.310482,0.6514 0.715194,1.2077 1.21242,1.6723 -0.17218,-0.2539 -0.323744,-0.534 -0.459758,-0.8194 -1.454375,-3.0516 -0.157607,-6.71 2.894018,-8.1643 0.815012,-0.3885 1.679569,-0.5661 2.527014,-0.5813 C 25.657429,1014.9931 24.421132,1015.1221 23.278107,1015.6669 Z"
         style="fill:#ffffff;fill-opacity:1;fill-rule:nonzero;stroke:none" />
      <path
         style="fill:#ffffff;fill-opacity:1;fill-rule:nonzero;stroke:none"
         d="m 22.951715,1018.6264 c -1.883614,0.8977 -2.683863,3.1552 -1.786152,5.0388 0.209825,0.4403 0.48333,0.8162 0.819357,1.1302 -0.11636,-0.1716 -0.218787,-0.3609 -0.310705,-0.5538 -0.982872,-2.0622 -0.106512,-4.5346 1.955785,-5.5174 0.550787,-0.2626 1.135057,-0.3826 1.707762,-0.3928 C 24.559667,1018.171 23.724174,1018.2582 22.951715,1018.6264 Z"
         id="path894"
         inkscape:connector-curvature="0" />
      <path
         inkscape:connector-curvature="0"
         id="path896"
         d="m 22.580076,1021.3357 c -1.056364,0.5035 -1.505157,1.7695 -1.001705,2.8259 0.117673,0.2469 0.27106,0.4577 0.459509,0.6338 -0.06526,-0.096 -0.122699,-0.2024 -0.174248,-0.3106 -0.551212,-1.1565 -0.05973,-2.5431 1.096838,-3.0942 0.30889,-0.1473 0.636559,-0.2146 0.957742,-0.2203 C 23.481843,1021.0803 23.013284,1021.1292 22.580076,1021.3357 Z"
         style="fill:#ffffff;fill-opacity:1;fill-rule:nonzero;stroke:none" />
      <g
         id="g914"
         style="fill:#ffffff">
        <g
           id="g878"
           transform="translate(-5.4800773,0)"
           style="fill:#ffffff">
          <path
             id="path855"
             transform="translate(0,1004.3622)"
             d="m 29.6875,20.96875 c -0.386366,0 -0.751432,0.01534 -1.125,0.0625 4.425881,0.574113 7.84375,4.355212 7.84375,8.9375 0,4.582288 -3.417869,8.363387 -7.84375,8.9375 C 28.936068,38.953413 29.301134,39 29.6875,39 34.666684,39 38.71875,34.947934 38.71875,29.96875 38.71875,24.989566 34.666684,20.96875 29.6875,20.96875 Z"
             style="fill:#ffffff;fill-opacity:1;fill-rule:nonzero;stroke:none"
             inkscape:connector-curvature="0" />
          <path
             inkscape:connector-curvature="0"
             id="path860"
             d="m 27.46875,1025.4913 c -0.214527,0 -0.418791,0.019 -0.625,0.034 4.014384,0.4824 7.15625,4.2414 7.15625,8.8035 0,4.5373 -3.110686,8.2848 -7.09375,8.8035 0.186252,0.021 0.368964,0.069 0.5625,0.069 4.426892,0 8.03125,-3.9819 8.03125,-8.8726 C 35.5,1029.4386 31.895642,1025.4913 27.46875,1025.4913 Z"
             style="fill:#ffffff;fill-opacity:1;fill-rule:nonzero;stroke:none" />
          <path
             inkscape:connector-curvature="0"
             id="path865"
             d="m 26.125,1026.3589 c 3.729784,0.186 6.71875,3.678 6.71875,7.97 0,4.2554 -2.939539,7.7282 -6.625,7.97 0.04198,0 0.082,0.036 0.125,0.036 3.874609,0 7.03125,-3.5941 7.03125,-8.0056 0,-4.4116 -3.156641,-7.97 -7.03125,-7.97 C 26.270956,1026.3589 26.195717,1026.355 26.125,1026.3589 Z"
             style="fill:#ffffff;fill-opacity:1;fill-rule:nonzero;stroke:none" />
          <path
             inkscape:connector-curvature="0"
             style="fill:#ffffff;fill-opacity:1;fill-rule:nonzero;stroke:none"
             d="m 25.997528,1026.3033 c 0.272476,0 0.52993,0.013 0.79338,0.055 -3.121247,0.5122 -5.531617,3.8855 -5.531617,7.9736 0,4.0881 2.41037,7.4614 5.531617,7.9737 -0.26345,0.042 -0.520904,0.084 -0.79338,0.084 -3.511449,0 -6.369072,-3.6151 -6.369072,-8.0572 C 19.628456,1029.8905 22.486079,1026.3033 25.997528,1026.3033 Z"
             id="path870" />
          <path
             inkscape:connector-curvature="0"
             style="fill:#ffffff;fill-opacity:1;fill-rule:nonzero;stroke:none"
             d="m 27.164501,1026.3557 c 0.15129,0 0.295342,0.017 0.440766,0.031 -2.831048,0.4353 -5.046774,3.8273 -5.046774,7.9442 0,4.0944 2.193737,7.476 5.002697,7.9441 -0.13135,0.019 -0.260203,0.062 -0.396689,0.062 -3.12196,0 -5.663846,-3.5932 -5.663846,-8.0065 C 21.500655,1029.9177 24.042541,1026.3557 27.164501,1026.3557 Z"
             id="path872" />
          <path
             inkscape:connector-curvature="0"
             style="fill:#ffffff;fill-opacity:1;fill-rule:nonzero;stroke:none"
             d="m 28.112148,1026.5411 c -2.630341,0.1817 -4.738237,3.5941 -4.738237,7.7883 0,4.1584 2.073039,7.5519 4.672122,7.7883 -0.02961,0 -0.05783,0.035 -0.08815,0.035 -2.732475,0 -4.95862,-3.5121 -4.95862,-7.8229 0,-4.3111 2.226145,-7.7883 4.95862,-7.7883 C 28.009216,1026.5411 28.062277,1026.5373 28.112148,1026.5411 Z"
             id="path874" />
          <path
             inkscape:connector-curvature="0"
             style="fill:#ffffff;fill-opacity:1;fill-rule:nonzero;stroke:none"
             d="m 29.15717,1025.331 c -0.386366,0 -0.751432,0.015 -1.125,0.062 4.425881,0.5741 7.84375,4.3552 7.84375,8.9375 0,4.5822 -3.417869,8.3633 -7.84375,8.9375 0.373568,0.047 0.738634,0.094 1.125,0.094 4.979184,0 9.03125,-4.0521 9.03125,-9.0312 C 38.18842,1029.3518 34.136354,1025.331 29.15717,1025.331 Z"
             id="path876" />
        </g>
        <g
           transform="matrix(0.53630777,0,0,0.88214905,6.9339855,121.83623)"
           id="g898"
           style="fill:#ffffff">
          <path
             inkscape:connector-curvature="0"
             style="fill:#ffffff;fill-opacity:1;fill-rule:nonzero;stroke:none"
             d="m 29.6875,20.96875 c -0.386366,0 -0.751432,0.01534 -1.125,0.0625 4.425881,0.574113 7.84375,4.355212 7.84375,8.9375 0,4.582288 -3.417869,8.363387 -7.84375,8.9375 C 28.936068,38.953413 29.301134,39 29.6875,39 34.666684,39 38.71875,34.947934 38.71875,29.96875 38.71875,24.989566 34.666684,20.96875 29.6875,20.96875 Z"
             transform="translate(0,1004.3622)"
             id="path900" />
          <path
             style="fill:#ffffff;fill-opacity:1;fill-rule:nonzero;stroke:none"
             d="m 27.46875,1025.4913 c -0.214527,0 -0.418791,0.019 -0.625,0.034 4.014384,0.4824 7.15625,4.2414 7.15625,8.8035 0,4.5373 -3.110686,8.2848 -7.09375,8.8035 0.186252,0.021 0.368964,0.069 0.5625,0.069 4.426892,0 8.03125,-3.9819 8.03125,-8.8726 C 35.5,1029.4386 31.895642,1025.4913 27.46875,1025.4913 Z"
             id="path902"
             inkscape:connector-curvature="0" />
          <path
             style="fill:#ffffff;fill-opacity:1;fill-rule:nonzero;stroke:none"
             d="m 26.125,1026.3589 c 3.729784,0.186 6.71875,3.678 6.71875,7.97 0,4.2554 -2.939539,7.7282 -6.625,7.97 0.04198,0 0.082,0.036 0.125,0.036 3.874609,0 7.03125,-3.5941 7.03125,-8.0056 0,-4.4116 -3.156641,-7.97 -7.03125,-7.97 C 26.270956,1026.3589 26.195717,1026.355 26.125,1026.3589 Z"
             id="path904"
             inkscape:connector-curvature="0" />
          <path
             id="path906"
             d="m 25.997528,1026.3033 c 0.272476,0 0.52993,0.013 0.79338,0.055 -3.121247,0.5122 -5.531617,3.8855 -5.531617,7.9736 0,4.0881 2.41037,7.4614 5.531617,7.9737 -0.26345,0.042 -0.520904,0.084 -0.79338,0.084 -3.511449,0 -6.369072,-3.6151 -6.369072,-8.0572 C 19.628456,1029.8905 22.486079,1026.3033 25.997528,1026.3033 Z"
             style="fill:#ffffff;fill-opacity:1;fill-rule:nonzero;stroke:none"
             inkscape:connector-curvature="0" />
          <path
             id="path908"
             d="m 27.164501,1026.3557 c 0.15129,0 0.295342,0.017 0.440766,0.031 -2.831048,0.4353 -5.046774,3.8273 -5.046774,7.9442 0,4.0944 2.193737,7.476 5.002697,7.9441 -0.13135,0.019 -0.260203,0.062 -0.396689,0.062 -3.12196,0 -5.663846,-3.5932 -5.663846,-8.0065 C 21.500655,1029.9177 24.042541,1026.3557 27.164501,1026.3557 Z"
             style="fill:#ffffff;fill-opacity:1;fill-rule:nonzero;stroke:none"
             inkscape:connector-curvature="0" />
          <path
             id="path910"
             d="m 28.112148,1026.5411 c -2.630341,0.1817 -4.738237,3.5941 -4.738237,7.7883 0,4.1584 2.073039,7.5519 4.672122,7.7883 -0.02961,0 -0.05783,0.035 -0.08815,0.035 -2.732475,0 -4.95862,-3.5121 -4.95862,-7.8229 0,-4.3111 2.226145,-7.7883 4.95862,-7.7883 C 28.009216,1026.5411 28.062277,1026.5373 28.112148,1026.5411 Z"
             style="fill:#ffffff;fill-opacity:1;fill-rule:nonzero;stroke:none"
             inkscape:connector-curvature="0" />
          <path
             id="path912"
             d="m 29.15717,1025.331 c -0.386366,0 -0.751432,0.015 -1.125,0.062 4.425881,0.5741 7.84375,4.3552 7.84375,8.9375 0,4.5822 -3.417869,8.3633 -7.84375,8.9375 0.373568,0.047 0.738634,0.094 1.125,0.094 4.979184,0 9.03125,-4.0521 9.03125,-9.0312 C 38.18842,1029.3518 34.136354,1025.331 29.15717,1025.331 Z"
             style="fill:#ffffff;fill-opacity:1;fill-rule:nonzero;stroke:none"
             inkscape:connector-curvature="0" />
        </g>
      </g>
    </g>
  </g>
</svg>
