<?xml version="1.0" encoding="UTF-8" standalone="no"?>
<!-- Created with Inkscape (http://www.inkscape.org/) -->

<svg
   xmlns:dc="http://purl.org/dc/elements/1.1/"
   xmlns:cc="http://creativecommons.org/ns#"
   xmlns:rdf="http://www.w3.org/1999/02/22-rdf-syntax-ns#"
   xmlns:svg="http://www.w3.org/2000/svg"
   xmlns="http://www.w3.org/2000/svg"
   xmlns:xlink="http://www.w3.org/1999/xlink"
   xmlns:sodipodi="http://sodipodi.sourceforge.net/DTD/sodipodi-0.dtd"
   xmlns:inkscape="http://www.inkscape.org/namespaces/inkscape"
   width="48"
   height="48.000019"
   id="svg2925"
   version="1.1"
   inkscape:version="0.48+devel r11521"
   sodipodi:docname="wunderlist.svg">
  <defs
     id="defs2927">
    <linearGradient
       id="linearGradient3510">
      <stop
         id="stop3512"
         offset="0"
         style="stop-color:#d88868;stop-opacity:1" />
      <stop
         id="stop3514"
         offset="1"
         style="stop-color:#825421;stop-opacity:1" />
    </linearGradient>
    <linearGradient
       inkscape:collect="always"
       xlink:href="#linearGradient3795"
       id="linearGradient3801"
       x1="23.204165"
       y1="1053.158"
       x2="23.204165"
       y2="1004.8474"
       gradientUnits="userSpaceOnUse"
       gradientTransform="translate(0,-2056.7244)" />
    <linearGradient
       id="linearGradient3795">
      <stop
         style="stop-color:#68b8d8;stop-opacity:1;"
         offset="0"
         id="stop3797" />
      <stop
         style="stop-color:#3097bd;stop-opacity:1;"
         offset="1"
         id="stop3799" />
    </linearGradient>
    <linearGradient
       y2="1004.8474"
       x2="23.204165"
       y1="1053.158"
       x1="23.204165"
       gradientTransform="translate(758.85714,-1166.4387)"
       gradientUnits="userSpaceOnUse"
       id="linearGradient3489"
       xlink:href="#linearGradient3510"
       inkscape:collect="always" />
  </defs>
  <sodipodi:namedview
     id="base"
     pagecolor="#ffffff"
     bordercolor="#666666"
     borderopacity="1.0"
     inkscape:pageopacity="0.0"
     inkscape:pageshadow="2"
     inkscape:zoom="5.6"
     inkscape:cx="22.847693"
     inkscape:cy="37.73271"
     inkscape:document-units="px"
     inkscape:current-layer="layer1"
     showgrid="false"
     width="0px"
     height="0px"
     fit-margin-top="0"
     fit-margin-left="0"
     fit-margin-right="0"
     fit-margin-bottom="0"
     inkscape:window-width="1133"
     inkscape:window-height="871"
     inkscape:window-x="377"
     inkscape:window-y="151"
     inkscape:window-maximized="0" />
  <metadata
     id="metadata2930">
    <rdf:RDF>
      <cc:Work
         rdf:about="">
        <dc:format>image/svg+xml</dc:format>
        <dc:type
           rdf:resource="http://purl.org/dc/dcmitype/StillImage" />
        <cc:license
           rdf:resource="" />
        <dc:title></dc:title>
      </cc:Work>
    </rdf:RDF>
  </metadata>
  <g
     inkscape:label="Capa 1"
     inkscape:groupmode="layer"
     id="layer1"
     transform="translate(-758.85712,-114.07646)">
    <rect
       style="fill:url(#linearGradient3489);fill-opacity:1;stroke:none"
       id="rect2991"
       width="48"
       height="48"
       x="758.85712"
       y="-162.07646"
       ry="1.9445436"
       transform="scale(1,-1)" />
    <rect
       style="fill:#ffffff;fill-opacity:1;stroke:none"
       id="rect3546"
       width="36.607143"
       height="36.607143"
       x="764.55353"
       y="119.77289"
       rx="4"
       ry="1.8571428" />
    <path
       style="fill:#c60000;fill-opacity:1;stroke:none"
       d="m 773.66962,118.87334 0,38.40625 0.0625,0 4.5625,-5 4.5625,-5 4.5625,5 4.5625,5 0.0625,0 0,-38.40625 -18.375,0 z m 9.21875,10.21875 2.03125,5.875 6.25,0.21875 -5,3.75 1.75,5.96875 -5.125,-3.5625 -5.15625,3.5 1.84375,-5.96875 -4.9375,-3.8125 6.25,-0.125 2.09375,-5.84375 z"
       id="rect3548"
       inkscape:connector-curvature="0" />
    <path
       inkscape:connector-curvature="0"
       style="opacity:0.15;fill:#ffffff;fill-opacity:1;stroke:none"
       d="m 758.85714,114.07648 0,48 16.78125,0 12.84375,-48 -29.625,0 z"
       id="rect3790" />
  </g>
</svg>
