<?xml version="1.0" encoding="UTF-8" standalone="no"?>
<!-- Created with Inkscape (http://www.inkscape.org/) -->

<svg
   xmlns:dc="http://purl.org/dc/elements/1.1/"
   xmlns:cc="http://creativecommons.org/ns#"
   xmlns:rdf="http://www.w3.org/1999/02/22-rdf-syntax-ns#"
   xmlns:svg="http://www.w3.org/2000/svg"
   xmlns="http://www.w3.org/2000/svg"
   xmlns:xlink="http://www.w3.org/1999/xlink"
   xmlns:sodipodi="http://sodipodi.sourceforge.net/DTD/sodipodi-0.dtd"
   xmlns:inkscape="http://www.inkscape.org/namespaces/inkscape"
   width="48"
   height="48"
   id="svg2"
   version="1.1"
   inkscape:version="0.48.2 r9819"
   sodipodi:docname="gksu.svg">
  <defs
     id="defs4">
    <linearGradient
       id="linearGradient3795">
      <stop
         style="stop-color:#cca252;stop-opacity:1;"
         offset="0"
         id="stop3797" />
      <stop
         style="stop-color:#e1ae59;stop-opacity:1;"
         offset="1"
         id="stop3799" />
    </linearGradient>
    <linearGradient
       id="linearGradient3698">
      <stop
         id="stop3700"
         offset="0"
         style="stop-color:#96d0e1;stop-opacity:1" />
      <stop
         style="stop-color:#89b7e1;stop-opacity:1"
         offset="0.67819428"
         id="stop3706" />
      <stop
         id="stop3702"
         offset="1"
         style="stop-color:#699dd3;stop-opacity:1" />
    </linearGradient>
    <linearGradient
       id="linearGradient3708">
      <stop
         id="stop3710"
         offset="0"
         style="stop-color:#658db6;stop-opacity:1" />
      <stop
         style="stop-color:#527fab;stop-opacity:1;"
         offset="0.76777935"
         id="stop3716" />
      <stop
         id="stop3712"
         offset="1"
         style="stop-color:#4071a0;stop-opacity:1" />
    </linearGradient>
    <linearGradient
       id="linearGradient3750">
      <stop
         style="stop-color:#d0e2f1;stop-opacity:1"
         offset="0"
         id="stop3752" />
      <stop
         id="stop3756"
         offset="0.85580856"
         style="stop-color:#cadef0;stop-opacity:1" />
      <stop
         style="stop-color:#95bee3;stop-opacity:1"
         offset="1"
         id="stop3754" />
    </linearGradient>
    <linearGradient
       id="linearGradient3803">
      <stop
         id="stop3805"
         offset="0"
         style="stop-color:#d7def0;stop-opacity:1;" />
      <stop
         style="stop-color:#ffffff;stop-opacity:1"
         offset="0.5"
         id="stop3811" />
      <stop
         id="stop3807"
         offset="1"
         style="stop-color:#d5def0;stop-opacity:1" />
    </linearGradient>
    <linearGradient
       inkscape:collect="always"
       xlink:href="#linearGradient3795"
       id="linearGradient3801"
       x1="23.204165"
       y1="1053.158"
       x2="23.204165"
       y2="1004.8474"
       gradientUnits="userSpaceOnUse"
       gradientTransform="translate(0,-3.4765625e-5)" />
    <linearGradient
       inkscape:collect="always"
       xlink:href="#linearGradient3795"
       id="linearGradient3859"
       x1="26.192217"
       y1="1024.0002"
       x2="28.641211"
       y2="1024.0002"
       gradientUnits="userSpaceOnUse" />
    <linearGradient
       inkscape:collect="always"
       xlink:href="#linearGradient3795"
       id="linearGradient3867"
       gradientUnits="userSpaceOnUse"
       x1="26.192217"
       y1="1024.0002"
       x2="28.641211"
       y2="1024.0002" />
    <linearGradient
       inkscape:collect="always"
       xlink:href="#linearGradient3795"
       id="linearGradient3869"
       gradientUnits="userSpaceOnUse"
       x1="26.192217"
       y1="1024.0002"
       x2="28.641211"
       y2="1024.0002" />
    <linearGradient
       inkscape:collect="always"
       xlink:href="#linearGradient3795"
       id="linearGradient3871"
       gradientUnits="userSpaceOnUse"
       x1="26.192217"
       y1="1024.0002"
       x2="28.641211"
       y2="1024.0002" />
    <linearGradient
       inkscape:collect="always"
       xlink:href="#linearGradient3795"
       id="linearGradient3877"
       gradientUnits="userSpaceOnUse"
       x1="29.718235"
       y1="1027.8575"
       x2="22.811094"
       y2="1015.5485" />
    <linearGradient
       inkscape:collect="always"
       xlink:href="#linearGradient3795"
       id="linearGradient3879"
       gradientUnits="userSpaceOnUse"
       x1="17.196316"
       y1="1006.2238"
       x2="31.448042"
       y2="1030.9086" />
    <linearGradient
       inkscape:collect="always"
       xlink:href="#linearGradient3795"
       id="linearGradient3895"
       x1="21.973417"
       y1="34.43922"
       x2="42.475323"
       y2="24.798252"
       gradientUnits="userSpaceOnUse" />
    <linearGradient
       y2="24.930641"
       x2="33.587574"
       y1="24.930641"
       x1="21.036427"
       gradientUnits="userSpaceOnUse"
       id="linearGradient4432"
       xlink:href="#linearGradient3619"
       inkscape:collect="always" />
    <linearGradient
       y2="24.930641"
       x2="33.587574"
       y1="24.930641"
       x1="21.036427"
       gradientUnits="userSpaceOnUse"
       id="linearGradient4430"
       xlink:href="#linearGradient4081"
       inkscape:collect="always" />
    <linearGradient
       y2="24.930641"
       x2="33.587574"
       y1="24.930641"
       x1="21.036427"
       gradientUnits="userSpaceOnUse"
       id="linearGradient6470"
       xlink:href="#linearGradient3619"
       inkscape:collect="always" />
    <linearGradient
       y2="24.930641"
       x2="33.587574"
       y1="24.930641"
       x1="21.036427"
       gradientUnits="userSpaceOnUse"
       id="linearGradient6468"
       xlink:href="#linearGradient4081"
       inkscape:collect="always" />
    <linearGradient
       id="linearGradient8838">
      <stop
         id="stop8840"
         style="stop-color:#000000;stop-opacity:1"
         offset="0" />
      <stop
         id="stop8842"
         style="stop-color:#000000;stop-opacity:0"
         offset="1" />
    </linearGradient>
    <radialGradient
       cx="62.625"
       cy="4.625"
       r="10.625"
       fx="62.625"
       fy="4.625"
       id="radialGradient2436"
       xlink:href="#linearGradient8838"
       gradientUnits="userSpaceOnUse"
       gradientTransform="matrix(2.1647059,0,0,0.7529402,-111.56471,36.517647)" />
    <linearGradient
       id="linearGradient3397">
      <stop
         id="stop3399"
         style="stop-color:#aaaaaa;stop-opacity:1"
         offset="0" />
      <stop
         id="stop3401"
         style="stop-color:#8c8c8c;stop-opacity:1"
         offset="1" />
    </linearGradient>
    <linearGradient
       x1="37.201294"
       y1="1"
       x2="37.201294"
       y2="45"
       id="linearGradient2517"
       xlink:href="#linearGradient3397"
       gradientUnits="userSpaceOnUse" />
    <linearGradient
       x1="63.9995"
       y1="3.1001"
       x2="63.9995"
       y2="122.8994"
       id="linearGradient3309"
       gradientUnits="userSpaceOnUse">
      <stop
         id="stop3311"
         style="stop-color:#f6f6f6;stop-opacity:1"
         offset="0" />
      <stop
         id="stop3313"
         style="stop-color:#d2d2d2;stop-opacity:1"
         offset="1" />
    </linearGradient>
    <linearGradient
       x1="20.758585"
       y1="1"
       x2="20.758585"
       y2="45.017357"
       id="linearGradient2515"
       xlink:href="#linearGradient3309"
       gradientUnits="userSpaceOnUse" />
    <linearGradient
       id="linearGradient5128">
      <stop
         id="stop5130"
         style="stop-color:#e5e5e5;stop-opacity:1"
         offset="0" />
      <stop
         id="stop5132"
         style="stop-color:#ababab;stop-opacity:1"
         offset="1" />
    </linearGradient>
    <linearGradient
       x1="86.132919"
       y1="105.105"
       x2="84.63858"
       y2="20.895"
       id="linearGradient2512"
       xlink:href="#linearGradient5128"
       gradientUnits="userSpaceOnUse"
       gradientTransform="matrix(0.3244803,0,0,0.3244803,3.2332655,2.5577454)" />
    <linearGradient
       id="linearGradient3637">
      <stop
         id="stop3639"
         style="stop-color:#f0f0f0;stop-opacity:1"
         offset="0" />
      <stop
         id="stop3641"
         style="stop-color:#dcdcdc;stop-opacity:1"
         offset="1" />
    </linearGradient>
    <linearGradient
       x1="45.447727"
       y1="92.539597"
       x2="45.447727"
       y2="7.0165396"
       id="ButtonShadow"
       gradientUnits="userSpaceOnUse"
       gradientTransform="scale(1.0058652,0.994169)">
      <stop
         id="stop3750-5"
         style="stop-color:#000000;stop-opacity:1"
         offset="0" />
      <stop
         id="stop3752-2"
         style="stop-color:#000000;stop-opacity:0.58823532"
         offset="1" />
    </linearGradient>
    <linearGradient
       id="linearGradient3737">
      <stop
         id="stop3739"
         style="stop-color:#ffffff;stop-opacity:1"
         offset="0" />
      <stop
         id="stop3741-5"
         style="stop-color:#ffffff;stop-opacity:0"
         offset="1" />
    </linearGradient>
    <linearGradient
       id="linearGradient3700">
      <stop
         id="stop3702-4"
         style="stop-color:#2276c5;stop-opacity:1"
         offset="0" />
      <stop
         id="stop3704"
         style="stop-color:#68baf4;stop-opacity:1"
         offset="1" />
    </linearGradient>
    <filter
       color-interpolation-filters="sRGB"
       id="filter3174">
      <feGaussianBlur
         id="feGaussianBlur3176"
         stdDeviation="1.71" />
    </filter>
    <linearGradient
       x1="36.357143"
       y1="6"
       x2="36.357143"
       y2="63.893143"
       id="linearGradient3188"
       xlink:href="#linearGradient3737"
       gradientUnits="userSpaceOnUse" />
    <radialGradient
       cx="48"
       cy="90.171875"
       r="42"
       fx="48"
       fy="90.171875"
       id="radialGradient3619"
       xlink:href="#linearGradient3737"
       gradientUnits="userSpaceOnUse"
       gradientTransform="matrix(1.1573129,0,0,0.99590774,-7.5510206,0.19713193)" />
    <linearGradient
       x1="48"
       y1="90"
       x2="48"
       y2="5.9877172"
       id="linearGradient2843"
       xlink:href="#linearGradient3700"
       gradientUnits="userSpaceOnUse"
       gradientTransform="translate(0,100)" />
    <clipPath
       id="clipPath3625">
      <path
         d="M 0,0 0,96 96,96 96,0 0,0 z m 12,6 72,0 c 3.324,0 6,2.676 6,6 l 0,72 c 0,3.324 -2.676,6 -6,6 L 12,90 C 8.676,90 6,87.324 6,84 L 6,12 C 6,8.676 8.676,6 12,6 z"
         inkscape:connector-curvature="0"
         id="path3627-4"
         style="fill:#ffffff;fill-opacity:1;stroke:none" />
    </clipPath>
    <linearGradient
       x1="44.512066"
       y1="6"
       x2="44.512066"
       y2="90.015434"
       id="linearGradient3643"
       xlink:href="#linearGradient3637"
       gradientUnits="userSpaceOnUse" />
    <clipPath
       id="clipPath3649">
      <rect
         width="76"
         height="76"
         rx="4"
         ry="4"
         x="10"
         y="10"
         id="rect3651"
         style="fill:#ffffff;fill-opacity:1;fill-rule:nonzero;stroke:none" />
    </clipPath>
    <filter
       color-interpolation-filters="sRGB"
       id="filter3657">
      <feGaussianBlur
         id="feGaussianBlur3659"
         stdDeviation="1.14" />
    </filter>
    <linearGradient
       x1="20.758585"
       y1="1"
       x2="20.758585"
       y2="45.017357"
       id="linearGradient3665"
       xlink:href="#linearGradient4081"
       gradientUnits="userSpaceOnUse"
       gradientTransform="matrix(0.93022994,0,0,-0.93022994,23.674475,61.395341)" />
    <linearGradient
       x1="20.758585"
       y1="1"
       x2="20.758585"
       y2="45.017357"
       id="linearGradient3669"
       xlink:href="#linearGradient4081"
       gradientUnits="userSpaceOnUse"
       gradientTransform="matrix(0.47268421,0.12665535,0.12665535,-0.47268421,44.47921,74.733655)" />
    <linearGradient
       id="linearGradient4081">
      <stop
         id="stop4083"
         style="stop-color:#aaaaaa;stop-opacity:1"
         offset="0" />
      <stop
         id="stop4085"
         style="stop-color:#f0f0f0;stop-opacity:1"
         offset="1" />
    </linearGradient>
    <linearGradient
       x1="45.447727"
       y1="92.539597"
       x2="45.447727"
       y2="7.0165396"
       id="ButtonShadow-0"
       gradientUnits="userSpaceOnUse"
       gradientTransform="matrix(1.0058652,0,0,0.994169,100,0)">
      <stop
         id="stop3750-8"
         style="stop-color:#000000;stop-opacity:1"
         offset="0" />
      <stop
         id="stop3752-5"
         style="stop-color:#000000;stop-opacity:0.58823532"
         offset="1" />
    </linearGradient>
    <linearGradient
       x1="32.251034"
       y1="6.1317081"
       x2="32.251034"
       y2="90.238609"
       id="linearGradient3780"
       xlink:href="#ButtonShadow-0"
       gradientUnits="userSpaceOnUse"
       gradientTransform="matrix(1.0238095,0,0,-1.0119048,-1.1428571,98.071429)" />
    <linearGradient
       x1="32.251034"
       y1="6.1317081"
       x2="32.251034"
       y2="90.238609"
       id="linearGradient3772-5"
       xlink:href="#ButtonShadow-0"
       gradientUnits="userSpaceOnUse"
       gradientTransform="matrix(1.0238095,0,0,-1.0119048,-1.1428571,98.071429)" />
    <linearGradient
       x1="32.251034"
       y1="6.1317081"
       x2="32.251034"
       y2="90.238609"
       id="linearGradient3725-6"
       xlink:href="#ButtonShadow-0"
       gradientUnits="userSpaceOnUse"
       gradientTransform="matrix(1.0238095,0,0,-1.0119048,-1.1428571,98.071429)" />
    <linearGradient
       x1="32.251034"
       y1="6.1317081"
       x2="32.251034"
       y2="90.238609"
       id="linearGradient3721-5"
       xlink:href="#ButtonShadow-0"
       gradientUnits="userSpaceOnUse"
       gradientTransform="matrix(1,0,0,-1,0,97)" />
    <linearGradient
       x1="32.251034"
       y1="6.1317081"
       x2="32.251034"
       y2="90.238609"
       id="linearGradient3289"
       xlink:href="#ButtonShadow-0"
       gradientUnits="userSpaceOnUse"
       gradientTransform="matrix(1.0238095,0,0,-1.0119048,-1.1428571,98.071429)" />
    <linearGradient
       x1="36.357143"
       y1="6"
       x2="36.357143"
       y2="63.893143"
       id="linearGradient3188-2"
       xlink:href="#linearGradient3737-2"
       gradientUnits="userSpaceOnUse" />
    <linearGradient
       id="linearGradient3737-2">
      <stop
         id="stop3739-0"
         style="stop-color:#ffffff;stop-opacity:1"
         offset="0" />
      <stop
         id="stop3741-1"
         style="stop-color:#ffffff;stop-opacity:0"
         offset="1" />
    </linearGradient>
    <radialGradient
       cx="48"
       cy="90.171875"
       r="42"
       fx="48"
       fy="90.171875"
       id="radialGradient3619-5"
       xlink:href="#linearGradient3737-2"
       gradientUnits="userSpaceOnUse"
       gradientTransform="matrix(1.1573129,0,0,0.99590774,-7.551021,0.1971319)" />
    <linearGradient
       id="linearGradient3822">
      <stop
         id="stop3824"
         offset="0"
         style="stop-color:#ffffff;stop-opacity:1;" />
      <stop
         id="stop3826"
         offset="1"
         style="stop-color:#ffffff;stop-opacity:0;" />
    </linearGradient>
    <linearGradient
       inkscape:collect="always"
       id="linearGradient3804">
      <stop
         style="stop-color:#000000;stop-opacity:1;"
         offset="0"
         id="stop3806" />
      <stop
         style="stop-color:#000000;stop-opacity:0;"
         offset="1"
         id="stop3808" />
    </linearGradient>
    <linearGradient
       inkscape:collect="always"
       id="linearGradient3772">
      <stop
         style="stop-color:#333333;stop-opacity:1;"
         offset="0"
         id="stop3775" />
      <stop
         style="stop-color:#333333;stop-opacity:0;"
         offset="1"
         id="stop3777" />
    </linearGradient>
    <linearGradient
       id="linearGradient3759">
      <stop
         style="stop-color:#3333c8;stop-opacity:1;"
         offset="0"
         id="stop3761" />
      <stop
         style="stop-color:#f0f0f0;stop-opacity:1;"
         offset="0.32948276"
         id="stop3764" />
      <stop
         style="stop-color:#969696;stop-opacity:1;"
         offset="1"
         id="stop3766" />
    </linearGradient>
    <linearGradient
       id="linearGradient3845">
      <stop
         style="stop-color:#646464;stop-opacity:1;"
         offset="0"
         id="stop3851" />
      <stop
         style="stop-color:#646464;stop-opacity:0;"
         offset="1"
         id="stop3853" />
    </linearGradient>
    <linearGradient
       id="linearGradient3812">
      <stop
         style="stop-color:#f0f0f0;stop-opacity:1;"
         offset="0"
         id="stop3814" />
      <stop
         style="stop-color:#646464;stop-opacity:1;"
         offset="1"
         id="stop3816" />
    </linearGradient>
    <linearGradient
       id="linearGradient3777">
      <stop
         id="stop3779"
         offset="0"
         style="stop-color:#b4b4b4;stop-opacity:1;" />
      <stop
         style="stop-color:#f0f0f0;stop-opacity:1;"
         offset="0.125"
         id="stop3787" />
      <stop
         style="stop-color:#b4b4b4;stop-opacity:1;"
         offset="0.46778932"
         id="stop3785" />
      <stop
         style="stop-color:#f0f0f0;stop-opacity:1;"
         offset="0.77607095"
         id="stop3781" />
      <stop
         id="stop3783"
         offset="1"
         style="stop-color:#b4b4b4;stop-opacity:1;" />
    </linearGradient>
    <linearGradient
       id="linearGradient3755">
      <stop
         style="stop-color:#b4b4b4;stop-opacity:1;"
         offset="0"
         id="stop3757" />
      <stop
         id="stop3763"
         offset="0.5"
         style="stop-color:#f0f0f0;stop-opacity:1;" />
      <stop
         style="stop-color:#b4b4b4;stop-opacity:1;"
         offset="1"
         id="stop3759" />
    </linearGradient>
    <linearGradient
       id="linearGradient3738">
      <stop
         style="stop-color:#646464;stop-opacity:1;"
         offset="0"
         id="stop3741" />
      <stop
         style="stop-color:#646464;stop-opacity:0"
         offset="1"
         id="stop3743" />
    </linearGradient>
    <linearGradient
       id="linearGradient3721">
      <stop
         id="stop3733"
         offset="0"
         style="stop-color:#c8c8c8;stop-opacity:1;" />
      <stop
         id="stop3731"
         offset="0.32948276"
         style="stop-color:#f0f0f0;stop-opacity:1;" />
      <stop
         id="stop3729"
         offset="1"
         style="stop-color:#969696;stop-opacity:1;" />
    </linearGradient>
    <linearGradient
       id="linearGradient3705">
      <stop
         style="stop-color:#646464;stop-opacity:1;"
         offset="0"
         id="stop3707" />
      <stop
         id="stop3717"
         offset="0.23085631"
         style="stop-color:#c8c8c8;stop-opacity:1;" />
      <stop
         id="stop3715"
         offset="0.50891"
         style="stop-color:#f0f0f0;stop-opacity:1;" />
      <stop
         id="stop3713"
         offset="0.80074656"
         style="stop-color:#c8c8c8;stop-opacity:1;" />
      <stop
         style="stop-color:#646464;stop-opacity:1;"
         offset="1"
         id="stop3709" />
    </linearGradient>
    <linearGradient
       id="linearGradient3905">
      <stop
         style="stop-color:#bebebe;stop-opacity:1;"
         offset="0"
         id="stop3907" />
      <stop
         style="stop-color:#969696;stop-opacity:1;"
         offset="1"
         id="stop3909" />
    </linearGradient>
    <linearGradient
       id="linearGradient3897">
      <stop
         style="stop-color:#a0a0a0;stop-opacity:1;"
         offset="0"
         id="stop3899" />
      <stop
         style="stop-color:#c8c8c8;stop-opacity:1;"
         offset="1"
         id="stop3901" />
    </linearGradient>
    <linearGradient
       id="linearGradient3889">
      <stop
         style="stop-color:#c8c8c8;stop-opacity:1;"
         offset="0"
         id="stop3891" />
      <stop
         style="stop-color:#f0f0f0;stop-opacity:1;"
         offset="1"
         id="stop3893" />
    </linearGradient>
    <linearGradient
       id="linearGradient3676">
      <stop
         style="stop-color:#ffffff;stop-opacity:0.58823532;"
         offset="0"
         id="stop3679" />
      <stop
         style="stop-color:#000000;stop-opacity:0;"
         offset="1"
         id="stop3681" />
    </linearGradient>
    <linearGradient
       id="linearGradient3788">
      <stop
         style="stop-color:#cb4e00;stop-opacity:1;"
         offset="0"
         id="stop3790" />
      <stop
         style="stop-color:#cb4e00;stop-opacity:0;"
         offset="1"
         id="stop3792" />
    </linearGradient>
    <linearGradient
       id="linearGradient3766">
      <stop
         style="stop-color:#ffffff;stop-opacity:0;"
         offset="0"
         id="stop3768" />
      <stop
         id="stop3770"
         offset="0.49821591"
         style="stop-color:#ffffff;stop-opacity:0;" />
      <stop
         id="stop3772"
         offset="0.52774066"
         style="stop-color:#ffffff;stop-opacity:0.78431374;" />
      <stop
         id="stop3774"
         offset="0.71785575"
         style="stop-color:#ffffff;stop-opacity:0.58823532;" />
      <stop
         style="stop-color:#ffffff;stop-opacity:0;"
         offset="1"
         id="stop3776" />
    </linearGradient>
    <linearGradient
       id="linearGradient3748">
      <stop
         id="stop3750"
         offset="0"
         style="stop-color:#8c5900;stop-opacity:0;" />
      <stop
         style="stop-color:#ebc000;stop-opacity:0;"
         offset="0.1931276"
         id="stop3752-7" />
      <stop
         style="stop-color:#fefa00;stop-opacity:0;"
         offset="0.51009506"
         id="stop3754-6" />
      <stop
         style="stop-color:#ebc003;stop-opacity:0.78431374;"
         offset="0.59583193"
         id="stop3756-4" />
      <stop
         id="stop3758"
         offset="1"
         style="stop-color:#ca8400;stop-opacity:0.78431374;" />
    </linearGradient>
    <linearGradient
       id="linearGradient3730">
      <stop
         style="stop-color:#ffffff;stop-opacity:0;"
         offset="0"
         id="stop3732" />
      <stop
         id="stop3740"
         offset="0.3594332"
         style="stop-color:#ffffff;stop-opacity:0;" />
      <stop
         id="stop3738"
         offset="0.63468701"
         style="stop-color:#ffffff;stop-opacity:0.74509805;" />
      <stop
         style="stop-color:#ffffff;stop-opacity:0;"
         offset="1"
         id="stop3734" />
    </linearGradient>
    <linearGradient
       id="linearGradient3704">
      <stop
         id="stop3706-0"
         offset="0"
         style="stop-color:#fff000;stop-opacity:1;" />
      <stop
         id="stop3708"
         offset="1"
         style="stop-color:#976500;stop-opacity:1;" />
    </linearGradient>
    <linearGradient
       id="linearGradient3682">
      <stop
         style="stop-color:#fadf00;stop-opacity:1"
         offset="0"
         id="stop3684" />
      <stop
         style="stop-color:#976500;stop-opacity:1;"
         offset="1"
         id="stop3686" />
    </linearGradient>
    <linearGradient
       id="linearGradient3668">
      <stop
         style="stop-color:#8c5900;stop-opacity:1;"
         offset="0"
         id="stop3670" />
      <stop
         id="stop3680"
         offset="0.1931276"
         style="stop-color:#ebc000;stop-opacity:1" />
      <stop
         id="stop3678"
         offset="0.51009506"
         style="stop-color:#fefa00;stop-opacity:1;" />
      <stop
         id="stop3676"
         offset="0.81011766"
         style="stop-color:#ebc003;stop-opacity:1;" />
      <stop
         style="stop-color:#ca8400;stop-opacity:1;"
         offset="1"
         id="stop3672" />
    </linearGradient>
    <linearGradient
       id="linearGradient3634">
      <stop
         style="stop-color:#646464;stop-opacity:1;"
         offset="0"
         id="stop3636" />
      <stop
         id="stop3649"
         offset="0.15487957"
         style="stop-color:#ffffff;stop-opacity:1;" />
      <stop
         id="stop3642"
         offset="0.52534908"
         style="stop-color:#c8c8c8;stop-opacity:1;" />
      <stop
         style="stop-color:#969696;stop-opacity:1;"
         offset="1"
         id="stop3638" />
    </linearGradient>
    <linearGradient
       id="linearGradient3614">
      <stop
         style="stop-color:#646464;stop-opacity:1;"
         offset="0"
         id="stop3616" />
      <stop
         id="stop3647"
         offset="0.20557238"
         style="stop-color:#b4b4b4;stop-opacity:1;" />
      <stop
         id="stop3645"
         offset="0.37812805"
         style="stop-color:#dcdcdc;stop-opacity:1;" />
      <stop
         id="stop3624"
         offset="0.59117258"
         style="stop-color:#f0f0f0;stop-opacity:1;" />
      <stop
         id="stop3622"
         offset="0.7663672"
         style="stop-color:#b4b4b4;stop-opacity:1;" />
      <stop
         style="stop-color:#646464;stop-opacity:1;"
         offset="1"
         id="stop3618" />
    </linearGradient>
    <inkscape:perspective
       sodipodi:type="inkscape:persp3d"
       inkscape:vp_x="0 : 526.18109 : 1"
       inkscape:vp_y="0 : 1000 : 0"
       inkscape:vp_z="744.09448 : 526.18109 : 1"
       inkscape:persp3d-origin="372.04724 : 350.78739 : 1"
       id="perspective10" />
    <inkscape:perspective
       id="perspective2824"
       inkscape:persp3d-origin="0.5 : 0.33333333 : 1"
       inkscape:vp_z="1 : 0.5 : 1"
       inkscape:vp_y="0 : 1000 : 0"
       inkscape:vp_x="0 : 0.5 : 1"
       sodipodi:type="inkscape:persp3d" />
    <linearGradient
       inkscape:collect="always"
       xlink:href="#linearGradient3748"
       id="linearGradient3760"
       gradientUnits="userSpaceOnUse"
       x1="12.979694"
       y1="1045.5385"
       x2="20.479694"
       y2="1045.5385" />
    <linearGradient
       inkscape:collect="always"
       xlink:href="#linearGradient3766"
       id="linearGradient3764"
       gradientUnits="userSpaceOnUse"
       x1="12.979694"
       y1="1045.5385"
       x2="20.479694"
       y2="1045.5385"
       gradientTransform="translate(-4e-7,-3.814e-5)" />
    <linearGradient
       gradientTransform="matrix(-1,0,0,-1,-8.0401786,1051.9426)"
       y2="18.75"
       x2="24.001602"
       y1="-13.340853"
       x1="24.001602"
       gradientUnits="userSpaceOnUse"
       id="linearGradient4054"
       xlink:href="#linearGradient4056"
       inkscape:collect="always" />
    <linearGradient
       gradientTransform="translate(-35.357143,986.14791)"
       gradientUnits="userSpaceOnUse"
       y2="18.75"
       x2="24.001602"
       y1="-6.5223217"
       x1="24.001602"
       id="linearGradient4050"
       xlink:href="#linearGradient4044"
       inkscape:collect="always" />
    <linearGradient
       gradientTransform="matrix(1.0084114,0,0,1.0084114,-0.18624787,1004.1364)"
       gradientUnits="userSpaceOnUse"
       y2="37.635307"
       x2="24"
       y1="10.35"
       x1="24"
       id="linearGradient4040"
       xlink:href="#linearGradient4034"
       inkscape:collect="always" />
    <inkscape:perspective
       sodipodi:type="inkscape:persp3d"
       inkscape:vp_x="0 : 0.5 : 1"
       inkscape:vp_y="0 : 1000 : 0"
       inkscape:vp_z="1 : 0.5 : 1"
       inkscape:persp3d-origin="0.5 : 0.33333333 : 1"
       id="perspective3118" />
    <inkscape:perspective
       id="perspective10-2"
       inkscape:persp3d-origin="372.04724 : 350.78739 : 1"
       inkscape:vp_z="744.09448 : 526.18109 : 1"
       inkscape:vp_y="0 : 1000 : 0"
       inkscape:vp_x="0 : 526.18109 : 1"
       sodipodi:type="inkscape:persp3d" />
    <linearGradient
       id="linearGradient4026">
      <stop
         id="stop4028"
         offset="0"
         style="stop-color:#969696;stop-opacity:1;" />
      <stop
         id="stop4030"
         offset="1"
         style="stop-color:#9dd144;stop-opacity:0;" />
    </linearGradient>
    <linearGradient
       id="linearGradient4034">
      <stop
         id="stop4036"
         offset="0"
         style="stop-color:#828282;stop-opacity:1;" />
      <stop
         id="stop4038"
         offset="1"
         style="stop-color:#dcdcdc;stop-opacity:1;" />
    </linearGradient>
    <linearGradient
       id="linearGradient4044">
      <stop
         id="stop4046"
         offset="0"
         style="stop-color:#ffffff;stop-opacity:1;" />
      <stop
         id="stop4048"
         offset="1"
         style="stop-color:#ffffff;stop-opacity:0;" />
    </linearGradient>
    <linearGradient
       id="linearGradient4056">
      <stop
         style="stop-color:#505050;stop-opacity:1;"
         offset="0"
         id="stop4058" />
      <stop
         style="stop-color:#505050;stop-opacity:0;"
         offset="1"
         id="stop4060" />
    </linearGradient>
    <linearGradient
       id="linearGradient3607">
      <stop
         id="stop3609"
         offset="0"
         style="stop-color:#dcdcdc;stop-opacity:1;" />
      <stop
         id="stop3611"
         offset="1"
         style="stop-color:#aaaaaa;stop-opacity:1;" />
    </linearGradient>
    <linearGradient
       id="linearGradient3615">
      <stop
         id="stop3617"
         offset="0"
         style="stop-color:#bebebe;stop-opacity:1;" />
      <stop
         id="stop3619"
         offset="1"
         style="stop-color:#a0a0a0;stop-opacity:1;" />
    </linearGradient>
    <linearGradient
       id="linearGradient3619">
      <stop
         id="stop3621"
         offset="0"
         style="stop-color:#787878;stop-opacity:1;" />
      <stop
         id="stop3623"
         offset="1"
         style="stop-color:#f0f0f0;stop-opacity:1;" />
    </linearGradient>
    <linearGradient
       inkscape:collect="always"
       xlink:href="#linearGradient3705"
       id="linearGradient3851"
       gradientUnits="userSpaceOnUse"
       gradientTransform="translate(-39.285714,11.428571)"
       x1="58.962406"
       y1="1023.2551"
       x2="67.859726"
       y2="1023.2551" />
    <linearGradient
       inkscape:collect="always"
       xlink:href="#linearGradient3721"
       id="linearGradient3853"
       gradientUnits="userSpaceOnUse"
       gradientTransform="translate(-39.262149,11.444594)"
       x1="54.230263"
       y1="1002.3824"
       x2="72.793266"
       y2="1008.0967" />
    <linearGradient
       inkscape:collect="always"
       xlink:href="#linearGradient3845"
       id="linearGradient3855"
       gradientUnits="userSpaceOnUse"
       gradientTransform="translate(-39.285714,11.428571)"
       x1="72.78125"
       y1="1013.2798"
       x2="65.12587"
       y2="1009.4286" />
    <linearGradient
       inkscape:collect="always"
       xlink:href="#linearGradient3812"
       id="linearGradient3858"
       gradientUnits="userSpaceOnUse"
       x1="63.57143"
       y1="1006.5033"
       x2="63.57143"
       y2="1010.7657" />
    <linearGradient
       inkscape:collect="always"
       xlink:href="#linearGradient3755"
       id="linearGradient3860"
       gradientUnits="userSpaceOnUse"
       x1="63.571426"
       y1="1007.1501"
       x2="63.571426"
       y2="1010.1188" />
    <linearGradient
       inkscape:collect="always"
       xlink:href="#linearGradient3777"
       id="linearGradient3862"
       gradientUnits="userSpaceOnUse"
       gradientTransform="translate(259.12667,-50.36259)"
       x1="61.618301"
       y1="1006.8152"
       x2="61.618301"
       y2="1010.4536" />
    <linearGradient
       inkscape:collect="always"
       xlink:href="#linearGradient3777"
       id="linearGradient3864"
       gradientUnits="userSpaceOnUse"
       gradientTransform="translate(261.05852,-50.880228)"
       x1="61.618301"
       y1="1006.8152"
       x2="61.618301"
       y2="1010.4536" />
    <linearGradient
       inkscape:collect="always"
       xlink:href="#linearGradient3777"
       id="linearGradient3869-9"
       gradientUnits="userSpaceOnUse"
       gradientTransform="translate(260.10988,-50.62604)"
       x1="61.618301"
       y1="1006.8152"
       x2="61.618301"
       y2="1010.4536" />
    <linearGradient
       inkscape:collect="always"
       xlink:href="#linearGradient3777"
       id="linearGradient3871-1"
       gradientUnits="userSpaceOnUse"
       gradientTransform="translate(262.04173,-51.143678)"
       x1="61.618301"
       y1="1006.8152"
       x2="61.618301"
       y2="1010.4536" />
    <linearGradient
       inkscape:collect="always"
       xlink:href="#linearGradient3777"
       id="linearGradient3873"
       gradientUnits="userSpaceOnUse"
       gradientTransform="translate(263.0465,-51.412905)"
       x1="61.618301"
       y1="1006.8152"
       x2="61.618301"
       y2="1010.4536" />
    <linearGradient
       inkscape:collect="always"
       xlink:href="#linearGradient3676"
       id="linearGradient3875"
       gradientUnits="userSpaceOnUse"
       gradientTransform="translate(25.078477,-3.6760333)"
       x1="36.695298"
       y1="1030.7966"
       x2="41.465527"
       y2="1030.7966" />
    <linearGradient
       inkscape:collect="always"
       xlink:href="#linearGradient3772"
       id="linearGradient3877-1"
       gradientUnits="userSpaceOnUse"
       x1="25.186865"
       y1="1012.0792"
       x2="30.276894"
       y2="1015.2991" />
    <linearGradient
       inkscape:collect="always"
       xlink:href="#linearGradient3772"
       id="linearGradient3879-0"
       gradientUnits="userSpaceOnUse"
       gradientTransform="translate(-39.262149,11.444594)"
       x1="75.127792"
       y1="999.01636"
       x2="68.824013"
       y2="1001.667" />
    <linearGradient
       inkscape:collect="always"
       xlink:href="#linearGradient3822"
       id="linearGradient3881"
       gradientUnits="userSpaceOnUse"
       gradientTransform="translate(-0.13392858,0.13392858)"
       x1="28.617702"
       y1="1011.9861"
       x2="32.4375"
       y2="1017.081" />
    <linearGradient
       inkscape:collect="always"
       xlink:href="#linearGradient3804"
       id="linearGradient3883"
       gradientUnits="userSpaceOnUse"
       x1="28.617702"
       y1="1011.9861"
       x2="32.4375"
       y2="1017.081" />
    <linearGradient
       inkscape:collect="always"
       xlink:href="#linearGradient3738"
       id="linearGradient3885"
       gradientUnits="userSpaceOnUse"
       x1="38.4375"
       y1="42.46796"
       x2="38.4375"
       y2="48.978466" />
    <linearGradient
       inkscape:collect="always"
       xlink:href="#linearGradient3614"
       id="linearGradient3922"
       gradientUnits="userSpaceOnUse"
       gradientTransform="matrix(0.62736208,-0.62736208,0.70710678,0.70710678,-783.00879,292.36108)"
       x1="14.443695"
       y1="1018.1508"
       x2="19.015695"
       y2="1018.1508" />
    <linearGradient
       inkscape:collect="always"
       xlink:href="#linearGradient3668"
       id="linearGradient3924"
       gradientUnits="userSpaceOnUse"
       gradientTransform="matrix(0.70710678,-0.70710678,0.70710678,0.70710678,-784.34289,293.69518)"
       x1="12.979694"
       y1="1045.5385"
       x2="20.479694"
       y2="1045.5385" />
    <linearGradient
       inkscape:collect="always"
       xlink:href="#linearGradient3730"
       id="linearGradient3926"
       gradientUnits="userSpaceOnUse"
       gradientTransform="matrix(0.70710678,-0.70710678,0.70710678,0.70710678,-784.34289,293.69518)"
       x1="12.979694"
       y1="1045.5385"
       x2="20.479694"
       y2="1045.5385" />
    <linearGradient
       inkscape:collect="always"
       xlink:href="#linearGradient3682"
       id="linearGradient3929"
       gradientUnits="userSpaceOnUse"
       gradientTransform="translate(-762.28803,-346.94032)"
       x1="13.973214"
       y1="1049.6167"
       x2="15.803571"
       y2="1049.6167" />
    <linearGradient
       inkscape:collect="always"
       xlink:href="#linearGradient3704"
       id="linearGradient3931"
       gradientUnits="userSpaceOnUse"
       gradientTransform="translate(-758.4666,-346.94032)"
       x1="13.973214"
       y1="1049.6167"
       x2="15.803571"
       y2="1049.6167" />
    <linearGradient
       inkscape:collect="always"
       xlink:href="#linearGradient3634"
       id="linearGradient3933"
       gradientUnits="userSpaceOnUse"
       gradientTransform="matrix(0.55901126,-0.55901126,0.66175373,0.66175373,-736.4706,336.61229)"
       x1="16.729694"
       y1="1000.1935"
       x2="16.729694"
       y2="1007.9633" />
    <radialGradient
       inkscape:collect="always"
       xlink:href="#linearGradient3788"
       id="radialGradient3935"
       gradientUnits="userSpaceOnUse"
       gradientTransform="matrix(-0.59679792,0.59679834,-0.248035,-0.24803483,226.93251,1261.3425)"
       cx="16.729694"
       cy="1033.7007"
       fx="16.729694"
       fy="1033.7007"
       r="3.75" />
    <linearGradient
       inkscape:collect="always"
       xlink:href="#linearGradient3730"
       id="linearGradient3937"
       gradientUnits="userSpaceOnUse"
       gradientTransform="matrix(0.70710678,-0.70710678,0.70710678,0.70710678,-784.34289,293.69518)"
       x1="12.979694"
       y1="1035.3344"
       x2="20.479694"
       y2="1035.3344" />
    <linearGradient
       inkscape:collect="always"
       xlink:href="#linearGradient3705"
       id="linearGradient4001"
       gradientUnits="userSpaceOnUse"
       gradientTransform="translate(-39.285714,11.428571)"
       x1="58.962406"
       y1="1023.2551"
       x2="67.859726"
       y2="1023.2551" />
    <linearGradient
       inkscape:collect="always"
       xlink:href="#linearGradient3721"
       id="linearGradient4003"
       gradientUnits="userSpaceOnUse"
       gradientTransform="translate(-39.262149,11.444594)"
       x1="54.230263"
       y1="1002.3824"
       x2="72.793266"
       y2="1008.0967" />
    <linearGradient
       inkscape:collect="always"
       xlink:href="#linearGradient3845"
       id="linearGradient4005"
       gradientUnits="userSpaceOnUse"
       gradientTransform="translate(-39.285714,11.428571)"
       x1="72.78125"
       y1="1013.2798"
       x2="65.12587"
       y2="1009.4286" />
    <linearGradient
       inkscape:collect="always"
       xlink:href="#linearGradient3812"
       id="linearGradient4007"
       gradientUnits="userSpaceOnUse"
       x1="63.57143"
       y1="1006.5033"
       x2="63.57143"
       y2="1010.7657" />
    <linearGradient
       inkscape:collect="always"
       xlink:href="#linearGradient3755"
       id="linearGradient4009"
       gradientUnits="userSpaceOnUse"
       x1="63.571426"
       y1="1007.1501"
       x2="63.571426"
       y2="1010.1188" />
    <linearGradient
       inkscape:collect="always"
       xlink:href="#linearGradient3777"
       id="linearGradient4011"
       gradientUnits="userSpaceOnUse"
       gradientTransform="translate(259.12667,-50.36259)"
       x1="61.618301"
       y1="1006.8152"
       x2="61.618301"
       y2="1010.4536" />
    <linearGradient
       inkscape:collect="always"
       xlink:href="#linearGradient3777"
       id="linearGradient4013"
       gradientUnits="userSpaceOnUse"
       gradientTransform="translate(261.05852,-50.880228)"
       x1="61.618301"
       y1="1006.8152"
       x2="61.618301"
       y2="1010.4536" />
    <linearGradient
       inkscape:collect="always"
       xlink:href="#linearGradient3777"
       id="linearGradient4015"
       gradientUnits="userSpaceOnUse"
       gradientTransform="translate(260.10988,-50.62604)"
       x1="61.618301"
       y1="1006.8152"
       x2="61.618301"
       y2="1010.4536" />
    <linearGradient
       inkscape:collect="always"
       xlink:href="#linearGradient3777"
       id="linearGradient4017"
       gradientUnits="userSpaceOnUse"
       gradientTransform="translate(262.04173,-51.143678)"
       x1="61.618301"
       y1="1006.8152"
       x2="61.618301"
       y2="1010.4536" />
    <linearGradient
       inkscape:collect="always"
       xlink:href="#linearGradient3777"
       id="linearGradient4019"
       gradientUnits="userSpaceOnUse"
       gradientTransform="translate(263.0465,-51.412905)"
       x1="61.618301"
       y1="1006.8152"
       x2="61.618301"
       y2="1010.4536" />
    <linearGradient
       inkscape:collect="always"
       xlink:href="#linearGradient3676"
       id="linearGradient4021"
       gradientUnits="userSpaceOnUse"
       gradientTransform="translate(25.078477,-3.6760333)"
       x1="36.695298"
       y1="1030.7966"
       x2="41.465527"
       y2="1030.7966" />
    <linearGradient
       inkscape:collect="always"
       xlink:href="#linearGradient3772"
       id="linearGradient4023"
       gradientUnits="userSpaceOnUse"
       x1="25.186865"
       y1="1012.0792"
       x2="30.276894"
       y2="1015.2991" />
    <linearGradient
       inkscape:collect="always"
       xlink:href="#linearGradient3772"
       id="linearGradient4025"
       gradientUnits="userSpaceOnUse"
       gradientTransform="translate(-39.262149,11.444594)"
       x1="75.127792"
       y1="999.01636"
       x2="68.824013"
       y2="1001.667" />
    <linearGradient
       inkscape:collect="always"
       xlink:href="#linearGradient3822"
       id="linearGradient4027"
       gradientUnits="userSpaceOnUse"
       gradientTransform="translate(-0.13392858,0.13392858)"
       x1="28.617702"
       y1="1011.9861"
       x2="32.4375"
       y2="1017.081" />
    <linearGradient
       inkscape:collect="always"
       xlink:href="#linearGradient3804"
       id="linearGradient4029"
       gradientUnits="userSpaceOnUse"
       x1="28.617702"
       y1="1011.9861"
       x2="32.4375"
       y2="1017.081" />
    <linearGradient
       inkscape:collect="always"
       xlink:href="#linearGradient3738"
       id="linearGradient4031"
       gradientUnits="userSpaceOnUse"
       x1="38.4375"
       y1="42.46796"
       x2="38.4375"
       y2="48.978466" />
    <linearGradient
       inkscape:collect="always"
       xlink:href="#linearGradient3614"
       id="linearGradient4033"
       gradientUnits="userSpaceOnUse"
       gradientTransform="matrix(0.62736208,-0.62736208,0.70710678,0.70710678,-783.00879,292.36108)"
       x1="14.443695"
       y1="1018.1508"
       x2="19.015695"
       y2="1018.1508" />
    <linearGradient
       inkscape:collect="always"
       xlink:href="#linearGradient3668"
       id="linearGradient4035"
       gradientUnits="userSpaceOnUse"
       gradientTransform="matrix(0.70710678,-0.70710678,0.70710678,0.70710678,-784.34289,293.69518)"
       x1="12.979694"
       y1="1045.5385"
       x2="20.479694"
       y2="1045.5385" />
    <linearGradient
       inkscape:collect="always"
       xlink:href="#linearGradient3730"
       id="linearGradient4037"
       gradientUnits="userSpaceOnUse"
       gradientTransform="matrix(0.70710678,-0.70710678,0.70710678,0.70710678,-784.34289,293.69518)"
       x1="12.979694"
       y1="1045.5385"
       x2="20.479694"
       y2="1045.5385" />
    <linearGradient
       inkscape:collect="always"
       xlink:href="#linearGradient3682"
       id="linearGradient4039"
       gradientUnits="userSpaceOnUse"
       gradientTransform="translate(-762.28803,-346.94032)"
       x1="13.973214"
       y1="1049.6167"
       x2="15.803571"
       y2="1049.6167" />
    <linearGradient
       inkscape:collect="always"
       xlink:href="#linearGradient3704"
       id="linearGradient4041"
       gradientUnits="userSpaceOnUse"
       gradientTransform="translate(-758.4666,-346.94032)"
       x1="13.973214"
       y1="1049.6167"
       x2="15.803571"
       y2="1049.6167" />
    <linearGradient
       inkscape:collect="always"
       xlink:href="#linearGradient3634"
       id="linearGradient4043"
       gradientUnits="userSpaceOnUse"
       gradientTransform="matrix(0.55901126,-0.55901126,0.66175373,0.66175373,-736.4706,336.61229)"
       x1="16.729694"
       y1="1000.1935"
       x2="16.729694"
       y2="1007.9633" />
    <radialGradient
       inkscape:collect="always"
       xlink:href="#linearGradient3788"
       id="radialGradient4045"
       gradientUnits="userSpaceOnUse"
       gradientTransform="matrix(-0.59679792,0.59679834,-0.248035,-0.24803483,226.93251,1261.3425)"
       cx="16.729694"
       cy="1033.7007"
       fx="16.729694"
       fy="1033.7007"
       r="3.75" />
    <linearGradient
       inkscape:collect="always"
       xlink:href="#linearGradient3730"
       id="linearGradient4047"
       gradientUnits="userSpaceOnUse"
       gradientTransform="matrix(0.70710678,-0.70710678,0.70710678,0.70710678,-784.34289,293.69518)"
       x1="12.979694"
       y1="1035.3344"
       x2="20.479694"
       y2="1035.3344" />
    <linearGradient
       inkscape:collect="always"
       xlink:href="#linearGradient3804"
       id="linearGradient4051"
       gradientUnits="userSpaceOnUse"
       x1="28.617702"
       y1="1011.9861"
       x2="32.4375"
       y2="1017.081"
       gradientTransform="matrix(0.70710678,0.70710678,-0.70710678,0.70710678,682.07834,306.0152)" />
    <linearGradient
       inkscape:collect="always"
       xlink:href="#linearGradient3822"
       id="linearGradient4055"
       gradientUnits="userSpaceOnUse"
       gradientTransform="matrix(0.70710678,0.70710678,-0.70710678,0.70710678,681.88894,306.0152)"
       x1="28.617702"
       y1="1011.9861"
       x2="32.4375"
       y2="1017.081" />
    <linearGradient
       inkscape:collect="always"
       xlink:href="#linearGradient3772"
       id="linearGradient4058"
       gradientUnits="userSpaceOnUse"
       gradientTransform="matrix(0.70710678,0.70710678,-0.70710678,0.70710678,646.22326,286.34522)"
       x1="75.127792"
       y1="999.01636"
       x2="68.824013"
       y2="1001.667" />
    <linearGradient
       inkscape:collect="always"
       xlink:href="#linearGradient3772"
       id="linearGradient4061"
       gradientUnits="userSpaceOnUse"
       x1="25.186865"
       y1="1012.0792"
       x2="30.276894"
       y2="1015.2991"
       gradientTransform="matrix(0.70710678,0.70710678,-0.70710678,0.70710678,682.07834,306.0152)" />
    <linearGradient
       inkscape:collect="always"
       xlink:href="#linearGradient3845"
       id="linearGradient4076"
       gradientUnits="userSpaceOnUse"
       gradientTransform="matrix(0.70710678,0.70710678,-0.70710678,0.70710678,646.21793,286.31723)"
       x1="72.78125"
       y1="1013.2798"
       x2="65.12587"
       y2="1009.4286" />
    <linearGradient
       inkscape:collect="always"
       xlink:href="#linearGradient3721"
       id="linearGradient4079"
       gradientUnits="userSpaceOnUse"
       gradientTransform="matrix(0.70710678,0.70710678,-0.70710678,0.70710678,646.22326,286.34522)"
       x1="54.230263"
       y1="1002.3824"
       x2="72.793266"
       y2="1008.0967" />
    <linearGradient
       inkscape:collect="always"
       xlink:href="#linearGradient3705"
       id="linearGradient4082"
       gradientUnits="userSpaceOnUse"
       gradientTransform="matrix(0.70710678,0.70710678,-0.70710678,0.70710678,646.21793,-718.04497)"
       x1="58.962406"
       y1="1023.2551"
       x2="67.859726"
       y2="1023.2551" />
    <linearGradient
       inkscape:collect="always"
       xlink:href="#linearGradient3730"
       id="linearGradient4086"
       gradientUnits="userSpaceOnUse"
       gradientTransform="matrix(0.70710678,-0.70710678,0.70710678,0.70710678,-771.32985,337.77298)"
       x1="12.979694"
       y1="1035.3344"
       x2="20.479694"
       y2="1035.3344" />
    <radialGradient
       inkscape:collect="always"
       xlink:href="#linearGradient3788"
       id="radialGradient4089"
       gradientUnits="userSpaceOnUse"
       gradientTransform="matrix(-0.59679792,0.59679834,-0.248035,-0.24803483,239.94555,1305.4203)"
       cx="16.729694"
       cy="1033.7007"
       fx="16.729694"
       fy="1033.7007"
       r="3.75" />
    <linearGradient
       inkscape:collect="always"
       xlink:href="#linearGradient3634"
       id="linearGradient4092"
       gradientUnits="userSpaceOnUse"
       gradientTransform="matrix(0.55901126,-0.55901126,0.66175373,0.66175373,-723.45756,380.69009)"
       x1="16.729694"
       y1="1000.1935"
       x2="16.729694"
       y2="1007.9633" />
    <linearGradient
       inkscape:collect="always"
       xlink:href="#linearGradient3704"
       id="linearGradient4095"
       gradientUnits="userSpaceOnUse"
       gradientTransform="translate(-780.4327,-306.571)"
       x1="13.973214"
       y1="1049.6167"
       x2="15.803571"
       y2="1049.6167" />
    <linearGradient
       inkscape:collect="always"
       xlink:href="#linearGradient3682"
       id="linearGradient4098"
       gradientUnits="userSpaceOnUse"
       gradientTransform="translate(-784.25413,-306.571)"
       x1="13.973214"
       y1="1049.6167"
       x2="15.803571"
       y2="1049.6167" />
    <linearGradient
       inkscape:collect="always"
       xlink:href="#linearGradient3730"
       id="linearGradient4101"
       gradientUnits="userSpaceOnUse"
       gradientTransform="matrix(0.70710678,-0.70710678,0.70710678,0.70710678,-771.32985,337.77298)"
       x1="12.979694"
       y1="1045.5385"
       x2="20.479694"
       y2="1045.5385" />
    <linearGradient
       inkscape:collect="always"
       xlink:href="#linearGradient3668"
       id="linearGradient4104"
       gradientUnits="userSpaceOnUse"
       gradientTransform="matrix(0.70710678,-0.70710678,0.70710678,0.70710678,-771.32985,337.77298)"
       x1="12.979694"
       y1="1045.5385"
       x2="20.479694"
       y2="1045.5385" />
    <linearGradient
       inkscape:collect="always"
       xlink:href="#linearGradient3614"
       id="linearGradient4107"
       gradientUnits="userSpaceOnUse"
       gradientTransform="matrix(0.62736208,-0.62736208,0.70710678,0.70710678,-769.99575,336.43888)"
       x1="14.443695"
       y1="1018.1508"
       x2="19.015695"
       y2="1018.1508" />
    <linearGradient
       inkscape:collect="always"
       xlink:href="#linearGradient3676"
       id="linearGradient4109"
       gradientUnits="userSpaceOnUse"
       gradientTransform="translate(25.078477,-3.6760333)"
       x1="36.695298"
       y1="1030.7966"
       x2="41.465527"
       y2="1030.7966" />
    <linearGradient
       inkscape:collect="always"
       xlink:href="#linearGradient3676"
       id="linearGradient4112"
       gradientUnits="userSpaceOnUse"
       gradientTransform="matrix(0.70710678,0.70710678,-0.70710678,0.70710678,666.55044,301.45104)"
       x1="36.695298"
       y1="1030.7966"
       x2="41.465527"
       y2="1030.7966" />
    <linearGradient
       inkscape:collect="always"
       xlink:href="#linearGradient3812"
       id="linearGradient4116"
       gradientUnits="userSpaceOnUse"
       x1="63.57143"
       y1="1006.5033"
       x2="63.57143"
       y2="1010.7657" />
    <linearGradient
       inkscape:collect="always"
       xlink:href="#linearGradient3755"
       id="linearGradient4118"
       gradientUnits="userSpaceOnUse"
       x1="63.571426"
       y1="1007.1501"
       x2="63.571426"
       y2="1010.1188" />
    <linearGradient
       inkscape:collect="always"
       xlink:href="#linearGradient3777"
       id="linearGradient4120"
       gradientUnits="userSpaceOnUse"
       gradientTransform="translate(259.12667,-50.36259)"
       x1="61.618301"
       y1="1006.8152"
       x2="61.618301"
       y2="1010.4536" />
    <linearGradient
       inkscape:collect="always"
       xlink:href="#linearGradient3777"
       id="linearGradient4122"
       gradientUnits="userSpaceOnUse"
       gradientTransform="translate(261.05852,-50.880228)"
       x1="61.618301"
       y1="1006.8152"
       x2="61.618301"
       y2="1010.4536" />
    <linearGradient
       inkscape:collect="always"
       xlink:href="#linearGradient3777"
       id="linearGradient4124"
       gradientUnits="userSpaceOnUse"
       gradientTransform="translate(260.10988,-50.62604)"
       x1="61.618301"
       y1="1006.8152"
       x2="61.618301"
       y2="1010.4536" />
    <linearGradient
       inkscape:collect="always"
       xlink:href="#linearGradient3777"
       id="linearGradient4126"
       gradientUnits="userSpaceOnUse"
       gradientTransform="translate(262.04173,-51.143678)"
       x1="61.618301"
       y1="1006.8152"
       x2="61.618301"
       y2="1010.4536" />
    <linearGradient
       inkscape:collect="always"
       xlink:href="#linearGradient3777"
       id="linearGradient4128"
       gradientUnits="userSpaceOnUse"
       gradientTransform="translate(263.0465,-51.412905)"
       x1="61.618301"
       y1="1006.8152"
       x2="61.618301"
       y2="1010.4536" />
    <linearGradient
       inkscape:collect="always"
       xlink:href="#linearGradient3777"
       id="linearGradient4131"
       gradientUnits="userSpaceOnUse"
       gradientTransform="matrix(0.32109148,0.94704819,-0.94704819,0.32109148,914.66574,664.161)"
       x1="61.618301"
       y1="1006.8152"
       x2="61.618301"
       y2="1010.4536" />
    <linearGradient
       inkscape:collect="always"
       xlink:href="#linearGradient3777"
       id="linearGradient4134"
       gradientUnits="userSpaceOnUse"
       gradientTransform="translate(921.67907,-652.70686)"
       x1="61.618301"
       y1="1006.8152"
       x2="61.618301"
       y2="1010.4536" />
    <linearGradient
       inkscape:collect="always"
       xlink:href="#linearGradient3777"
       id="linearGradient4137"
       gradientUnits="userSpaceOnUse"
       gradientTransform="translate(919.74722,-652.18923)"
       x1="61.618301"
       y1="1006.8152"
       x2="61.618301"
       y2="1010.4536" />
    <linearGradient
       inkscape:collect="always"
       xlink:href="#linearGradient3777"
       id="linearGradient4140"
       gradientUnits="userSpaceOnUse"
       gradientTransform="translate(920.69586,-652.44341)"
       x1="61.618301"
       y1="1006.8152"
       x2="61.618301"
       y2="1010.4536" />
    <linearGradient
       inkscape:collect="always"
       xlink:href="#linearGradient3777"
       id="linearGradient4143"
       gradientUnits="userSpaceOnUse"
       gradientTransform="translate(918.76401,-651.92578)"
       x1="61.618301"
       y1="1006.8152"
       x2="61.618301"
       y2="1010.4536" />
    <linearGradient
       inkscape:collect="always"
       xlink:href="#linearGradient3755"
       id="linearGradient4146"
       gradientUnits="userSpaceOnUse"
       x1="63.571426"
       y1="1007.1501"
       x2="63.571426"
       y2="1010.1188"
       gradientTransform="translate(792.85675,-410.33871)" />
    <linearGradient
       inkscape:collect="always"
       xlink:href="#linearGradient3812"
       id="linearGradient4149"
       gradientUnits="userSpaceOnUse"
       x1="63.57143"
       y1="1006.5033"
       x2="63.57143"
       y2="1010.7657"
       gradientTransform="translate(792.85675,-410.33871)" />
    <linearGradient
       inkscape:collect="always"
       xlink:href="#linearGradient3614"
       id="linearGradient4151"
       gradientUnits="userSpaceOnUse"
       gradientTransform="matrix(0.62736208,-0.62736208,0.70710678,0.70710678,-769.99575,-667.92332)"
       x1="14.443695"
       y1="1018.1508"
       x2="19.015695"
       y2="1018.1508" />
  </defs>
  <sodipodi:namedview
     id="base"
     pagecolor="#ffffff"
     bordercolor="#666666"
     borderopacity="1.0"
     inkscape:pageopacity="0.0"
     inkscape:pageshadow="2"
     inkscape:zoom="5.6568545"
     inkscape:cx="13.03051"
     inkscape:cy="24.063181"
     inkscape:document-units="px"
     inkscape:current-layer="layer1"
     showgrid="false"
     inkscape:window-width="1280"
     inkscape:window-height="747"
     inkscape:window-x="0"
     inkscape:window-y="0"
     inkscape:window-maximized="1">
    <inkscape:grid
       type="xygrid"
       id="grid3850"
       empspacing="5"
       visible="true"
       enabled="true"
       snapvisiblegridlinesonly="true" />
  </sodipodi:namedview>
  <metadata
     id="metadata7">
    <rdf:RDF>
      <cc:Work
         rdf:about="">
        <dc:format>image/svg+xml</dc:format>
        <dc:type
           rdf:resource="http://purl.org/dc/dcmitype/StillImage" />
        <dc:title></dc:title>
      </cc:Work>
    </rdf:RDF>
  </metadata>
  <g
     inkscape:label="Capa 1"
     inkscape:groupmode="layer"
     id="layer1"
     transform="translate(0,-1004.3622)">
    <rect
       style="fill:url(#linearGradient3801);fill-opacity:1;stroke:none"
       id="rect2991"
       width="48"
       height="48"
       x="0"
       y="1004.3622"
       ry="1.9445436" />
    <g
       id="g3651"
       transform="translate(0.40031275,-1.4609674)">
      <path
         style="fill:none;stroke:#ffffff;stroke-width:2.54159236;stroke-miterlimit:4;stroke-dasharray:none"
         d="m 23.019559,1017.7388 c -5.960683,0.3238 -10.704347,5.6209 -10.704347,12.0892 0,6.6769 5.054006,12.0892 11.284478,12.0892 6.230472,0 11.284478,-5.4123 11.284478,-12.0892 0,-6.6769 -5.054006,-12.0892 -11.284478,-12.0892 -0.1947,0 -0.387851,-0.01 -0.580131,0 z"
         id="path4518"
         inkscape:connector-curvature="0" />
      <path
         style="fill:#ffffff;fill-opacity:1;stroke:none"
         d="m 21.997496,1014.808 3.204394,0 c 0.182314,0 0.329084,0.2832 0.329084,0.6352 l 0,1.9374 c 0,0.3519 -0.14677,0.6352 -0.329084,0.6352 l -3.204394,0 c -0.182314,0 -0.329085,-0.2833 -0.329085,-0.6352 l 0,-1.9374 c 0,-0.352 0.146771,-0.6352 0.329085,-0.6352 z"
         id="rect4522"
         inkscape:connector-curvature="0" />
      <path
         style="fill:#ffffff;fill-opacity:1;stroke:none"
         d="m 21.997496,1041.6305 3.204394,0 c 0.182314,0 0.329084,0.2833 0.329084,0.6352 l 0,1.9373 c 0,0.352 -0.14677,0.6353 -0.329084,0.6353 l -3.204394,0 c -0.182314,0 -0.329085,-0.2833 -0.329085,-0.6353 l 0,-1.9373 c 0,-0.3519 0.146771,-0.6352 0.329085,-0.6352 z"
         id="rect4524"
         inkscape:connector-curvature="0" />
      <path
         transform="matrix(0.95906675,0,0,0.95906675,-147.23407,1006.5684)"
         d="m 180.875,24.25 c 0,1.518783 -1.23122,2.75 -2.75,2.75 -1.51878,0 -2.75,-1.231217 -2.75,-2.75 0,-1.518783 1.23122,-2.75 2.75,-2.75 1.51878,0 2.75,1.231217 2.75,2.75 z"
         sodipodi:ry="2.75"
         sodipodi:rx="2.75"
         sodipodi:cy="24.25"
         sodipodi:cx="178.125"
         id="path4548"
         style="fill:#ffffff;stroke:none"
         sodipodi:type="arc" />
      <path
         inkscape:connector-curvature="0"
         id="path4596"
         d="m 37.81446,1028.1577 0,3.336 c 0,0.1899 -0.283273,0.3428 -0.635244,0.3428 l -1.937375,0 c -0.351856,0 -0.635186,-0.1529 -0.635186,-0.3428 l 0,-3.336 c 0,-0.1899 0.28333,-0.3427 0.635186,-0.3427 l 1.937375,0 c 0.351971,0 0.635244,0.1528 0.635244,0.3427 z"
         style="fill:#ffffff;fill-opacity:1;stroke:none" />
      <path
         inkscape:connector-curvature="0"
         id="path4598"
         d="m 12.592719,1028.1577 0,3.336 c 0,0.1899 -0.283329,0.3428 -0.635186,0.3428 l -1.937375,0 c -0.351914,0 -0.6352435,-0.1529 -0.6352435,-0.3428 l 0,-3.336 c 0,-0.1899 0.2833352,-0.3427 0.6352435,-0.3427 l 1.937375,0 c 0.351857,0 0.635186,0.1528 0.635186,0.3427 z"
         style="fill:#ffffff;fill-opacity:1;stroke:none" />
      <path
         inkscape:connector-curvature="0"
         id="path4654"
         d="m 33.084081,1018.0729 2.265848,2.2658 c 0.128916,0.129 0.03239,0.4331 -0.216487,0.6819 l -1.369931,1.37 c -0.2488,0.2488 -0.552927,0.3453 -0.681842,0.2164 l -2.265849,-2.2658 c -0.128915,-0.129 -0.03235,-0.4331 0.216447,-0.6819 l 1.369931,-1.3699 c 0.248881,-0.2489 0.552967,-0.3454 0.681883,-0.2165 z"
         style="fill:#ffffff;fill-opacity:1;stroke:none" />
      <path
         inkscape:connector-curvature="0"
         id="path4656"
         d="m 14.117704,1037.0393 2.265849,2.2658 c 0.128915,0.1289 0.03235,0.4331 -0.216447,0.6819 l -1.369931,1.3699 c -0.248841,0.2488 -0.552967,0.3454 -0.681883,0.2165 l -2.265848,-2.2659 c -0.128916,-0.1289 -0.03235,-0.433 0.216487,-0.6818 l 1.369931,-1.37 c 0.2488,-0.2488 0.552927,-0.3453 0.681842,-0.2164 z"
         style="fill:#ffffff;fill-opacity:1;stroke:none" />
      <path
         style="fill:#ffffff;fill-opacity:1;stroke:none"
         d="m 35.349929,1039.3075 -2.265848,2.2658 c -0.128916,0.1289 -0.433002,0.032 -0.681883,-0.2165 l -1.369931,-1.3699 c -0.2488,-0.2488 -0.345362,-0.5529 -0.216447,-0.6819 l 2.265849,-2.2658 c 0.128915,-0.1289 0.433042,-0.032 0.681842,0.2164 l 1.369931,1.37 c 0.248881,0.2488 0.345403,0.5529 0.216487,0.6819 z"
         id="path4660"
         inkscape:connector-curvature="0" />
      <path
         style="fill:#ffffff;fill-opacity:1;stroke:none"
         d="m 16.383553,1020.3411 -2.265849,2.2658 c -0.128915,0.1289 -0.433042,0.032 -0.681842,-0.2164 l -1.369931,-1.37 c -0.248841,-0.2488 -0.345403,-0.5529 -0.216487,-0.6818 l 2.265848,-2.2659 c 0.128916,-0.1289 0.433042,-0.032 0.681883,0.2165 l 1.369931,1.3699 c 0.2488,0.2488 0.345362,0.553 0.216447,0.6819 z"
         id="path4662"
         inkscape:connector-curvature="0" />
    </g>
    <path
       style="fill:#ffffff;stroke:none;fill-opacity:1;opacity:0.15"
       d="M 0 0 L 0 48 L 16.78125 48 L 29.625 0 L 0 0 z "
       transform="translate(0,1004.3622)"
       id="rect3790" />
  </g>
</svg>
